Name,Country,WeightClassKg,Best3SquatKg,Best3BenchKg,Best3DeadliftKg,TotalKg,Sex,Division,Event,Equipment,Place
David Kent,Australia,67.5,222.5,130,192.5,545,M,Open,SBD,Single-ply,1
Norman Tepa Sr,New Zealand,67.5,205,105,222.5,532.5,M,Open,SBD,Single-ply,2
Nghiep Luu,Australia,67.5,182.5,95,243,520,M,Open,SBD,Single-ply,3
Brent Clapperton,New Zealand,75,230,135,230,595,M,Open,SBD,Single-ply,1
Ian Wickens,New Zealand,75,255,120,210,585,M,Open,SBD,Single-ply,2
Andrew Oakley,Australia,75,205,132.5,210,547.5,M,Open,SBD,Single-ply,3
Stephen King,New Zealand,82.5,245,130,272.5,647.5,M,Open,SBD,Single-ply,1
Noel Frank,New Zealand,82.5,225,170,252.5,647.5,M,Open,SBD,Single-ply,2
Stephen Moszko,Australia,82.5,245,140,257.5,642.5,M,Open,SBD,Single-ply,3
Vince Simonetta,Australia,90,255,130,300,685,M,Open,SBD,Single-ply,1
Martin Potaka,New Zealand,90,260,175,235,670,M,Open,SBD,Single-ply,2
Steven Nas,New Zealand,90,247.5,147.5,257.5,652.5,M,Open,SBD,Single-ply,3
Steve Lousich,New Zealand,100,290,200,250,740,M,Open,SBD,Single-ply,1
Fraser Young,Australia,100,290,170,245,705,M,Open,SBD,Single-ply,2
Tiri Rangihuna,New Zealand,100,280,160,250,690,M,Open,SBD,Single-ply,3
Gad Jore,Nauru,100,240,150,240,630,M,Open,SBD,Single-ply,4
Roy Harris,Nauru,100,230,120,,,M,Open,SBD,Single-ply,DQ
Derek Pomana,New Zealand,110,325,215,350,890,M,Open,SBD,Single-ply,1
Jeziel Jeremiah,Nauru,110,310,200,260,770,M,Open,SBD,Single-ply,2
Russell Kun,Nauru,110,320,190,230,740,M,Open,SBD,Single-ply,3
Kevin Conway,Australia,110,230,165,285,680,M,Open,SBD,Single-ply,4
Andrew Logan,Australia,110,317.5,,,,M,Open,SBD,Single-ply,DQ
Wayne Pomana,New Zealand,125,350,210,280,840,M,Open,SBD,Single-ply,1
Harjinder Kumar,Australia,125,305,190,250,745,M,Open,SBD,Single-ply,2
Peter Smith,Australia,125,287.5,160,287.5,735,M,Open,SBD,Single-ply,3
Atago Dabwido,Nauru,125,300,195,235,730,M,Open,SBD,Single-ply,4
Feihakitan Fanua,Tonga,125,240,180,260,680,M,Open,SBD,Single-ply,5
Riddell Akua,Nauru,125+,335,205,275,815,M,Open,SBD,Single-ply,1
Pouri Rakete-Stone,New Zealand,125+,340,180,270,790,M,Open,SBD,Single-ply,2
Bosco Adam,Nauru,125+,285,165,200,650,M,Open,SBD,Single-ply,3
Luna Toutai,Tonga,125+,190,,,,M,Open,SBD,Single-ply,DQ
Melenie Lecren,New Zealand,52,142.5,,,,F,Open,SBD,Single-ply,DQ
Jeannette Gevers,Australia,56,130,65,140,335,F,Open,SBD,Single-ply,1
Eva Richards,Australia,56,105,55,100,260,F,Open,SBD,Single-ply,2
Ingrid Cullen,Australia,60,137.5,60,160,357.5,F,Open,SBD,Single-ply,1
Anne Mort,Australia,67.5,155,87.5,160,402.5,F,Open,SBD,Single-ply,1
Bev Smith,Australia,67.5,135,70,175,380,F,Open,SBD,Single-ply,2
Sherri McMahon,Australia,75,145,80,140,365,F,Open,SBD,Single-ply,1
Sherri Wallis,New Zealand,75,120,77.5,145,342.5,F,Open,SBD,Single-ply,2
Julie Deakin,Australia,82.5,162.5,72.5,185,420,F,Open,SBD,Single-ply,1
Donna Jaensch,Australia,82.5,117.5,65,175,357.5,F,Open,SBD,Single-ply,2
Katrina Robertson,Australia,90+,240,127.5,242.5,610,F,Open,SBD,Single-ply,1
June Johnson,New Zealand,90+,160,90,185,435,F,Open,SBD,Single-ply,2
Steve Thompson,New Zealand,60,175,110,180,465,M,Juniors,SBD,Single-ply,1
Daniel Thomas,Australia,60,145,85,200,430,M,Juniors,SBD,Single-ply,2
Mark Lusty,New Zealand,75,200,105,220,525,M,Juniors,SBD,Single-ply,1
Terry Hunter,Australia,75,182.5,120,210,512.5,M,Juniors,SBD,Single-ply,2
Alan Mehaljevic,Australia,100,235,130,270.5,635,M,Juniors,SBD,Single-ply,1
Phillip Rowden,New Zealand,100,,,,,M,Juniors,SBD,Single-ply,DQ
Romera Akua,Nauru,110,260,190,200,650,M,Juniors,SBD,Single-ply,1
Chris Kepae,Nauru,125,265,165,235,665,M,Juniors,SBD,Single-ply,1
Rex Tait,New Zealand,82.5,185,102.5,212.5,500,M,Masters 1,SBD,Single-ply,1
Richard Spiteri,Australia,90,207.5,120,235,562.5,M,Masters 1,SBD,Single-ply,1
John Mort,Australia,100,220,157.5,258,635,M,Masters 1,SBD,Single-ply,1
Warwick Harrison,New Zealand,110,215,150,250,615,M,Masters 1,SBD,Single-ply,1
William Pakoti,New Zealand,110,215,140,210,565,M,Masters 1,SBD,Single-ply,2
Dan Lee,Australia,110,190,137.5,222.5,550,M,Masters 1,SBD,Single-ply,3
Victor Burt,Australia,110,185,95,230,510,M,Masters 1,SBD,Single-ply,4
Phil Townley Sr,New Zealand,125,225,140,215,580,M,Masters 1,SBD,Single-ply,1
William Tau,New Zealand,125+,290,185,250,725,M,Masters 1,SBD,Single-ply,1
Max Bristow,Australia,67.5,172.5,110,220,502.5,M,Masters 2,SBD,Single-ply,1
Tony Thomas,New Zealand,75,180,115,180,475,M,Masters 2,SBD,Single-ply,1
Ron Prestage,New Zealand,75,160,105,190,455,M,Masters 2,SBD,Single-ply,2
Gordon Fletcher,New Zealand,100,230,110,240,580,M,Masters 2,SBD,Single-ply,1
Peter Tuisano,New Zealand,125,240,170,240,650,M,Masters 2,SBD,Single-ply,1
Peter Cook,Australia,110,150,105,215.5,470.5,M,Masters 3,SBD,Single-ply,1
