Division,WeightClassKg,Place,Name,Team,BodyweightKg,Best3SquatKg,Best3BenchKg,Best3DeadliftKg,TotalKg,Equipment,Event,Sex
Boys,51.71,1,Marcus Rocha,El Maton Tidehaven,51.71,149.69,70.31,172.37,392.36,Single-ply,SBD,M
Boys,51.71,2,Dean Lewis,La Vernia,51.71,142.88,86.18,161.03,390.09,Single-ply,SBD,M
Boys,51.71,3,Richie Villa,Bloomington,50.8,117.93,90.72,136.08,344.73,Single-ply,SBD,M
Boys,51.71,4,Jordan Glueck,Columbus,50.8,129.27,63.5,142.88,335.66,Single-ply,SBD,M
Boys,51.71,5,Doug McCoy,Giddings,50.35,120.2,63.5,117.93,301.64,Single-ply,SBD,M
Boys,51.71,6,Jesse Jaramillo,Smithville,51.71,111.13,58.97,117.93,288.03,Single-ply,SBD,M
Boys,51.71,7,Mario Belman,East Bernard,51.71,83.91,47.63,86.18,217.72,Single-ply,SBD,M
Boys,51.71,DQ,Garret Martin,Wallis Brazos,51.71,,,,,Single-ply,SBD,M
Boys,55.79,1,Moses Martinez,Columbus,53.98,158.76,102.06,170.1,430.91,Single-ply,SBD,M
Boys,55.79,2,Brice LaMach,Van Vleck,55.79,151.95,79.38,138.35,369.68,Single-ply,SBD,M
Boys,55.79,3,Tony Sanchez,Giddings,54.88,140.61,72.57,145.15,358.34,Single-ply,SBD,M
Boys,55.79,4,Ruben Rivera,El Campo,54.88,120.2,79.38,151.95,351.53,Single-ply,SBD,M
Boys,55.79,5,Matt Delgado,Columbus,54.88,113.4,74.84,136.08,324.32,Single-ply,SBD,M
Boys,55.79,6,Michael Hernandez,East Bernard,54.43,104.33,65.77,136.08,306.17,Single-ply,SBD,M
Boys,55.79,7,Daniel Johnston,East Bernard,53.07,106.59,52.16,92.99,251.74,Single-ply,SBD,M
Boys,55.79,8,Jackson Stewart,La Vernia,51.98,83.91,58.97,106.59,249.48,Single-ply,SBD,M
Boys,55.79,DQ,Jerry Carrascoza,El Campo,55.79,,,,,Single-ply,SBD,M
Boys,55.79,DQ,Chris Mejias,Bay City,55.79,,,,,Single-ply,SBD,M
Boys,55.79,DQ,John DelaRosa,Bay City,55.79,,,,,Single-ply,SBD,M
Boys,59.87,1,Ubaldo Guzman,Weimar,59.42,163.29,90.72,174.63,428.64,Single-ply,SBD,M
Boys,59.87,2,Jay Robles,Van Vleck,59.87,163.29,86.18,176.9,426.38,Single-ply,SBD,M
Boys,59.87,3,Jonathan Hardaway,Edna,57.15,158.76,102.06,163.29,424.11,Single-ply,SBD,M
Boys,59.87,4,Garrett Rios,Columbus,56.7,140.61,102.06,147.42,390.09,Single-ply,SBD,M
Boys,59.87,5,Lance Howard,Altair Rice,59.87,149.69,83.91,147.42,381.02,Single-ply,SBD,M
Boys,59.87,6,Kristian Grifaldo,Edna,57.15,156.49,77.11,138.35,371.95,Single-ply,SBD,M
Boys,59.87,7,Lorenzo Flores,La Vernia,57.15,122.47,86.18,158.76,367.41,Single-ply,SBD,M
Boys,59.87,8,Josh Korenek,Altair Rice,59.87,129.27,83.91,142.88,356.07,Single-ply,SBD,M
Boys,59.87,9,Valentin Yences,Brookshire Royal,58.97,124.74,79.38,129.27,333.39,Single-ply,SBD,M
Boys,59.87,10,Edder Ramirez,Brookshire Royal,59.87,127.01,61.23,138.35,326.59,Single-ply,SBD,M
Boys,59.87,DQ,Courtland Taylor,Bay City,59.87,,,,,Single-ply,SBD,M
Boys,59.87,DQ,Waylon Jackson,Bay City,59.87,,,,,Single-ply,SBD,M
Boys,59.87,DQ,Jeremy Johnson,Edna,59.87,,,,,Single-ply,SBD,M
Boys,59.87,DQ,Vinnie Maldanado,Smithville,59.87,,,,,Single-ply,SBD,M
Boys,67.13,1,Kaleb Walker,Columbus,65.32,183.7,108.86,215.46,508.02,Single-ply,SBD,M
Boys,67.13,2,Bradley Lamach,Van Vleck,66.22,192.78,88.45,192.78,474,Single-ply,SBD,M
Boys,67.13,DQ,Marcus Reed,Bastrop,67.13,,,,,Single-ply,SBD,M
Boys,67.13,4,Mark Hernandez,Van Vleck,63.5,158.76,88.45,195.04,442.25,Single-ply,SBD,M
Boys,67.13,5,Joe Flores,El Campo,63.5,158.76,117.93,163.29,439.98,Single-ply,SBD,M
Boys,67.13,6,Joseph Whitley,Altair Rice,67.13,158.76,97.52,170.1,426.38,Single-ply,SBD,M
Boys,67.13,7,Jeremy Jarrett,Edna,66.68,167.83,92.99,158.76,419.57,Single-ply,SBD,M
Boys,67.13,8,Jontrell Pratt,Altair Rice,61.69,145.15,99.79,142.88,387.82,Single-ply,SBD,M
Boys,67.13,9,David Greenwood,La Vernia,64.41,142.88,99.79,140.61,383.29,Single-ply,SBD,M
Boys,67.13,10,Justin Garza,Altair Rice,67.13,151.95,77.11,151.95,381.02,Single-ply,SBD,M
Boys,67.13,11,Billy Luster,El Maton Tidehaven,64.86,165.56,68.04,142.88,376.48,Single-ply,SBD,M
Boys,67.13,12,Tyler Garza,Boling,63.96,129.27,74.84,147.42,351.53,Single-ply,SBD,M
Boys,67.13,13,David Scott,Smithville,60.33,142.88,77.11,129.27,349.27,Single-ply,SBD,M
Boys,67.13,14,Eric Sanchez,Wallis Brazos,65.77,136.08,65.77,145.15,347,Single-ply,SBD,M
Boys,67.13,15,Ronnie Cook,Smithville,60.78,113.4,81.65,129.27,324.32,Single-ply,SBD,M
Boys,67.13,16,Andrew Peterson,Bastrop,60.33,111.13,83.91,124.74,319.78,Single-ply,SBD,M
Boys,67.13,17,Eric Guerrero,Bloomington,63.5,108.86,68.04,140.61,317.51,Single-ply,SBD,M
Boys,67.13,18,Tanner Nelson,Bastrop,60.78,120.2,54.43,117.93,292.57,Single-ply,SBD,M
Boys,67.13,19,Eric Lusten,El Maton Tidehaven,60.33,102.06,52.16,104.33,258.55,Single-ply,SBD,M
Boys,67.13,DQ,Roben Aguirre,Bloomington,67.13,,,,,Single-ply,SBD,M
Boys,67.13,DQ,Jordan Muse,Bellville,67.13,,,,,Single-ply,SBD,M
Boys,67.13,DQ,Nahuel Ross,Bellville,67.13,,,,,Single-ply,SBD,M
Boys,67.13,DQ,Leo Alfaro,Hempstead,67.13,,,,,Single-ply,SBD,M
Boys,67.13,DQ,Dylan Hancock,Smithville,67.13,,,,,Single-ply,SBD,M
Boys,67.13,DQ,Jason Thomas,Smithville,67.13,,,,,Single-ply,SBD,M
Boys,67.13,DQ,Tomas Moreno,Weimar,67.13,,,,,Single-ply,SBD,M
Boys,67.13,DQ,Jordan Chesser,Weimar,67.13,,,,,Single-ply,SBD,M
Boys,67.13,DQ,Brandon Gonzales,Bastrop,67.13,158.76,81.65,,,Single-ply,SBD,M
Boys,74.84,1,Daniel Dominguez,El Campo,73.03,238.14,154.22,235.87,628.23,Single-ply,SBD,M
Boys,74.84,2,Nathan Markiewicz,Edna,72.12,206.38,124.74,204.12,535.24,Single-ply,SBD,M
Boys,74.84,3,Brandon Becerra,Wallis Brazos,73.94,188.24,115.67,201.85,505.76,Single-ply,SBD,M
Boys,74.84,4,Tyler Sample,Edna,73.03,195.04,111.13,195.04,501.22,Single-ply,SBD,M
Boys,74.84,5,Josiah Jarmon,Weimar,72.57,183.7,104.33,190.51,478.54,Single-ply,SBD,M
Boys,74.84,6,Ryan Adams,Weimar,73.48,185.97,92.99,199.58,478.54,Single-ply,SBD,M
Boys,74.84,7,David Armendariz,La Vernia,73.94,185.97,97.52,188.24,471.74,Single-ply,SBD,M
Boys,74.84,8,James Garner,Altair Rice,74.84,181.44,102.06,176.9,460.4,Single-ply,SBD,M
Boys,74.84,9,Travis Parks,El Maton Tidehaven,72.57,170.1,95.25,188.24,453.59,Single-ply,SBD,M
Boys,74.84,10,Rey Lopez,Woodsboro,70.31,156.49,111.13,170.1,437.72,Single-ply,SBD,M
Boys,74.84,11,Mark Harris,Columbus,74.39,149.69,86.18,190.51,426.38,Single-ply,SBD,M
Boys,74.84,12,Jose Guzman,Bloomington,74.39,158.76,86.18,181.44,426.38,Single-ply,SBD,M
Boys,74.84,13,Daniel Ortiz,Weimar,74.39,154.22,95.25,172.37,421.84,Single-ply,SBD,M
Boys,74.84,14,Sean Torres,Altair Rice,74.84,156.49,79.38,174.63,410.5,Single-ply,SBD,M
Boys,74.84,15,Thomas Aguilar,Wallis Brazos,74.84,142.88,92.99,142.88,378.75,Single-ply,SBD,M
Boys,74.84,16,Alan Zapata,Brookshire Royal,73.03,142.88,74.84,151.95,369.68,Single-ply,SBD,M
Boys,74.84,17,Sean Dannels,El Maton Tidehaven,74.84,129.27,92.99,147.42,369.68,Single-ply,SBD,M
Boys,74.84,18,Brian Labay,Altair Rice,70.76,129.27,72.57,165.56,367.41,Single-ply,SBD,M
Boys,74.84,19,Terrell Hebert,Wallis Brazos,71.21,129.27,72.57,154.22,356.07,Single-ply,SBD,M
Boys,74.84,20,Teofilo Lozano,Hempstead,71.67,102.06,97.52,145.15,344.73,Single-ply,SBD,M
Boys,74.84,DQ,Alex Palomaves,Bay City,74.84,,,,,Single-ply,SBD,M
Boys,74.84,DQ,Ryan Sauceda,Bay City,74.84,,,,,Single-ply,SBD,M
Boys,74.84,DQ,Michael Mendoza,Boling,74.84,,,,,Single-ply,SBD,M
Boys,74.84,DQ,Daniel Matthews,Bellville,74.84,,,,,Single-ply,SBD,M
Boys,74.84,DQ,Wayne Foston,Van Vleck,74.84,,,,,Single-ply,SBD,M
Boys,74.84,DQ,Darrius Battles,Hempstead,74.84,,,,,Single-ply,SBD,M
Boys,74.84,DQ,Garret McKay,Smithville,74.84,,,,,Single-ply,SBD,M
Boys,74.84,DQ,Clint Campbell,Hempstead,74.84,,,,,Single-ply,SBD,M
Boys,82.1,1,Sam Bryant,Van Vleck,78.02,215.46,136.08,247.21,598.74,Single-ply,SBD,M
Boys,82.1,2,Jacob Fortier,La Vernia,80.74,217.72,133.81,219.99,571.53,Single-ply,SBD,M
Boys,82.1,3,Tyler McCoy,Giddings,77.11,224.53,138.35,201.85,564.72,Single-ply,SBD,M
Boys,82.1,4,Austin Matura,East Bernard,82.1,195.04,156.49,210.92,562.45,Single-ply,SBD,M
Boys,82.1,5,Joey Portwood,Columbus,78.93,233.6,115.67,210.92,560.19,Single-ply,SBD,M
Boys,82.1,6,Alex Trujillo,Hempstead,80.29,204.12,111.13,229.06,544.31,Single-ply,SBD,M
Boys,82.1,7,Brixx Hawthorne,Weimar,81.19,190.51,113.4,238.14,542.04,Single-ply,SBD,M
Boys,82.1,8,Jovani Cabrera,Columbus,82.1,217.72,115.67,158.76,492.15,Single-ply,SBD,M
Boys,82.1,8,Yohan Fernandez,Bay City,80.74,192.78,113.4,204.12,510.29,Single-ply,SBD,M
Boys,82.1,9,Rico Hernandez,Wallis Brazos,79.38,185.97,117.93,204.12,508.02,Single-ply,SBD,M
Boys,82.1,10,Joseph Woodson,El Maton Tidehaven,82.1,185.97,102.06,206.38,494.42,Single-ply,SBD,M
Boys,82.1,11,Andy Trejo,Bellville,79.38,181.44,104.33,195.04,480.81,Single-ply,SBD,M
Boys,82.1,12,Demarcus Tillman,Altair Rice,81.19,185.97,106.59,179.17,471.74,Single-ply,SBD,M
Boys,82.1,13,Scott Payne,Columbus,75.3,170.1,99.79,188.24,458.13,Single-ply,SBD,M
Boys,82.1,14,Ahmael Johnson,Bay City,80.29,161.03,120.2,172.37,453.59,Single-ply,SBD,M
Boys,82.1,15,Michael Rios,Boling,80.74,185.97,111.13,136.08,433.18,Single-ply,SBD,M
Boys,82.1,16,Eddie Sawal,Bloomington,80.29,158.76,102.06,167.83,428.64,Single-ply,SBD,M
Boys,82.1,17,Brandon Wavar,Columbus,81.65,149.69,113.4,158.76,421.84,Single-ply,SBD,M
Boys,82.1,18,Samuel Flores,Bloomington,80.74,145.15,106.59,167.83,419.57,Single-ply,SBD,M
Boys,82.1,19,Jarome Veraon,El Maton Tidehaven,79.38,158.76,92.99,165.56,417.3,Single-ply,SBD,M
Boys,82.1,20,Eric Vinton,Bastrop,75.3,156.49,97.52,158.76,412.77,Single-ply,SBD,M
Boys,82.1,21,Abraham Sanchez,Brookshire Royal,79.83,172.37,86.18,154.22,412.77,Single-ply,SBD,M
Boys,82.1,22,Fernando Acosta,Bloomington,81.65,145.15,99.79,145.15,390.09,Single-ply,SBD,M
Boys,82.1,23,Shakora Norris,Altair Rice,78.93,142.88,79.38,163.29,385.55,Single-ply,SBD,M
Boys,82.1,24,Jett McDonald,Van Vleck,77.11,149.69,83.91,145.15,378.75,Single-ply,SBD,M
Boys,82.1,DQ,Michael Fosha,Smithville,82.1,,,,,Single-ply,SBD,M
Boys,82.1,DQ,Brandon Tomak,Bay City,82.1,,,,,Single-ply,SBD,M
Boys,82.1,DQ,Deon Hutchison,Giddings,82.1,,,,,Single-ply,SBD,M
Boys,82.1,DQ,Aaron Rodriguez,Smithville,82.1,,,,,Single-ply,SBD,M
Boys,89.81,1,Colby Wollin,Giddings,88.45,278.96,158.76,265.35,703.07,Single-ply,SBD,M
Boys,89.81,2,Gabe Segrest,East Bernard,89.36,226.8,167.83,249.48,644.1,Single-ply,SBD,M
Boys,89.81,3,Wayne Lum,Bastrop,89.36,213.19,111.13,224.53,548.85,Single-ply,SBD,M
Boys,89.81,4,Jeremy Quiroga,Van Vleck,86.18,204.12,136.08,199.58,539.77,Single-ply,SBD,M
Boys,89.81,5,Abraham Castillo,Altair Rice,87.54,217.72,113.4,206.38,537.51,Single-ply,SBD,M
Boys,89.81,6,Koley Karl,Edna,89.81,208.65,136.08,172.37,517.1,Single-ply,SBD,M
Boys,89.81,7,Zach Castillo,East Bernard,85.28,199.58,104.33,204.12,508.02,Single-ply,SBD,M
Boys,89.81,9,Kody Miller,Altair Rice,83.46,190.51,99.79,188.24,478.54,Single-ply,SBD,M
Boys,89.81,10,Anthony Aguirre,El Campo,89.81,183.7,102.06,151.95,437.72,Single-ply,SBD,M
Boys,89.81,11,Martin Ramirez,Altair Rice,89.81,149.69,92.99,181.44,424.11,Single-ply,SBD,M
Boys,89.81,12,Chris Williams,Hempstead,87.54,158.76,74.84,170.1,403.7,Single-ply,SBD,M
Boys,89.81,DQ,Logan Young,Wallis Brazos,89.81,,,,,Single-ply,SBD,M
Boys,99.79,1,Danny Machado,East Bernard,95.25,240.4,122.47,249.48,612.35,Single-ply,SBD,M
Boys,99.79,2,Zach Quiroga,Van Vleck,92.08,260.82,138.35,208.65,607.81,Single-ply,SBD,M
Boys,99.79,3,Jeremy Jackson,Bellville,92.53,204.12,140.61,231.33,576.06,Single-ply,SBD,M
Boys,99.79,4,Ricky Sanchez,Wallis Brazos,92.08,206.38,115.67,215.46,537.51,Single-ply,SBD,M
Boys,99.79,5,Tyler Rush,El Maton Tidehaven,99.34,195.04,106.59,201.85,503.49,Single-ply,SBD,M
Boys,99.79,6,Damarius Blunston,Brookshire Royal,95.71,204.12,102.06,192.78,498.95,Single-ply,SBD,M
Boys,99.79,7,Brandon Garay,Van Vleck,92.53,183.7,106.59,197.31,487.61,Single-ply,SBD,M
Boys,99.79,8,Davian Richards,Brookshire Royal,90.26,174.63,97.52,183.7,455.86,Single-ply,SBD,M
Boys,99.79,9,Ben Butler,East Bernard,98.43,165.56,113.4,170.1,449.06,Single-ply,SBD,M
Boys,99.79,10,Ron Lee,Bastrop,93.89,161.03,102.06,181.44,444.52,Single-ply,SBD,M
Boys,99.79,11,Brenton Weaver,La Vernia,91.17,172.37,102.06,163.29,437.72,Single-ply,SBD,M
Boys,99.79,12,Brian Branecky,Bastrop,95.25,181.44,79.38,142.88,403.7,Single-ply,SBD,M
Boys,99.79,13,Anthony Serio,Altair Rice,99.79,136.08,74.84,149.69,360.61,Single-ply,SBD,M
Boys,99.79,DQ,Marcos Cuevas,Brookshire Royal,99.79,,,,,Single-ply,SBD,M
Boys,99.79,DQ,Zack Roberson,Giddings,99.79,,,,,Single-ply,SBD,M
Boys,99.79,DQ,Matt Dykes,Van Vleck,99.79,,,,,Single-ply,SBD,M
Boys,99.79,DQ,Louis Herrera,La Vernia,94.8,,,,,Single-ply,SBD,M
Boys,99.79,DQ,Lucino Garcia,Hempstead,99.79,,,,,Single-ply,SBD,M
Boys,99.79,DQ,Martin Guerra,Hempstead,99.79,,,,,Single-ply,SBD,M
Boys,109.77,1,Morgan Hohle,Giddings,106.14,265.35,167.83,226.8,659.98,Single-ply,SBD,M
Boys,109.77,2,Mike Martinez,Weimar,109.77,258.55,151.95,235.87,646.37,Single-ply,SBD,M
Boys,109.77,3,Ryan Korenek,Altair Rice,106.59,226.8,115.67,185.97,528.44,Single-ply,SBD,M
Boys,109.77,4,Gustabo Sandoval,El Maton Tidehaven,100.24,204.12,106.59,201.85,512.56,Single-ply,SBD,M
Boys,109.77,5,Urias Martinez,Bastrop,107.5,195.04,117.93,190.51,503.49,Single-ply,SBD,M
Boys,109.77,6,Nick Kosic,Bastrop,102.97,172.37,108.86,183.7,464.93,Single-ply,SBD,M
Boys,109.77,7,Jonathan Turner,Bloomington,108.86,117.93,70.31,113.4,301.64,Single-ply,SBD,M
Boys,109.77,DQ,Rodney Schneider,Giddings,107.95,188.24,,,,Single-ply,SBD,M
Boys,109.77,DQ,Carrenza Watson,Hempstead,109.77,,,,,Single-ply,SBD,M
Boys,124.74,1,Brieon Brown,Smithville,117.93,326.59,181.44,272.16,780.18,Single-ply,SBD,M
Boys,124.74,2,Miles Lee,East Bernard,110.22,215.46,156.49,249.48,621.42,Single-ply,SBD,M
Boys,124.74,3,Jonovan Allen,Altair Rice,115.67,235.87,131.54,229.06,596.47,Single-ply,SBD,M
Boys,124.74,4,Tommy Kosub,La Vernia,122.47,222.26,133.81,226.8,582.87,Single-ply,SBD,M
Boys,124.74,5,Zach Tesch,Columbus,110.68,226.8,142.88,199.58,569.26,Single-ply,SBD,M
Boys,124.74,6,Eddie Casares,Giddings,122.47,233.6,108.86,226.8,569.26,Single-ply,SBD,M
Boys,124.74,7,Justin Rooks,Edna,115.21,217.72,120.2,208.65,546.58,Single-ply,SBD,M
Boys,124.74,8,Brody DeForest,El Maton Tidehaven,110.22,192.78,129.27,206.38,528.44,Single-ply,SBD,M
Boys,124.74,9,Tyler Hartman,Brookshire Royal,124.28,183.7,120.2,204.12,508.02,Single-ply,SBD,M
Boys,124.74,10,Charles Garcia,Bloomington,121.56,185.97,99.79,181.44,467.2,Single-ply,SBD,M
Boys,124.74,11,Logan Robinson,Edna,110.22,156.49,88.45,204.12,449.06,Single-ply,SBD,M
Boys,124.74,12,Louis Rangel,La Vernia,115.21,158.76,86.18,151.95,396.89,Single-ply,SBD,M
Boys,124.74,DQ,Mario Arismendez,El Campo,124.74,,,,,Single-ply,SBD,M
Boys,124.74,DQ,Will Clark,Boling,124.74,,,,,Single-ply,SBD,M
Boys,124.74+,1,Victor Buitrago,La Vernia,129.73,281.23,190.51,238.14,709.87,Single-ply,SBD,M
Boys,124.74+,2,Kenneth Sifuentes,El Campo,125.19,272.16,142.88,226.8,641.83,Single-ply,SBD,M
Boys,124.74+,3,Nick Longoria,East Bernard,126.1,244.94,145.15,208.65,598.74,Single-ply,SBD,M
Boys,124.74+,4,Nate Hobbie,Brookshire Royal,135.62,263.08,140.61,195.04,598.74,Single-ply,SBD,M
Boys,124.74+,5,Tim Varela,Bellville,132,231.33,145.15,181.44,557.92,Single-ply,SBD,M
Boys,124.74+,6,Dylan Carrillo,El Maton Tidehaven,136.08,224.53,131.54,192.78,548.85,Single-ply,SBD,M
Boys,124.74+,7,Terrance Jenkins,Smithville,140.16,201.85,117.93,181.44,501.22,Single-ply,SBD,M
Boys,124.74+,8,Austin Pando,Bastrop,165.11,197.31,111.13,183.7,492.15,Single-ply,SBD,M
Boys,124.74+,9,Derek Fiew,Edna,134.72,217.72,113.4,158.76,489.88,Single-ply,SBD,M
Boys,124.74+,DQ,Max Rosales,Edna,125.19,,,,,Single-ply,SBD,M
Boys,124.74+,DQ,Lapean Willrich,Giddings,125.19,,,,,Single-ply,SBD,M
Boys,124.74+,DQ,Johnathan Ramirez,Giddings,139.25,226.8,,,,Single-ply,SBD,M
Boys,124.74+,DQ,Alec Gilliam,Bellville,133.81,,,,,Single-ply,SBD,M
