Place,Sex,Name,Event,Division,WeightClassKg,Equipment,Team,State,BodyweightKg,Squat1Kg,Squat2Kg,Squat3Kg,Best3SquatKg,Bench1Kg,Bench2Kg,Bench3Kg,Best3BenchKg,Deadlift1Kg,Deadlift2Kg,Deadlift3Kg,Best3DeadliftKg,TotalKg,BirthYear
1,M,Josue Leon,SBD,M-Jr,59,Single-ply,,LA,58.9,215,217.5,-222.5,217.5,120,125,127.5,127.5,230,240,-255,240,585,1993
2,M,Mario Leos,SBD,M-Jr,59,Single-ply,,TX,58,187.5,195,197.5,197.5,142.5,-152.5,155,155,212.5,-222.5,-222.5,212.5,565,1992
3,M,Marcus Hernandez,SBD,M-Jr,59,Single-ply,,TX,58.7,182.5,-192.5,192.5,192.5,105,110,-117.5,110,-222.5,222.5,-230,222.5,525,1995
1,M,Charles Okpoko,SBD,M-Jr,66,Single-ply,,TX,65.9,285,-300,-300,285,185,190,195,195,240,250,252.5,252.5,732.5,1995
2,M,Jerry Alaniz,SBD,M-Jr,66,Single-ply,,TX,65.6,235,245,257.5,257.5,-175,175,182.5,182.5,217.5,230,-242.5,230,670,1995
3,M,Jeffrey Chan,SBD,M-Jr,66,Single-ply,,TX,64.7,175,-192.5,-192.5,175,85,-110,110,110,205,-215,215,215,500,1995
4,M,Bobby Teel,SBD,M-Jr,66,Single-ply,Pure,WI,65.1,-190,190,200,200,85,92.5,97.5,97.5,185,-195,200,200,497.5,1996
1,M,Alex Maher,SBD,M-Jr,74,Single-ply,,TX,73.2,-270,270,277.5,277.5,145,150,152.5,152.5,300,315,-325,315,745,1995
2,M,Joseph Francisco,SBD,M-Jr,74,Single-ply,,MD,73.3,-232.5,232.5,240,240,-145,145,-155,145,225,237.5,250,250,635,1995
DQ,M,Luis Alaniz,SBD,M-Jr,74,Single-ply,,TX,73.3,-255,-255,-255,,-170,-170,,,,,,,,1995
1,M,James Windham,SBD,M-Jr,83,Single-ply,,LA,81.8,-247.5,247.5,-255,247.5,180,190,-192.5,190,205,-215,215,215,652.5,1994
DQ,M,Jonathan Bradfield,SBD,M-Jr,83,Single-ply,,TX,79.1,265,277.5,-282.5,277.5,-192.5,-192.5,-192.5,,-317.5,-317.5,,,,1993
DQ,M,Christopher Lapniewski,SBD,M-Jr,83,Single-ply,,MS,82.2,-220,-220,-220,,147.5,155,-162.5,155,217.5,225,-232.5,225,,1993
1,M,Ian Bell,SBD,M-Jr,93,Single-ply,Titan,TX,92.3,342.5,360,372.5,372.5,210,217.5,227.5,227.5,355,372.5,-380,372.5,972.5,1992
2,M,Michael Davis,SBD,M-Jr,93,Single-ply,,TX,92.5,317.5,-327.5,-332.5,317.5,205,-217.5,-217.5,205,300,-312.5,-317.5,300,822.5,1995
3,M,David McLavey,SBD,M-Jr,93,Single-ply,,AK,92.7,245,260,-272.5,260,172.5,-180,-180,172.5,245,260,-265,260,692.5,1996
1,M,Tery Powell,SBD,M-Jr,105,Single-ply,,TX,103,310,-335,335,335,-210,210,220,220,310,325,-335,325,880,1993
2,M,Matt Cassista,SBD,M-Jr,105,Single-ply,BAY,MA,99.1,325,-335,-335,325,230,-237.5,-237.5,230,275,-295,-295,275,830,1992
3,M,Ruben Sanchez,SBD,M-Jr,105,Single-ply,,TX,104.5,265,290,-300,290,225,245,-265,245,265,285,-300,285,820,1994
4,M,Aaron Rodriguez,SBD,M-Jr,105,Single-ply,IHPC,TX,96.6,-285,285,-317.5,285,-175,175,187.5,187.5,225,-232.5,-232.5,225,697.5,1995
DQ,M,Matt Garcia,SBD,M-Jr,105,Single-ply,,TX,96.7,310,-337.5,-340,310,-225,-225,-225,,,,,,,1995
DQ,M,Johnny Villani,SBD,M-Jr,105,Single-ply,,VA,103.7,-287.5,-287.5,-287.5,,,,,,,,,,,1992
1,M,Scott Dobbins,SBD,M-Jr,120,Single-ply,Quest,TX,119.4,380,-405,405,405,275,280,-290,280,285,305,-315,305,990,1992
1,M,John Caruso,SBD,M-Jr,120+,Single-ply,,TX,130.6,310,325,-340,325,265,285,-302.5,285,275,287.5,300,300,910,1993
2,M,Adam Aleman,SBD,M-Jr,120+,Single-ply,IHPC,TX,145.7,-327.5,327.5,-355,327.5,-185,185,-192.5,185,260,265,272.5,272.5,785,1994
1,M,Nathan Walton,SBD,M-M1a,74,Single-ply,Quest,GA,73.5,260,272.5,280,280,172.5,177.5,180,180,282.5,295,-300,295,755,1976
1,M,Benjamin Rowe,SBD,M-M1a,83,Single-ply,,TX,82.4,285,-295,-295,285,185,192.5,-195,192.5,265,-275,,265,742.5,1976
2,M,Eric Cordeiro,SBD,M-M1a,83,Single-ply,BAY,MA,82.3,252.5,260,265,265,150,155,160,160,220,230,-240,230,655,1975
1,M,Dale McLaren,SBD,M-M1a,93,Single-ply,Quest,GA,92.8,297.5,307.5,-312.5,307.5,212.5,220,-227.5,220,285,295,297.5,297.5,825,1976
2,M,John Pena,SBD,M-M1a,93,Single-ply,,AZ,93,307.5,-320,325,325,197.5,207.5,-210,207.5,250,-262.5,262.5,262.5,795,1972
3,M,Luis Espino,SBD,M-M1a,93,Single-ply,,SC,87.4,-280,280,,280,190,-197.5,197.5,197.5,240,255,267.5,267.5,745,1972
DQ,M,Michael Macri,SBD,M-M1b,74,Single-ply,,NY,73.6,-215,215,227.5,227.5,-130,-130,-130,,215,232.5,240,240,,1969
1,M,Daniel Thurman,SBD,M-M1b,83,Single-ply,,NE,82.8,220,-240,-240,220,242.5,-260,-260,242.5,182.5,200,215,215,677.5,1968
2,M,Ken Bray,SBD,M-M1b,83,Single-ply,,OH,80.1,215,-232.5,237.5,237.5,120,125,-132.5,125,250,-260,-260,250,612.5,1969
DQ,M,John Dalessio,SBD,M-M1b,83,Single-ply,,NJ,82.5,252.5,-267.5,267.5,267.5,-180,-180,-180,,-247.5,,,,,1968
1,M,Ken Gack,SBD,M-M1b,105,Single-ply,Phnx,WA,104.6,300,317.5,-325,317.5,227.5,235,240,240,265,275,285,285,842.5,1970
2,M,Jason Johnson,SBD,M-M1b,105,Single-ply,Pure,WI,104.1,275,-290,290,290,-230,230,-240,230,270,282.5,287.5,287.5,807.5,1971
3,M,Alan Krockover,SBD,M-M1b,105,Single-ply,,TX,104,262.5,275,-287.5,275,172.5,187.5,192.5,192.5,240,255,-265,255,722.5,1968
1,M,Michael Skelton,SBD,M-M1b,120,Single-ply,,CO,107.5,225,250,-255,250,175,187.5,-192.5,187.5,-247.5,260,265,265,702.5,1969
1,M,Steven Davenport,SBD,M-M1b,120+,Single-ply,,NE,132.4,322.5,340,347.5,347.5,-252.5,-252.5,252.5,252.5,275,305,320,320,920,1971
2,M,Patrick Anderson,SBD,M-M1b,120+,Single-ply,,GA,133.1,320,337.5,-340,337.5,235,245,252.5,252.5,250,270,-282.5,270,860,1971
1,M,Eric Kupperstein,SBD,M-M2a,59,Single-ply,BAY,MA,58.6,220,237.5,-251,237.5,70,100,105,105,222.5,-242.5,-252.5,222.5,565,1966
1,M,Chris Boillot,SBD,M-M2a,74,Single-ply,,AZ,73.8,205,-212.5,215,215,140,145,-147.5,145,202.5,210,212.5,212.5,572.5,1963
2,M,Mark Sigala,SBD,M-M2a,74,Single-ply,,CO,72,195,205,215,215,75,95,-102.5,95,242.5,255,-265,255,565,1961
1,M,Jim Brown,SBD,M-M2a,93,Single-ply,,PA,91.3,292.5,-312.5,320,320,185,202.5,-212.5,202.5,240,262.5,-272.5,262.5,785,1965
2,M,Mark Daniel,SBD,M-M2a,93,Single-ply,,MD,90.8,-210,210,222.5,222.5,160,167.5,-172.5,167.5,210,222.5,230,230,620,1962
1,M,Tim Schepper,SBD,M-M2a,105,Single-ply,,CA,96.4,-227.5,227.5,237.5,237.5,147.5,157.5,162.5,162.5,227.5,245,250,250,650,1962
2,M,Kenneth Shettlesworth,SBD,M-M2a,105,Single-ply,,TN,102.2,162.5,-165,170,170,100,105,-112.5,105,162.5,165,-172.5,165,440,1964
1,M,Wilson Martinez,SBD,M-M2a,120,Single-ply,,NJ,112.8,-265,280,-285,280,177.5,-182.5,182.5,182.5,255,265,-272.5,265,727.5,1965
1,M,Randy Earle,SBD,M-M2a,120+,Single-ply,,TX,153.1,305,-317.5,,305,137.5,-225,225,225,260,277.5,290,290,820,1962
2,M,Steve Johnson #1,SBD,M-M2a,120+,Single-ply,,MI,127.7,100,,,100,185,197.5,-202.5,197.5,205,227.5,,227.5,525,1961
1,M,Carlos Lewis,SBD,M-M2b,74,Single-ply,,TX,73.9,165,220,-227.5,220,110,125,137.5,137.5,200,210,217.5,217.5,575,1958
1,M,Ron Garofalo,SBD,M-M2b,83,Single-ply,,CO,82.3,252.5,267.5,280,280,172.5,-182.5,-182.5,172.5,257.5,285,307.5,307.5,760,1961
2,M,Tom Cencich,SBD,M-M2b,83,Single-ply,,CO,82.8,170,185,190,190,185,193,197.5,197.5,175,185,192.5,192.5,580,1960
1,M,Dennis Smits,SBD,M-M2b,93,Single-ply,Pure,WI,92.1,235,245,255,255,145,152.5,-157.5,152.5,220,230,235,235,642.5,1959
2,M,Chuck Akers,SBD,M-M2b,93,Single-ply,Texas,TX,92.6,-215,-227.5,227.5,227.5,150,157.5,162.5,162.5,202.5,217.5,-230,217.5,607.5,1959
3,M,Ron Falcone,SBD,M-M2b,93,Single-ply,,NJ,92.2,-210,210,225,225,-147.5,150,-160,150,187.5,205,217.5,217.5,592.5,1961
1,M,Gary Pamplin,SBD,M-M2b,105,Single-ply,,TX,104,277.5,295,-317.5,295,145,182.5,-202.5,182.5,227.5,242.5,250,250,727.5,1957
2,M,Vonna Ray Baxter,SBD,M-M2b,105,Single-ply,,TX,96.4,267.5,272.5,-285,272.5,180,185,-190,185,250,262.5,-270,262.5,720,1958
3,M,John Beavers,SBD,M-M2b,105,Single-ply,,MI,104.4,-220,220,-235,220,-170,170,180,180,195,220,230,230,630,1961
1,M,Jason Julian,SBD,M-M2b,120,Single-ply,,CO,114.3,220,235,242.5,242.5,215,-222.5,222.5,222.5,220,235,242.5,242.5,707.5,1960
2,M,Sergy Shadyun,SBD,M-M2b,120,Single-ply,,CO,115.1,225,250,270,270,175,180,-185,180,200,227.5,-260,227.5,677.5,1957
3,M,Patrick McLavey,SBD,M-M2b,120,Single-ply,,AK,106.3,-205,205,-260,205,117.5,122.5,-130,122.5,205,215,-225,215,542.5,1959
1,M,Rob Keyes,SBD,M-M2b,120+,Single-ply,,WI,141.8,265,275,-285,275,220,227.5,-237.5,227.5,267.5,285,-317.5,285,787.5,1960
1,M,Paul Mears,SBD,M-M3a,66,Single-ply,BAY,MA,65.7,145,157.5,-167.5,157.5,77.5,82.5,87.5,87.5,172.5,-182.5,-182.5,172.5,417.5,1953
1,M,Bill Clayton,SBD,M-M3a,83,Single-ply,,NJ,82.4,185,195,200,200,90,-130,-137.5,90,162.5,187.5,200,200,490,1953
1,M,Gary Grahn,SBD,M-M3a,93,Single-ply,,MN,92,170,-182.5,185,185,122.5,130,135,135,170,185,190,190,510,1955
2,M,Duane Bartolet,SBD,M-M3a,93,Single-ply,Texas,TX,88.1,177.5,190,197.5,197.5,105,-110,-110,105,182.5,195,202.5,202.5,505,1953
1,M,Bruce Barry,SBD,M-M3a,105,Single-ply,,PA,101.8,260,-291,-291,260,-140,-140,140,140,-225,225,235,235,635,1952
2,M,Michael Brown,SBD,M-M3a,105,Single-ply,,TN,101,-187.5,187.5,200,200,157.5,165,170,170,187.5,197.5,200,200,570,1956
3,M,Larry Robinson,SBD,M-M3a,105,Single-ply,,SD,94.8,-152.5,165,170,170,120,125,127.5,127.5,192.5,210,215,215,512.5,1953
1,M,Ray Meyers,SBD,M-M3a,120,Single-ply,,WY,111.8,127.5,145,-157.5,145,102.5,-107.5,112.5,112.5,200,-217.5,-217.5,200,457.5,1955
1,M,Ted Stewart,SBD,M-M3a,120+,Single-ply,,NV,123.4,200,215,,215,125,127.5,,127.5,200,217.5,-220,217.5,560,1956
1,M,Alex Galant,SBD,M-M3b,59,Single-ply,,CO,52.8,100,-132.5,132.5,132.5,40,60,-67.5,60,115,137.5,145,145,337.5,1947
DQ,M,Jack Rankin,SBD,M-M3b,83,Single-ply,,WA,81.8,-182.5,-182.5,-182.5,,87.5,92.5,95,95,187.5,197.5,-202.5,197.5,,1947
1,M,Bill Sindelar,SBD,M-M3b,120,Single-ply,,NE,117.8,215,227.5,-248,227.5,105,110,,110,210,227.5,-235,227.5,565,1951
1,M,Robert Crawford,SBD,M-M3b,120+,Single-ply,,WI,137.1,-125,125,-200,125,165,185,-195,185,125,175,-200,175,485,1951
1,M,Bob Beamer,SBD,M-M4a,74,Single-ply,,CO,73.3,100,125,,125,125,140,-147.5,140,147.5,165,180,180,445,1943
1,M,Alan Tepper,SBD,M-M4a,83,Single-ply,,WA,80,-182.5,-182.5,182.5,182.5,130,132.5,135,135,182.5,-200,,182.5,500,1945
1,M,Bill Helmich,SBD,M-M4a,105,Single-ply,,NM,104,100,,,100,85,-95,-95,85,165,-182.5,-182.5,165,350,1942
1,M,Michael Nichols,SBD,M-M4a,120,Single-ply,,VA,111.2,145,160,170,170,120,125,-130,125,-182.5,182.5,200,200,495,1945
1,M,Tom O'Keefe,SBD,M-M5a,83,Single-ply,,CO,82.1,135,140,145,145,85,92.5,95,95,155,162.5,-165,162.5,402.5,1935
DQ,M,Raymond Curtis,SBD,M-M5a,105,Single-ply,,LA,93.3,-92.5,-92.5,-92.5,,-100,-100,-100,,-142.5,,,,,1932
1,M,Christopher Tran,SBD,M-O,59,Single-ply,Titan,MS,58.9,230,245,252.5,252.5,-137.5,137.5,-145,137.5,230,245,250,250,640,1988
2,M,Eric Kupperstein,SBD,M-O,59,Single-ply,BAY,MA,58.6,220,237.5,-251,237.5,70,100,105,105,222.5,-242.5,-252.5,222.5,565,1966
3,M,Marcus Hernandez,SBD,M-O,59,Single-ply,,TX,58.7,182.5,-192.5,192.5,192.5,105,110,-117.5,110,-222.5,222.5,-230,222.5,525,1995
1,M,Charles Okpoko,SBD,M-O,66,Single-ply,,TX,65.9,285,-300,-300,285,185,190,195,195,240,250,252.5,252.5,732.5,1995
2,M,Damarrio Holloway,SBD,M-O,66,Single-ply,Quest,GA,65.9,252.5,262.5,267.5,267.5,-170,170,175,175,265,277.5,-290,277.5,720,1980
3,M,James Vang,SBD,M-O,66,Single-ply,Quest,MN,65.8,252.5,270,-280,270,-175,175,182.5,182.5,-255,255,-267.5,255,707.5,1992
4,M,Michael Hafenbrack,SBD,M-O,66,Single-ply,Titan,TX,65,250,-262.5,-262.5,250,155,162.5,-170,162.5,245,250,255,255,667.5,1984
5,M,Alexander Kang,SBD,M-O,66,Single-ply,,MD,65.7,225,-235,240,240,135,-140,140,140,235,255,-260,255,635,1984
1,M,Nathan Walton,SBD,M-O,74,Single-ply,Quest,GA,73.5,260,272.5,280,280,172.5,177.5,180,180,282.5,295,-300,295,755,1976
2,M,Alex Maher,SBD,M-O,74,Single-ply,,TX,73.2,-270,270,277.5,277.5,145,150,152.5,152.5,300,315,-325,315,745,1995
3,M,Aaron Phillips,SBD,M-O,74,Single-ply,Pure,WI,72.9,260,-272.5,272.5,272.5,185,190,195,195,225,230,-235,230,697.5,1985
4,M,Carlo E Melendez,SBD,M-O,74,Single-ply,,MI,73.9,-247.5,247.5,-260,247.5,-197.5,197.5,205,205,225,235,-247.5,235,687.5,1983
DQ,M,Lauren Cohen,SBD,M-O,74,Single-ply,BAY,MA,72.9,-250,250,-265,250,-170,-170,-170,,-245,,,,,1979
DQ,M,Luis Alaniz,SBD,M-O,74,Single-ply,,TX,73.3,-255,-255,-255,,-170,-170,,,,,,,,1995
1,M,Knute Douglas,SBD,M-O,83,Single-ply,Titan,MS,82.4,337.5,352.5,360,360,205,-215,-215,205,307.5,320,327.5,327.5,892.5,1989
2,M,Michael Pyon,SBD,M-O,83,Single-ply,,TX,81.7,267.5,-280,280,280,215,225,-230,225,282.5,290,-295,290,795,1991
3,M,Alex Smith,SBD,M-O,83,Single-ply,Titan,TX,82,275,287.5,295,295,210,217.5,222.5,222.5,255,272.5,-280,272.5,790,1990
4,M,Benjamin Rowe,SBD,M-O,83,Single-ply,,TX,82.4,285,-295,-295,285,185,192.5,-195,192.5,265,-275,,265,742.5,1976
5,M,Daniel Thurman,SBD,M-O,83,Single-ply,,NE,82.8,220,-240,-240,220,242.5,-260,-260,242.5,182.5,200,215,215,677.5,1968
6,M,Eric Cordeiro,SBD,M-O,83,Single-ply,BAY,MA,82.3,252.5,260,265,265,150,155,160,160,220,230,-240,230,655,1975
7,M,Mina Boktor,SBD,M-O,83,Single-ply,,TN,82.4,215,225,235,235,140,150,157.5,157.5,230,240,-245,240,632.5,1985
1,M,Ian Bell,SBD,M-O,93,Single-ply,Titan,TX,92.3,342.5,360,372.5,372.5,210,217.5,227.5,227.5,355,372.5,-380,372.5,972.5,1992
2,M,Erik Kasabuske,SBD,M-O,93,Single-ply,Titan,WI,92.8,327.5,342.5,-350,342.5,197.5,205,212.5,212.5,305,-317.5,-317.5,305,860,1983
3,M,Benjamin Nevares,SBD,M-O,93,Single-ply,,TX,91.2,-290,290,300,300,210,225,230,230,295,307.5,317.5,317.5,847.5,1996
4,M,Dale McLaren,SBD,M-O,93,Single-ply,Quest,GA,92.8,297.5,307.5,-312.5,307.5,212.5,220,-227.5,220,285,295,297.5,297.5,825,1976
5,M,Michael Davis,SBD,M-O,93,Single-ply,,TX,92.5,317.5,-327.5,-332.5,317.5,205,-217.5,-217.5,205,300,-312.5,-317.5,300,822.5,1995
6,M,Matthew Christie,SBD,M-O,93,Single-ply,Quest,GA,92.7,285,-295,295,295,205,215,-225,215,270,285,295,295,805,1982
7,M,Matt Rodock,SBD,M-O,93,Single-ply,Pure,WI,92.4,310,325,-332.5,325,195,-200,-200,195,282.5,-300,-305,282.5,802.5,1980
8,M,John Pena,SBD,M-O,93,Single-ply,,AZ,93,307.5,-320,325,325,197.5,207.5,-210,207.5,250,-262.5,262.5,262.5,795,1972
9,M,Jim Brown,SBD,M-O,93,Single-ply,,PA,91.3,292.5,-312.5,320,320,185,202.5,-212.5,202.5,240,262.5,-272.5,262.5,785,1965
10,M,Russell Johnston,SBD,M-O,93,Single-ply,Pure,WI,92.1,275,290,-305,290,175,185,-195,185,245,255,-260,255,730,1987
11,M,David McLavey,SBD,M-O,93,Single-ply,,AK,92.7,245,260,-272.5,260,172.5,-180,-180,172.5,245,260,-265,260,692.5,1996
DQ,M,Blake Dedas,SBD,M-O,93,Single-ply,,IN,91.5,290,-295,,290,-215,-215,-215,,300,-305,-305,300,,1984
1,M,Charlie Conner,SBD,M-O,105,Single-ply,Quest,TN,103.8,345,365,377.5,377.5,300,-310,310,310,260,267.5,275,275,962.5,1989
2,M,Gregory Johnson,SBD,M-O,105,Single-ply,Titan,TX,100.7,345,360,-365,360,222.5,-230,-230,222.5,345,-357.5,-357.5,345,927.5,1990
3,M,David Young,SBD,M-O,105,Single-ply,Texas,TX,104.5,325,335,342.5,342.5,250,257.5,265,265,265,275,-285,275,882.5,1989
4,M,Matt Cassista,SBD,M-O,105,Single-ply,BAY,MA,99.1,325,-335,-335,325,230,-237.5,-237.5,230,275,-295,-295,275,830,1992
5,M,Ruben Sanchez,SBD,M-O,105,Single-ply,,TX,104.5,265,290,-300,290,225,245,-265,245,265,285,-300,285,820,1994
6,M,Peter Nees,SBD,M-O,105,Single-ply,Pure,WI,104.1,-292.5,292.5,300,300,207.5,220,227.5,227.5,270,277.5,-292.5,277.5,805,1984
7,M,Mark Freeman,SBD,M-O,105,Single-ply,Quest,GA,104.5,-305,-305,305,305,217.5,-227.5,227.5,227.5,-260,-260,260,260,792.5,1984
8,M,R.A. Flores,SBD,M-O,105,Single-ply,IHPC,TX,104.7,-275,275,-290,275,197.5,205,-210,205,265,272.5,-277.5,272.5,752.5,1989
9,M,Dan Gresh,SBD,M-O,105,Single-ply,,CO,102.3,265,277.5,282.5,282.5,175,-180,-180,175,200,225,242.5,242.5,700,1989
DQ,M,Johnny Villani,SBD,M-O,105,Single-ply,,VA,103.7,-287.5,-287.5,-287.5,,,,,,,,,,,1992
1,M,Preston Turner,SBD,M-O,120,Single-ply,Quest,TX,119.2,365,385,395,395,310,320,-330,320,302.5,320,327.5,327.5,1042.5,1992
2,M,Quintin Meyer,SBD,M-O,120,Single-ply,Pure,WI,119.2,360,375,-380,375,285,295,300,300,310,320,325,325,1000,1991
3,M,Scott Dobbins,SBD,M-O,120,Single-ply,Quest,TX,119.4,380,-405,405,405,275,280,-290,280,285,305,-315,305,990,1992
4,M,Cody Giampa,SBD,M-O,120,Single-ply,Quest,MA,117.5,-352.5,352.5,367.5,367.5,265,275,-280,275,295,-310,-310,295,937.5,1991
5,M,Ahmed Hassanin,SBD,M-O,120,Single-ply,,TN,119,350,-365,-365,350,230,240,-250,240,290,300,-305,300,890,1985
6,M,Jose Ramirez,SBD,M-O,120,Single-ply,,CO,118.7,280,290,295,295,-235,235,240,240,235,245,-260,245,780,1990
7,M,Wilson Martinez,SBD,M-O,120,Single-ply,,NJ,112.8,-265,280,-285,280,177.5,-182.5,182.5,182.5,255,265,-272.5,265,727.5,1965
1,M,Blaine Sumner,SBD,M-O,120+,Single-ply,Titan,OK,167.3,445,-475,-475,445,375,-392.5,-392.5,375,325,355,-365,355,1175,1987
2,M,Joseph Cappellino,SBD,M-O,120+,Single-ply,Quest,MA,164.6,430,452.5,460,460,325,335,-342.5,335,350,-380,-380,350,1145,1988
3,M,Cooper Wage,SBD,M-O,120+,Single-ply,Pure,WI,168.8,435,-455,-470,435,325,337.5,350,350,320,-335,-342.5,320,1105,1987
4,M,Jason Christus,SBD,M-O,120+,Single-ply,,WI,153.1,320,342.5,355,355,255,262.5,-265,262.5,307.5,330,-345,330,947.5,1979
5,M,John Caruso,SBD,M-O,120+,Single-ply,,TX,130.6,310,325,-340,325,265,285,-302.5,285,275,287.5,300,300,910,1993
6,M,Patrick Anderson,SBD,M-O,120+,Single-ply,,GA,133.1,320,337.5,-340,337.5,235,245,252.5,252.5,250,270,-282.5,270,860,1971
7,M,Declan Dilley,SBD,M-O,120+,Single-ply,Pure,WI,125.8,277.5,290,297.5,297.5,185,197.5,205,205,262.5,277.5,290,290,792.5,1998
1,M,Cordarius Harris,SBD,M-T1,53,Single-ply,,MS,52.2,145,160,-165,160,87.5,97.5,-102.5,97.5,155,182.5,-197.5,182.5,440,2000
1,M,Marc Garcia,SBD,M-T1,59,Single-ply,,TX,57.7,200,212.5,222.5,222.5,-107.5,107.5,117.5,117.5,195,200,210,210,550,2000
1,M,Samuel Bassan,SBD,M-T1,66,Single-ply,,WI,65.9,185,195,205,205,82.5,-92.5,-92.5,82.5,192.5,-220,220,220,507.5,2001
1,M,Noah Johnson,SBD,M-T1,74,Single-ply,Pure,WI,72.4,205,-212.5,212.5,212.5,107.5,115,120,120,207.5,217.5,-220,217.5,550,2000
1,M,Austin Payne,SBD,M-T1,83,Single-ply,,WI,78.3,170,-182.5,182.5,182.5,85,92.5,-97.5,92.5,175,185,192.5,192.5,467.5,2000
1,M,Jeffrey De Leon,SBD,M-T1,105,Single-ply,CSHS,TX,96.9,25,,,25,25,,,25,45,,,45,95,2000
1,M,Markevious Gordon,SBD,M-T2,59,Single-ply,,MS,57.4,130,147.5,-165,147.5,87.5,-97.5,97.5,97.5,147.5,-175,-175,147.5,392.5,1999
1,M,Maxwell Von Gunten,SBD,M-T2,66,Single-ply,,WY,63.9,130,135,142.5,142.5,70,75,77.5,77.5,182.5,-192.5,-192.5,182.5,402.5,2000
1,M,Javier Rodriguez,SBD,M-T2,74,Single-ply,,TX,72.5,210,225,235,235,142.5,152.5,-160,152.5,200,-217.5,217.5,217.5,605,1998
2,M,Derrick Carroll,SBD,M-T2,74,Single-ply,IHPC,TX,73,-205,205,210,210,102.5,-105,-105,102.5,197.5,207.5,212.5,212.5,525,1998
3,M,Kolbe Chavez,SBD,M-T2,74,Single-ply,,WY,73.7,165,180,-192.5,180,-102.5,102.5,-112.5,102.5,190,202.5,-207.5,202.5,485,1998
4,M,Eric Gonzalez,SBD,M-T2,74,Single-ply,CSHS,TX,73.9,175,-182.5,-182.5,175,95,100,-105,100,180,200,-210,200,475,1999
1,M,Luis Perales,SBD,M-T2,83,Single-ply,CSHS,TX,78.6,-210,220,227.5,227.5,135,145,152.5,152.5,205,215,227.5,227.5,607.5,1999
2,M,Nicholas Galvan,SBD,M-T2,83,Single-ply,IHPC,TX,81.3,192.5,197.5,205,205,132.5,142.5,-147.5,142.5,192.5,205,-227.5,205,552.5,1999
1,M,Logan Rogers,SBD,M-T2,93,Single-ply,,LA,92.1,245,-250,-250,245,167.5,-177.5,177.5,177.5,265,-302.5,-302.5,265,687.5,1998
2,M,Mario Mendoza,SBD,M-T2,93,Single-ply,CSHS,TX,88.9,-210,210,225,225,127.5,137.5,-145,137.5,212.5,225,-232.5,225,587.5,2000
3,M,Cruz Montes,SBD,M-T2,93,Single-ply,CSHS,TX,88.7,195,210,225,225,-122.5,125,132.5,132.5,182.5,202.5,215,215,572.5,1999
4,M,Dalton Staller,SBD,M-T2,93,Single-ply,,WI,90.9,195,207.5,-217.5,207.5,115,122.5,-127.5,122.5,182.5,195,202.5,202.5,532.5,1998
DQ,M,Eddie Garcia,SBD,M-T2,105,Single-ply,,TX,101.3,275,-292.5,-292.5,275,160,170,-180,170,-260,-260,-260,,,1998
1,M,Carlos Sanchez,SBD,M-T2,120+,Single-ply,,TX,129.9,-307.5,307.5,,307.5,177.5,182.5,192.5,192.5,272.5,290,295,295,795,1998
2,M,Declan Dilley,SBD,M-T2,120+,Single-ply,Pure,WI,125.8,277.5,290,297.5,297.5,185,197.5,205,205,262.5,277.5,290,290,792.5,1998
3,M,Ryan Ratcliff,SBD,M-T2,120+,Single-ply,,WI,133.8,275,287.5,295,295,142.5,152.5,-155,152.5,282.5,-297.5,-297.5,282.5,730,1998
1,M,Kenneth Johnson,SBD,M-T3,53,Single-ply,Pure,WI,53,167.5,175,182.5,182.5,82.5,90,-95,90,182.5,190,195,195,467.5,1997
1,M,Jacob de la Paz,SBD,M-T3,74,Single-ply,,TX,72.2,235,240,245,245,-130,130,137.5,137.5,237.5,-247.5,250,250,632.5,1996
2,M,Hunter Dollery,SBD,M-T3,74,Single-ply,,TX,73.6,-195,195,200,200,125,132.5,137.5,137.5,205,220,-227.5,220,557.5,1998
1,M,Benjamin Nevares,SBD,M-T3,93,Single-ply,,TX,91.2,-290,290,300,300,210,225,230,230,295,307.5,317.5,317.5,847.5,1996
2,M,David L,SBD,M-T3,93,Single-ply,,TX,90.1,-265,265,282.5,282.5,155,162.5,-165,162.5,257.5,-270,270,270,715,1997
1,M,Joshua Peardot,SBD,M-T3,105,Single-ply,,WI,101.7,280,292.5,305,305,165,175,185,185,260,275,282.5,282.5,772.5,1998
1,M,Tino Torres,SBD,M-T3,120+,Single-ply,CSHS,TX,128.8,260,-275,275,275,170,177.5,185,185,200,212.5,-227.5,212.5,672.5,1997
DQ,M,Hudson Lonborg,SBD,M-T3,120+,Single-ply,Phnx,WA,157.8,-275,-275,-275,,-182.5,205,-227.5,205,275,295,-300,295,,1997
DQ,M,Mario Chavez,SBD,M-T3,120+,Single-ply,CSHS,TX,189,-227.5,-227.5,-227.5,,200,-205,205,205,,,,,,1997
1,F,Allegra Hudson,SBD,F-Jr,47,Single-ply,Texas,TX,46.7,142.5,-147.5,-147.5,142.5,67.5,-72.5,72.5,72.5,142.5,150,155,155,370,1994
1,F,Kimberly Johnson,SBD,F-Jr,57,Single-ply,Pure,WI,55.8,167.5,177.5,-187.5,177.5,107.5,115,120,120,165,175,182.5,182.5,480,1994
2,F,Alexsandra Trevino,SBD,F-Jr,57,Single-ply,,TX,55.9,115,-125,-130,115,60,65,67.5,67.5,117.5,127.5,135,135,317.5,1992
1,F,Giovanna Ortega,SBD,F-Jr,63,Single-ply,,TX,61.1,175,-185,190,190,97.5,100,-102.5,100,-172.5,172.5,180,180,470,1994
2,F,Perrish Dragovits,SBD,F-Jr,63,Single-ply,,MS,62.3,160,170,177.5,177.5,85,92.5,100,100,-157.5,157.5,-170,157.5,435,1995
3,F,Cierra Bernard,SBD,F-Jr,63,Single-ply,,MS,62,-152.5,155,-165,155,77.5,82.5,87.5,87.5,152.5,160,-170,160,402.5,1994
4,F,Autumn Herried,SBD,F-Jr,63,Single-ply,,WI,62.5,152.5,-162.5,167.5,167.5,85,90,-95,90,137.5,145,-155,145,402.5,1995
1,F,Kelsey McCarthy,SBD,F-Jr,72,Single-ply,BAY,MA,68.9,205,220,-225,220,112.5,120,125,125,185,197.5,-205,197.5,542.5,1992
2,F,Dakota Young,SBD,F-Jr,72,Single-ply,,TX,72,-195,-195,200,200,102.5,110,115,115,182.5,192.5,-197.5,192.5,507.5,1996
3,F,Andrea Singer,SBD,F-Jr,72,Single-ply,,ID,71.8,107.5,120,-125,120,57.5,62.5,-65,62.5,137.5,147.5,-152.5,147.5,330,1993
1,F,Sarah Davis,SBD,F-Jr,84,Single-ply,Texas,FL,83.6,-195,-200,200,200,130,135,140,140,192.5,-197.5,-197.5,192.5,532.5,1995
2,F,Claire McKenzie,SBD,F-Jr,84,Single-ply,,TX,82.8,195,-202.5,202.5,202.5,-120,120,125,125,182.5,-195,-195,182.5,510,1994
DQ,F,Jaelynn Clark,SBD,F-Jr,84+,Single-ply,,TX,112.2,215,225,-235,225,140,145,150,150,-187.5,-187.5,-187.5,,,1996
1,F,Maura Shuttleworth,SBD,F-M1,52,Single-ply,,NM,51.5,122.5,130,-137.5,130,97.5,102.5,107.5,107.5,122.5,-130,137.5,137.5,375,1976
1,F,Janel Brown,SBD,F-M1,57,Single-ply,,PA,55.3,142.5,155.5,160.5,160.5,65,72.5,-80,72.5,137.5,145,152.5,152.5,385.5,1973
2,F,Danna Snow,SBD,F-M1,57,Single-ply,,WA,55.9,125,-130,-130,125,85,87.5,90,90,142.5,150,-167.5,150,365,1969
3,F,Jenny Skaufel,SBD,F-M1,57,Single-ply,,CO,56.9,125,132.5,-140,132.5,62.5,70,-72.5,70,132.5,147.5,-165,147.5,350,1972
1,F,Lara Sturm,SBD,F-M1,63,Single-ply,Rohr,GA,62.1,170,-180,-182.5,170,95,-97.5,-97.5,95,155,170,177.5,177.5,442.5,1968
1,F,Priscilla Ribic,SBD,F-M1,72,Single-ply,Titan,AK,71.4,217.5,-232.5,232.5,232.5,125,135,147.5,147.5,225,-240,-260,225,605,1972
2,F,Colleen Hansford,SBD,F-M1,72,Single-ply,Phnx,WA,67.5,137.5,155,-165,155,85,-90,-90,85,137.5,157.5,-165,157.5,397.5,1968
1,F,Liane Blyn,SBD,F-M1,84,Single-ply,Titan,MA,82.1,232.5,240,247.5,247.5,172.5,177.5,182.5,182.5,207.5,215,227.5,227.5,657.5,1972
2,F,Rachele Killian,SBD,F-M1,84,Single-ply,SS&P;,WA,82.4,147.5,-155,-155,147.5,102.5,110,112.5,112.5,145,152.5,155,155,415,1969
3,F,Sarah Bohlen,SBD,F-M1,84,Single-ply,SS&P;,WA,74.3,-147.5,147.5,-155,147.5,77.5,-80,-80,77.5,157.5,-165,-165,157.5,382.5,1969
4,F,Tracy Dent,SBD,F-M1,84,Single-ply,,GA,82.5,147.5,-165,-165,147.5,75,85,90,90,145,-150,-150,145,382.5,1972
1,F,Lakshmi Meadows,SBD,F-M1,84+,Single-ply,SS&P;,WA,102.1,-215,215,-227.5,215,-120,120,130,130,200,-210,-210,200,545,1975
2,F,Regina White,SBD,F-M1,84+,Single-ply,Phnx,WA,89.1,175,182.5,-197.5,182.5,92.5,97.5,-100,97.5,160,185,-190,185,465,1975
1,F,Kimberly Price,SBD,F-M2,47,Single-ply,,VA,46.5,92.5,100,105,105,50,55,-57.5,55,117.5,127.5,135,135,295,1962
1,F,Tammy Cutrona,SBD,F-M2,52,Single-ply,,NJ,51.5,105,110,-115,110,65,70,-72.5,70,110,120,-122.5,120,300,1966
1,F,Antoinette Kemper,SBD,F-M2,57,Single-ply,,CO,55.7,140,-145,-147.5,140,82.5,87.5,90,90,145,155,-157.5,155,385,1964
2,F,Karen Blessington,SBD,F-M2,57,Single-ply,BAY,MA,54.9,95,105,110,110,70,75,77.5,77.5,120,130,-137.5,130,317.5,1960
1,F,Lynne Homan,SBD,F-M2,63,Single-ply,Rohr,TX,58.3,130,-132.5,-132.5,130,90,92.5,95,95,145,155,162.5,162.5,387.5,1962
2,F,Joni Mach,SBD,F-M2,63,Single-ply,,WI,62.6,120,125,-132.5,125,67.5,72.5,77.5,77.5,120,127.5,140,140,342.5,1965
3,F,Nandi Xie,SBD,F-M2,63,Single-ply,,CO,62.5,100,110,-115,110,70,75,-77.5,75,115,-125,-125,115,300,1963
1,F,Donna Marts,SBD,F-M2,72,Single-ply,Rohr,WY,70.4,142.5,150,155,155,95,102.5,-107.5,102.5,160,170,-177.5,170,427.5,1960
2,F,Tina Crawford,SBD,F-M2,72,Single-ply,Phnx,PA,65.4,137.5,142.5,147.5,147.5,72.5,77.5,80,80,145,152.5,157.5,157.5,385,1965
3,F,Caryn Daniel,SBD,F-M2,72,Single-ply,,MD,69.6,-125,127.5,,127.5,67.5,72.5,77.5,77.5,65,,,65,270,1963
1,F,Laura Styrlund,SBD,F-M2,84,Single-ply,Rohr,MI,77,150,162.5,-172.5,162.5,105,117.5,125,125,155,175,195,195,482.5,1964
1,F,Linda Park,SBD,F-M2,84+,Single-ply,,WY,110.6,80,85,90,90,57.5,60,62.5,62.5,100,105,-107.5,105,257.5,1965
1,F,Denise Johnson,SBD,F-M3,52,Single-ply,SS&P;,WA,50.8,45,50,55,55,32.5,-37.5,-37.5,32.5,82.5,87.5,-92.5,87.5,175,1947
1,F,Debby McGovern,SBD,F-M3,57,Single-ply,,CO,55.9,-90,90,-95.5,90,45,-47.5,-47.5,45,-115,120,125,125,260,1955
1,F,Gail Moore,SBD,F-M3,72,Single-ply,,PA,71,130,145,-155,145,82.5,-90,-90,82.5,130,145,157.5,157.5,385,1947
DQ,F,Alma Kimura,SBD,F-M3,72,Single-ply,SS&P;,WA,68.5,130,-137.5,-137.5,130,-75,-75,-75,,132.5,142.5,147.5,147.5,,1954
1,F,Bebe Burns,SBD,F-M4,52,Single-ply,SS&P;,WA,51.5,-67.5,67.5,-72.5,67.5,42.5,45.5,47.5,47.5,80.5,85,-90,85,200,1942
1,F,Marsha Serre,SBD,F-M4,72,Single-ply,,MD,70.7,90,97.5,105,105,30,35,-37.5,35,127.5,135,142.5,142.5,282.5,1946
1,F,Regina Hackney,SBD,F-M4,84,Single-ply,Phnx,SC,82.2,70,-80,-80,70,47.5,-50,-52.5,47.5,115,-120,-120,115,232.5,1939
1,F,Allegra Hudson,SBD,F-O,47,Single-ply,Texas,TX,46.7,142.5,-147.5,-147.5,142.5,67.5,-72.5,72.5,72.5,142.5,150,155,155,370,1994
2,F,Janet Becerril,SBD,F-O,47,Single-ply,Texas,TX,42.6,115,125,-132.5,125,55,60,-65,60,112.5,117.5,120,120,305,1999
1,F,Juanita Najera,SBD,F-O,52,Single-ply,Titan,NM,51.1,150,157.5,-165,157.5,85,90,97.5,97.5,150,160,170,170,425,1981
2,F,Maura Shuttleworth,SBD,F-O,52,Single-ply,,NM,51.5,122.5,130,-137.5,130,97.5,102.5,107.5,107.5,122.5,-130,137.5,137.5,375,1976
3,F,Ashlee Hafenbrack,SBD,F-O,52,Single-ply,,TX,51.9,127.5,-135,135,135,82.5,90,-95,90,142.5,150,-152.5,150,375,1988
1,F,Rowena Lopez,SBD,F-O,57,Single-ply,Titan,TX,55.8,-170,170,177.5,177.5,-125,125,132.5,132.5,182.5,190,195,195,505,1977
2,F,Katherine Kasabuske,SBD,F-O,57,Single-ply,Titan,WI,56,182.5,192.5,197.5,197.5,-95,95,97.5,97.5,177.5,185,190,190,485,1980
3,F,Emily Liebert,SBD,F-O,57,Single-ply,BAY,MA,55.5,160,-167.5,170,170,102.5,110,-115,110,155,165,172.5,172.5,452.5,1992
4,F,Lodrina Cherne,SBD,F-O,57,Single-ply,BAY,MA,56.7,167.5,-175,175,175,-90,90,95,95,165,175,-185,175,445,1982
5,F,Antoinette Kemper,SBD,F-O,57,Single-ply,,CO,55.7,140,-145,-147.5,140,82.5,87.5,90,90,145,155,-157.5,155,385,1964
6,F,Karen Blessington,SBD,F-O,57,Single-ply,BAY,MA,54.9,95,105,110,110,70,75,77.5,77.5,120,130,-137.5,130,317.5,1960
1,F,Katie Van Dusen,SBD,F-O,63,Single-ply,Titan,TX,62.5,192.5,-205,205,205,120,127.5,132.5,132.5,165,177.5,-182.5,177.5,515,1988
2,F,Shaina Petit,SBD,F-O,63,Single-ply,Titan,MA,62.7,190,-200,200,200,115,-120,120,120,192.5,-197.5,-197.5,192.5,512.5,1989
3,F,Trish Southerland,SBD,F-O,63,Single-ply,,MS,62.8,160,172.5,-180,172.5,110,-117.5,117.5,117.5,170,182.5,-190,182.5,472.5,1988
4,F,Giovanna Ortega,SBD,F-O,63,Single-ply,,TX,61.1,175,-185,190,190,97.5,100,-102.5,100,-172.5,172.5,180,180,470,1994
5,F,Lara Sturm,SBD,F-O,63,Single-ply,Rohr,GA,62.1,170,-180,-182.5,170,95,-97.5,-97.5,95,155,170,177.5,177.5,442.5,1968
6,F,Jennylyn Carrasco,SBD,F-O,63,Single-ply,,TX,61.6,155,-162.5,-162.5,155,92.5,97.5,100,100,165,-175,-182.5,165,420,1991
7,F,Cierra Bernard,SBD,F-O,63,Single-ply,,MS,62,-152.5,155,-165,155,77.5,82.5,87.5,87.5,152.5,160,-170,160,402.5,1994
1,F,Priscilla Ribic,SBD,F-O,72,Single-ply,Titan,AK,71.4,217.5,-232.5,232.5,232.5,125,135,147.5,147.5,225,-240,-260,225,605,1972
2,F,Kelsey McCarthy,SBD,F-O,72,Single-ply,BAY,MA,68.9,205,220,-225,220,112.5,120,125,125,185,197.5,-205,197.5,542.5,1992
3,F,Erin Walterman,SBD,F-O,72,Single-ply,Pure,WI,69.6,165,175,185,185,122.5,130,-135,130,180,190,200,200,515,1982
4,F,Brittany Rabe,SBD,F-O,72,Single-ply,Pure,WI,69.2,165,172.5,177.5,177.5,-87.5,87.5,92.5,92.5,172.5,182.5,-185,182.5,452.5,1998
5,F,Lydia Mele,SBD,F-O,72,Single-ply,,GA,71,-165,165,170,170,112.5,-117.5,-117.5,112.5,160,-175,-175,160,442.5,1998
6,F,Emilia Kobina,SBD,F-O,72,Single-ply,Texas,TX,68.5,-127.5,127.5,135,135,65,67.5,-70,67.5,167.5,175,-182.5,175,377.5,1985
7,F,Ellay Merana,SBD,F-O,72,Single-ply,,GA,66.1,125,135,-140,135,72.5,-80,80,80,137.5,150,-155,150,365,1979
1,F,Liane Blyn,SBD,F-O,84,Single-ply,Titan,MA,82.1,232.5,240,247.5,247.5,172.5,177.5,182.5,182.5,207.5,215,227.5,227.5,657.5,1972
2,F,Natalie Hanson,SBD,F-O,84,Single-ply,,AK,83.3,245,260,-265,260,150,-155,-155,150,205,-220,-220,205,615,1990
3,F,Monet Bland,SBD,F-O,84,Single-ply,BAY,MA,83.6,215,225,232.5,232.5,100,107.5,112.5,112.5,210,220,225,225,570,1991
4,F,Sara Rodock,SBD,F-O,84,Single-ply,Pure,WI,82.7,180,190,197.5,197.5,125,132.5,137.5,137.5,142.5,152.5,160,160,495,1981
5,F,Tracy Dent,SBD,F-O,84,Single-ply,,GA,82.5,147.5,-165,-165,147.5,75,85,90,90,145,-150,-150,145,382.5,1972
1,F,Bonica Brown,SBD,F-O,84+,Single-ply,,NE,135,252.5,265,275,275,-180,192.5,-208,192.5,195,205,225,225,692.5,1988
2,F,Rebecca Holcomb,SBD,F-O,84+,Single-ply,,GA,152.5,235,250,262.5,262.5,130,142.5,-147.5,142.5,210,227.5,235,235,640,1987
3,F,Andrea Page,SBD,F-O,84+,Single-ply,Phnx,WA,112,205,215,220,220,120,137.5,-145,137.5,200,207.5,-227.5,207.5,565,1977
4,F,Katey Dodge,SBD,F-O,84+,Single-ply,,NE,102.6,177.5,187.5,-192.5,187.5,130,135,-137.5,135,155,170,-180,170,492.5,1981
5,F,Roberta Garcia,SBD,F-O,84+,Single-ply,,TX,98.4,125,142.5,-150,142.5,115,120,-125,120,140,-162.5,-177.5,140,402.5,1990
DQ,F,Jaelynn Clark,SBD,F-O,84+,Single-ply,,TX,112.2,215,225,-235,225,140,145,150,150,-187.5,-187.5,-187.5,,,1996
1,F,Kaitlyn Pelitire,SBD,F-T1,52,Single-ply,IHPC,TX,50.2,137.5,147.5,155,155,65,70,75,75,-135,135,147.5,147.5,377.5,2000
2,F,Celeste Correa,SBD,F-T1,52,Single-ply,CSHS,TX,51.1,67.5,72.5,77.5,77.5,30,32.5,-35,32.5,87.5,90,97.5,97.5,207.5,2001
1,F,Mckenzie Stansell,SBD,F-T1,57,Single-ply,,MS,56.5,120,130,-137.5,130,57.5,62.5,67.5,67.5,117.5,122.5,132.5,132.5,330,2000
2,F,Haley Sharp,SBD,F-T1,57,Single-ply,IHPC,TX,56.6,142.5,-150,-150,142.5,62.5,-67.5,-67.5,62.5,102.5,112.5,125,125,330,2000
3,F,Machaela Exner,SBD,F-T1,57,Single-ply,,WI,56.3,100,107.5,-115,107.5,50,52.5,-55,52.5,-110,112.5,122.5,122.5,282.5,2001
1,F,Shyanne Naquin,SBD,F-T1,63,Single-ply,,LA,62,125,140,150,150,72.5,80,90,90,125,140,-152.5,140,380,2000
1,F,Macy Lambert,SBD,F-T1,84+,Single-ply,,LA,100.5,142.5,160,175,175,77.5,-85,85,85,142.5,155,-160,155,415,2001
1,F,Janet Becerril,SBD,F-T2,43,Single-ply,Texas,TX,42.6,115,125,-132.5,125,55,60,-65,60,112.5,117.5,120,120,305,1999
2,F,Zyana Price,SBD,F-T2,43,Single-ply,,LA,42.3,102.5,-115,115,115,45,50,57.5,57.5,110,125,-132.5,125,297.5,2000
1,F,Stephanie Lavoy,SBD,F-T2,47,Single-ply,,WI,46.7,127.5,-132.5,132.5,132.5,55,60,-65,60,125,132.5,140,140,332.5,1999
1,F,Tammy Idrogo,SBD,F-T2,52,Single-ply,,TX,49.9,110,117.5,-125,117.5,47.5,52.5,55,55,112.5,-120,-122.5,112.5,285,1999
1,F,Alana Montes,SBD,F-T2,57,Single-ply,,TX,56.5,145,-152.5,152.5,152.5,70,77.5,-85,77.5,167.5,-175,-175,167.5,397.5,1998
2,F,Maddie Graham,SBD,F-T2,57,Single-ply,,TX,56.3,142.5,-147.5,-147.5,142.5,-92.5,92.5,-100,92.5,-142.5,-142.5,142.5,142.5,377.5,1999
1,F,Kelly Huerta,SBD,F-T2,63,Single-ply,CSHS,TX,60.7,115,125,-130,125,65,67.5,-70,67.5,115,120,125,125,317.5,1999
2,F,Isabelle Johnson,SBD,F-T2,63,Single-ply,,WA,61.6,102.5,107.5,-115,107.5,62.5,67.5,-70,67.5,110,117.5,125,125,300,1999
DQ,F,Larissa Gonzales,SBD,F-T2,63,Single-ply,CSHS,TX,59.9,-80,-80,-80,,,,,,,,,,,1998
DQ,F,Anya Tuft,SBD,F-T2,63,Single-ply,,WY,61.4,-100,-107.5,-107.5,,60,65,70,70,95,100,-102.5,100,,1999
1,F,Amber Kierstyn,SBD,F-T2,72,Single-ply,,WI,70.7,155,162.5,172.5,172.5,87.5,92.5,97.5,97.5,165,177.5,185,185,455,1998
2,F,Brittany Rabe,SBD,F-T2,72,Single-ply,Pure,WI,69.2,165,172.5,177.5,177.5,-87.5,87.5,92.5,92.5,172.5,182.5,-185,182.5,452.5,1998
3,F,Abigail Saunders,SBD,F-T2,72,Single-ply,,WI,67.3,142.5,152.5,165,165,52.5,57.5,60,60,145,155,167.5,167.5,392.5,2000
4,F,Caitlyn Whipple,SBD,F-T2,72,Single-ply,,WI,66.9,117.5,140,152.5,152.5,47.5,-60,-60,47.5,142.5,152.5,157.5,157.5,357.5,2000
5,F,Elizabeth Alejandro,SBD,F-T2,72,Single-ply,CSHS,TX,67.8,-127.5,127.5,-135,127.5,55,57.5,60,60,115,122.5,125,125,312.5,1999
6,F,Kristen Lira,SBD,F-T2,72,Single-ply,CSHS,TX,70.7,75,85,95,95,-45,45,52.5,52.5,115,117.5,-125,117.5,265,1999
1,F,Madelyn Woychik,SBD,F-T2,84,Single-ply,,WI,76.4,122.5,130,-135,130,70,75,-80,75,127.5,135,145,145,350,2000
2,F,Natalie Montoya,SBD,F-T2,84,Single-ply,,SD,73.4,110,117.5,-120,117.5,77.5,-82.5,-82.5,77.5,102.5,-110,-110,102.5,297.5,1999
DQ,F,Melissa Reyes,SBD,F-T2,84,Single-ply,CSHS,TX,82.5,-185,-185,-185,,92.5,97.5,-102.5,97.5,-162.5,-162.5,-162.5,,,1998
1,F,Noemie Covarubias,SBD,F-T2,84+,Single-ply,,TX,85.4,-82.5,-85,85,85,62.5,72.5,-80,72.5,115,130,-137.5,130,287.5,1999
2,F,Liliana Martinez,SBD,F-T2,84+,Single-ply,CSHS,TX,88.7,75,85,100,100,52.5,-57.5,-57.5,52.5,-112.5,-112.5,112.5,112.5,265,2000
1,F,Katherine Rodriguez,SBD,F-T3,47,Single-ply,CSHS,TX,46.2,-65,65,67.5,67.5,27.5,-32.5,-32.5,27.5,82.5,85,90,90,185,1998
1,F,Julissa Ortiz,SBD,F-T3,52,Single-ply,IHPC,TX,51.5,137.5,142.5,-147.5,142.5,-67.5,-70,70,70,145,-157.5,-157.5,145,357.5,1997
1,F,Jordan Whipple,SBD,F-T3,57,Single-ply,,WI,55.8,175,-187.5,-187.5,175,-72.5,72.5,-82.5,72.5,147.5,157.5,-167.5,157.5,405,1997
2,F,Jodel Patino,SBD,F-T3,57,Single-ply,,TX,56.3,125,-142.5,-142.5,125,-80,80,-95,80,145,155,162.5,162.5,367.5,1997
1,F,Lydia Mele,SBD,F-T3,72,Single-ply,,GA,71,-165,165,170,170,112.5,-117.5,-117.5,112.5,160,-175,-175,160,442.5,1998
2,F,Liz Blankinship,SBD,F-T3,72,Single-ply,,MS,72,150,-175,-175,150,72.5,82.5,-85,82.5,150,175,-177.5,175,407.5,1998
3,F,Tammy Sanchez,SBD,F-T3,72,Single-ply,CSHS,TX,70.5,-80,82.5,-102.5,82.5,37.5,42.5,-45,42.5,97.5,105,112.5,112.5,237.5,1998
1,F,Delicia Garza,SBD,F-T3,84,Single-ply,Texas,TX,83.3,-192.5,192.5,-197.5,192.5,-105,105,110,110,187.5,195,-200,195,497.5,1996
2,F,Lacey Winters,SBD,F-T3,84,Single-ply,,WI,80.9,172.5,182.5,-187.5,182.5,77.5,82.5,-92.5,82.5,175,180,185,185,450,1997
1,F,Sophia Woychik,SBD,F-T3,84+,Single-ply,,WI,113.6,187.5,197.5,-210,197.5,82.5,92.5,102.5,102.5,175,190,-202.5,190,490,1997
