Division,WeightClassKg,Place,Name,Team,BodyweightKg,Best3SquatKg,Best3BenchKg,Best3DeadliftKg,TotalKg,Equipment,Event,Sex
Boys,51.71,1,Austin Mullennix,Sadler S & S Cons,50.98,181.44,88.45,167.83,437.72,Single-ply,SBD,M
Boys,51.71,2,Chasmon Davis,Everman,50.35,147.42,74.84,163.29,385.55,Single-ply,SBD,M
Boys,51.71,3,Austin Cuthbertson,Van Alstyne,49.44,142.88,70.31,120.2,333.39,Single-ply,SBD,M
Boys,51.71,4,Johnny Garza,Pattonville Prairiland,50.35,102.06,68.04,140.61,310.71,Single-ply,SBD,M
Boys,51.71,5,Destin Warr,Callisburg,51.07,90.72,58.97,131.54,281.23,Single-ply,SBD,M
Boys,51.71,6,Ty Sciba,Aubrey,50.89,102.06,63.5,111.13,276.69,Single-ply,SBD,M
Boys,51.71,DQ,Jack Lifsey,Tom Bean,50.98,99.79,,,,Single-ply,SBD,M
Boys,51.71,DQ,Justin Baque,Tom Bean,51.53,88.45,,,,Single-ply,SBD,M
Boys,51.71,DQ,Erik Tapia,Gunter,50.8,,,,,Single-ply,SBD,M
Boys,51.71,DQ,James Ramsey,Pottsboro,50.8,129.27,,,,Single-ply,SBD,M
Boys,55.79,1,Ever Barron,Everman,55.34,167.83,92.99,170.1,430.91,Single-ply,SBD,M
Boys,55.79,2,Carter McFadden,Anna,54.07,156.49,83.91,161.03,401.43,Single-ply,SBD,M
Boys,55.79,3,Nikolas Fraire,Gainesville,54.34,138.35,92.99,147.42,378.75,Single-ply,SBD,M
Boys,55.79,4,Riley Fish,Pottsboro,54.79,102.06,79.38,136.08,317.51,Single-ply,SBD,M
Boys,55.79,5,Lance Jones,Van Alstyne,55.25,113.4,74.84,129.27,317.51,Single-ply,SBD,M
Boys,55.79,6,Jimmy Rollins,Van Alstyne,55.79,113.4,61.23,136.08,310.71,Single-ply,SBD,M
Boys,55.79,7,Jesus Leon,Wolfe City,53.07,120.2,70.31,117.93,308.44,Single-ply,SBD,M
Boys,55.79,8,Xavie Bollin,Leonard,54.98,99.79,70.31,106.59,276.69,Single-ply,SBD,M
Boys,55.79,9,Caleb Beal,Collinsville,52.8,99.79,54.43,113.4,267.62,Single-ply,SBD,M
Boys,55.79,DQ,Colton Adler,Ponder,52.89,83.91,,,,Single-ply,SBD,M
Boys,55.79,DQ,Conner Jacobs,Whitesboro,54.61,115.67,,,,Single-ply,SBD,M
Boys,59.87,1,Mikey Mixson,Anna,56.61,138.35,70.31,154.22,362.87,Single-ply,SBD,M
Boys,59.87,2,Asher Contreras,Whitesboro,58.06,127.01,83.91,151.95,362.87,Single-ply,SBD,M
Boys,59.87,3,Kason Huschke,Bells,58.51,124.74,92.99,142.88,360.61,Single-ply,SBD,M
Boys,59.87,4,Josh Barlegne,Leonard,59.69,145.15,86.18,127.01,358.34,Single-ply,SBD,M
Boys,59.87,5,Jerry Cortez,Farmersville,56.79,136.08,74.84,133.81,344.73,Single-ply,SBD,M
Boys,59.87,6,David Fogleman,Whitewright,58.6,120.2,83.91,133.81,337.93,Single-ply,SBD,M
Boys,59.87,7,Anthony Henry,Gainesville,57.97,127.01,70.31,136.08,333.39,Single-ply,SBD,M
Boys,59.87,8,Kolten Pulliam,Blue Ridge,58.79,113.4,79.38,124.74,317.51,Single-ply,SBD,M
Boys,59.87,9,Allen Pierson,Blue Ridge,57.42,92.99,70.31,120.2,283.5,Single-ply,SBD,M
Boys,59.87,10,Cole Bynum,Pottsboro,57.88,104.33,52.16,108.86,265.35,Single-ply,SBD,M
Boys,59.87,11,Patrick Burleson,Lindsay,56.25,111.13,54.43,97.52,263.08,Single-ply,SBD,M
Boys,59.87,DQ,James Duvall,Prosper,57.7,133.81,,,,Single-ply,SBD,M
Boys,67.13,1,Luke Kirkbride,Denison,64.86,183.7,106.59,215.46,505.76,Single-ply,SBD,M
Boys,67.13,2,Nicholas Reid,Anna,65.86,204.12,108.86,192.78,505.76,Single-ply,SBD,M
Boys,67.13,3,Colton Danna,Pattonville Prairiland,67.13,165.56,131.54,188.24,485.34,Single-ply,SBD,M
Boys,67.13,4,Jackson Haines,Prosper,65.68,170.1,113.4,170.1,453.59,Single-ply,SBD,M
Boys,67.13,5,Cam Washington,Sherman,66.13,181.44,81.65,183.7,446.79,Single-ply,SBD,M
Boys,67.13,6,Luke Havens,Denison,66.77,158.76,90.72,181.44,430.91,Single-ply,SBD,M
Boys,67.13,7,Manuel Labrada,Whitesboro,61.78,136.08,90.72,151.95,378.75,Single-ply,SBD,M
Boys,67.13,8,Austin Henslee,Celeste,63.96,133.81,86.18,158.76,378.75,Single-ply,SBD,M
Boys,67.13,9,Joey McCaskey,Pattonville Prairiland,65.95,133.81,90.72,151.95,376.48,Single-ply,SBD,M
Boys,67.13,10,Greg Turner,Leonard,63.96,147.42,79.38,145.15,371.95,Single-ply,SBD,M
Boys,67.13,11,Brett Long,Van Alstyne,65.68,142.88,68.04,158.76,369.68,Single-ply,SBD,M
Boys,67.13,12,Abel Moreno,Pattonville Prairiland,62.87,140.61,68.04,145.15,353.8,Single-ply,SBD,M
Boys,67.13,13,Colin Manning,Van Alstyne,66.41,131.54,72.57,145.15,349.27,Single-ply,SBD,M
Boys,67.13,14,Jack Hill,Whitewright,66.77,129.27,86.18,127.01,342.46,Single-ply,SBD,M
Boys,67.13,15,Kam Cottle,Farmersville,66.5,136.08,56.7,147.42,340.19,Single-ply,SBD,M
Boys,67.13,16,Colten Manning,Van Alstyne,63.59,124.74,70.31,136.08,331.12,Single-ply,SBD,M
Boys,67.13,17,Collin Branch,Pottsboro,65.41,111.13,70.31,145.15,326.59,Single-ply,SBD,M
Boys,67.13,18,Shelby Price,Callisburg,66.95,102.06,74.84,136.08,312.98,Single-ply,SBD,M
Boys,67.13,19,Eric Oliva,Anna,63.23,102.06,61.23,142.88,306.17,Single-ply,SBD,M
Boys,67.13,20,Austin Puyear,Pottsboro,67.13,102.06,61.23,124.74,288.03,Single-ply,SBD,M
Boys,67.13,21,Joe Ballard,Anna,65.05,106.59,65.77,104.33,276.69,Single-ply,SBD,M
Boys,67.13,22,John Carlson,Anna,61.23,106.59,63.5,104.33,274.42,Single-ply,SBD,M
Boys,67.13,23,Waylon Vidler,Celeste,64.77,97.52,65.77,104.33,267.62,Single-ply,SBD,M
Boys,67.13,DQ,Landon Patterson,Lindsay,63.96,81.65,63.5,,,Single-ply,SBD,M
Boys,67.13,DQ,Collins Murirthi,Sherman,66.77,104.33,,,,Single-ply,SBD,M
Boys,67.13,DQ,Grant Robinson,Sherman Texoma Christian School,61.14,72.57,,,,Single-ply,SBD,M
Boys,67.13,DQ,Brand Halliburton,Anna,61.05,,,,,Single-ply,SBD,M
Boys,67.13,DQ,Jose Noyola,Aubrey,66.77,,,,,Single-ply,SBD,M
Boys,67.13,DQ,Edgar Aguirre,Everman,63.96,,,,,Single-ply,SBD,M
Boys,67.13,DQ,Chase Taylor,Ponder,66.13,147.42,,,,Single-ply,SBD,M
Boys,67.13,DQ,Chris Harmon,Tom Bean,62.14,,,,,Single-ply,SBD,M
Boys,67.13,DQ,Clayton Knight,Whitesboro,64.23,,,,,Single-ply,SBD,M
Boys,74.84,1,John Wims,Detroit,73.03,208.65,142.88,215.46,566.99,Single-ply,SBD,M
Boys,74.84,2,Finlee Rudicile,Farmersville,72.48,208.65,129.27,199.58,537.51,Single-ply,SBD,M
Boys,74.84,3,Bryce Petty,Valley View,73.94,188.24,124.74,188.24,501.22,Single-ply,SBD,M
Boys,74.84,4,Bryce Jurca,Celeste,74.39,174.63,106.59,215.46,496.68,Single-ply,SBD,M
Boys,74.84,5,Cody Hunter,Sherman,70.03,174.63,115.67,188.24,478.54,Single-ply,SBD,M
Boys,74.84,6,Lee Hubbard,Gainesville,73.39,185.97,124.74,167.83,478.54,Single-ply,SBD,M
Boys,74.84,7,Landon Steward,Aubrey,70.31,181.44,92.99,181.44,455.86,Single-ply,SBD,M
Boys,74.84,8,Keatyn Eitelman,Pottsboro,69.31,181.44,95.25,172.37,449.06,Single-ply,SBD,M
Boys,74.84,9,Kaman Seals,Celeste,73.12,174.63,97.52,174.63,446.79,Single-ply,SBD,M
Boys,74.84,10,Gage Moore,Sadler S & S Cons,74.75,140.61,104.33,165.56,410.5,Single-ply,SBD,M
Boys,74.84,11,Larson Bryce,Aubrey,68.67,151.95,86.18,151.95,390.09,Single-ply,SBD,M
Boys,74.84,12,Jordan Billons,Prosper,68.13,133.81,79.38,167.83,381.02,Single-ply,SBD,M
Boys,74.84,13,Gabe Clark,Anna,68.22,147.42,77.11,151.95,376.48,Single-ply,SBD,M
Boys,74.84,14,Giancarlo Lopez,Aubrey,71.58,131.54,77.11,165.56,374.21,Single-ply,SBD,M
Boys,74.84,15,Terrance Clark,Ponder,73.48,136.08,81.65,149.69,367.41,Single-ply,SBD,M
Boys,74.84,16,Dalton Doyle,Leonard,72.85,124.74,90.72,149.69,365.14,Single-ply,SBD,M
Boys,74.84,17,Slater James,Blue Ridge,72.76,147.42,77.11,138.35,362.87,Single-ply,SBD,M
Boys,74.84,18,Gabe Gibson,Bells,73.48,102.06,68.04,124.74,294.84,Single-ply,SBD,M
Boys,74.84,19,Eli Godwin,Gunter,70.58,83.91,74.84,113.4,272.16,Single-ply,SBD,M
Boys,74.84,20,Kyle Morris,Whitewright,74.03,102.06,61.23,106.59,269.89,Single-ply,SBD,M
Boys,74.84,DQ,Aidan Hicks,Pattonville Prairiland,74.12,149.69,,,,Single-ply,SBD,M
Boys,74.84,DQ,Christian Sevier,Aubrey,68.49,142.88,,,,Single-ply,SBD,M
Boys,74.84,DQ,Victor Martinez,Anna,74.03,176.9,,,,Single-ply,SBD,M
Boys,74.84,DQ,Jacob Parrish,Gunter,69.76,113.4,,,,Single-ply,SBD,M
Boys,74.84,DQ,Micah Justice,Sherman,74.66,,,,,Single-ply,SBD,M
Boys,74.84,DQ,Dwayne Wilson,Gainesville,74.84,199.58,83.91,154.22,,Single-ply,SBD,M
Boys,82.1,1,Amyri Cox,Anna,80.38,213.19,127.01,229.06,569.26,Single-ply,SBD,M
Boys,82.1,2,Jaxson Runicile,Farmersville,80.74,197.31,149.69,210.92,557.92,Single-ply,SBD,M
Boys,82.1,3,Connor Glass,Sadler S & S Cons,78.47,206.38,113.4,204.12,523.9,Single-ply,SBD,M
Boys,82.1,4,Trevor Coglon,Bells,81.28,183.7,136.08,204.12,523.9,Single-ply,SBD,M
Boys,82.1,5,Cabe Parham,Prosper,81.47,183.7,142.88,192.78,519.36,Single-ply,SBD,M
Boys,82.1,6,Jake Taylor,Van Alstyne,79.92,197.31,106.59,208.65,512.56,Single-ply,SBD,M
Boys,82.1,7,Hunter Griffin,Van Alstyne,81.37,201.85,115.67,188.24,505.76,Single-ply,SBD,M
Boys,82.1,8,Kaleb Graham,Tom Bean,81.28,174.63,113.4,185.97,474,Single-ply,SBD,M
Boys,82.1,9,Mason Ford,Gainesville,79.47,158.76,102.06,181.44,442.25,Single-ply,SBD,M
Boys,82.1,10,Garrett Kemp,Whitesboro,80.74,147.42,111.13,181.44,439.98,Single-ply,SBD,M
Boys,82.1,11,DJ Brown,Leonard,78.2,161.03,106.59,170.1,437.72,Single-ply,SBD,M
Boys,82.1,12,Cameron Carroll,Ponder,80.47,156.49,95.25,181.44,433.18,Single-ply,SBD,M
Boys,82.1,13,Ryan Robinson,Bonham,76.2,172.37,92.99,163.29,428.64,Single-ply,SBD,M
Boys,82.1,14,Robert Singleton,Gainesville,76.57,167.83,102.06,156.49,426.38,Single-ply,SBD,M
Boys,82.1,15,Brady Henslee,Celeste,82.1,154.22,108.86,158.76,421.84,Single-ply,SBD,M
Boys,82.1,16,Reed Strittmatter,Aubrey,79.65,151.95,81.65,172.37,405.97,Single-ply,SBD,M
Boys,82.1,17,Hayden Thomas,Pattonville Prairiland,78.56,140.61,99.79,158.76,399.16,Single-ply,SBD,M
Boys,82.1,18,John Wheeler,Leonard,77.2,138.35,99.79,154.22,392.36,Single-ply,SBD,M
Boys,82.1,19,Granger Ervin,Pattonville Prairiland,77.56,145.15,70.31,172.37,387.82,Single-ply,SBD,M
Boys,82.1,20,Nate Harris,Leonard,75.93,147.42,83.91,154.22,385.55,Single-ply,SBD,M
Boys,82.1,21,Kolton Rohrbough,Callisburg,80.74,142.88,72.57,158.76,374.21,Single-ply,SBD,M
Boys,82.1,22,Victor Fernandez,Ponder,81.28,133.81,90.72,140.61,365.14,Single-ply,SBD,M
Boys,82.1,23,Kody Langham,Whitewright,80.47,131.54,90.72,136.08,358.34,Single-ply,SBD,M
Boys,82.1,24,Josh Hysmith,Denison,79.74,117.93,90.72,145.15,353.8,Single-ply,SBD,M
Boys,82.1,25,Joseph Serna,Callisburg,81.65,117.93,74.84,136.08,328.85,Single-ply,SBD,M
Boys,82.1,26,Jacob Weir,Callisburg,81.92,115.67,68.04,142.88,326.59,Single-ply,SBD,M
Boys,82.1,27,Jacob Cates,Blue Ridge,76.38,102.06,79.38,115.67,297.1,Single-ply,SBD,M
Boys,82.1,28,Jax Gage,Whitewright,79.38,77.11,52.16,102.06,231.33,Single-ply,SBD,M
Boys,82.1,DQ,William Fields,Callisburg,80.38,133.81,97.52,,,Single-ply,SBD,M
Boys,82.1,DQ,Michael Pruitt,Callisburg,81.74,113.4,,,,Single-ply,SBD,M
Boys,82.1,DQ,Lane Dophied,Gunter,80.1,,,,,Single-ply,SBD,M
Boys,89.81,1,Leroy Bolden,Farmersville,86.91,285.76,167.83,240.4,694,Single-ply,SBD,M
Boys,89.81,2,Edgar Guzman,Everman,87.82,238.14,102.06,238.14,578.33,Single-ply,SBD,M
Boys,89.81,3,Rainier Corral,Valley View,88,206.38,122.47,215.46,544.31,Single-ply,SBD,M
Boys,89.81,4,Markos Morales,Whitesboro,88.54,190.51,120.2,224.53,535.24,Single-ply,SBD,M
Boys,89.81,5,Chris Gidney,Blue Ridge,84.73,181.44,136.08,201.85,519.36,Single-ply,SBD,M
Boys,89.81,6,Seth Baucum,Callisburg,85,192.78,113.4,204.12,510.29,Single-ply,SBD,M
Boys,89.81,7,Ethan Ellis,Denison,89.81,183.7,127.01,192.78,503.49,Single-ply,SBD,M
Boys,89.81,8,Malachi Edwards,Prosper,87.27,176.9,111.13,190.51,478.54,Single-ply,SBD,M
Boys,89.81,9,Coby Barnes,Wolfe City,83.37,176.9,113.4,158.76,449.06,Single-ply,SBD,M
Boys,89.81,10,Luis Hernandez,Collinsville,87.18,158.76,104.33,181.44,444.52,Single-ply,SBD,M
Boys,89.81,11,Martavious Hill,Aubrey,82.19,176.9,83.91,176.9,437.72,Single-ply,SBD,M
Boys,89.81,12,Lawson Moore,Whitewright,84.64,151.95,115.67,165.56,433.18,Single-ply,SBD,M
Boys,89.81,13,Dakota Butrill,Denison,85.09,158.76,88.45,181.44,428.64,Single-ply,SBD,M
Boys,89.81,14,Caden Joyce,Anna,83.1,172.37,74.84,179.17,426.38,Single-ply,SBD,M
Boys,89.81,15,Martin Grijalva,Sherman,89.54,138.35,111.13,170.1,419.57,Single-ply,SBD,M
Boys,89.81,16,Adrian De La Cruz,Pottsboro,87.82,158.76,92.99,158.76,410.5,Single-ply,SBD,M
Boys,89.81,17,Kale Perkins,Leonard,89.18,142.88,86.18,154.22,383.29,Single-ply,SBD,M
Boys,89.81,18,Shane Davis,Whitewright,86.91,142.88,92.99,142.88,378.75,Single-ply,SBD,M
Boys,89.81,19,Brady Knabe,Collinsville,82.92,145.15,86.18,138.35,369.68,Single-ply,SBD,M
Boys,89.81,20,Gabe Rivera,Bells,84.46,124.74,83.91,158.76,367.41,Single-ply,SBD,M
Boys,89.81,21,Bill Watson,Leonard,89.09,142.88,74.84,149.69,367.41,Single-ply,SBD,M
Boys,89.81,22,Josh Phillips,Bonham,89.81,131.54,90.72,131.54,353.8,Single-ply,SBD,M
Boys,89.81,23,Luke Porter,Bonham,87.36,113.4,122.47,113.4,349.27,Single-ply,SBD,M
Boys,89.81,24,Julius Carraway,Whitewright,88,120.2,74.84,151.95,347,Single-ply,SBD,M
Boys,89.81,DQ,Cameron Dodson,Blue Ridge,87.36,72.57,,,,Single-ply,SBD,M
Boys,89.81,DQ,Pablo Peralta,Pattonville Prairiland,82.46,,,,,Single-ply,SBD,M
Boys,89.81,DQ,Hoaky De Ada,Callisburg,86.55,104.33,,,,Single-ply,SBD,M
Boys,89.81,DQ,Sam Whittenburg,Sadler S & S Cons,87.54,183.7,,,,Single-ply,SBD,M
Boys,99.79,1,Yovanni Juarez,Gainesville,93.35,274.42,161.03,226.8,662.24,Single-ply,SBD,M
Boys,99.79,2,Malyk Newsome,Everman,98.16,260.82,136.08,260.82,657.71,Single-ply,SBD,M
Boys,99.79,3,Devin Miller,Gainesville,95.25,249.48,183.7,206.38,639.57,Single-ply,SBD,M
Boys,99.79,4,Erik Gonzales,Valley View,99.61,249.48,151.95,217.72,619.15,Single-ply,SBD,M
Boys,99.79,5,Trenton Croke,Detroit,98.25,244.94,142.88,199.58,587.4,Single-ply,SBD,M
Boys,99.79,6,Graham Ledbetter,Whitesboro,89.99,219.99,127.01,233.6,580.6,Single-ply,SBD,M
Boys,99.79,7,Brendon Kirk,Callisburg,97.89,229.06,122.47,226.8,578.33,Single-ply,SBD,M
Boys,99.79,8,Colby Hammond,Callisburg,98.07,213.19,124.74,199.58,537.51,Single-ply,SBD,M
Boys,99.79,9,Brandon Hubert,Pottsboro,96.89,188.24,108.86,192.78,489.88,Single-ply,SBD,M
Boys,99.79,10,José Cortés,Pattonville Prairiland,89.9,183.7,108.86,192.78,485.34,Single-ply,SBD,M
Boys,99.79,11,Josh Stathis,Prosper,92.9,170.1,122.47,181.44,474,Single-ply,SBD,M
Boys,99.79,12,Jacob Kennedy,Bonham,99.43,170.1,92.99,185.97,449.06,Single-ply,SBD,M
Boys,99.79,13,Brandon Willeford,Prosper,99.06,161.03,115.67,170.1,446.79,Single-ply,SBD,M
Boys,99.79,14,James Eckrote,Prosper,93.53,154.22,102.06,181.44,437.72,Single-ply,SBD,M
Boys,99.79,15,Ben Braham,Bells,94.17,165.56,92.99,170.1,428.64,Single-ply,SBD,M
Boys,99.79,16,Jackson Adkins,Howe,93.98,158.76,99.79,151.95,410.5,Single-ply,SBD,M
Boys,99.79,17,Chance Pittner,Sadler S & S Cons,97.61,158.76,117.93,133.81,410.5,Single-ply,SBD,M
Boys,99.79,18,Edward Shell,Ponder,98.88,165.56,83.91,158.76,408.23,Single-ply,SBD,M
Boys,99.79,19,Aaron Calijema,Aubrey,99.16,170.1,83.91,151.95,405.97,Single-ply,SBD,M
Boys,99.79,20,Worth Lacy,Bonham,96.62,147.42,86.18,140.61,374.21,Single-ply,SBD,M
Boys,99.79,21,Luke Jackson,Howe,99.7,136.08,79.38,124.74,340.19,Single-ply,SBD,M
Boys,99.79,22,Billy Millican,Van Alstyne,93.35,124.74,68.04,124.74,317.51,Single-ply,SBD,M
Boys,99.79,DQ,Mason Doyle,Denison,99.52,170.1,,,,Single-ply,SBD,M
Boys,109.77,1,Dylan Kays,Collinsville,108.32,272.16,154.22,254.01,680.39,Single-ply,SBD,M
Boys,109.77,2,Drew Williams,Denison,108.68,263.08,149.69,199.58,612.35,Single-ply,SBD,M
Boys,109.77,3,Brody Wiggins,Blue Ridge,106.14,226.8,163.29,215.46,605.55,Single-ply,SBD,M
Boys,109.77,4,Jacob Batson,Farmersville,108.23,222.26,138.35,242.67,603.28,Single-ply,SBD,M
Boys,109.77,5,Tanner Young,Whitesboro,101.24,226.8,136.08,233.6,596.47,Single-ply,SBD,M
Boys,109.77,6,Eddie Veal,Everman,102.97,226.8,140.61,226.8,594.21,Single-ply,SBD,M
Boys,109.77,7,Izaiah Olalde,Everman,108.59,238.14,151.95,204.12,594.21,Single-ply,SBD,M
Boys,109.77,8,Jesse Coffey,Gainesville,108.59,188.24,154.22,188.24,530.7,Single-ply,SBD,M
Boys,109.77,9,Blake Peters,Bells,108.05,183.7,124.74,197.31,505.76,Single-ply,SBD,M
Boys,109.77,10,Armando Chavez,Sherman,106.87,170.1,120.2,201.85,492.15,Single-ply,SBD,M
Boys,109.77,11,Tin Le,Gainesville,106.68,199.58,108.86,167.83,476.27,Single-ply,SBD,M
Boys,109.77,12,Brayden Berger,Aubrey,105.51,172.37,92.99,190.51,455.86,Single-ply,SBD,M
Boys,109.77,13,Matt Billmeier,Sadler S & S Cons,109.59,151.95,131.54,165.56,449.06,Single-ply,SBD,M
Boys,109.77,14,Brandon Woods,Whitewright,101.06,147.42,124.74,163.29,435.45,Single-ply,SBD,M
Boys,109.77,15,Grant Turner,Aubrey,107.86,161.03,90.72,170.1,421.84,Single-ply,SBD,M
Boys,109.77,16,Winston Onyemaechi,Prosper,103.87,158.76,104.33,142.88,405.97,Single-ply,SBD,M
Boys,109.77,17,Brian DeLeon,Ponder,106.41,158.76,83.91,154.22,396.89,Single-ply,SBD,M
Boys,109.77,18,Joel Byler,Pottsboro,107.5,113.4,77.11,136.08,326.59,Single-ply,SBD,M
Boys,109.77,DQ,Nash Gagliano,Prosper,106.5,138.35,97.52,,,Single-ply,SBD,M
Boys,109.77,DQ,Jake Smallwood,Van Alstyne,105.51,149.69,,,,Single-ply,SBD,M
Boys,109.77,DQ,Jordin Hunter,Denison,103.24,183.7,,,,Single-ply,SBD,M
Boys,109.77,DQ,Logan O'Neil,Aubrey,103.69,,,,,Single-ply,SBD,M
Boys,109.77,DQ,Brandon Griffin,Sherman Texoma Christian School,103.15,,,,,Single-ply,SBD,M
Boys,124.74,1,Daniel Dowling,Bonham,113.13,317.51,181.44,226.8,725.75,Single-ply,SBD,M
Boys,124.74,2,Estaban Curvantes,Valley View,121.38,274.42,142.88,235.87,653.17,Single-ply,SBD,M
Boys,124.74,3,Jalan Henderson,Everman,122.56,226.8,136.08,226.8,589.67,Single-ply,SBD,M
Boys,124.74,4,Kyle Brooks,Denison,118.75,226.8,138.35,217.72,582.87,Single-ply,SBD,M
Boys,124.74,5,Kamron Rogers,Leonard,118.12,254.01,127.01,199.58,580.6,Single-ply,SBD,M
Boys,124.74,6,Jose Conejo,Denison,114.03,226.8,138.35,183.7,548.85,Single-ply,SBD,M
Boys,124.74,7,Bryce Lowrey,Leonard,122.38,204.12,147.42,188.24,539.77,Single-ply,SBD,M
Boys,124.74,8,Wes Brooks,Denison,118.57,215.46,113.4,183.7,512.56,Single-ply,SBD,M
Boys,124.74,9,Daniel Herandez,Everman,114.49,204.12,113.4,192.78,510.29,Single-ply,SBD,M
Boys,124.74,10,Johan de la Rosa,Gainesville,119.2,183.7,124.74,174.63,483.08,Single-ply,SBD,M
Boys,124.74,11,Casey Pounds,Lindsay,111.95,181.44,113.4,170.1,464.93,Single-ply,SBD,M
Boys,124.74,12,Dayne Kelley,Sherman Texoma Christian School,113.31,179.17,113.4,161.03,453.59,Single-ply,SBD,M
Boys,124.74,13,Parker Mahan,Wolfe City,113.76,172.37,104.33,161.03,437.72,Single-ply,SBD,M
Boys,124.74,14,Reagan Spencer,Gunter,121.65,165.56,102.06,154.22,421.84,Single-ply,SBD,M
Boys,124.74,15,Luke Rogers,Lindsay,110.77,156.49,77.11,136.08,369.68,Single-ply,SBD,M
Boys,124.74,16,Max Figueroa,Wolfe City,113.22,111.13,90.72,102.06,303.91,Single-ply,SBD,M
Boys,124.74,17,Mark Garrison,Gunter,113.94,113.4,79.38,106.59,299.37,Single-ply,SBD,M
Boys,124.74,DQ,Josh Cortez,Ponder,116.21,,,,,Single-ply,SBD,M
Boys,124.74,DQ,Tyler Russel,Whitewright,118.3,,,,,Single-ply,SBD,M
Boys,124.74+,1,Tekarius Walton,Sherman,141.52,238.14,154.22,240.4,632.76,Single-ply,SBD,M
Boys,124.74+,2,Tyler Smith,Sherman,142.34,222.26,113.4,235.87,571.53,Single-ply,SBD,M
Boys,124.74+,3,Oscar Jaure,Everman,139.16,238.14,136.08,195.04,569.26,Single-ply,SBD,M
Boys,124.74+,4,Chris Tobar,Sherman,130.82,217.72,142.88,190.51,551.11,Single-ply,SBD,M
Boys,124.74+,5,Chris Willson,Bonham,162.84,199.58,142.88,208.65,551.11,Single-ply,SBD,M
Boys,124.74+,6,D'Marrya Searcy,Everman,143.52,204.12,136.08,204.12,544.31,Single-ply,SBD,M
Boys,124.74+,7,Colby McAdams,Leonard,140.07,197.31,136.08,185.97,519.36,Single-ply,SBD,M
Boys,124.74+,8,Drake Stephens,Bells,143.7,204.12,106.59,170.1,480.81,Single-ply,SBD,M
Boys,124.74+,9,Elijah McFarlan,Bonham,180.62,149.69,124.74,156.49,430.91,Single-ply,SBD,M
Boys,124.74+,10,William Fleming,Howe,127.91,172.37,81.65,142.88,396.89,Single-ply,SBD,M
Boys,124.74+,11,Dylan Williston,Bells,161.61,136.08,88.45,140.61,365.14,Single-ply,SBD,M
Boys,124.74+,12,Ethan Moore,Valley View,138.98,113.4,72.57,124.74,310.71,Single-ply,SBD,M
Boys,124.74+,DQ,Isaac Bower,Valley View,132.45,154.22,,,,Single-ply,SBD,M
Boys,124.74+,DQ,Addison Crockett,Valley View,125.28,,,,,Single-ply,SBD,M
Boys,124.74+,DQ,Aaron Prideaux,Prosper,143.06,,,,,Single-ply,SBD,M
