Division,WeightClassKg,Place,Name,Team,BodyweightKg,Best3SquatKg,Best3BenchKg,Best3DeadliftKg,TotalKg,Equipment,Event,Sex
Boys,51.71,1,Devin Bandow,Lago Vista,51.07,129.27,72.57,122.47,324.32,Single-ply,SBD,M
Boys,51.71,2,Kade Pace,Lago Vista,49.8,97.52,54.43,113.4,265.35,Single-ply,SBD,M
Boys,51.71,3,Payton Melchor,Liberty Hill,46.72,102.06,49.9,106.59,258.55,Single-ply,SBD,M
Boys,51.71,4,Clayton Whitmire,Little River Academy,48.26,92.99,54.43,111.13,258.55,Single-ply,SBD,M
Boys,51.71,5,Colt Baranowski,Smithville,38.92,88.45,43.09,102.06,233.6,Single-ply,SBD,M
Boys,51.71,6,Mason Johnson,Gatesville,44.36,92.99,47.63,90.72,231.33,Single-ply,SBD,M
Boys,51.71,7,Clayton Tomes,Smithville,51.17,72.57,43.09,43.09,158.76,Single-ply,SBD,M
Boys,51.71,DQ,Zane Timpson,Smithville,44.91,79.38,,,,Single-ply,SBD,M
Boys,55.79,1,Noah Pachicano,Taylor,52.8,147.42,88.45,158.76,394.63,Single-ply,SBD,M
Boys,55.79,2,Kip Ross,Lago Vista,55.61,129.27,74.84,151.95,356.07,Single-ply,SBD,M
Boys,55.79,3,Wren Bagley,Salado,55.79,124.74,74.84,145.15,344.73,Single-ply,SBD,M
Boys,55.79,4,Avery Rodriguez,Cameron Yoe,54.61,122.47,65.77,145.15,333.39,Single-ply,SBD,M
Boys,55.79,DQ,Evan Barabas,Little River Academy,54.79,81.65,,,,Single-ply,SBD,M
Boys,59.87,1,Isaiah Mesa,Taylor,58.88,188.24,124.74,215.46,528.44,Single-ply,SBD,M
Boys,59.87,2,Fernando Maldonado,Smithville,59.33,138.35,104.33,181.44,424.11,Single-ply,SBD,M
Boys,59.87,3,Daniel Kelso,Lago Vista,58.51,142.88,83.91,149.69,376.48,Single-ply,SBD,M
Boys,59.87,4,Justin Dunivant,Little River Academy,58.42,138.35,72.57,149.69,360.61,Single-ply,SBD,M
Boys,67.13,1,Kaden Trice,Salado,67.13,206.38,104.33,213.19,523.9,Single-ply,SBD,M
Boys,67.13,2,Nathaniel Olvera,Smithville,65.59,190.51,113.4,204.12,508.02,Single-ply,SBD,M
Boys,67.13,3,Matthew Kocian,Taylor,66.68,174.63,92.99,183.7,451.32,Single-ply,SBD,M
Boys,67.13,4,Connor Reighly,Lago Vista,65.68,165.56,90.72,183.7,439.98,Single-ply,SBD,M
Boys,67.13,5,Bryce McEndree,Salado,65.5,158.76,88.45,147.42,394.63,Single-ply,SBD,M
Boys,67.13,6,Alex Aguillon,Cameron Yoe,67.04,142.88,74.84,172.37,390.09,Single-ply,SBD,M
Boys,67.13,7,Gavin Freeman,Little River Academy,63.23,149.69,70.31,158.76,378.75,Single-ply,SBD,M
Boys,67.13,8,Trey Motyka,Smithville,62.32,136.08,74.84,149.69,360.61,Single-ply,SBD,M
Boys,67.13,9,Raul Arizola,Smithville,60.33,124.74,86.18,142.88,353.8,Single-ply,SBD,M
Boys,67.13,10,Treyton Bates,Little River Academy,62.32,122.47,65.77,145.15,333.39,Single-ply,SBD,M
Boys,74.84,1,Daniel Hernandez,Taylor,74.3,251.74,124.74,233.6,610.08,Single-ply,SBD,M
Boys,74.84,2,Tyler Stairs,Salado,74.84,188.24,113.4,210.92,512.56,Single-ply,SBD,M
Boys,74.84,3,Moe Bryson,Lago Vista,73.66,183.7,83.91,217.72,485.34,Single-ply,SBD,M
Boys,74.84,4,Andrew Wyatt,Smithville,72.21,163.29,117.93,188.24,469.47,Single-ply,SBD,M
Boys,74.84,5,Tydrick Williams,Cameron Yoe,73.03,163.29,113.4,183.7,460.4,Single-ply,SBD,M
Boys,74.84,6,Taylor Sands,Little River Academy,73.57,163.29,92.99,183.7,439.98,Single-ply,SBD,M
Boys,74.84,7,Jacob Williams,Gatesville,74.84,158.76,95.25,176.9,430.91,Single-ply,SBD,M
Boys,74.84,8,Christian Yannis,Taylor,71.76,156.49,77.11,190.51,424.11,Single-ply,SBD,M
Boys,74.84,9,Briley Yancey,Smithville,74.03,156.49,104.33,156.49,417.3,Single-ply,SBD,M
Boys,74.84,10,Brandon McEndree,Salado,69.58,158.76,86.18,167.83,412.77,Single-ply,SBD,M
Boys,74.84,11,Luke Whiteley,Little River Academy,72.39,145.15,99.79,163.29,408.23,Single-ply,SBD,M
Boys,74.84,12,Bailey Janisch,Gatesville,74.03,138.35,92.99,161.03,392.36,Single-ply,SBD,M
Boys,74.84,13,Dylan Kurz,Cameron Yoe,67.31,147.42,81.65,142.88,371.95,Single-ply,SBD,M
Boys,74.84,14,Colton Vansa,Little River Academy,73.21,129.27,81.65,136.08,347,Single-ply,SBD,M
Boys,74.84,15,Bryce Bowling,Little River Academy,73.94,133.81,68.04,142.88,344.73,Single-ply,SBD,M
Boys,82.1,1,Everado Araujo,Taylor,79.83,265.35,151.95,256.28,673.58,Single-ply,SBD,M
Boys,82.1,2,Jesus Oranday,Taylor,78.29,249.48,129.27,217.72,596.47,Single-ply,SBD,M
Boys,82.1,3,Van Shamblin,Liberty Hill,77.29,249.48,129.27,204.12,582.87,Single-ply,SBD,M
Boys,82.1,4,Hunter Douzat,Little River Academy,77.56,231.33,127.01,210.92,569.26,Single-ply,SBD,M
Boys,82.1,5,Fernando Fernandez,Chilton,81.19,185.97,122.47,206.38,514.83,Single-ply,SBD,M
Boys,82.1,6,Landry Bolin,Liberty Hill,75.21,151.95,92.99,176.9,421.84,Single-ply,SBD,M
Boys,82.1,7,Lakota Lawrence,Liberty Hill,81.19,149.69,106.59,163.29,419.57,Single-ply,SBD,M
Boys,82.1,8,John Santos,Cameron Yoe,75.02,142.88,72.57,170.1,385.55,Single-ply,SBD,M
Boys,82.1,DQ,Ryan Hill,Lago Vista,75.21,,,,,Single-ply,SBD,M
Boys,82.1,DQ,Lance Spakes,Salado,80.01,210.92,,,,Single-ply,SBD,M
Boys,89.81,1,Chris Hatch,Taylor,85.73,240.4,165.56,224.53,630.49,Single-ply,SBD,M
Boys,89.81,2,Andrew Becker,Liberty Hill,89.63,181.44,142.88,190.51,514.83,Single-ply,SBD,M
Boys,89.81,3,Kody Knowles,Liberty Hill,88.36,185.97,99.79,208.65,494.42,Single-ply,SBD,M
Boys,89.81,4,Bob Cunningham,Salado,89.63,199.58,102.06,183.7,485.34,Single-ply,SBD,M
Boys,89.81,5,Connor Simms,Lago Vista,88,174.63,97.52,174.63,446.79,Single-ply,SBD,M
Boys,89.81,6,Connor Laughrin,Gatesville,89.63,142.88,83.91,136.08,362.87,Single-ply,SBD,M
Boys,89.81,7,Colton Hanacik,Taylor,87.72,120.2,77.11,147.42,344.73,Single-ply,SBD,M
Boys,89.81,DQ,Martin Navarrete,Taylor,85.82,167.83,,,,Single-ply,SBD,M
Boys,89.81,DQ,Blake Carr,Lago Vista,89.54,,,,,Single-ply,SBD,M
Boys,99.79,1,Dakota Corbut,Liberty Hill,98.61,256.28,172.37,276.69,705.34,Single-ply,SBD,M
Boys,99.79,2,Isaac Weathers,Chilton,97.89,183.7,117.93,201.85,503.49,Single-ply,SBD,M
Boys,99.79,3,Juan Castillo,Salado,96.34,156.49,90.72,183.7,430.91,Single-ply,SBD,M
Boys,99.79,4,Jacob Snoddy,Gatesville,97.79,138.35,97.52,149.69,385.55,Single-ply,SBD,M
Boys,99.79,5,Trace Lopez,Taylor,95.44,122.47,58.97,129.27,310.71,Single-ply,SBD,M
Boys,99.79,DQ,Justin Wilson #4,Liberty Hill,96.62,183.7,120.2,,,Single-ply,SBD,M
Boys,99.79,DQ,Richie Bowling,Lago Vista,94.53,,,,,Single-ply,SBD,M
Boys,109.77,1,Paul Dominguez,Taylor,109.23,310.71,192.78,247.21,750.7,Single-ply,SBD,M
Boys,109.77,2,Michael Els,Lago Vista,102.51,249.48,170.1,217.72,637.3,Single-ply,SBD,M
Boys,109.77,3,Charles Cloughly,Liberty Hill,107.95,251.74,145.15,213.19,610.08,Single-ply,SBD,M
Boys,109.77,4,Kyle Huppee,Liberty Hill,102.06,215.46,142.88,215.46,573.79,Single-ply,SBD,M
Boys,109.77,5,Chandler Strmiska,Little River Academy,100.61,204.12,142.88,206.38,553.38,Single-ply,SBD,M
Boys,109.77,6,Kalob Barho,Smithville,104.96,204.12,117.93,204.12,526.17,Single-ply,SBD,M
Boys,124.74,1,Bailey Adair,Gatesville,118.02,249.48,183.7,224.53,657.71,Single-ply,SBD,M
Boys,124.74,2,Brandon Taylor,Gatesville,110.4,226.8,154.22,242.67,623.69,Single-ply,SBD,M
Boys,124.74,3,Adrian Lewis,Cameron Yoe,122.92,190.51,117.93,185.97,494.42,Single-ply,SBD,M
Boys,124.74,4,Crispin Salinas,Chilton,123.56,197.31,95.25,195.04,487.61,Single-ply,SBD,M
Boys,124.74,5,Jim Hitchcock,Gatesville,115.3,170.1,92.99,167.83,430.91,Single-ply,SBD,M
Boys,124.74,6,Hayden Frincke,Little River Academy,113.67,145.15,106.59,158.76,410.5,Single-ply,SBD,M
Boys,124.74,7,Ted Anderson,Smithville,111.95,136.08,86.18,120.2,342.46,Single-ply,SBD,M
Boys,124.74+,1,Jonah Bassa,Salado,144.97,274.42,136.08,226.8,637.3,Single-ply,SBD,M
Boys,124.74+,2,Drew Thigpen,Little River Academy,140.7,272.16,151.95,181.44,605.55,Single-ply,SBD,M
Boys,124.74+,3,Jared Tippie,Liberty Hill,124.92,195.04,88.45,199.58,483.08,Single-ply,SBD,M
Boys,124.74+,4,Brian McDonald,Cameron Yoe,133.08,149.69,81.65,142.88,374.21,Single-ply,SBD,M
