Place,Sex,Name,CyrillicName,BodyweightKg,Bench1Kg,Bench2Kg,Bench3Kg,Best3BenchKg,Bench4Kg,TotalKg,WeightClassKg,Event,Equipment,Tested,Deadlift1Kg,Deadlift2Kg,Deadlift3Kg,Best3DeadliftKg,Deadlift4Kg,Division,Age,BirthDate
1,F,Olga Gorshenina,Ольга Горшенина,46.9,42.5,45,-47.5,45,,45,48,B,Raw,No,,,,,,Pro Open,33,1985-01-10
1,F,Gulnara Kapitonova,Гульнара Капитонова,59.7,67.5,72.5,75,75,,75,60,B,Raw,No,,,,,,Pro Open,29,1989-09-15
1,F,Anita Boychuk,Анита Бойчук,65,67.5,72.5,75,75,,75,67.5,B,Raw,No,,,,,,Pro Open,24,1994-11-07
2,F,Anna Stroganova,Анна Строганова,64.1,67.5,-72.5,-72.5,67.5,,67.5,67.5,B,Raw,No,,,,,,Pro Open,28,1990-02-24
1,M,Nikita Arbatskiy,Никита Арбатский,54.1,55,60,-65,60,,60,56,B,Raw,No,,,,,,Pro Teen 13-19,16,2002-03-03
1,M,Georgiy Kuzmin,Георгий Кузьмин,67.5,105,112.5,-117.5,112.5,,112.5,67.5,B,Raw,No,,,,,,Pro Teen 17-19,17,2001-08-15
2,M,Timur Tyumenyuk,Тимур Тюменюк,65.3,100,-107.5,107.5,107.5,,107.5,67.5,B,Raw,No,,,,,,Pro Teen,19,1999-11-13
1,M,Andrey Grigorev,Андрей Григорьев,72.5,110,-115,-115,110,,110,75,B,Raw,No,,,,,,Pro Open,35,1983-01-20
2,M,Viktor Dotsenko,Виктор Доценко,72.9,-92.5,92.5,-100,92.5,,92.5,75,B,Raw,No,,,,,,Pro Open,23,1995-05-30
1,M,Pyotr Kosyanchuk,Пётр Косянчук,80.2,140,150,160,160,,160,82.5,B,Raw,No,,,,,,Pro Open,34,1984-08-07
1,M,Vadim Serebrennikov,Вадим Серебренников,78.6,90,100,-110,100,,100,82.5,B,Raw,No,,,,,,Pro Masters 50-59,54,1964-06-01
1,M,Aleksey Fedulov,Алексей Федулов,88.2,160,170,-175,170,,170,90,B,Raw,No,,,,,,Pro Open,,1984-04-01
2,M,Evgeniy Sobkalov,Евгений Собкалов,89.2,140,157.5,-160.5,157.5,,157.5,90,B,Raw,No,,,,,,Pro Open,31,1987-01-14
3,M,Sergey Cherednichenko,Сергей Чередниченко,88.8,140,145,-147.5,145,,145,90,B,Raw,No,,,,,,Pro Open,36,1982-02-25
DQ,M,Ilya Malygin,Илья Малыгин,88.9,-145,-150,-150,,,,90,B,Raw,No,,,,,,Pro Open,28,1990-03-19
1,M,Pavel Kuks,Павел Кукс,97.4,-167.5,-167.5,167.5,167.5,,167.5,100,B,Raw,No,,,,,,Pro Open,33,1985-10-05
1,M,Dmitriy Rudnev,Дмитрий Руднев,104.6,190,200,210,210,,210,110,B,Raw,No,,,,,,Pro Open,39,1979-03-10
2,M,Oleg Pashkov,Олег Пашков,105.8,190,205,210,210,,210,110,B,Raw,No,,,,,,Pro Open,32,1986-07-04
1,M,Aleksandr Frantsuzov,Александр Французов,110,175,-190,190,190,,190,110,B,Raw,No,,,,,,Pro Masters 40-49,41,1977-10-18
1,M,Nikita Pyatibratov,Никита Пятибратов,115.9,200,210,220,220,,220,125,B,Raw,No,,,,,,Pro Open,23,1995-11-03
2,M,Aleksey Tirskikh,Алексей Тирских,117.5,160,170,175,175,,175,125,B,Raw,No,,,,,,Pro Open,33,1985-10-04
1,M,Konstantin Vlasov,Константин Власов,128.4,172.5,-182.5,-182.5,172.5,,172.5,140,B,Raw,No,,,,,,Pro Masters 40-49,44,1974-08-03
1,F,Alina Guseva,Алина Гусева,47.6,,,,,,100,48,D,Raw,No,100,-105,,100,,Pro Masters 40-49,40,1978-03-31
1,M,Yan Veremeenko,Ян Веремеенко,73.8,,,,,,160,75,D,Raw,No,150,160,-170,160,,Pro Juniors,21,1997-06-04
1,M,Ilya Malygin,Илья Малыгин,88.9,,,,,,222.5,90,D,Raw,No,200,220,222.5,222.5,,Pro Open,28,1990-03-19
2,M,Aleksey Fedulov,Алексей Федулов,88.2,,,,,,220,90,D,Raw,No,190,205,220,220,,Pro Open,34,1984-04-01
3,M,Aleksey Skvortsov,Алексей Скворцов,85.5,,,,,,215,90,D,Raw,No,180,195,215,215,,Pro Open,31,1987-07-27
4,M,Evgeniy Nikitin,Евгений Никитин,89.9,,,,,,212.5,90,D,Raw,No,190,212.5,-225,212.5,,Pro Open,27,1991-11-12
1,M,Aleksey Nepomnyashchikh,Алексей Непомнящих,98.9,,,,,,245,100,D,Raw,No,200,220,245,245,,Pro Open,31,1987-01-27
2,M,Aleksandr Orlov,Александр Орлов,97.7,,,,,,230,100,D,Raw,No,200,220,230,230,,Pro Open,31,1987-03-04
3,M,Pavel Kuks,Павел Кукс,97.4,,,,,,205,100,D,Raw,No,185,195,205,205,,Pro Open,33,1985-10-05
1,M,Vasiliy Okrugin,Василий Округин,106.8,,,,,,290,110,D,Raw,No,260,280,290,290,,Pro Open,30,1988-11-22
2,M,Nikita Lavrentev,Никита Лаврентьев,108.9,,,,,,240,110,D,Raw,No,230,240,-250,240,,Pro Open,28,1990-01-08
3,M,Georgiy Yakovlev,Георгий Яковлев,101.5,,,,,,177.5,110,D,Raw,No,177.5,-205,-205,177.5,,Pro Open,35,1983-01-30
1,M,Nikita Pyatibratov,Никита Пятибратов,115.9,,,,,,300,125,D,Raw,No,260,280,300,300,,Pro Open,23,1995-11-03
2,M,Aleksandr Sorokovikov,Александр Сороковиков,119,,,,,,265,125,D,Raw,No,242.5,255,265,265,,Pro Open,35,1983-07-05
3,M,Vladislav Meshcheryakov,Владислав Мещеряков,111.9,,,,,,210,125,D,Raw,No,200,210,-220,210,,Pro Open,24,1994-10-21
