Division,WeightClassKg,Place,Name,Team,BodyweightKg,Best3SquatKg,Best3BenchKg,Best3DeadliftKg,TotalKg,Equipment,Event,Sex
Boys,51.71,1,Jacory Bellnamy,Houston Madison,50.62,90.72,45.36,104.33,240.4,Single-ply,SBD,M
Boys,51.71,2,Hunter Gartman,Clute Brazoswood,49.26,88.45,43.09,92.99,224.53,Single-ply,SBD,M
Boys,55.79,1,Carlos Salazar,Manvel,54.7,127.01,56.7,136.08,319.78,Single-ply,SBD,M
Boys,55.79,2,Brian Morales,Needville,55.16,111.13,72.57,131.54,315.25,Single-ply,SBD,M
Boys,55.79,3,Dominique Johnson,Beaumont Central,55.79,113.4,68.04,133.81,315.25,Single-ply,SBD,M
Boys,55.79,4,Jilani Austin,Needville,53.34,113.4,61.23,131.54,306.17,Single-ply,SBD,M
Boys,55.79,5,Matt Britt,Manvel,53.07,88.45,56.7,106.59,251.74,Single-ply,SBD,M
Boys,59.87,1,Jakob Rios,Clute Brazoswood,59.78,147.42,88.45,156.49,392.36,Single-ply,SBD,M
Boys,59.87,2,Cameron Guillen,Clute Brazoswood,57.06,117.93,79.38,145.15,342.46,Single-ply,SBD,M
Boys,59.87,3,Matt Rice,Conroe Oak Ridge,59.87,113.4,86.18,136.08,335.66,Single-ply,SBD,M
Boys,59.87,4,Ej Smith,Beaumont Ozen,59.87,58.97,54.43,120.2,233.6,Single-ply,SBD,M
Boys,59.87,DQ,Al Dehoyas,Houston Westbury,59.87,,,,,Single-ply,SBD,M
Boys,67.13,1,Tyler Marcel,Conroe Oak Ridge,66.22,199.58,136.08,213.19,548.85,Single-ply,SBD,M
Boys,67.13,2,Zachary Mutchler,Manvel,63.32,176.9,113.4,163.29,453.59,Single-ply,SBD,M
Boys,67.13,3,Osvaldo Sardina,Danbury,66.77,156.49,102.06,174.63,433.18,Single-ply,SBD,M
Boys,67.13,4,Dijon McHenry,Beaumont Central,64.68,151.95,86.18,165.56,403.7,Single-ply,SBD,M
Boys,67.13,5,Brandyn Ginyard,Pasadena Dobie,62.51,142.88,86.18,158.76,387.82,Single-ply,SBD,M
Boys,67.13,6,Brady Abowdy,Pearland,63.32,142.88,92.99,151.95,387.82,Single-ply,SBD,M
Boys,67.13,7,George San Miguel,Houston Milby,67.13,147.42,81.65,158.76,387.82,Single-ply,SBD,M
Boys,67.13,8,Roy Lewis,Houston Westbury,66.45,147.42,79.38,158.76,385.55,Single-ply,SBD,M
Boys,67.13,9,Saulo Olvera,Needville,64.32,136.08,97.52,147.42,381.02,Single-ply,SBD,M
Boys,67.13,10,James Scott,Beaumont Central,63.05,142.88,79.38,151.95,374.21,Single-ply,SBD,M
Boys,67.13,11,David Glover,Danbury,66.22,136.08,83.91,136.08,356.07,Single-ply,SBD,M
Boys,67.13,12,Zach Hile,Pearland,66.22,115.67,92.99,142.88,351.53,Single-ply,SBD,M
Boys,67.13,13,Shawn Glover,Danbury,61.92,124.74,86.18,129.27,340.19,Single-ply,SBD,M
Boys,67.13,14,Josh Rodriguez,Clute Brazoswood,64.14,127.01,68.04,136.08,331.12,Single-ply,SBD,M
Boys,67.13,15,Chase Dodge,Clute Brazoswood,66.22,120.2,83.91,127.01,331.12,Single-ply,SBD,M
Boys,67.13,16,Jamal Franklin,Houston Madison,66.22,83.91,65.77,124.74,274.42,Single-ply,SBD,M
Boys,67.13,DQ,Jacob Mears,Beaumont Ozen,63.96,,,,,Single-ply,SBD,M
Boys,67.13,DQ,Chance Sullivan,Pearland,67.13,,,,,Single-ply,SBD,M
Boys,67.13,DQ,Vernon Chaison,Port Arthur Memorial,66.41,,,,,Single-ply,SBD,M
Boys,67.13,DQ,Terrance Pitre,Port Arthur Memorial,61.78,113.4,,,,Single-ply,SBD,M
Boys,67.13,DQ,Edward Salazar,Houston Milby,67.13,,,,,Single-ply,SBD,M
Boys,67.13,DQ,Jose Lopez,Houston Milby,67.13,,,,,Single-ply,SBD,M
Boys,67.13,DQ,Matthew Rodriguez,Manvel,67.13,,,,,Single-ply,SBD,M
Boys,74.84,1,Mike Salazar,Manvel,73.03,192.78,120.2,183.7,496.68,Single-ply,SBD,M
Boys,74.84,2,Rodney Kinchen,Port Arthur Memorial,72.94,181.44,124.74,174.63,480.81,Single-ply,SBD,M
Boys,74.84,3,Bryston Braziel,Stafford,67.59,170.1,88.45,149.69,408.23,Single-ply,SBD,M
Boys,74.84,4,Jordan Aguilar,Clute Brazoswood,68.49,158.76,92.99,154.22,405.97,Single-ply,SBD,M
Boys,74.84,5,Dezmon Simpson,Beaumont Ozen,74.39,129.27,92.99,183.7,405.97,Single-ply,SBD,M
Boys,74.84,6,Chris Narcisse,Beaumont Ozen,73.75,136.08,111.13,142.88,390.09,Single-ply,SBD,M
Boys,74.84,7,R. Perry,Beaumont Ozen,74.21,136.08,92.99,154.22,383.29,Single-ply,SBD,M
Boys,74.84,8,Brandon Parmley,Manvel,70.49,140.61,83.91,147.42,371.95,Single-ply,SBD,M
Boys,74.84,9,Aaron Jordan,Pasadena Dobie,69.76,120.2,79.38,129.27,328.85,Single-ply,SBD,M
Boys,74.84,10,Darnell Murrell,Houston Madison,69.76,92.99,70.31,147.42,310.71,Single-ply,SBD,M
Boys,74.84,11,Harold Redo,Beaumont Central,68.04,108.86,63.5,136.08,308.44,Single-ply,SBD,M
Boys,74.84,12,Marquis Butler,Houston Madison,69.58,120.2,74.84,113.4,308.44,Single-ply,SBD,M
Boys,74.84,DQ,Charles Manuel,Alvin,72.21,172.37,,,,Single-ply,SBD,M
Boys,74.84,DQ,Nick Durst,Conroe Oak Ridge,74.84,197.31,,,,Single-ply,SBD,M
Boys,74.84,DQ,Kenneth Davis,Beaumont Ozen,74.84,,,,,Single-ply,SBD,M
Boys,74.84,DQ,Daniel Bonham,Houston Madison,74.84,,,,,Single-ply,SBD,M
Boys,74.84,DQ,Zachariah Andrade,Danbury,74.84,,,,,Single-ply,SBD,M
Boys,74.84,DQ,Javier Granados,Needville,74.84,,,,,Single-ply,SBD,M
Boys,74.84,DQ,Jose Garcia,Manvel,74.84,,,,,Single-ply,SBD,M
Boys,82.1,1,Jonathan Voltaire,Conroe Oak Ridge,81.74,204.12,124.74,210.92,539.77,Single-ply,SBD,M
Boys,82.1,2,Terrence Giles,Alvin,81.56,192.78,129.27,210.92,532.97,Single-ply,SBD,M
Boys,82.1,3,Leonard Owens,Manvel,78.83,183.7,127.01,188.24,498.95,Single-ply,SBD,M
Boys,82.1,4,Kwame Etwi,Conroe Oak Ridge,78.56,195.04,117.93,176.9,489.88,Single-ply,SBD,M
Boys,82.1,5,Raine Spafford,Pearland,79.38,183.7,102.06,195.04,480.81,Single-ply,SBD,M
Boys,82.1,6,Eloi Fernandez,Alvin,76.66,183.7,115.67,170.1,469.47,Single-ply,SBD,M
Boys,82.1,7,Kevin Dunaway,Manvel,75.3,165.56,90.72,165.56,421.84,Single-ply,SBD,M
Boys,82.1,8,Brandon Hicks,Danbury,81.42,154.22,95.25,165.56,415.04,Single-ply,SBD,M
Boys,89.81,9,James Ash,Clute Brazoswood,82.19,158.76,83.91,165.56,408.23,Single-ply,SBD,M
Boys,82.1,10,Jacob Joubert,Pearland,81.87,142.88,102.06,161.03,405.97,Single-ply,SBD,M
Boys,82.1,11,Richard Gomez,Houston Westbury,81.01,142.88,90.72,165.56,399.16,Single-ply,SBD,M
Boys,82.1,12,Gabe Benitez,Pearland,80.97,142.88,97.52,142.88,383.29,Single-ply,SBD,M
Boys,82.1,13,Jayson Ineztrosa,Houston Milby,76.66,136.08,92.99,142.88,371.95,Single-ply,SBD,M
Boys,82.1,14,Reginald Allison,Beaumont Central,79.38,136.08,77.11,158.76,371.95,Single-ply,SBD,M
Boys,82.1,15,Ethan Holmes,Houston Madison,81.87,142.88,74.84,142.88,360.61,Single-ply,SBD,M
Boys,82.1,16,Rudy Gonzalez,Houston Milby,81.47,115.67,90.72,142.88,349.27,Single-ply,SBD,M
Boys,82.1,17,Dylan Martin,Houston Madison,76.57,61.23,52.16,142.88,256.28,Single-ply,SBD,M
Boys,82.1,DQ,Ahmad Semien,Beaumont Central,75.3,,,,,Single-ply,SBD,M
Boys,82.1,DQ,Roland Reza,Beaumont Ozen,75.98,,,,,Single-ply,SBD,M
Boys,82.1,DQ,Kolbi Foster,Clute Brazoswood,82.1,,,,,Single-ply,SBD,M
Boys,82.1,DQ,Drew Lowery,Clute Brazoswood,82.1,,,,,Single-ply,SBD,M
Boys,82.1,DQ,Darrah Forman,Houston Madison,82.1,,,,,Single-ply,SBD,M
Boys,82.1,DQ,Alber Franklin,Houston Madison,82.1,,,,,Single-ply,SBD,M
Boys,82.1,DQ,Desmond Doakes,Tomball,82.1,,,,,Single-ply,SBD,M
Boys,89.81,1,George Stephenson,Conroe Oak Ridge,88,263.08,149.69,249.48,662.24,Single-ply,SBD,M
Boys,89.81,2,Zach Griffin,Beaumont Central,89.18,229.06,145.15,226.8,601.01,Single-ply,SBD,M
Boys,89.81,3,Carlos García,Alvin,85.46,217.72,127.01,217.72,562.45,Single-ply,SBD,M
Boys,89.81,4,John Saenz,Clute Brazoswood,82.74,235.87,113.4,204.12,553.38,Single-ply,SBD,M
Boys,89.81,5,Tyler Tullos,Conroe Oak Ridge,85.73,206.38,131.54,188.24,526.17,Single-ply,SBD,M
Boys,89.81,6,Eric Hembling,Clute Brazoswood,84.46,181.44,106.59,215.46,503.49,Single-ply,SBD,M
Boys,89.81,7,Kaylon Johnson,Port Arthur Memorial,86.09,172.37,145.15,183.7,501.22,Single-ply,SBD,M
Boys,89.81,8,Jordan Daigle,Beaumont Ozen,85.46,149.69,113.4,224.53,487.61,Single-ply,SBD,M
Boys,89.81,9,Stanley Thuy,Alvin,89.36,183.7,113.4,183.7,480.81,Single-ply,SBD,M
Boys,89.81,10,Zane Gonzalez,Pearland,86.18,179.17,102.06,183.7,464.93,Single-ply,SBD,M
Boys,89.81,11,Raul Garcia,Houston Milby,85.96,179.17,102.06,151.95,433.18,Single-ply,SBD,M
Boys,89.81,12,David Eudoxie,Clute Brazoswood,88.36,156.49,99.79,163.29,419.57,Single-ply,SBD,M
Boys,89.81,13,Matt Klaverman,Pearland,85.05,102.06,79.38,174.63,356.07,Single-ply,SBD,M
Boys,89.81,14,Dallas Garret,Houston Westbury,87.32,124.74,70.31,142.88,337.93,Single-ply,SBD,M
Boys,89.81,DQ,Cole Turner,Alvin,87,174.63,113.4,,,Single-ply,SBD,M
Boys,99.79,1,Jovito Mendez,Needville,98.34,238.14,129.27,215.46,582.87,Single-ply,SBD,M
Boys,99.79,2,Stevan Gonzalvez,Clute Brazoswood,98.07,219.99,131.54,192.78,544.31,Single-ply,SBD,M
Boys,99.79,3,Dante Lovilotte,Port Arthur Memorial,95.89,172.37,124.74,226.8,523.9,Single-ply,SBD,M
Boys,99.79,4,Julian Simien,Manvel,90.49,192.78,113.4,213.19,519.36,Single-ply,SBD,M
Boys,99.79,5,Jonathan Delrey,Conroe Oak Ridge,98.88,206.38,120.2,192.78,519.36,Single-ply,SBD,M
Boys,99.79,6,Damon Burkett,Manvel,97.98,183.7,124.74,190.51,498.95,Single-ply,SBD,M
Boys,99.79,7,Diante Washington,Beaumont Ozen,93.71,158.76,117.93,181.44,458.13,Single-ply,SBD,M
Boys,99.79,8,Eddie White,Pearland,99.11,156.49,111.13,183.7,451.32,Single-ply,SBD,M
Boys,99.79,9,Terry Oliver,Port Arthur Memorial,97.52,145.15,117.93,183.7,446.79,Single-ply,SBD,M
Boys,99.79,10,Khaleb Fobish,Port Arthur Memorial,98.61,142.88,106.59,190.51,439.98,Single-ply,SBD,M
Boys,99.79,11,Justin Lilley,Pearland,98.43,151.95,83.91,183.7,419.57,Single-ply,SBD,M
Boys,99.79,12,Isaac Jones,Port Arthur Memorial,98.43,158.76,86.18,165.56,410.5,Single-ply,SBD,M
Boys,99.79,13,Keith Rall,Needville,94.98,151.95,92.99,158.76,403.7,Single-ply,SBD,M
Boys,99.79,14,Elton Woodard,Stafford,96.16,185.97,117.93,99.79,403.7,Single-ply,SBD,M
Boys,99.79,15,Vincent Gutirrez,Pasadena Dobie,92.9,142.88,106.59,151.95,401.43,Single-ply,SBD,M
Boys,99.79,16,Olando Logan,Pasadena Dobie,95.71,136.08,90.72,154.22,381.02,Single-ply,SBD,M
Boys,99.79,17,Caleb Diehl,Tomball,96.62,122.47,90.72,142.88,356.07,Single-ply,SBD,M
Boys,99.79,18,Jay Palacios,Tomball,96.39,122.47,90.72,138.35,351.53,Single-ply,SBD,M
Boys,99.79,DQ,Dillon Tuttle,Tomball,99.79,,,,,Single-ply,SBD,M
Boys,99.79,DQ,Ikemba Anyanu,Houston Westbury,99.79,,,,,Single-ply,SBD,M
Boys,99.79,DQ,Aj Parker,Beaumont Central,99.79,,,,,Single-ply,SBD,M
Boys,109.77,1,Travis Ritchie,Conroe Oak Ridge,106.59,208.65,133.81,204.12,546.58,Single-ply,SBD,M
Boys,109.77,2,Ronnie Fraser,Pearland,105.23,204.12,111.13,204.12,519.36,Single-ply,SBD,M
Boys,109.77,3,Jouis Brown,Beaumont Central,102.06,204.12,120.2,188.24,512.56,Single-ply,SBD,M
Boys,109.77,4,Corey Shields,Clute Brazoswood,106.14,197.31,111.13,204.12,512.56,Single-ply,SBD,M
Boys,109.77,5,Bryan Herrera,Pearland,107.95,197.31,129.27,183.7,510.29,Single-ply,SBD,M
Boys,109.77,6,Jaron Johnson,Port Arthur Memorial,103.87,163.29,117.93,183.7,464.93,Single-ply,SBD,M
Boys,109.77,7,Dwayne Robertson,Beaumont Central,109.13,167.83,106.59,181.44,455.86,Single-ply,SBD,M
Boys,109.77,8,Lloyd Allums,Beaumont Central,108.64,147.42,124.74,176.9,449.06,Single-ply,SBD,M
Boys,124.74,9,Daniel Gillis,Beaumont Central,109.86,149.69,122.47,174.63,446.79,Single-ply,SBD,M
Boys,109.77,10,Casey Williams,Port Arthur Memorial,101.24,142.88,117.93,183.7,444.52,Single-ply,SBD,M
Boys,109.77,11,Josh Reynolds,Pearland,108.86,156.49,97.52,174.63,428.64,Single-ply,SBD,M
Boys,124.74,12,Andrew Wolf,Tomball,110,167.83,90.72,170.1,428.64,Single-ply,SBD,M
Boys,109.77,13,Jerry Ojeda,Houston Milby,106.78,142.88,102.06,174.63,419.57,Single-ply,SBD,M
Boys,109.77,14,Troy Beckham,Clute Brazoswood,108.41,142.88,129.27,142.88,415.04,Single-ply,SBD,M
Boys,109.77,15,Sam Spicer,Clute Brazoswood,102.6,138.35,113.4,161.03,412.77,Single-ply,SBD,M
Boys,109.77,16,Jordan LeCompte,Danbury,105.46,138.35,102.06,151.95,392.36,Single-ply,SBD,M
Boys,109.77,17,Matt Jewel,Pearland,107.73,138.35,102.06,151.95,392.36,Single-ply,SBD,M
Boys,109.77,18,Elighai Pierre,Beaumont Ozen,107.41,92.99,113.4,158.76,365.14,Single-ply,SBD,M
Boys,109.77,DQ,Robert Guidry,Manvel,105.87,142.88,,,,Single-ply,SBD,M
Boys,109.77,DQ,Deangelo Gallegos,Manvel,103.51,,,,,Single-ply,SBD,M
Boys,109.77,DQ,Dejohn Handy,Beaumont Ozen,107.5,,,,,Single-ply,SBD,M
Boys,109.77,DQ,Santos Lazos,Clute Brazoswood,108.41,,,,,Single-ply,SBD,M
Boys,124.74,1,Jimmy LaFata,Clute Brazoswood,113.13,235.87,140.61,215.46,591.94,Single-ply,SBD,M
Boys,124.74,2,Young Trunong,Pasadena Dobie,118.66,217.72,136.08,226.8,580.6,Single-ply,SBD,M
Boys,124.74,3,Oshaun Lewis,Houston Westbury,120.2,190.51,136.08,222.26,548.85,Single-ply,SBD,M
Boys,124.74,4,Riley Quigley,Tomball,123.15,217.72,117.93,190.51,526.17,Single-ply,SBD,M
Boys,124.74,5,Luis Barron,Danbury,116.3,195.04,122.47,188.24,505.76,Single-ply,SBD,M
Boys,124.74,6,Lance Zeno,Beaumont Ozen,112.26,161.03,129.27,208.65,498.95,Single-ply,SBD,M
Boys,124.74,7,Caleb James,Clute Brazoswood,111.58,183.7,102.06,183.7,469.47,Single-ply,SBD,M
Boys,124.74+,8,Gino Cortez,Pearland,124.83,183.7,120.2,165.56,469.47,Single-ply,SBD,M
Boys,124.74,9,Craig Johnson,Beaumont Central,118.66,172.37,108.86,172.37,453.59,Single-ply,SBD,M
Boys,124.74,10,Christian Brown,Danbury,110.22,161.03,102.06,181.44,444.52,Single-ply,SBD,M
Boys,124.74,11,Joey Longoria,Pearland,115.48,147.42,106.59,174.63,428.64,Single-ply,SBD,M
Boys,124.74,12,CJ Bench,Clute Brazoswood,115.67,147.42,90.72,138.35,376.48,Single-ply,SBD,M
Boys,124.74,13,Terrence Broussard,Beaumont Ozen,121.47,99.79,90.72,158.76,349.27,Single-ply,SBD,M
Boys,124.74,14,Cadell Fruend,Needville,112.58,129.27,77.11,140.61,347,Single-ply,SBD,M
Boys,124.74,15,Deshondric Selmon,Beaumont Ozen,112.13,97.52,74.84,158.76,331.12,Single-ply,SBD,M
Boys,124.74,16,Tyrese Henderson,Beaumont Ozen,114.76,102.06,72.57,140.61,315.25,Single-ply,SBD,M
Boys,124.74,17,Diante Granger,Beaumont Ozen,112.26,108.86,68.04,136.08,312.98,Single-ply,SBD,M
Boys,124.74,DQ,Brandon Jackson,Port Arthur Memorial,111.49,,142.88,233.6,,Single-ply,SBD,M
Boys,124.74,DQ,Rico Santana,Tomball,124.74,,,,,Single-ply,SBD,M
Boys,124.74,DQ,Victor Esquivel,Clute Brazoswood,124.74,,,,,Single-ply,SBD,M
Boys,124.74,DQ,Dario Jimenez,Houston Milby,124.74,,,,,Single-ply,SBD,M
Boys,124.74,DQ,Clifton Haggen,Houston Madison,124.74,,,,,Single-ply,SBD,M
Boys,124.74+,1,William Simpson,Houston Madison,146.28,306.17,197.31,249.48,752.96,Single-ply,SBD,M
Boys,124.74+,2,Ryan Sagmiller,Conroe Oak Ridge,139.07,238.14,156.49,192.78,587.4,Single-ply,SBD,M
Boys,124.74+,3,Anthony Hunter,Manvel,148.1,249.48,117.93,208.65,576.06,Single-ply,SBD,M
Boys,124.74+,4,Wernon Samuels,Port Arthur Memorial,147.6,199.58,145.15,226.8,571.53,Single-ply,SBD,M
Boys,124.74+,5,Alex Pina,Clute Brazoswood,128.37,219.99,138.35,210.92,569.26,Single-ply,SBD,M
Boys,124.74+,6,Zach Arias,Pearland,126.1,183.7,142.88,183.7,510.29,Single-ply,SBD,M
Boys,124.74+,7,William McElvogue,Tomball,126.33,201.85,117.93,183.7,503.49,Single-ply,SBD,M
Boys,124.74+,8,Quinton Smith,Beaumont Ozen,149.23,181.44,102.06,185.97,469.47,Single-ply,SBD,M
Boys,124.74+,9,Brandon Astis,Port Arthur Memorial,135.62,172.37,106.59,183.7,462.66,Single-ply,SBD,M
Boys,124.74+,10,Jerimah Washington,Port Arthur Memorial,125.65,142.88,117.93,199.58,460.4,Single-ply,SBD,M
Boys,124.74+,11,Matthew Heffernan,Tomball,138.12,204.12,104.33,136.08,444.52,Single-ply,SBD,M
Boys,124.74+,12,Jonathan Pecina,Houston Westbury,127.82,156.49,97.52,170.1,424.11,Single-ply,SBD,M
Boys,124.74+,13,Kevin Maddox,Houston Madison,149.69,124.74,95.25,158.76,378.75,Single-ply,SBD,M
Boys,124.74+,14,Eugene Mitchell,Beaumont Ozen,139.07,92.99,70.31,142.88,306.17,Single-ply,SBD,M
Boys,124.74+,DQ,Rodolfo Barajas,Houston Milby,125.87,158.76,142.88,,,Single-ply,SBD,M
Boys,124.74+,DQ,Darius Celestine,Conroe Oak Ridge,125.19,,,,,Single-ply,SBD,M
