Name,CyrillicName,Place,BirthDate,Tested,Division,Event,Sex,Equipment,WeightClassKg,BodyweightKg,Squat1Kg,Squat2Kg,Squat3Kg,Best3SquatKg,Squat4Kg,Bench1Kg,Bench2Kg,Bench3Kg,Best3BenchKg,Bench4Kg,Deadlift1Kg,Deadlift2Kg,Deadlift3Kg,Best3DeadliftKg,Deadlift4Kg,TotalKg,Country
Tetyana Korostel,Тетяна Коростель,1,2007-01-07,Yes,T1,SBD,F,Wraps,44,34.94,-25,25,-30,25,,20,22.5,-25,22.5,,50,60,67.5,67.5,70,115,Ukraine
Tetyana Oliynik,Тетяна Олійник,1,1994-07-31,Yes,O,SBD,F,Wraps,48,47.16,110,117.5,122.5,122.5,,47.5,50,52.5,52.5,,115,-120,122.5,122.5,,297.5,Ukraine
Oksana Storozhuk,Оксана Сторожук,1,1984-07-03,Yes,O,SBD,F,Wraps,52,51.95,132.5,-137.5,137.5,137.5,,77.5,82.5,85,85,,137.5,145,-152.5,145,,367.5,Ukraine
Tetyana Shtembulyak,Тетяна Штембуляк,2,1988-01-01,Yes,O,SBD,F,Wraps,52,51.26,115,130,137.5,137.5,,57.5,62.5,-67.5,62.5,,105,115,122.5,122.5,,322.5,Ukraine
Tetyana Stronska,Тетяна Стронська,3,1984-09-19,Yes,O,SBD,F,Wraps,52,51.14,110,117.5,-120,117.5,,52.5,55,-57.5,55,,125,135,140,140,,312.5,Ukraine
Adelaida Poddueva,Аделаіда Поддуэва,4,1989-10-21,Yes,O,SBD,F,Wraps,52,51,85,-95,95,95,,52.5,-55,57.5,57.5,,90,-97.5,102.5,102.5,,255,Ukraine
Alla Lanko,Алла Ланько,1,1965-01-19,Yes,M2,SBD,F,Wraps,52,50.34,65,-75,75,75,,50,-55,-55,50,,115,120,-130,120,,245,Ukraine
Evgeniya Sakali,Євгенія Сакали,1,2004-04-11,Yes,T1,SBD,F,Wraps,56,53.34,95,105,-110,105,,65,67.5,70,70,,-120,120,130,130,,305,Ukraine
Nataliya Sokurenko,Наталія Сокуренко,1,1981-01-12,Yes,O,SBD,F,Wraps,56,55.26,150,160,-162.5,160,,75,77.5,-80,77.5,,152.5,-162.5,-162.5,152.5,,390,Ukraine
Ganna Zemlyanska,Ганна Землянська,2,1981-03-10,Yes,O,SBD,F,Wraps,56,54.38,125,-137.5,-137.5,125,,55,-65,-65,55,,120,130,-137.5,130,,310,Ukraine
Evgeniya Sakali,Євгенія Сакали,3,2004-04-11,Yes,O,SBD,F,Wraps,56,53.34,95,105,-110,105,,65,67.5,70,70,,-120,120,130,130,,305,Ukraine
Tetyana Dzherelyuk,Тетяна Джерелюк,4,1983-07-08,Yes,O,SBD,F,Wraps,56,55.74,85,-90,-90,85,,47.5,52.5,-55,52.5,,120,-130,-130,120,,257.5,Ukraine
Svitlana Kravchenko,Світлана Кравченко,5,1971-05-11,Yes,O,SBD,F,Wraps,56,55.26,87.5,-92.5,-92.5,87.5,,42.5,47.5,50,50,,87.5,95,-100,95,,232.5,Ukraine
Svitlana Kravchenko,Світлана Кравченко,1,1971-05-11,Yes,M1,SBD,F,Wraps,56,55.26,87.5,-92.5,-92.5,87.5,,42.5,47.5,50,50,,87.5,95,-100,95,,232.5,Ukraine
Olena Boyko,Олена Бойко,1,1986-10-24,Yes,O,SBD,F,Wraps,60,56.7,120,130,-140,130,,60,65,-67.5,65,,110,115,120,120,,315,Ukraine
Oksana Ostroushko,Оксана Остроушко,2,1982-06-26,Yes,O,SBD,F,Wraps,60,59.74,100,105,-110,105,,60,65,-67.5,65,,125,135,140,140,,310,Ukraine
Tetyana Adamenko,Тетяна Адаменко,3,1987-04-19,Yes,O,SBD,F,Wraps,60,59.26,90,95,-100,95,,42.5,-45,45,45,,105,110,115,115,,255,Ukraine
Nataliya Kolyada,Наталія Коляда,1,1976-04-27,Yes,M1,SBD,F,Wraps,60,58.96,80,-90,-90,80,,45,50,-52.5,50,,90,100,105,105,,235,Ukraine
Anastasiya Stetsenko,Анастасія Стеценко,1,2003-02-21,Yes,T1,SBD,F,Wraps,67.5,67.3,95,105,-110,105,,55,60,-65,60,,95,105,110,110,,275,Ukraine
Oleksandra Uskova,Олександра Ускова,1,1992-03-08,Yes,O,SBD,F,Wraps,67.5,64.85,130,140,-147.5,140,,60,-65,-65,60,,140,150,160,160,,360,Ukraine
Kseniya Ryabenko,Ксенія Рябенко,2,1990-06-04,Yes,O,SBD,F,Wraps,67.5,65.25,105,115,120,120,,62.5,67.5,70,70,,125,135,140,140,,330,Ukraine
Katerina Filipova,Катерина Філіпова,3,1984-06-25,Yes,O,SBD,F,Wraps,67.5,65.65,120,-127.5,-127.5,120,,57.5,60,-62.5,60,,120,130,-135,130,,310,Ukraine
Vita Rudakova,Віта Рудакова,1,1980-02-03,Yes,O,SBD,F,Wraps,75,73.45,-97.5,100,105,105,,47.5,-52.5,-52.5,47.5,,140,147.5,-152.5,147.5,,300,Ukraine
Anil Kaya,,1,2004-06-08,Yes,T1,SBD,M,Wraps,60,57.24,-75,75,-100,75,,80,-90,-90,80,,120,130,140,140,-145,295,Turkey
Oleksandr Onishchenko,Олександр Оніщенко,1,1996-03-05,Yes,J,SBD,M,Wraps,67.5,66.25,130,140,150,150,,95,100,102.5,102.5,,160,170,-180,170,,422.5,Ukraine
Oleksandr Popel,Олександр Попель,2,1994-12-01,Yes,J,SBD,M,Wraps,67.5,65.65,150,-160,,150,,105,110,-112.5,110,,-150,150,-155,150,,410,Ukraine
Givi Margvelashvili,,1,1989-06-25,Yes,O,SBD,M,Wraps,67.5,66.88,155,170,-180,170,,115,122.5,125,125,,180,200,205,205,,500,Georgia
Sergiy Kalchuk,Сергій Кальчук,2,1989-06-29,Yes,O,SBD,M,Wraps,67.5,66.8,170,180,-190,180,,110,117.5,-120,117.5,,150,170,186,186,,483.5,Ukraine
Andriy Timoshik,Андрій Тимошик,3,1990-03-22,Yes,O,SBD,M,Wraps,67.5,65.5,165,172.5,-177.5,172.5,,95,100,-102.5,100,,177.5,-186,-187,177.5,,450,Ukraine
Yusuf Ertürk,,1,2002-12-03,Yes,T1,SBD,M,Wraps,75,72.75,120,-125,-130,120,,85,-95,-95,85,,160,175,-182.5,175,,380,Turkey
Dmitro Miroshnichenko,Дмитро Мірошніченко,1,2001-12-08,Yes,T2,SBD,M,Wraps,75,70.95,120,-130,130,130,,90,-95,-95,90,,140,150,-162.5,150,,370,Ukraine
Mikhaylo Yurchenko,Михайло Юрченко,1,1999-01-02,Yes,T3,SBD,M,Wraps,75,75,217.5,-225,225,225,-238,120,125,-130,125,,255,-271,-271,255,,605,Ukraine
Ruslan Ivanchik,Руслан Іванчик,2,1999-08-09,Yes,T3,SBD,M,Wraps,75,71.65,170,180,-190,180,,130,135,-141,135,,190,200,-207.5,200,,515,Ukraine
Volodimir Shmondenko,Володимир Шмонденко,3,1999-08-10,Yes,T3,SBD,M,Wraps,75,73.95,-150,150,-157.5,150,,115,122.5,-127.5,122.5,,185,195,-200,195,,467.5,Ukraine
Esref Can Turan,,4,2000-05-26,Yes,T3,SBD,M,Wraps,75,74.5,110,120,142.5,142.5,,90,-100,-112.5,90,,150,170,-180,170,,402.5,Turkey
Dmitro Bobilev,Дмитро Бобилєв,1,1996-01-30,Yes,J,SBD,M,Wraps,75,74.9,210,215,-217.5,215,,130,137.5,-140,137.5,,235,250,-260,250,,602.5,Ukraine
Yaroslav Krot,Ярослав Крот,2,1998-09-15,Yes,J,SBD,M,Wraps,75,68.85,-190,190,200,200,,100,107.5,110,110,,200,210,220,220,,530,Ukraine
Oscar Eladio Vásquez Pino,,3,1995-08-31,Yes,J,SBD,M,Wraps,75,73.25,-180,185,-190,185,,95,102.5,-107.5,102.5,,205,-212.5,,205,,492.5,Chile
Valentin Nesin,Валентин Несин,1,1994-03-14,Yes,O,SBD,M,Wraps,75,71.4,190,210,-230,210,,130,137.5,-142.5,137.5,,200,215,-220,215,,562.5,Ukraine
Sergiy Shevchenko,Сергій Шевченко,2,1991-08-13,Yes,O,SBD,M,Wraps,75,73.55,-185,-185,185,185,,110,-115,-120,110,,-220,220,-235,220,,515,Ukraine
Yuriy Mikhnenko,Юрий Михненко,1,1974-04-12,Yes,M1,SBD,M,Wraps,75,73.65,195,-210,-210,195,,105,117.5,-125,117.5,,-190,190,210,210,,522.5,Ukraine
Mehmet Yedek,,DQ,1962-07-09,Yes,M2,SBD,M,Wraps,75,74.1,-140,-140,-140,,,,,,,,,,,,,,Turkey
Glib Trazanov,Гліб Тразанов,1,1998-09-30,Yes,J,SBD,M,Wraps,82.5,80.95,200,212.5,222.5,222.5,,132.5,137.5,140,140,,200,212.5,222.5,222.5,,585,Ukraine
Vladislav Pavlyuk,Владислав Павлюк,2,1995-05-30,Yes,J,SBD,M,Wraps,82.5,81.55,-190,-200,200,200,,120,-130,-130,120,,200,220,-230,220,,540,Ukraine
Valentin Gontar,Валентин Гонтар,1,1987-09-26,Yes,O,SBD,M,Wraps,82.5,78.35,220,-235,240,240,,140,147.5,150,150,,250,260,265,265,,655,Ukraine
Artur Nechas,Артур Нечас,2,1994-06-11,Yes,O,SBD,M,Wraps,82.5,79.8,220,230,-240,230,,145,-150,150,150,,260,-275,275,275,,655,Ukraine
Erik Kupriev,Ерік Купрієв,3,1992-04-03,Yes,O,SBD,M,Wraps,82.5,78.65,200,210,220,220,,105,115,-120,115,,245,-262.5,-262.5,245,,580,Ukraine
Valeriy Lanko,Валерій Ланько,1,1965-01-25,Yes,M2,SBD,M,Wraps,82.5,80.25,150,160,-170,160,,135,137.5,-142.5,137.5,,185,195,-200,195,,492.5,Ukraine
Sergiy Novatskiy,Сергій Новацький,1,1957-10-31,Yes,M3,SBD,M,Wraps,82.5,81.45,180,-190,-190,180,,120,-125,-125,120,,-170,170,-180,170,,470,Ukraine
Vladislav Fartushniy,Владислав Фартушний,1,1997-08-03,Yes,J,SBD,M,Wraps,90,85,-220,-230,230,230,,100,110,120,120,,225,240,-245,240,,590,Ukraine
Artem Shitiy,Артем Шитий,1,1992-08-07,Yes,O,SBD,M,Wraps,90,89,280,-290,-290,280,,170,-175,-175,170,,255,270,-275,270,,720,Ukraine
Boris Stashuk,Борис Сташук,2,1985-10-29,Yes,O,SBD,M,Wraps,90,87.75,260,-270,-270,260,,160,170,-175,170,,260,-270,280,280,,710,Ukraine
Dmitro Goropakha,Дмитро Горопаха,3,1992-06-13,Yes,O,SBD,M,Wraps,90,89.75,270,-290,-292.5,270,,142.5,150,155,155,,-245,245,-260,245,,670,Ukraine
Evgen Levkovskiy,Євген Левковський,4,1990-02-19,Yes,O,SBD,M,Wraps,90,88.85,200,-220,-220,200,,150,160,-167.5,160,,245,262.5,-267.5,262.5,,622.5,Ukraine
Volodimir Plyuta,Володимир Плюта,5,1992-03-01,Yes,O,SBD,M,Wraps,90,89.75,180,200,220,220,,125,132.5,140,140,,-210,-230,230,230,,590,Ukraine
Oleksandr Gurbich,Олександр Гурбич,DQ,1989-08-27,Yes,O,SBD,M,Wraps,90,89,-260,-260,-260,,,,,,,,,,,,,,Ukraine
Andriy Sidelnikov,Андрій Сидельніков,1,1977-04-08,Yes,M1,SBD,M,Wraps,90,86,170,-180,-180,170,,130,140,,140,,180,200,210,210,,520,Ukraine
Vladislav Perezva,Владислав Перезва,1,2002-09-02,Yes,T2,SBD,M,Wraps,100,93.35,-180,190,-200,190,,105,115,-122.5,115,,200,205,207.5,207.5,,512.5,Ukraine
Mikolay Rudiy,Миколай Рудий,2,2000-12-19,Yes,T2,SBD,M,Wraps,100,96.3,180,195,-205,195,,115,120,-125,120,,190,-205,-205,190,,505,Ukraine
Emre Erdoğan,,1,2000-08-11,Yes,T3,SBD,M,Wraps,100,97.25,-192.5,192.5,-210,192.5,,120,-130,-130,120,,200,225,-255,225,,537.5,Turkey
Oleksandr Pashkovets,Олександр Пашковець,1,1997-03-02,Yes,J,SBD,M,Wraps,100,94.25,215,225,235,235,,115,125,-130,125,,-245,250,265,265,,625,Ukraine
Evgeniy Omelyanovskiy,Євгеній Омельяновський,1,1989-09-20,Yes,O,SBD,M,Wraps,100,98.7,210,220,-230,220,,140,150,-155,150,,240,250,-260,250,,620,Ukraine
Pavlo Ivashchenko,Павло Іващенко,2,1986-01-31,Yes,O,SBD,M,Wraps,100,98.4,-210,-210,220,220,,137.5,-147.5,-150,137.5,,220,232.5,235,235,,592.5,Ukraine
Anton Naumovich,Антон Наумович,1,1977-10-25,Yes,M1,SBD,M,Wraps,100,95.85,192.5,200,205,205,,122.5,127.5,-132.5,127.5,,200,210,217.5,217.5,,550,Ukraine
Yuriy Stetsenko,Юрій Стеценко,2,1975-09-06,Yes,M1,SBD,M,Wraps,100,95.95,190,-207.5,-207.5,190,,120,130,135,135,,180,190,200,200,,525,Ukraine
Oleg Lungu,Олег Лунгу,DQ,1972-11-17,Yes,M1,SBD,M,Wraps,100,96.9,220,235,245,245,,120,130,135,135,,210,225,235,235,,,Ukraine
Mikhaylo Starovoyt,Михайло Старовойт,1,1989-11-12,Yes,O,SBD,M,Wraps,110,109.45,-240,240,245,245,,175,180,185,185,,-250,250,270,270,,700,Ukraine
Viktor Kamenetskiy,Віктор Каменецький,2,1982-05-01,Yes,O,SBD,M,Wraps,110,107.45,200,230,-250,230,,150,160,165,165,,220,260,-270,260,,655,Ukraine
Viktor Stefanov,Віктор Стефанов,1,1948-11-02,Yes,M4,SBD,M,Wraps,110,106.1,-160,,160,160,,85,90,-95,90,,150,160,,160,,410,Ukraine
Serafin Rocha,,2,1948-04-27,Yes,M4,SBD,M,Wraps,110,106.1,-100,-120,120,120,,100,105,110,110,,120,150,170,170,,400,Brazil
Georgiy Kaplun,Георгий Каплун,1,1995-12-15,Yes,J,SBD,M,Wraps,125,113.95,220,235,-245,235,,145,-150,150,150,,225,240,250,250,,635,Ukraine
Golala Aftab,,DQ,1983-09-10,Yes,O,SBD,F,Raw,60,58.36,-100,-100,-100,,,,,,,,,,,,,,Finland
Renata Ignatova,Рената Ігнатова,1,2004-11-05,Yes,T1,SBD,F,Raw,67.5,64.1,-57.5,57.5,65,65,,47.5,52.5,-57.5,52.5,,62.5,70,75,75,,192.5,Ukraine
Igor Zaychuk,Ігор Зайчук,1,1989-12-02,Yes,O,SBD,M,Raw,125,115,180,195,210,210,,190,-200,,190,,290,-305,,290,,690,Ukraine
Volodimir Ivasyutin,Володимир Івасютин,1,1995-07-27,Yes,J,SBD,M,Multi-ply,75,70.4,180,195,205,205,,120,125,-130,125,,205,212.5,220,220,,550,Ukraine
Evgen Cherevatiy,Євген Череватий,1,1988-08-27,Yes,O,SBD,M,Multi-ply,90,90,-275,275,300,300,,210,220,225,225,,275,290,-300,290,,815,Ukraine
Svitlana Klimanska,Світлана Климанська,1,2006-08-18,Yes,T1,BD,F,Raw,48,45.98,,,,,,25,30,-32.5,30,,65,70,75,75,,105,Ukraine
Tetyana Stronska,Тетяна Стронська,1,1984-09-19,Yes,O,BD,F,Raw,52,51.14,,,,,,52.5,55,-57.5,55,,115,135,140,140,,195,Ukraine
Mariya Koshil,Марія Кошиль,1,1978-03-21,Yes,M1,BD,F,Raw,52,51.4,,,,,,60,67.5,-70,67.5,,125,135,140,140,,207.5,Ukraine
Anfisa Urivkova,Анфіса Уривкова,1,1995-07-19,Yes,J,BD,F,Raw,60,58.84,,,,,,45,50,-52.5,50,,95,102.5,105,105,,155,Ukraine
Nataliya Kolyada,Наталія Коляда,1,1976-04-27,Yes,M1 40-49,BD,F,Raw,60,58.96,,,,,,45,50,-52.5,50,,90,100,105,105,,155,Ukraine
Renata Ignatova,Рената Ігнатова,1,2004-11-05,Yes,T1,BD,F,Raw,67.5,64.1,,,,,,47.5,52.5,-57.5,52.5,,62.5,70,75,75,,127.5,Ukraine
Katerina Filipova,Катерина Філіпова,1,1984-06-25,Yes,O,BD,F,Raw,67.5,65.65,,,,,,57.5,60,-62.5,60,,120,130,,130,,190,Ukraine
Nadiya Varman,Надія Варман,1,1986-08-24,Yes,O,BD,F,Raw,75,71.15,,,,,,32.5,-37.5,40,40,,62.5,72.5,77.5,77.5,,117.5,Ukraine
Inna Zhovta,Інна Жовта,1,1981-07-04,Yes,O,BD,F,Raw,90,88.95,,,,,,70,77.5,-82.5,77.5,,135,150,160,160,,237.5,Ukraine
Anil Kaya,,1,2004-06-08,Yes,T1,BD,M,Raw,60,57.24,,,,,,80,-90,-90,80,,120,130,140,140,-145,220,Turkey
Andriy Kobernik,Андрій Коберник,DQ,2002-12-06,Yes,T1,BD,M,Raw,67.5,64.5,,,,,,-90,-90,-90,,,145,,,145,,,Ukraine
Ata Ulufer,,1,2001-01-14,Yes,T2,BD,M,Raw,67.5,65.85,,,,,,85,-92.5,-92.5,85,,165,175,190,190,200,275,Turkey
Givi Margvelashvili,,1,1989-06-25,Yes,O,BD,M,Raw,67.5,66.85,,,,,,115,122.5,125,125,,180,200,205,205,,330.1,Georgia
Yusuf Ertürk,,1,2002-12-03,Yes,T1,BD,M,Raw,75,72.75,,,,,,85,-95,-95,85,,160,175,-182.5,175,,260,Turkey
Ruslan Ivanchik,Руслан Іванчик,1,1999-08-09,Yes,T3,BD,M,Raw,75,75,,,,,,130,135,-141,135,,190,200,-205,200,,335,Ukraine
Esfer Can Turan,,2,2000-05-26,Yes,T3,BD,M,Raw,75,74.5,,,,,,70,95,105,105,120,-120,120,155,155,,260,Turkey
Oleksiy Kotov,Олексій Котов,1,1996-03-30,Yes,J,BD,M,Raw,75,73.75,,,,,,107.5,113,,113,,175,190,200,200,,313,Ukraine
Mehmet Yedek,,1,1962-07-09,Yes,M2,BD,M,Raw,75,74,,,,,,70,-95,95,95,,120,152.5,157.5,157.5,,252.5,Turkey
Kutay Çetin,,1,2001-01-05,Yes,T2,BD,M,Raw,82.5,81.45,,,,,,95,105,116,116,-122.5,195,-210,-210,195,,311,Turkey
Sergiy Solomirskiy,Сергій Соломірський,1,1983-08-16,Yes,O,BD,M,Raw,82.5,78.95,,,,,,120,125,130,130,,210,220,,220,,350,Ukraine
Giorgi Kupreishvili,,2,1980-06-24,Yes,O,BD,M,Raw,82.5,81.85,,,,,,60,85,-95,85,,170,190,205,205,,290,Georgia
Mirian Maraneli,,1,2001-04-24,Yes,T2,BD,M,Raw,90,88.4,,,,,,100,105,110,110,,190,210,220,220,230,330,Georgia
Artem Shitiy,Артем Шитий,1,1992-08-07,Yes,O,BD,M,Raw,90,89,,,,,,170,-175,-175,170,,-255,270,-275,270,,440,Ukraine
Mikko Mäntymäki,,2,1971-09-29,Yes,O,BD,M,Raw,90,88.75,,,,,,140,145,,145,,235,245,250,250,-255,395,Finland
Volodimir Plyuta,Володимир Плюта,3,1992-03-01,Yes,O,BD,M,Raw,90,89.75,,,,,,125,132.5,140,140,,-210,-230,230,230,,370,Ukraine
Mikko Mäntymäki,,1,1971-09-29,Yes,M1,BD,M,Raw,90,88.75,,,,,,140,145,-147.5,145,,235,245,250,250,,395,Finland
Oleksiy Zhadko,Олексій Жадько,1,1991-03-30,Yes,O,BD,M,Raw,100,94.65,,,,,,130,135,137.5,137.5,,220,-230,-230,220,,357.5,Ukraine
Anton Naumovich,Антон Наумович,1,1977-10-25,Yes,M1,BD,M,Raw,100,95.85,,,,,,122.5,127.5,-132.5,127.5,,200,210,217.5,217.5,,345,Ukraine
Vitaliy Filonenko,Віталій Філоненко,1,1964-05-18,Yes,M2,BD,M,Raw,100,94,,,,,,127.5,-132.5,-132.5,127.5,,182.5,192.5,-200,192.5,,320,Ukraine
Devrim Kesgin,,1,2002-07-28,Yes,T2,BD,M,Raw,110,105.9,,,,,,95,105,113,113,-120,190,210,230,230,-235,343.5,Turkey
Eduard Gusev,Эдуард Гусев,1,1990-07-27,Yes,O,BD,M,Raw,110,107.9,,,,,,140,145,155,155,,210,225,235,235,,390,Ukraine
Roman Radchuk,Роман Радчук,2,1989-08-30,Yes,O,BD,M,Raw,110,108.5,,,,,,130,140,145,145,,200,225,,225,,370,Ukraine
Viktor Stefanov,Віктор Стефанов,1,1948-11-02,Yes,M4,BD,M,Raw,110,100.8,,,,,,85,90,-95,90,,150,160,,160,,250,Ukraine
Igor Zaychuk,Ігор Зайчук,1,1989-12-02,Yes,O,BD,M,Raw,125,115,,,,,,190,-200,,190,,290,-305,,290,,480,Ukraine
Anatoliy Pavelev,Анатолій Павельєв,1,1977-11-17,Yes,M1,BD,M,Raw,125,120.55,,,,,,115,120,-122.5,120,,200,210,220,220,,340,Ukraine
Tetyana Adamenko,Тетяна Адаменко,1,1987-04-19,Yes,O,S,F,Wraps,90,59.26,90,95,-100,95,,,,,,,,,,,,95,Ukraine
Sergiy Kalchuk,Сергій Кальчук,1,1989-06-29,Yes,O,S,M,Wraps,67.5,66.8,170,180,-190,180,,,,,,,,,,,,180,Ukraine
Artem Shitiy,Артем Шитий,1,1992-08-07,Yes,O,S,M,Wraps,90,89,280,-290,-290,280,,,,,,,,,,,,280,Ukraine
Oksana Storozhuk,Оксана Сторожук,1,1984-07-03,Yes,O,B,F,Raw,52,51.95,,,,,,77.5,82.5,85,85,,,,,,,85,Ukraine
Mariya Koshil,Марія Кошиль,2,1978-03-21,Yes,O,B,F,Raw,52,51.4,,,,,,60,67.5,-70,67.5,,,,,,,67.5,Ukraine
Tatyana Stepatska,Татьяна Степацька,3,1989-11-29,Yes,O,B,F,Raw,52,49.28,,,,,,50,-55,-55,50,,,,,,,50,Ukraine
Mariya Koshil,Марія Кошиль,1,1978-03-21,Yes,M1,B,F,Raw,52,51.4,,,,,,60,67.5,-70,67.5,,,,,,,67.5,Ukraine
Nataliya Sokurenko,Наталія Сокуренко,1,1981-01-12,Yes,O,B,F,Raw,56,55.26,,,,,,75,77.5,-80,77.5,,,,,,,77.5,Ukraine
Nataliya Firsova,Наталія Фірсова,2,1966-10-16,Yes,O,B,F,Raw,56,53.68,,,,,,57.5,60,-62.5,60,,,,,,,60,Ukraine
Svitlana Kravchenko,Світлана Кравченко,1,1971-05-11,Yes,M1,B,F,Raw,56,55.26,,,,,,42.5,47.5,50,50,,,,,,,50,Ukraine
Nataliya Firsova,Наталія Фірсова,1,1966-10-16,Yes,M2,B,F,Raw,56,53.68,,,,,,57.5,60,-62.5,60,,,,,,,60,Ukraine
Anastasiya Rudnichenka,Анастасія Рудніченка,1,2004-11-19,Yes,T1,B,F,Raw,60,56.45,,,,,,-57.5,62.5,-67.5,62.5,,,,,,,62.5,Ukraine
Oksana Ostroushko,Оксана Остроушко,1,1982-06-26,Yes,O,B,F,Raw,60,59.74,,,,,,60,65,-67.5,65,,,,,,,65,Ukraine
Golala Aftab,,2,1983-09-10,Yes,O,B,F,Raw,60,58.6,,,,,,55,60,-65,60,,,,,,,60,Finland
Nataliya Kolyada,Наталія Коляда,1,1976-04-27,Yes,M1,B,F,Raw,60,58.96,,,,,,45,50,-52.5,50,,,,,,,50,Ukraine
Anastasiya Stetsenko,Анастасія Стеценко,1,2003-02-21,Yes,T1,B,F,Raw,67.5,67.3,,,,,,55,60,-65,60,,,,,,,60,Ukraine
Katerina Filipova,Катерина Філіпова,1,1984-06-25,Yes,O,B,F,Raw,67.5,65.65,,,,,,57.5,60,-62.5,60,,,,,,,60,Ukraine
Nadiya Tishchenko,Надія Тищенко,1,1993-09-30,Yes,O,B,F,Raw,75,70.75,,,,,,110,115,-120,115,,,,,,,115,Ukraine
Yuliya Olizarenko,Юлія Олізаренко,2,1989-04-30,Yes,O,B,F,Raw,75,73.45,,,,,,95,-102.5,102.5,102.5,,,,,,,102.5,Ukraine
Nadiya Varman,Надія Варман,3,1986-08-24,Yes,O,B,F,Raw,75,71.15,,,,,,32.5,-37.5,40,40,,,,,,,40,Ukraine
Olena Rindya,Олена Риндя,DQ,1977-04-29,Yes,O,B,F,Raw,75,72.45,,,,,,-92.5,-92.5,-92.5,,,,,,,,,Ukraine
Olena Rindya,Олена Риндя,DQ,1977-04-29,Yes,M1,B,F,Raw,75,72.45,,,,,,-92.5,-92.5,-92.5,,,,,,,,,Ukraine
Natalka Yakubovskaya,Наталка Якубовская,1,1973-04-15,Yes,M1,B,F,Raw,100+,120.15,,,,,,-65,65,-72.5,65,,,,,,,65,Ukraine
Nikita Bosak,Нікіта Босак,1,2007-10-05,Yes,T1,B,M,Raw,52,51.8,,,,,,50,55,-57.5,55,,,,,,,55,Ukraine
Artem Klimenko,Артем Клименко,2,2005-11-20,Yes,T1,B,M,Raw,52,41.84,,,,,,40,45,47.5,47.5,,,,,,,47.5,Ukraine
Arsen Bosak,Арсен Босак,3,2010-12-06,Yes,T1,B,M,Raw,52,23,,,,,,20,22.5,-27.5,22.5,,,,,,,22.5,Ukraine
Stanislav Petrik,Станіслав Петрик,4,2012-07-06,Yes,T1,B,M,Raw,52,31.8,,,,,,20,-22.5,22.5,22.5,,,,,,,22.5,Ukraine
Volodimir Nametchenyuk,Володимир Наметченюк,1,2002-08-09,Yes,T2,B,M,Raw,52,50,,,,,,82.5,90,-95,90,,,,,,,90,Ukraine
Andriy Sitnikov,Андрій Ситніков,1,2003-01-08,Yes,T1,B,M,Raw,56,56,,,,,,72.5,75,77.5,77.5,,,,,,,77.5,Ukraine
Vitaliy Evtushok,Віталій Євтушок,1,1993-01-20,Yes,O,B,M,Raw,56,55.56,,,,,,110,-127.5,-127.5,110,,,,,,,110,Ukraine
Maksim Sidenko,Максим Сіденко,1,2003-09-09,Yes,T1,B,M,Raw,67.5,65.65,,,,,,100,110,115,115,,,,,,,115,Ukraine
Bogdan Kosyanchuk,Богдан Косянчук,1,1988-03-28,Yes,O,B,M,Raw,67.5,67.5,,,,,,-110,115,125,125,,,,,,,125,Ukraine
Pavlo Blisko,Павло Блисько,1,2005-07-10,Yes,T1,B,M,Raw,75,68.2,,,,,,50,55,60,60,,,,,,,60,Ukraine
Volodimir Tyutyushkin,Володимир Тютюшкін,1,2001-07-24,Yes,T2,B,M,Raw,75,73.65,,,,,,175,182.5,-187.5,182.5,,,,,,,182.5,Ukraine
Volodimir Tishchenko,Володимир Тищенко,1,1998-12-17,Yes,T3,B,M,Raw,75,71.6,,,,,,145,155,-160,155,,,,,,,155,Ukraine
Ruslan Ivanchik,Руслан Іванчик,2,1999-08-09,Yes,T3,B,M,Raw,75,75,,,,,,130,135,-141,135,,,,,,,135,Ukraine
Volodimir Tyutyushkin,Володимир Тютюшкін,1,2001-07-24,Yes,O,B,M,Raw,75,73.65,,,,,,175,182.5,-187.5,182.5,,,,,,,182.5,Ukraine
Yakiv Goldenberg,Яків Гольденберг,2,1964-01-06,Yes,O,B,M,Raw,75,75,,,,,,135,-145,-145,135,,,,,,,135,Ukraine
Igor Epishev,Ігор Єпішев,1,1969-12-04,Yes,M1,B,M,Raw,75,74.1,,,,,,130,135,142.5,142.5,,,,,,,142.5,Ukraine
Evgen Sitnikov,Євген Ситніков,2,1973-01-08,Yes,M1,B,M,Raw,75,74.35,,,,,,120,125,127.5,127.5,,,,,,,127.5,Ukraine
Vadim Koverznev,Вадим Коверзнев,3,1970-02-07,Yes,M1,B,M,Raw,75,74.2,,,,,,107.5,-110,-110,107.5,,,,,,,107.5,Ukraine
Yakiv Goldenberg,Яків Гольденберг,1,1964-01-06,Yes,M2,B,M,Raw,75,75,,,,,,135,-145,-145,135,,,,,,,135,Ukraine
Artem Kovtun,Артем Ковтун,1,2001-11-12,Yes,T2,B,M,Raw,82.5,81.4,,,,,,130,-137.5,-140,130,,,,,,,130,Ukraine
Dmitro Maer,Дмитро Маєр,2,2002-05-30,Yes,T2,B,M,Raw,82.5,81.55,,,,,,65,70,75,75,,,,,,,75,Ukraine
Anton Saykevich,Антон Сайкевич,1,1999-07-05,Yes,T3,B,M,Raw,82.5,78.45,,,,,,130,145,-147.5,145,,,,,,,145,Ukraine
Evgeniy Boloban,Євгеній Болобан,1,1996-08-28,Yes,O,B,M,Raw,82.5,77.1,,,,,,182.5,190,,190,,,,,,,190,Ukraine
Yuriy Klimenko,Юрій Клименко,2,1982-01-01,Yes,O,B,M,Raw,82.5,80.15,,,,,,150,155,160,160,,,,,,,160,Ukraine
Mevlüt Kirtaş,,3,1989-08-08,Yes,O,B,M,Raw,82.5,81.65,,,,,,145,152.5,-157.5,152.5,,,,,,,152.5,Turkey
Gorkem Ozturk,,4,1990-07-05,Yes,O,B,M,Raw,82.5,82.2,,,,,,140,145,150,150,,,,,,,150,Turkey
Oleg Tkach,Олег Ткач,1,1977-04-05,Yes,M1,B,M,Raw,82.5,81.6,,,,,,80,90,100,100,,,,,,,100,Ukraine
Evgen Lisenko,Євген Лисенко,1,2002-08-09,Yes,T2,B,M,Raw,90,87,,,,,,90,-95,-100,90,,,,,,,90,Ukraine
Roman Nikolin,Роман Ніколін,1,1994-12-05,Yes,J,B,M,Raw,90,84.6,,,,,,-165,165,-177.5,165,,,,,,,165,Ukraine
Andriy Kosyak,Андрій Косяк,1,1992-12-29,Yes,O,B,M,Raw,90,90,,,,,,177.5,-182.5,-182.5,177.5,,,,,,,177.5,Ukraine
Viktor Borinets,Віктор Боринец,2,1989-07-15,Yes,O,B,M,Raw,90,87,,,,,,170,-177.5,-177.5,170,,,,,,,170,Ukraine
Artem Shitiy,Артем Шитий,3,1992-08-07,Yes,O,B,M,Raw,90,89,,,,,,170,-175,-175,170,,,,,,,170,Ukraine
Mikko Mäntymäki,,4,1971-09-29,Yes,O,B,M,Raw,90,88.75,,,,,,140,145,-147.5,145,,,,,,,145,Finland
Volodimir Plyuta,Володимир Плюта,5,1992-03-01,Yes,O,B,M,Raw,90,89.75,,,,,,125,132.5,140,140,,,,,,,140,Ukraine
Oleksandr Lisovskiy,Олександр Лісовський,1,1975-09-02,Yes,M1,B,M,Raw,90,88.5,,,,,,140,145,147.5,147.5,,,,,,,147.5,Ukraine
Viktor Poshtarenko,Віктор Поштаренко,2,1970-02-07,Yes,M1,B,M,Raw,90,88.75,,,,,,125,135,,135,,,,,,,135,Ukraine
Yuriy Digtyar,Юрій Дігтяр,1,1962-09-20,Yes,M2,B,M,Raw,90,87.6,,,,,,122.5,127.5,-130,127.5,,,,,,,127.5,Ukraine
Andriy Petruk,Андрій Петрук,1,1975-01-15,Yes,O,B,M,Raw,100,98.7,,,,,,190,197.5,-200,197.5,,,,,,,197.5,Ukraine
Temel Evren,,2,1982-05-07,Yes,O,B,M,Raw,100,99.9,,,,,,-170,170,180,180,,,,,,,180,Turkey
Oleksandr Karvas,Олександр Карвась,3,1985-10-11,Yes,O,B,M,Raw,100,94.65,,,,,,172.5,175,177.5,177.5,,,,,,,177.5,Ukraine
Andriy Petruk,Андрій Петрук,1,1975-01-15,Yes,M1,B,M,Raw,100,98.7,,,,,,190,197.5,-200,197.5,,,,,,,197.5,Ukraine
Yuriy Stetsenko,Юрій Стеценко,2,1975-09-06,Yes,M1,B,M,Raw,100,95.95,,,,,,-130,130,135,135,,,,,,,135,Ukraine
Mikola Grigorovich,Микола Григорович,3,1969-12-22,Yes,M1,B,M,Raw,100,96.5,,,,,,-122.5,122.5,-127.5,122.5,,,,,,,122.5,Ukraine
Igor Krikunov,Ігор Крикунов,1,1968-08-18,Yes,M2,B,M,Raw,100,99.15,,,,,,150,155,160,160,,,,,,,160,Ukraine
Vitaliy Filonenko,Віталій Філоненко,2,1964-05-18,Yes,M2,B,M,Raw,100,94,,,,,,127.5,-132.5,-132.5,127.5,,,,,,,127.5,Ukraine
Mikola Sagan,Микола Саган,1,2002-07-13,Yes,T2,B,M,Raw,110,108.8,,,,,,167.5,-180,-180,167.5,,,,,,,167.5,Ukraine
Dmitro Sviridenko,Дмитро Свириденко,1,1977-04-11,Yes,O,B,M,Raw,110,106.75,,,,,,190,197.5,-202.5,197.5,,,,,,,197.5,Ukraine
Sergiy Shepel,Сергій Шепель,2,1983-03-28,Yes,O,B,M,Raw,110,102.4,,,,,,172.5,180,190,190,,,,,,,190,Ukraine
Oktay Akay,,3,1981-01-08,Yes,O,B,M,Raw,110,106,,,,,,165,-170,,165,,,,,,,165,Turkey
Oleksiy Kolodyazhniy,Олексій Колодяжний,4,1981-03-29,Yes,O,B,M,Raw,110,110,,,,,,135,147.5,-155,147.5,,,,,,,147.5,Ukraine
Dmitro Sviridenko,Дмитро Свириденко,1,1977-04-11,Yes,M1,B,M,Raw,110,106.75,,,,,,190,197.5,-202.5,197.5,,,,,,,197.5,Ukraine
Sergiy Dromov,Сергій Дрьомов,1,1968-10-11,Yes,M2,B,M,Raw,110,105.35,,,,,,185,-192.5,-192.5,185,,,,,,,185,Ukraine
Viktor Stefanov,Віктор Стефанов,1,1948-11-02,Yes,M4,B,M,Raw,110,100.8,,,,,,85,90,-95,90,,,,,,,90,Ukraine
Sergiy Filonenko,Сергій Філоненко,1,1965-11-11,Yes,O,B,M,Raw,125,121.75,,,,,,190,202.5,205,205,,,,,,,205,Ukraine
Igor Zaychuk,Ігор Зайчук,2,1989-12-02,Yes,O,B,M,Raw,125,115,,,,,,190,-200,,190,,,,,,,190,Ukraine
Anatoliy Gavrish,Анатолій Гавриш,1,1973-12-07,Yes,M1,B,M,Raw,125,119.6,,,,,,145,150,-155,150,,,,,,,150,Ukraine
Sergiy Filonenko,Сергій Філоненко,1,1965-11-11,Yes,M2,B,M,Raw,125,121.75,,,,,,190,202.5,205,205,,,,,,,205,Ukraine
Sergiy Eletskikh,,1,1956-05-06,Yes,M3,B,M,Raw,140+,145,,,,,,-150,150,155,155,,,,,,,155,Cyprus
Gurhan Gurler,,1,1983-07-20,Yes,O,B,M,Raw,140+,184,,,,,,195,200,-210,200,,,,,,,200,Turkey
Anastasiya Solop,Анастасія Солоп,1,1991-11-21,Yes,O,D,F,Raw,44,43.3,,,,,,,,,,,90,100,-102.5,100,,100,Ukraine
Mariya Koshil,Марія Кошиль,1,1978-03-21,Yes,M1,D,F,Raw,52,51.4,,,,,,,,,,,125,135,140,140,,140,Ukraine
Yana Radchenko,Яна Радченко,1,2002-11-06,Yes,T2,D,F,Raw,56,54.4,,,,,,,,,,,80,-87.5,-87.5,80,,80,Ukraine
Nataliya Sokurenko,Наталія Сокуренко,1,1981-01-12,Yes,O,D,F,Raw,56,55.26,,,,,,,,,,,152.5,-162.5,-162.5,152.5,,152.5,Ukraine
Tetyana Dzherelyuk,Тетяна Джерелюк,2,1983-07-08,Yes,O,D,F,Raw,56,55.74,,,,,,,,,,,120,-130,-130,120,,120,Ukraine
Karina Khanagyan,Каріна Ханагян,1,1997-07-06,Yes,J,D,F,Raw,60,57.54,,,,,,,,,,,105,110,117.5,117.5,,117.5,Ukraine
Oksana Ostroushko,Оксана Остроушко,1,1982-06-26,Yes,O,D,F,Raw,60,59.74,,,,,,,,,,,125,135,140,140,,140,Ukraine
Golala Aftab,,2,1983-09-10,Yes,O,D,F,Raw,60,58.6,,,,,,,,,,,120,130,-135,130,,130,Finland
Tetyana Adamenko,Тетяна Адаменко,3,1987-04-19,Yes,O,D,F,Raw,60,59.26,,,,,,,,,,,105,110,115,115,,115,Ukraine
Nataliya Kolyada,Наталія Коляда,1,1976-04-27,Yes,M1,D,F,Raw,60,58.96,,,,,,,,,,,90,100,105,105,,105,Ukraine
Katerina Filipova,Катерина Філіпова,1,1984-06-25,Yes,O,D,F,Raw,67.5,65.65,,,,,,,,,,,120,130,,130,,130,Ukraine
Raїsa Salimova,Раїса Салімова,1,1967-03-13,Yes,M2,D,F,Raw,67.5,67.4,,,,,,,,,,,100,110,-120,110,,110,Ukraine
Yuliya Olizarenko,Юлія Олізаренко,1,1989-04-30,Yes,O,D,F,Raw,75,73.45,,,,,,,,,,,175,185,187.5,187.5,,187.5,Ukraine
Vita Rudakova,Віта Рудакова,2,1980-02-03,Yes,O,D,F,Raw,75,73.45,,,,,,,,,,,140,147.5,-152.5,147.5,,147.5,Ukraine
Nadiya Varman,Надія Варман,3,1986-08-24,Yes,O,D,F,Raw,75,71.15,,,,,,,,,,,62.5,72.5,77.5,77.5,,77.5,Ukraine
Inna Zhovta,Інна Жовта,1,1981-07-04,Yes,O,D,F,Raw,90,88.95,,,,,,,,,,,135,150,160,160,,160,Ukraine
Dmitro Sidorenko,Дмитро Сидоренко,1,1992-09-02,Yes,O,D,M,Raw,56,55.2,,,,,,,,,,,165,175,180,180,-190,180,Ukraine
Bogdan Shulepov,Богдан Шулепов,1,2000-01-05,Yes,T3,D,M,Raw,60,58,,,,,,,,,,,145,-147.5,147.5,147.5,,147.5,Ukraine
Denis Tariverdiev,Денис Тарівердієв,1,1995-08-21,Yes,J,D,M,Raw,60,59.4,,,,,,,,,,,180,190,195,195,,195,Ukraine
Bogdan Tsatsuk,Богдан Цацук,2,1998-07-10,Yes,J,D,M,Raw,60,57.82,,,,,,,,,,,-170,170,-175,170,,170,Ukraine
Oleksandr Burmak,Олександр Бурмак,1,1999-05-26,Yes,T3,D,M,Raw,67.5,66.35,,,,,,,,,,,185,195,-203,195,,195,Ukraine
Maksim Rudiy,Максим Рудий,1,2002-05-21,Yes,T2,D,M,Raw,75,73.95,,,,,,,,,,,220,240,-255,240,,240,Ukraine
Cengizhan Öztürk,,2,2001-06-09,Yes,T2,D,M,Raw,82.5,75.5,,,,,,,,,,,190,202.5,-210,202.5,,202.5,Turkey
Mikhaylo Yurchenko,Михайло Юрченко,1,1999-01-02,Yes,T3,D,M,Raw,75,75,,,,,,,,,,,255,-271,-271,255,,255,Ukraine
Ruslan Ivanchik,Руслан Іванчик,2,1999-08-09,Yes,T3,D,M,Raw,75,75,,,,,,,,,,,190,200,-205,200,,200,Ukraine
Pavlo Pidobid,Павло Підобід,3,2000-04-13,Yes,T3,D,M,Raw,75,72.4,,,,,,,,,,,170,182.5,190,190,,190,Ukraine
Oleg Zhuchkov,Олег Жучков,1,1994-03-18,Yes,O,D,M,Raw,75,73.8,,,,,,,,,,,255,265,-272.5,265,,265,Ukraine
Andriy Pletonka,Андрій Плетьонка,2,1989-11-11,Yes,O,D,M,Raw,75,72.3,,,,,,,,,,,-197.5,197.5,207.5,207.5,,207.5,Ukraine
Denis Mikulskiy,Денис Микульський,1,2004-10-08,Yes,T1,D,M,Raw,82.5,78.65,,,,,,,,,,,165,175,180,180,185,180,Ukraine
Vlad Vishnya,Влад Вишня,1,2002-06-17,Yes,T2,D,M,Raw,82.5,79.7,,,,,,,,,,,200,-220,220,220,,220,Ukraine
Eduard Buyan,Едуард Буян,1,1998-08-15,Yes,J,D,M,Raw,82.5,82.3,,,,,,,,,,,230,240,250,250,,250,Ukraine
Volodimir Galiga,Володимир Галига,2,1997-07-01,Yes,J,D,M,Raw,82.5,81.1,,,,,,,,,,,235,245,-252.5,245,,245,Ukraine
Artur Nechas,Артур Нечас,1,1994-06-11,Yes,O,D,M,Raw,82.5,79.8,,,,,,,,,,,260,-275,275,275,,275,Ukraine
Valentin Gontar,Валентин Гонтар,2,1987-09-26,Yes,O,D,M,Raw,82.5,78.35,,,,,,,,,,,250,260,265,265,,265,Ukraine
Erik Kupriev,Ерік Купрієв,3,1992-04-30,Yes,O,D,M,Raw,82.5,78.65,,,,,,,,,,,245,-262.5,-262.5,245,,245,Ukraine
Andriy Oseredko,Андрій Осередько,4,1994-07-24,Yes,O,D,M,Raw,82.5,80.95,,,,,,,,,,,210,220,225,225,,225,Ukraine
Giorgi Kupreishvili,,5,1980-06-24,Yes,O,D,M,Raw,82.5,81.85,,,,,,,,,,,170,190,205,205,,205,Georgia
Volodimir Galeta,Володимир Галета,1,1964-01-11,Yes,M2,D,M,Raw,82.5,82.3,,,,,,,,,,,150,160,-170,160,,160,Ukraine
Ahmet Kerem Konak,,1,2001-06-29,Yes,T2,D,M,Raw,90,89.4,,,,,,,,,,,190,210,231,231,240,231,Turkey
Dmitro Shapoval,Дмитро Шаповал,1,1999-02-25,Yes,T3,D,M,Raw,90,89.4,,,,,,,,,,,270,-285,-285,270,,270,Ukraine
Mert Bilgen,,2,1999-10-24,Yes,T3,D,M,Raw,90,88.25,,,,,,,,,,,220,-230,-230,220,,220,Turkey
Vladislav Fartushniy,Владислав Фартушний,1,1997-08-03,Yes,J,D,M,Raw,90,85,,,,,,,,,,,225,240,-245,240,,240,Ukraine
Oleg Litvinenko,Олег Литвиненко,2,1995-03-25,Yes,J,D,M,Raw,90,83.7,,,,,,,,,,,225,232.5,-235,232.5,,232.5,Ukraine
Artem Shitiy,Артем Шитий,1,1992-08-07,Yes,O,D,M,Raw,90,89,,,,,,,,,,,-255,270,-275,270,,270,Ukraine
Evgen Levkovskiy,Євген Левковський,2,1990-02-19,Yes,O,D,M,Raw,90,88.85,,,,,,,,,,,245,262.5,-267.5,262.5,,262.5,Ukraine
Mikko Mäntymäki,,3,1971-09-29,Yes,O,D,M,Raw,90,88.75,,,,,,,,,,,235,245,250,250,,250,Finland
Petro Tolpegin,Петро Толпегін,4,1989-10-24,Yes,O,D,M,Raw,90,87.55,,,,,,,,,,,225,235,-245,235,,235,Ukraine
Oleg Litvinenko,Олег Литвиненко,5,1995-03-25,Yes,O,D,M,Raw,90,83.7,,,,,,,,,,,225,232.5,-235,232.5,,232.5,Ukraine
Volodimir Plyuta,Володимир Плюта,6,1992-03-01,Yes,O,D,M,Raw,90,89.75,,,,,,,,,,,-210,-230,230,230,,230,Ukraine
Mikko Mäntymäki,,1,1971-09-29,Yes,M1,D,M,Raw,90,88.75,,,,,,,,,,,235,245,250,250,,250,Finland
Oleksandr Drobilko,Олександр Дробілко,2,1972-11-13,Yes,M1,D,M,Raw,90,87.7,,,,,,,,,,,230,-240,-240,230,,230,Ukraine
Genadiy Ostrovskiy,Генадій Островський,1,1965-01-08,Yes,M2,D,M,Raw,90,87.9,,,,,,,,,,,207.5,220,-222.5,220,,220,Ukraine
Dmitro Nikolaev,Дмитро Ніколаєв,1,1996-09-11,Yes,J,D,M,Raw,100,97.2,,,,,,,,,,,290,310,-320,310,,310,Ukraine
Volodimir Urupa,Володимир Урупа,2,1997-10-08,Yes,J,D,M,Raw,100,98.8,,,,,,,,,,,220,-240,-240,220,,220,Ukraine
Oleksandr Lisovskiy,Олександр Лісовський,1,1990-01-17,Yes,O,D,M,Raw,100,94.85,,,,,,,,,,,255,267.5,-280,267.5,,267.5,Ukraine
Anton Naumovich,Антон Наумович,2,1977-10-25,Yes,M1,D,M,Raw,100,95.85,,,,,,,,,,,200,210,217.5,217.5,,217.5,Ukraine
Oleg Lungu,Олег Лунгу,1,1972-11-17,Yes,M1,D,M,Raw,100,96.9,,,,,,,,,,,200,225,235,235,,235,Ukraine
Vitaliy Filonenko,Віталій Філоненко,1,1964-05-18,Yes,M2,D,M,Raw,100,94,,,,,,,,,,,182.5,192.5,-200,192.5,,192.5,Ukraine
Devrim Kesgin,,1,2002-07-28,Yes,T2,D,M,Raw,110,105.9,,,,,,,,,,,190,210,230,230,-235,230,Turkey
Denis Palyukh,Денис Палюх,1,1984-09-27,Yes,O,D,M,Raw,110,104.8,,,,,,,,,,,250,270,-310,270,,270,Ukraine
Volodimir Ogloblin,Володимир Оглоблін,2,1965-08-15,Yes,O,D,M,Raw,110,106.25,,,,,,,,,,,-260,260,-280,260,,260,Ukraine
Dmitro Levashov,Дмитро Левашов,3,1992-06-07,Yes,O,D,M,Raw,110,109.9,,,,,,,,,,,220,230,-247.5,230,,230,Ukraine
Roman Radchuk,Роман Радчук,4,1989-08-30,Yes,O,D,M,Raw,110,108.5,,,,,,,,,,,200,225,,225,,225,Ukraine
Igor Pyzhyanov,,1,1972-12-18,Yes,M1,D,M,Raw,110,105.8,,,,,,,,,,,190,205,210,210,,210,Belarus
Volodimir Ogloblin,Володимир Оглоблін,1,1965-08-15,Yes,M2,D,M,Raw,110,106.25,,,,,,,,,,,-260,260,-280,260,,260,Ukraine
Viktor Stefanov,Віктор Стефанов,1,1948-11-02,Yes,M4,D,M,Raw,110,100.8,,,,,,,,,,,150,160,,160,,160,Ukraine
Berke Yusuf Demir,,1,2001-11-16,Yes,T2,D,M,Raw,125,111.15,,,,,,,,,,,170,182.5,195,195,205,195,Turkey
Igor Zaychuk,Ігор Зайчук,1,1989-12-02,Yes,O,D,M,Raw,125,115,,,,,,,,,,,290,-305,,290,,290,Ukraine
Oleg Piskun,Олег Піскун,1,1962-09-26,Yes,M2,D,M,Raw,125,110.2,,,,,,,,,,,220,235,-242.5,235,,235,Ukraine
Ruslan Timoshenko,Руслан Тимошенко,DQ,1990-08-31,Yes,O,D,M,Multi-ply,100,96.1,,,,,,,,,,,-285,-285,,,,,Ukraine
Muskan,,1,2003-11-22,No,Pro T1,SBD,F,Wraps,48,47.56,45,50,60,60,,30,35,40,40,,80,90,-95,90,,190,India
Maria Liz,,1,1974-01-18,No,Pro M1,SBD,F,Wraps,56,55,-125,125,130,130,,70,-75,-75,70,,140,145,150,150,,350,Bolivia
Svitlana Glatman,Світлана Глатман,1,1981-09-05,No,Pro O,SBD,F,Wraps,67.5,64,145,-155,155,155,,70,75,77.5,77.5,,145,157.5,167.5,167.5,,400,Ukraine
Anna Khudayarov,,1,1988-01-24,No,Pro O,SBD,F,Wraps,100,90.65,120,145,170,170,,125,135,140,140,,185,195,200,200,,510,Finland
Rohit Mathur,,1,1997-10-03,No,Pro J,SBD,M,Wraps,67.5,60.85,130,-132.5,132.5,132.5,,-90,95,-100,95,,140,150,160,160,,387.5,India
Baljeet,,DQ,1998-11-01,No,Pro J,SBD,M,Wraps,67.5,65.2,150,-155,-155,150,,125,-135,-135,125,,-200,-207.5,-207.5,,,,India
Manish,,1,1999-10-27,No,Pro T3,SBD,M,Wraps,75,72.15,-160,160,170,170,,120,125,-127.5,125,,220,-225,-225,220,,515,India
Oleksandr Kutcher,Олександр Кутчер,1,1980-08-24,No,Pro O,SBD,M,Wraps,75,74.75,-260,260,275,275,,155,165,,165,,-270,270,-290,270,,710,Ukraine
Mikola Belozorov,Микола Бєлозьоров,2,1982-12-16,No,Pro O,SBD,M,Wraps,75,74.75,215,225,-230,225,,120,127.5,-132.5,127.5,,230,-240,-240,230,,582.5,Ukraine
Surjeet Singh,,3,1990-01-01,No,Pro O,SBD,M,Wraps,75,74.35,150,160,170,170,,100,110,-115,110,,180,190,200,200,,480,India
Parvinder Singh,,1,1976-12-06,No,Pro M1,SBD,M,Wraps,75,73.9,-150,175,180,180,,-100,100,-110,100,,160,200,210,210,,490,India
Julio Ticona Nieto,,1,1959-01-01,No,Pro M2,SBD,M,Wraps,75,73.85,-130,-130,130,130,,105,112.5,115,115,,140,160,170,170,,415,Peru
Oleg Novogolub,,1,1995-01-27,No,Pro J,SBD,M,Wraps,82.5,80.05,215,-225,225,225,,145,152.5,-160,152.5,,225,-240,242.5,242.5,,620,Moldova
Viktor Pirog,Віктор Пирог,2,1996-04-22,No,Pro J,SBD,M,Wraps,82.5,79.05,210,230,245,245,,125,135,142.5,142.5,,210,230,-240,230,,617.5,Ukraine
Kuldeep,,DQ,1995-10-17,No,Pro J,SBD,M,Wraps,82.5,78.95,-160,170,180,180,,-115,-115,-115,,,,,,,,,India
Arkadiy Shalokha,Аркадий Шалоха,1,1983-02-28,No,Pro O,SBD,M,Wraps,82.5,82.5,320,335,345,345,,170,177.5,,177.5,,275,290,-302.5,290,,812.5,Ukraine
Oleksiy Karpenko,Олексій Карпенко,2,1993-08-12,No,Pro O,SBD,M,Wraps,82.5,81.7,235,250,-260,250,,135,145,-150,145,,240,255,262.5,262.5,,657.5,Ukraine
Andriy Akimov,Андрій Акімов,3,1980-04-11,No,Pro O,SBD,M,Wraps,82.5,81.8,230,-250,-250,230,,135,145,155,155,,250,270,-280,270,,655,Ukraine
Oleg Novogolub,,4,1995-01-27,No,Pro O,SBD,M,Wraps,82.5,80.05,215,-225,225,225,,145,152.5,-160,152.5,,225,-240,242.5,242.5,,620,Moldova
Artur Troyan,Артур Троян,5,1994-06-30,No,Pro O,SBD,M,Wraps,82.5,82.1,220,230,-235,230,,140,-150,150,150,,220,230,240,240,,620,Ukraine
Evgen Konovalov,Євген Коновалов,6,1987-09-08,No,Pro O,SBD,M,Wraps,82.5,80.85,220,-230,-230,220,,140,150,-152.5,150,,230,240,-250,240,,610,Ukraine
Andriy Boyko,Андрій Бойко,7,1993-08-20,No,Pro O,SBD,M,Wraps,82.5,76.1,230,-245,245,245,,125,-130,,125,,225,235,-240,235,,605,Ukraine
Reucher Correa Arroyo,,1,2002-09-08,No,Pro T2,SBD,M,Wraps,90,88.8,210,225,-235,225,,100,120,125,125,,190,200,210,210,,560,Peru
Deepender Singh Chhabra,,1,1999-05-13,No,Pro T3,SBD,M,Wraps,90,86.85,170,175,-185,175,,100,117.5,122.5,122.5,,210,-225,225,225,,522.5,India
Oleg Palyarush,Олег Паляруш,1,1995-02-25,No,Pro J,SBD,M,Wraps,90,89.6,235,245,252.5,252.5,,157.5,162.5,-170,162.5,,230,237.5,242.5,242.5,,657.5,Ukraine
Maksims Mavricevs,,2,1995-06-27,No,Pro J,SBD,M,Wraps,90,84.95,175,185,-195,185,,130,-140,,130,,250,270,280,280,,595,Latvia
Artem Skaletskiy,Артем Скалецький,1,1990-03-17,No,Pro O,SBD,M,Wraps,90,88.95,220,240,-260,240,,140,155,-160,155,,240,255,262.5,262.5,,657.5,Ukraine
Shriom,,2,1982-05-20,No,Pro O,SBD,M,Wraps,90,86.15,-220,-225,225,225,,170,175,177.5,177.5,,220,230,240,240,,642.5,India
Balraj,,3,1979-06-30,No,Pro O,SBD,M,Wraps,90,87.25,180,200,220,220,,120,130,132.5,132.5,,180,200,220,220,,572.5,India
Andrés Albornoz Tinoco,,1,1966-09-19,No,Pro M2,SBD,M,Wraps,90,88,-200,200,220,220,,100,110,-120,110,,170,185,200,200,,530,Peru
Deepanshu,,1,2001-10-10,No,Pro T2,SBD,M,Wraps,100,93.75,-180,185,-190,185,,95,100,-105,100,,200,220,225,225,,510,India
Rohan Rana,,2,2002-10-27,No,Pro T2,SBD,M,Wraps,100,94.1,155,-160,160,160,,120,-130,132.5,132.5,,155,170,175,175,,467.5,India
Evgeniy Ivanets,Євгеній Іванець,1,1995-10-02,No,Pro J,SBD,M,Wraps,100,99.55,280,295,302.5,302.5,,150,160,-165,160,,305,320,327.5,327.5,-335,790,Ukraine
Sergiy Plotnikov,Сергій Плотніков,2,1995-01-08,No,Pro J,SBD,M,Wraps,100,99.35,260,275,-290,275,,175,185,-190,185,,-250,-250,250,250,,710,Ukraine
Nicolai Colta,,3,1995-11-27,No,Pro J,SBD,M,Wraps,100,92.6,180,-190,,180,,130,-137.5,-140,130,,-230,230,,230,,540,Moldova
Vishal Dahiya,,4,1997-07-24,No,Pro J,SBD,M,Wraps,100,91.45,155,160,165,165,,105,110,115,115,,-180,180,190,190,,470,India
Mikhaylo Zhelyazkov,Михайло Желязков,1,1980-09-12,No,Pro O,SBD,M,Wraps,100,97.55,320,330,340,340,,180,-190,-190,180,,-320,320,-330,320,,840,Ukraine
Dmitro Chumash,Дмитро Чумаш,2,1980-09-06,No,Pro O,SBD,M,Wraps,100,99.45,270,-285,-285,270,,160,170,175,175,,250,270,277.5,277.5,,722.5,Ukraine
Sergiy Plotnikov,Сергій Плотніков,3,1995-01-08,No,Pro O,SBD,M,Wraps,100,99.35,260,275,-290,275,,175,185,-190,185,,-250,-250,250,250,,710,Ukraine
Gurpreet Singh,,4,1982-01-10,No,Pro O,SBD,M,Wraps,100,95.4,-160,-160,160,160,,100,105,-110,105,,180,190,-195,190,,455,India
Viktor Rublov,Віктор Рубльов,DQ,1975-10-26,No,Pro O,SBD,M,Wraps,100,98.6,-265,-272.5,-272.5,,,172.5,-180,-180,172.5,,,,,,,,Ukraine
Ashish Kumar,,DQ,1976-07-30,No,Pro M1,SBD,M,Wraps,100,98.2,-170,-170,-170,,,100,110,120,120,,200,220,230,230,,,India
Viktor Rublov,Віктор Рубльов,DQ,1975-10-26,No,Pro M1,SBD,M,Wraps,100,98.6,-265,-272.5,-272.5,,,172.5,-180,-180,172.5,,,,,,,,Ukraine
Volodimir Kolomiets,Володимир Коломієц,1,1966-05-09,No,Pro M2,SBD,M,Wraps,100,98.1,190,200,205,205,,142.5,150,-152.5,150,,220,232.5,245,245,,600,Ukraine
Luis Zerpa García,,DQ,1965-12-17,No,Pro M2,SBD,M,Wraps,100,98.8,-200,-200,-200,,,100,110,120,120,,180,195,225,225,,,Peru
Hritik Shehrawat,,1,2000-06-20,No,Pro T3 18-19,SBD,M,Wraps,110,109.35,130,135,-140,135,,85,90,-95,90,,150,-160,165,165,,390,India
Artem Turyanitsya,Артем Туряниця,1,1991-09-26,No,Pro O,SBD,M,Wraps,110,102.7,-315,322.5,-332.5,322.5,,180,190,-192.5,190,,322.5,330,-335,330,,842.5,Ukraine
Róbert Majoros,,2,1994-04-12,No,Pro O,SBD,M,Wraps,110,106.55,-280,-280,280,280,,200,-210,,200,,315,322.5,-332.5,322.5,,802.5,Hungary
Oleksiy Nazarchuk,Олексій Назарчук,3,1994-06-11,No,Pro O,SBD,M,Wraps,110,109.6,-300,310,-330,310,,180,190,-195,190,,280,297.5,-305,297.5,,797.5,Ukraine
Vikram Phogat,,4,1991-10-11,No,Pro O,SBD,M,Wraps,110,106.7,-265,265,-275,265,,180,-187.5,187.5,187.5,,290,295,300,300,,752.5,India
Andriy Bobilev,Андрій Бобилев,1,1976-12-28,No,Pro M1,SBD,M,Wraps,110,107.85,-250,260,-270,260,,170,-175,,170,,250,260,270,270,,700,Ukraine
Gegidze Mamuka,,2,1974-04-23,No,Pro M1,SBD,M,Wraps,110,108.35,200,220,,220,,140,150,160,160,,220,240,250,250,,630,Georgia
Sergey Zakharov,Сергей Захаров,3,1977-12-17,No,Pro M1,SBD,M,Wraps,110,104.25,-200,200,215,215,,155,160,162.5,162.5,,220,-235,-242.5,220,,597.5,Ukraine
Volodymyr Luk'yanov,,1,1966-02-18,No,Pro M2,SBD,M,Wraps,110,103,-255,260,-270,260,,130,135,-140,135,,270,280,-285,280,,675,Belarus
Cenk Kocak,,1,1996-01-25,No,Pro J,SBD,M,Wraps,125,121.2,-330,330,-350,330,,200,210,-220,210,,-330,330,-360,330,,870,Turkey
Vladislav Krat,Владислав Крат,2,1996-01-27,No,Pro J,SBD,M,Wraps,125,121.35,280,290,295,295,,210,220,-225,220,,320,330.5,-335,330.5,,845.5,Ukraine
Raghav Chawla,,3,1997-05-02,No,Pro J,SBD,M,Wraps,125,115.8,180,190,200,200,,100,110,120,120,,220,240,-260,240,,560,India
Cenk Kocak,,1,1996-01-25,No,Pro O,SBD,M,Wraps,125,121.2,-330,330,-350,330,,200,210,-220,210,,-330,330,-360,330,,870,Turkey
Oleksandr Chernish,Олександр Черниш,2,1988-12-27,No,Pro O,SBD,M,Wraps,125,111.65,310,322.5,330,330,,210,217.5,220,220,,290,302.5,307.5,307.5,,857.5,Ukraine
Maksim Ribalka,Максим Рибалка,3,1993-09-28,No,Pro O,SBD,M,Wraps,125,111.75,330,342.5,350,350,,175,180,-182.5,180,,310,315,325,325,,855,Ukraine
Evgeniy Rudnik,Евгеній Руднік,4,1978-03-01,No,Pro O,SBD,M,Wraps,125,112,280,300,,300,,210,220,,220,,300,315,,315,,835,Ukraine
Szabó Balázs,,5,1988-03-20,No,Pro O,SBD,M,Wraps,125,110.405,-290,-290,290,290,,-160,160,165,165,,280,295,307.5,307.5,,762.5,Hungary
Igor Kotsyuba,Ігор Коцюба,6,1982-09-21,No,Pro O,SBD,M,Wraps,125,123,270,285,295,295,,170,-175,-175,170,,265,277.5,287.5,287.5,,752.5,Ukraine
Viktor Vatagin,Виктор Ватагин,DQ,1982-05-29,No,Pro O,SBD,M,Wraps,125,121.75,-250,-260,-260,,,150,-170,-170,150,,240,260,,260,,,Ukraine
Evgeniy Rudnik,Евгеній Руднік,1,1978-03-01,No,Pro M1,SBD,M,Wraps,125,112,280,300,,300,,210,220,,220,,300,315,,315,,835,Ukraine
Zurab Chavchanidze,,DQ,1953-05-25,No,Pro M3,SBD,M,Wraps,125,119.6,-165,-165,-165,,,130,135,140,140,,190,-215,215,215,,,Georgia
Nazar Kozub,Назар Козуб,1,1993-08-17,No,Pro O,SBD,M,Wraps,140,137.35,265,285,295,295,,155,167.5,172.5,172.5,,270,300,307.5,307.5,,775,Ukraine
Grigoriy Barannik,Григорій Бараннік,2,1990-05-09,No,Pro O,SBD,M,Wraps,140,137,250,-270,270,270,,180,-190,-200,180,,260,275,295,295,,745,Ukraine
Zhaneta Shostak,Жанета Шостак,1,1972-07-26,No,Pro O,SBD,F,Raw,67.5,67.15,62.5,70,77.5,77.5,,52.5,57.5,-60,57.5,,92.5,102.5,110,110,,245,Ukraine
Zhaneta Shostak,Жанета Шостак,1,1972-07-26,No,Pro M1,SBD,F,Raw,67.5,67.15,62.5,70,77.5,77.5,,52.5,57.5,-60,57.5,,92.5,102.5,110,110,,245,Ukraine
Asaf Boshi,,DQ,1995-03-02,No,Pro J,SBD,M,Raw,82.5,80.05,-210,215,222.5,222.5,,120,-125,125,125,,-265,-265,-265,,,,Israel
Arkadiy Shalokha,Аркадий Шалоха,1,1983-02-28,No,Pro O,SBD,M,Raw,82.5,82.5,275,290,-305,290,,170,177.5,,177.5,,275,290,-302.5,290,,757.5,Ukraine
Asaf Boshi,,DQ,1995-03-03,No,Pro O,SBD,M,Raw,82.5,80.05,-210,215,222.5,222.5,,120,-125,125,125,,-265,-265,-265,,,,Israel
Yuriy Kostenko,Юрій Костенко,1,1971-07-28,No,Pro O,SBD,M,Raw,100,98.9,220,232.5,,232.5,,172.5,180,,180,,270,282.5,,282.5,,695,Ukraine
Marom Okashi,,DQ,1993-12-31,No,Pro O,SBD,M,Raw,100,93.85,-180,-180,-180,,,,,,,,,,,,,,Israel
Yuriy Kostenko,Юрій Костенко,1,1971-07-28,No,Pro M1,SBD,M,Raw,100,98.9,220,232.5,,232.5,,172.5,180,,180,,270,282.5,,282.5,,695,Ukraine
Rustam Musayev,,1,1978-09-15,No,Pro O,SBD,M,Multi-ply,75,75,255,-276,,255,,-70,70,-80,70,,220,230,240,240,-250,565,Azerbaijan
Rustam Musayev,,1,1978-09-15,No,Pro M1,SBD,M,Multi-ply,75,75,255,-276,,255,,-70,70,-80,70,,220,230,240,240,-250,565,Azerbaijan
Julio Ticona Nieto,,1,1959-01-01,No,Pro M2,SBD,M,Multi-ply,75,73.85,-130,-130,130,130,,105,112.5,115,115,,140,160,170,170,,415,Peru
Andriy Romanchuk,Андрій Романчук,1,1976-12-26,No,Pro O,SBD,M,Multi-ply,100,99.8,-250,250,275,275,290.5,170,177.5,185,185,,285,300,310,310,,770,Ukraine
Andriy Romanchuk,Андрій Романчук,1,1976-12-26,No,Pro M1,SBD,M,Multi-ply,100,99.8,-250,250,275,275,290.5,170,177.5,185,185,,285,300,310,310,,770,Ukraine
Muskan,,1,2003-11-22,No,Pro T1,BD,F,Raw,48,47.56,,,,,,30,35,40,40,,80,90,-95,90,,130,India
Archana Chauhan,,1,1994-04-25,No,Pro O,BD,F,Raw,52,51.38,,,,,,50,52.5,-55,52.5,,137.5,142.5,-147.5,142.5,,195,India
Svitlana Glatman,Світлана Глатман,1,1981-09-05,No,Pro O,BD,F,Raw,67.5,64,,,,,,70,75,77.5,77.5,,145,157.5,167.5,167.5,,245,Ukraine
Zhaneta Shostak,Жанета Шостак,1,1972-07-26,No,Pro M1,BD,F,Raw,67.5,67.15,,,,,,52.5,57.5,-60,57.5,,92.5,102.5,110,110,,167.5,Ukraine
Ksenija Meļnika,,1,1991-03-03,No,Pro O,BD,F,Raw,82.5,75.75,,,,,,85,92.5,95,95,,145,155,165,165,,260,Latvia
Cristina Costov,,1,1982-11-24,No,Pro O,BD,F,Raw,90,87.25,,,,,,62.5,70,-75,70,,130,137.5,145,145,,215,Moldova
Anna Khudayarov,,1,1988-01-24,No,Pro O,BD,F,Raw,100,100,,,,,,125,135,140,140,,185,195,200,200,,340,Turkey
Duhan Rojesh,,1,1996-02-20,No,Pro J,BD,M,Raw,67.5,66.5,,,,,,105,115,-120,115,,195,205,-215,205,,320,India
Baljeet,,2,1998-11-01,No,Pro J,BD,M,Raw,67.5,65.2,,,,,,125,-135,-135,125,,170,175,,175,,300,India
Rohit Mathur,,3,1997-10-03,No,Pro J,BD,M,Raw,67.5,60.85,,,,,,-90,95,-100,95,,140,150,160,160,,255,India
Felippe Portugal,,1,1983-08-24,No,Pro O,BD,M,Raw,67.5,66.8,,,,,,105,112.5,117.5,117.5,,140,145,150,150,,267.5,Brazil
Manish,,1,1999-10-27,No,Pro T3,BD,M,Raw,75,72.15,,,,,,120,125,-127.5,125,,220,-225,-225,220,,345,India
Surjeet Singh,,1,1990-01-01,No,Pro O,BD,M,Raw,75,74.35,,,,,,100,110,-115,110,,180,190,200,200,,310,India
Parvinder Singh,,1,1976-12-06,No,Pro M1,BD,M,Raw,75,73.9,,,,,,-100,100,-110,100,,160,200,210,210,,310,India
Giorgi Lortkipanidze,,1,2001-03-11,No,Pro T2,BD,M,Raw,82.5,81,,,,,,100,110,115,115,118,190,215,220,220,225,335,Georgia
Lohia Yesh,,1,1997-09-19,No,Pro J,BD,M,Raw,82.5,79.55,,,,,,145,150,-152.5,150,,210,-220,220,220,,370,India
Andriy Martinevich,Андрій Мартиневич,1,1993-11-27,No,Pro O,BD,M,Raw,82.5,80.4,,,,,,-145,150,155,155,,255,270,277.5,277.5,,432.5,Ukraine
Ruslan Dragun,Руслан Драгун,2,1989-04-14,No,Pro O,BD,M,Raw,82.5,81.4,,,,,,160,165,170,170,,235,250,262.5,262.5,,432.5,Ukraine
Andris Lusis,,3,1983-07-07,No,Pro O,BD,M,Raw,82.5,82.35,,,,,,150,155,-162.5,155,,260,-280,-280,260,,415,Latvia
Aleksey Schetkin,,4,1975-07-03,No,Pro O,BD,M,Raw,82.5,79.45,,,,,,145,150,155,155,,-210,210,222.5,222.5,,377.5,Belarus
Aleksey Schetkin,,1,1975-07-03,No,Pro M1,BD,M,Raw,82.5,79.45,,,,,,145,150,155,155,,-210,210,222.5,222.5,,377.5,Belarus
Reucher Correa Arroyo,,1,2002-09-08,No,Pro T2,BD,M,Raw,90,88.8,,,,,,100,120,125,125,,190,200,210,210,,335,Peru
Deepender Singh Chhabra,,1,1999-05-13,No,Pro T3,BD,M,Raw,90,86.85,,,,,,100,117.5,122.5,122.5,,210,-225,225,225,,347.5,India
Maksims Mavricevs,,1,1995-06-27,No,Pro J,BD,M,Raw,90,84.95,,,,,,130,-140,,130,,250,270,280,280,,410,Latvia
Muhammed Enes Ozkan,,1,1987-06-29,No,Pro O,BD,M,Raw,90,89.3,,,,,,170,180,-190.5,180,,310,-320,-320,310,,490,Turkey
Yevgen Lukyanov,,2,1980-08-11,No,Pro O,BD,M,Raw,90,87.7,,,,,,175,180,-185,180,,230,-240,240,240,,420,Belarus
Shriom,,3,1982-05-20,No,Pro O,BD,M,Raw,90,86.15,,,,,,170,175,177.5,177.5,,220,230,240,240,,417.5,India
Jorma Mononen,,1,1974-08-22,No,Pro M1,BD,M,Raw,90,83.4,,,,,,115,127.5,-135,127.5,,150,170,180,180,,307.5,Finland
Andrés Albornoz Tinoco,,1,1966-09-19,No,Pro M2,BD,M,Raw,90,88,,,,,,100,110,-120,110,,170,185,200,200,,310,Peru
Deepanshu,,1,2001-10-10,No,Pro T2,BD,M,Raw,100,93.75,,,,,,95,100,-105,100,,200,220,225,225,,325,India
Rohan Rana,,2,2002-10-27,No,Pro T2,BD,M,Raw,100,94.1,,,,,,120,130,132.5,132.5,,160,170,175,175,,307.5,India
Vishal Dahiya,,1,1997-07-24,No,Pro J,BD,M,Raw,100,91.45,,,,,,105,110,115,115,,-180,180,190,190,,305,India
Vladimir Hristov,,1,1983-07-20,No,Pro O,BD,M,Raw,100,97.2,,,,,,150,157.5,162.5,162.5,,290,305,-315,305,,467.5,Bulgaria
Andrey Zemlyakov,,2,1991-06-24,No,Pro O,BD,M,Raw,100,95.75,,,,,,185,-192.5,-192.5,185,,-250,250,,250,,435,Belarus
Gurpreet Singh,,3,1982-01-10,No,Pro O,BD,M,Raw,100,95.4,,,,,,100,105,-110,105,,180,190,-195,190,,295,India
Deepak Kumar,,4,1987-07-02,No,Pro O,BD,M,Raw,100,89.55,,,,,,110,120,130,130,,190,200,-210,200,,330,India
Yuriy Kostenko,Юрій Костенко,1,1971-07-28,No,Pro M1,BD,M,Raw,100,98.9,,,,,,172.5,180,,180,,270,282.5,,282.5,,462.5,Ukraine
Ashish Kumar,,2,1976-07-30,No,Pro M1,BD,M,Raw,100,98.2,,,,,,100,110,120,120,,200,220,230,230,,350,India
Volodimir Kolomiets,Володимир Коломієц,1,1966-05-09,No,Pro M2,BD,M,Raw,100,98.1,,,,,,142.5,150,-152.5,150,,215,232.5,245,245,,395,Ukraine
Luis Zerpa García,,2,1965-12-17,No,Pro M2,BD,M,Raw,100,98.8,,,,,,100,110,120,120,,180,195,225,225,,345,Peru
Nika Diasamidze,,1,2001-11-04,No,Pro T2,BD,M,Raw,110,107.7,,,,,,110,130,-140,130,,-200,220,231,231,,361,Georgia
Hritik Shehrawat,,1,2000-06-20,No,Pro T3,BD,M,Raw,110,109.35,,,,,,85,90,-95,90,,150,-160,165,165,,255,India
Vikram Phogat,,1,1991-10-11,No,Pro O,BD,M,Raw,110,106.7,,,,,,180,-187.5,187.5,187.5,,290,295,300,300,,487.5,India
Grigor Penchev,,2,1993-07-19,No,Pro O,BD,M,Raw,110,103.85,,,,,,-160,160,-180,160,,250,265,280,280,,440,Bulgaria
Datuna Mzhavanadze,,1,1972-05-14,No,Pro M1,BD,M,Raw,110,105.8,,,,,,180,196,200,200,,250,260,270,270,,470,Georgia
Sergey Zakharov,Сергей Захаров,2,1977-12-17,No,Pro M1,BD,M,Raw,110,104.25,,,,,,155,160,162.5,162.5,,220,-235,-242.5,220,,382.5,Ukraine
Volodymyr Luk'yanov,,1,1966-02-18,No,Pro M2,BD,M,Raw,110,103,,,,,,130,135,-140,135,,270,280,285,285,,420,Belarus
Marcelo Schneider,,2,1967-02-25,No,Pro M2,BD,M,Raw,110,107.7,,,,,,155,,,155,,245,255,-260,255,,410,Brazil
Raghav Chawla,,1,1997-05-02,No,Pro J,BD,M,Raw,125,115.8,,,,,,100,110,120,120,,220,240,-260,240,,360,India
Maksims Popovs,,1,1984-04-01,No,Pro O,BD,M,Raw,125,114.95,,,,,,195,-200,-200,195,,340,360,-367.5,360,,555,Latvia
Oleksandr Tarasov,Олександр Тарасов,2,1991-10-27,No,Pro O,BD,M,Raw,125,118.7,,,,,,210,222.5,-227.5,222.5,,300,-315,,300,,522.5,Ukraine
Igor Kotsyuba,Ігор Коцюба,3,1982-09-21,No,Pro O,BD,M,Raw,125,123,,,,,,170,-175,-175,170,,265,277.5,287.5,287.5,,457.5,Ukraine
Viktor Vatagin,Виктор Ватагин,4,1982-05-29,No,Pro O,BD,M,Raw,125,121.75,,,,,,150,-170,-170,150,,240,260,,260,,410,Ukraine
Zurab Chavchanidze,,1,1953-05-25,No,Pro M3,BD,M,Raw,125,119.6,,,,,,130,135,140,140,,190,-215,215,215,,355,Georgia
Dmitro Kravchinskiy,Дмитро Кравчинський,1,1982-05-19,No,Pro O,BD,M,Raw,140,126.65,,,,,,200,-207.5,-207.5,200,,290,307.5,-315,307.5,,507.5,Ukraine
Grigoriy Barannik,Григорій Бараннік,2,1990-05-09,No,Pro O,BD,M,Raw,140,137,,,,,,180,-190,-200,180,,260,275,295,295,,475,Ukraine
Andriy Romanchuk,Андрій Романчук,1,1976-12-26,No,Pro M1,BD,M,Multi-ply,100,99.8,,,,,,170,177.5,185,185,,285,300,310,310,,495,Ukraine
Mikhaylo Pitinov,Михайло Пітінов,1,1971-10-07,No,Pro M1,BD,M,Multi-ply,140,128.8,,,,,,170,-185,185,185,,180,200,-215,200,,385,Ukraine
Surjeet Singh,,1,1990-01-01,No,Pro O,S,M,Wraps,75,74.35,150,160,170,170,,,,,,,,,,,,170,India
Parvinder Singh,,1,1976-12-06,No,Pro M1,S,M,Wraps,75,73.9,-150,175,180,180,,,,,,,,,,,,180,India
Balraj,,1,1979-06-30,No,Pro O,S,M,Wraps,90,87.25,180,200,220,220,,,,,,,,,,,,220,India
Deepak Kumar,,2,1987-07-02,No,Pro O,S,M,Wraps,90,89.55,-120,130,150,150,,,,,,,,,,,,150,India
Maksim Ribalka,Максим Рибалка,1,1993-09-28,No,Pro O,S,M,Wraps,125,111.75,330,342.5,350,350,,,,,,,,,,,,350,Ukraine
Igor Kotsyuba,Ігор Коцюба,2,1982-09-21,No,Pro O,S,M,Wraps,125,123,270,285,295,295,,,,,,,,,,,,295,Ukraine
Grigoriy Barannik,Григорій Бараннік,1,1990-05-09,No,Pro O,S,M,Wraps,140,137,250,-270,270,270,,,,,,,,,,,,270,Ukraine
Gurpreet Singh,,1,1982-01-10,No,Pro O,S,M,Raw,100,95.4,-160,-160,160,160,,,,,,,,,,,,160,India
Yuriy Kostenko,Юрій Костенко,1,1971-07-28,No,Pro M1,S,M,Raw,100,98.9,220,232.5,,232.5,,,,,,,,,,,,232.5,Ukraine
Flavia Portugal,,1,1985-11-05,No,Pro O,B,F,Raw,56,55.7,,,,,,57.5,60,-65,60,,,,,,,60,Brazil
Zhaneta Shostak,Жанета Шостак,1,1972-07-26,No,Pro M1,B,F,Raw,67.5,67.15,,,,,,52.5,57.5,-60,57.5,,,,,,,57.5,Ukraine
Cristina Costov,,1,1982-11-24,No,Pro O,B,F,Raw,90,87.25,,,,,,62.5,70,-75,70,,,,,,,70,Moldova
César Sotomayor Galindo,,1,1970-10-09,No,Pro M1,B,M,Raw,67.5,61.25,,,,,,65,75,85,85,,,,,,,85,Peru
Oleksandr Sharvey,Олександр Шарвей,1,1986-02-03,No,Pro O,B,M,Raw,75,74.8,,,,,,150,155,-157.5,155,,,,,,,155,Ukraine
Maksim Mutskiy,Максим Муцький,2,1986-04-14,No,Pro O,B,M,Raw,75,74,,,,,,140,150,-155,150,,,,,,,150,Ukraine
Clotario Portugal,,1,1953-02-11,No,Pro M3,B,M,Raw,75,73.5,,,,,,92.5,95,,95,,,,,,,95,Brazil
Lohia Yesh,,1,1997-09-19,No,Pro J,B,M,Raw,82.5,79.55,,,,,,145,150,-152.5,150,,,,,,,150,India
Vadim Marinich,Вадим Маринич,1,1981-08-31,No,Pro O,B,M,Raw,82.5,82.5,,,,,,175,180,185,185,,,,,,,185,Ukraine
Andriy Martinevich,Андрій Мартиневич,2,1993-11-27,No,Pro O,B,M,Raw,82.5,80.4,,,,,,-145,150,155,155,,,,,,,155,Ukraine
Pāvels Grigorjevs,,1,1974-07-28,No,Pro M1,B,M,Raw,82.5,80.4,,,,,,167.5,172.5,-175,172.5,,,,,,,172.5,Latvia
Aleksey Schetkin,,2,1975-07-03,No,Pro M1,B,M,Raw,82.5,79.45,,,,,,145,150,155,155,,,,,,,155,Belarus
Reucher Correa Arroyo,,1,2002-09-08,No,Pro T2,B,M,Raw,90,88.8,,,,,,100,120,125,125,,,,,,,125,Peru
Dmitro Shigimaga,Дмитро Шігімага,1,1999-06-05,No,Pro T3,B,M,Raw,90,86.75,,,,,,170,180,-185,180,,,,,,,180,Ukraine
Maksim Elskiy,Максим Єльський,1,1985-08-22,No,Pro O,B,M,Raw,90,89.5,,,,,,205,215,217.5,217.5,,,,,,,217.5,Ukraine
Oleksandr Kozachenko,Олександр Козаченко,2,1985-02-07,No,Pro O,B,M,Raw,90,89.35,,,,,,215,-225,-225,215,,,,,,,215,Ukraine
Artem Kots,Артем Коц,3,1987-06-20,No,Pro O,B,M,Raw,90,90,,,,,,187.5,192.5,197.5,197.5,,,,,,,197.5,Ukraine
Vitaliy Gonetskiy,Віталій Гонецький,4,1978-08-07,No,Pro O,B,M,Raw,90,88.7,,,,,,175,-182.5,182.5,182.5,,,,,,,182.5,Ukraine
Shriom,,5,1982-05-20,No,Pro O,B,M,Raw,90,86.15,,,,,,170,175,177.5,177.5,,,,,,,177.5,India
Grigoriy Avetisyan,Григорій Аветісян,6,1993-03-03,No,Pro O,B,M,Raw,90,88.6,,,,,,140,-147.5,150,150,,,,,,,150,Ukraine
Vitaliy Gonetskiy,Віталій Гонецький,1,1978-08-07,No,Pro M1,B,M,Raw,90,88.7,,,,,,175,-182.5,182.5,182.5,,,,,,,182.5,Ukraine
Mikola Rubik,Микола Рубік,2,1972-12-20,No,Pro M1,B,M,Raw,90,89.95,,,,,,160,167.5,177.5,177.5,,,,,,,177.5,Ukraine
Yuriy Servetskiy,Юрій Сервецький,3,1977-06-07,No,Pro M1,B,M,Raw,90,87.65,,,,,,150,-160,-160,150,,,,,,,150,Ukraine
Jorma Mononen,,4,1974-08-22,No,Pro M1,B,M,Raw,90,83.4,,,,,,115,127.5,-135,127.5,,,,,,,127.5,Finland
Yuriy Varich,Юрій Варич,1,1968-07-08,No,Pro M2,B,M,Raw,90,88.45,,,,,,150,170,-185,170,,,,,,,170,Ukraine
Sergiy Plotnikov,Сергій Плотніков,1,1995-01-08,No,Pro J,B,M,Raw,100,99.35,,,,,,175,185,-190,185,,,,,,,185,Ukraine
Denis Bunchuk,Денис Бунчук,1,1989-07-09,No,Pro O,B,M,Raw,100,98.75,,,,,,245,255.5,-260,255.5,,,,,,,255.5,Ukraine
Oleksiy Bronishevskiy,Олексій Бронішевський,2,1988-03-26,No,Pro O,B,M,Raw,100,90.9,,,,,,210,220,-225,220,,,,,,,220,Ukraine
Andrey Zemlyakov,,3,1991-06-24,No,Pro O,B,M,Raw,100,95.75,,,,,,185,-192.5,-195,185,,,,,,,185,Belarus
Roman Bushta,Роман Бушта,4,1987-08-25,No,Pro O,B,M,Raw,100,99.2,,,,,,180,-195,-195,180,,,,,,,180,Ukraine
Vladimir Hristov,,5,1983-07-20,No,Pro O,B,M,Raw,100,97.2,,,,,,150,157.5,162.5,162.5,,,,,,,162.5,Bulgaria
Andriy Romanko,Андрій Романко,1,1975-08-24,No,Pro M1,B,M,Raw,100,94.95,,,,,,200,210,-220,210,,,,,,,210,Ukraine
Yuriy Kostenko,Юрій Костенко,2,1971-07-28,No,Pro M1,B,M,Raw,100,98.9,,,,,,172.5,180,,180,,,,,,,180,Ukraine
Volodimir Kosobrodov,Володимир Кособродов,3,1978-09-14,No,Pro M1,B,M,Raw,100,98.05,,,,,,170,177.5,-182.5,177.5,,,,,,,177.5,Ukraine
Viktor Rublov,Віктор Рубльов,4,1975-10-26,No,Pro M1,B,M,Raw,100,98.6,,,,,,172.5,-180,-180,172.5,,,,,,,172.5,Ukraine
Luis Zerpa García,,1,1965-12-17,No,Pro M2,B,M,Raw,100,98.8,,,,,,100,110,120,120,,,,,,,120,Peru
Yuriy Kolesnik,Юрій Колеснік,1,1973-01-04,No,Pro O,B,M,Raw,110,108.5,,,,,,200,207.5,215,215,,,,,,,215,Ukraine
Vikram Phogat,,2,1991-10-11,No,Pro O,B,M,Raw,110,106.7,,,,,,180,-187.5,187.5,187.5,,,,,,,187.5,India
Grigor Penchev,,3,1993-07-19,No,Pro O,B,M,Raw,110,103.85,,,,,,-160,160,-180,160,,,,,,,160,Bulgaria
Yuriy Kolesnik,Юрій Колеснік,1,1973-01-04,No,Pro M1,B,M,Raw,110,108.5,,,,,,200,207.5,215,215,,,,,,,215,Ukraine
Datuna Mzhavanadze,,2,1972-05-14,No,Pro M1,B,M,Raw,110,105.8,,,,,,180,196,200,200,,,,,,,200,Georgia
Sergey Zakharov,Сергей Захаров,3,1977-12-17,No,Pro M1,B,M,Raw,110,104.25,,,,,,155,160,162.5,162.5,,,,,,,162.5,Ukraine
Vitaliy Beloborodov,,1,1968-06-05,No,Pro M2,B,M,Raw,110,106.35,,,,,,170,-180,-180,170,,,,,,,170,Moldova
Marcelo Schneider,,2,1967-02-25,No,Pro M2,B,M,Raw,110,107.7,,,,,,155,,,155,,,,,,,155,Brazil
Volodimir Bodrikov,Володимир Бодріков,DQ,1996-12-29,No,Pro J,B,M,Raw,125,118.5,,,,,,-230,-230,,,,,,,,,,Ukraine
Dmitro Berest,Дмитро Берест,1,1985-07-02,No,Pro O,B,M,Raw,125,112.55,,,,,,225,230,-235,230,,,,,,,230,Ukraine
Oleksandr Tarasov,Олександр Тарасов,2,1991-10-27,No,Pro O,B,M,Raw,125,118.7,,,,,,210,222.5,-227.5,222.5,,,,,,,222.5,Ukraine
Yaroslav Dunay,Ярослав Дунай,3,1978-02-19,No,Pro O,B,M,Raw,125,111.55,,,,,,210,220,-230,220,,,,,,,220,Ukraine
Oleksandr Chernish,Олександр Черниш,4,1988-12-27,No,Pro O,B,M,Raw,125,111.65,,,,,,210,217.5,220,220,,,,,,,220,Ukraine
Igor Kotsyuba,Ігор Коцюба,5,1982-09-21,No,Pro O,B,M,Raw,125,123,,,,,,170,-175,-175,170,,,,,,,170,Ukraine
Viktor Vatagin,Виктор Ватагин,6,1982-05-29,No,Pro O,B,M,Raw,125,121.75,,,,,,150,-170,-170,150,,,,,,,150,Ukraine
Volodimir Bodrikov,Володимир Бодріков,DQ,1996-12-29,No,Pro O,B,M,Raw,125,118.5,,,,,,-230,-230,,,,,,,,,,Ukraine
Yaroslav Dunay,Ярослав Дунай,1,1978-02-19,No,Pro M1,B,M,Raw,125,111.55,,,,,,210,220,-230,220,,,,,,,220,Ukraine
Evgeniy Rudnik,Евгеній Руднік,2,1978-03-01,No,Pro M1,B,M,Raw,125,112,,,,,,210,220,,220,,,,,,,220,Ukraine
Valeriy Benko,,3,1974-04-15,No,Pro M1,B,M,Raw,125,115.5,,,,,,155,160,165,165,,,,,,,165,Belarus
Zurab Chavchanidze,,1,1953-05-25,No,Pro M3,B,M,Raw,125,119.6,,,,,,130,135,140,140,,,,,,,140,Georgia
Dmitro Kravchinskiy,Дмитро Кравчинський,1,1982-05-19,No,Pro O,B,M,Raw,140,126.65,,,,,,200,-207.5,-207.5,200,,,,,,,200,Ukraine
Grigoriy Barannik,Григорій Бараннік,2,1990-05-09,No,Pro O,B,M,Raw,140,137,,,,,,180,-190,-200,180,,,,,,,180,Ukraine
Nazar Kozub,Назар Козуб,3,1993-08-17,No,Pro O,B,M,Raw,140,137.35,,,,,,155,167.5,172.5,172.5,,,,,,,172.5,Ukraine
Sami Salonen,,1,1969-07-26,No,Pro O,B,M,Raw,140+,141.9,,,,,,170,195,-207.5,195,,,,,,,195,Finland
Sami Salonen,,1,1969-07-26,No,Pro M1,B,M,Raw,140+,141.9,,,,,,170,195,-207.5,195,,,,,,,195,Finland
Clotario Portugal,,1,1953-02-11,No,Pro M3,B,M,Multi-ply,75,73.5,,,,,,-139,139,-140,139,,,,,,,139,Brazil
Agshin Ismayilov,,1,1978-03-30,No,Pro O,B,M,Multi-ply,82.5,82.5,,,,,,-250,250,-266,250,,,,,,,250,Azerbaijan
Nijat Huseynov,,1,1988-05-19,No,Pro O,B,M,Multi-ply,90,89.75,,,,,,200,220,235,235,,,,,,,235,Azerbaijan
Vitaliy Menchuk,Віталій Менчук,1,1998-05-27,No,Pro J,B,M,Multi-ply,100,94.5,,,,,,250,265,-272.5,265,,,,,,,265,Ukraine
Vagif Mammadov,,1,1972-10-27,No,Pro M1,B,M,Multi-ply,100,91.2,,,,,,190,-210,210,210,,,,,,,210,Azerbaijan
Archana Chauhan,,1,1994-04-25,No,Pro O,D,F,Raw,52,51.38,,,,,,,,,,,137.5,142.5,-147.5,142.5,,142.5,India
Anzhela Andriychenko,Анжела Андрійченко,1,1990-06-28,No,Pro O,D,F,Raw,60,58.28,,,,,,,,,,,135,145,-152.5,145,,145,Ukraine
Zhaneta Shostak,Жанета Шостак,1,1972-07-26,No,Pro M1,D,F,Raw,67.5,67.15,,,,,,,,,,,92.5,102.5,110,110,,110,Ukraine
Cristina Costov,,1,1982-11-24,No,Pro O,D,F,Raw,90,87.25,,,,,,,,,,,130,137.5,145,145,,145,Moldova
Duhan Rojesh,,1,1996-02-20,No,Pro J,D,M,Raw,67.5,66.5,,,,,,,,,,,195,205,-215,205,,205,India
Baljeet,,2,1998-11-01,No,Pro J,D,M,Raw,67.5,65.2,,,,,,,,,,,170,175,,175,,175,India
Rohit Mathur,,3,1997-10-03,No,Pro J,D,M,Raw,67.5,60.85,,,,,,,,,,,140,150,160,160,,160,India
Manish,,1,1999-10-27,No,Pro T3,D,M,Raw,75,72.15,,,,,,,,,,,220,-225,-225,220,,220,India
Oleksandr Kutcher,Олександр Кутчер,1,1980-08-24,No,Pro O,D,M,Raw,75,74.75,,,,,,,,,,,-270,270,-290,270,,270,Ukraine
Mikola Belozorov,Микола Бєлозьоров,2,1982-12-16,No,Pro O,D,M,Raw,75,74.75,,,,,,,,,,,230,-240,-240,230,,230,Ukraine
Surjeet Singh,,3,1990-01-01,No,Pro O,D,M,Raw,75,74.35,,,,,,,,,,,180,190,200,200,,200,India
Parvinder Singh,,1,1976-12-06,No,Pro M1,D,M,Raw,75,73.9,,,,,,,,,,,160,200,210,210,,210,India
Volodimir Vasilenko,Володимир Василенко,1,1943-11-12,No,Pro M4,D,M,Raw,75,72.35,,,,,,,,,,,130,-140,150,150,,150,Ukraine
Masar Mursalov,,1,1996-06-21,No,Pro J,D,M,Raw,82.5,82.45,,,,,,,,,,,240,255,265,265,,265,Azerbaijan
Oleksandr Trondyuk,Олександр Трондюк,2,1995-12-28,No,Pro J,D,M,Raw,82.5,76.15,,,,,,,,,,,260,-280,-282.5,260,,260,Ukraine
Kuldeep,,3,1995-10-17,No,Pro J,D,M,Raw,82.5,78.95,,,,,,,,,,,230,-235,-235,230,,230,India
Vadim Marinich,Вадим Маринич,1,1981-08-31,No,Pro O,D,M,Raw,82.5,82.5,,,,,,,,,,,245,255,265,265,,265,Ukraine
Andris Lusis,,2,1983-07-07,No,Pro O,D,M,Raw,82.5,82.35,,,,,,,,,,,260,-280,-280,260,,260,Latvia
Dmitro Solonenko,Дмитро Солоненко,3,1994-06-11,No,Pro O,D,M,Raw,82.5,80.65,,,,,,,,,,,235,250,-255,250,,250,Ukraine
Evgen Konovalov,Євген Коновалов,4,1987-09-08,No,Pro O,D,M,Raw,82.5,80.85,,,,,,,,,,,230,240,-250,240,,240,Ukraine
Aleksey Schetkin,,1,1975-07-03,No,Pro M1,D,M,Raw,82.5,79.45,,,,,,,,,,,-210,210,222.5,222.5,,222.5,Belarus
Reucher Correa Arroyo,,1,2002-09-08,No,Pro T2,D,M,Raw,90,88.8,,,,,,,,,,,190,200,210,210,,210,Peru
Deepender Singh Chhabra,,1,1999-05-13,No,Pro T3,D,M,Raw,90,86.85,,,,,,,,,,,210,-225,225,225,,225,India
Maksims Mavricevs,,1,1995-06-27,No,Pro J,D,M,Raw,90,84.95,,,,,,,,,,,250,270,280,280,,280,Latvia
Muhammed Enes Ozkan,,1,1987-06-29,No,Pro O,D,M,Raw,90,89.3,,,,,,,,,,,310,-320,-320,310,,310,Turkey
Nijat Huseynov,,2,1988-05-19,No,Pro O,D,M,Raw,90,89.75,,,,,,,,,,,250,-265,277.5,277.5,,277.5,Azerbaijan
Kalle Lahti,,3,1985-04-25,No,Pro O,D,M,Raw,90,89.65,,,,,,,,,,,250,265,-277.5,265,,265,Finland
Deepak Kumar,,4,1987-07-02,No,Pro O,D,M,Raw,90,89.55,,,,,,,,,,,190,200,-210,200,,200,India
Jorma Mononen,,1,1974-08-22,No,Pro M1,D,M,Raw,90,83.4,,,,,,,,,,,150,170,180,180,,180,Finland
Deepanshu,,1,2001-10-10,No,Pro T2,D,M,Raw,100,93.75,,,,,,,,,,,200,220,225,225,,225,India
Rohan Rana,,2,2002-10-27,No,Pro T2,D,M,Raw,100,94.1,,,,,,,,,,,160,170,175,175,,175,India
Sergiy Plotnikov,Сергій Плотніков,1,1995-01-08,No,Pro J,D,M,Raw,100,99.35,,,,,,,,,,,-250,-250,250,250,,250,Ukraine
Nicolai Colta,,2,1995-11-27,No,Pro J,D,M,Raw,100,92.6,,,,,,,,,,,-230,230,,230,,230,Moldova
Vishal Dahiya,,3,1997-07-24,No,Pro J,D,M,Raw,100,91.45,,,,,,,,,,,-180,180,190,190,,190,India
Viktor Shulgin,Віктор Шульгін,1,1990-04-13,No,Pro O,D,M,Raw,100,93.05,,,,,,,,,,,-300,312.5,322.5,322.5,,322.5,Ukraine
Mikhaylo Zhelyazkov,Михайло Желязков,2,1980-09-12,No,Pro O,D,M,Raw,100,97.55,,,,,,,,,,,-320,320,-330,320,,320,Ukraine
Vladimir Hristov,,3,1983-07-20,No,Pro O,D,M,Raw,100,97.2,,,,,,,,,,,290,305,-315,305,,305,Bulgaria
Namig Mehdiyev,,4,1985-10-23,No,Pro O,D,M,Raw,100,99.6,,,,,,,,,,,285,302.5,-322.5,302.5,,302.5,Azerbaijan
Aris Ayubov,Арис Аюбов,5,1979-12-07,No,Pro O,D,M,Raw,100,96.45,,,,,,,,,,,290,300,-310,300,,300,Ukraine
Efim Stepatskiy,Єфим Степацький,6,1987-05-07,No,Pro O,D,M,Raw,100,96.75,,,,,,,,,,,280,-300,,280,,280,Ukraine
Gurpreet Singh,,7,1982-01-10,No,Pro O,D,M,Raw,100,95.4,,,,,,,,,,,180,190,-195,190,,190,India
Yuriy Kostenko,Юрій Костенко,1,1971-07-28,No,Pro M1,D,M,Raw,100,98.9,,,,,,,,,,,270,282.5,,282.5,,282.5,Ukraine
Ashish Kumar,,2,1976-07-30,No,Pro M1,D,M,Raw,100,98.2,,,,,,,,,,,200,220,230,230,,230,India
Seppo Konkola,,1,1962-06-09,No,Pro M2,D,M,Raw,100,94.6,,,,,,,,,,,240,260,275.5,275.5,,275.5,Finland
Volodimir Kolomiets,Володимир Коломієц,2,1966-05-09,No,Pro M2,D,M,Raw,100,98.1,,,,,,,,,,,215,232.5,245,245,,245,Ukraine
Luis Zerpa García,,3,1965-12-17,No,Pro M2,D,M,Raw,100,98.8,,,,,,,,,,,180,195,225,225,,225,Peru
Hritik Shehrawat,,1,2000-06-20,No,Pro T3,D,M,Raw,110,109.35,,,,,,,,,,,150,-160,165,165,,165,India
Mikhaylo Savenko,Михайло Савенко,1,1996-04-25,No,Pro J,D,M,Raw,110,106.45,,,,,,,,,,,320,-332.5,-332.5,320,,320,Ukraine
Zhorzh Seydu Togola,Жорж Сейду Тогола,1,1989-04-05,No,Pro O,D,M,Raw,110,110,,,,,,,,,,,350,-360,-360,350,,350,Ukraine
Artem Turyanitsya,Артем Туряниця,2,1991-09-29,No,Pro O,D,M,Raw,110,102.7,,,,,,,,,,,322.5,330,-335,330,,330,Ukraine
Róbert Majoros,,3,1994-04-12,No,Pro O,D,M,Raw,110,106.55,,,,,,,,,,,315,322.5,-332.5,322.5,,322.5,Hungary
Vikram Phogat,,4,1991-10-11,No,Pro O,D,M,Raw,110,106.7,,,,,,,,,,,290,295,300,300,,300,India
Andrey Linares Vega,,5,1992-11-28,No,Pro O,D,M,Raw,110,105.2,,,,,,,,,,,270,285,-300,285,,285,Moldova
Grigor Penchev,,6,1993-07-19,No,Pro O,D,M,Raw,110,103.85,,,,,,,,,,,250,265,280,280,,280,Bulgaria
Andriy Bobilov,Андрій Бобильов,1,1976-12-28,No,Pro M1,D,M,Raw,110,107.85,,,,,,,,,,,250,260,270,270,,270,Ukraine
Sergey Zakharov,Сергей Захаров,2,1977-12-17,No,Pro M1,D,M,Raw,110,104.25,,,,,,,,,,,220,-235,-242.5,220,,220,Ukraine
Volodymyr Luk'yanov,,1,1966-02-18,No,Pro M2,D,M,Raw,110,103,,,,,,,,,,,270,280,285,285,,285,Belarus
Marcelo Schneider,,2,1967-02-25,No,Pro M2,D,M,Raw,110,107.7,,,,,,,,,,,245,255,-260,255,,255,Brazil
Raghav Chawla,,1,1997-05-02,No,Pro J,D,M,Raw,125,115.8,,,,,,,,,,,220,240,-260,240,,240,India
Maksims Popovs,,1,1984-04-01,No,Pro O,D,M,Raw,125,114.95,,,,,,,,,,,340,360,-367.5,360,,360,Latvia
Maksim Ribalka,Максим Рибалка,2,1993-09-28,No,Pro O,D,M,Raw,125,111.75,,,,,,,,,,,310,315,325,325,,325,Ukraine
Oleksandr Tarasov,Олександр Тарасов,3,1991-10-27,No,Pro O,D,M,Raw,125,118.7,,,,,,,,,,,300,-315,,300,,300,Ukraine
Igor Kotsyuba,Ігор Коцюба,4,1982-09-21,No,Pro O,D,M,Raw,125,123,,,,,,,,,,,265,277.5,287.5,287.5,,287.5,Ukraine
Viktor Vatagin,Виктор Ватагин,5,1982-05-29,No,Pro O,D,M,Raw,125,121.75,,,,,,,,,,,240,260,,260,,260,Ukraine
Zurab Chavchanidze,,1,1953-05-25,No,Pro M3,D,M,Raw,125,119.6,,,,,,,,,,,190,-215,215,215,,215,Georgia
Dmitro Kravchinskiy,Дмитро Кравчинський,1,1982-05-19,No,Pro O,D,M,Raw,140,126.65,,,,,,,,,,,290,307.5,-315,307.5,,307.5,Ukraine
Grigoriy Barannik,Григорій Бараннік,3,1990-05-09,No,Pro O,D,M,Raw,140,137,,,,,,,,,,,260,275,295,295,,295,Ukraine
Nazar Kozub,Назар Козуб,2,1993-08-17,No,Pro O,D,M,Raw,140,137.35,,,,,,,,,,,270,300,307.5,307.5,,307.5,Ukraine
Dmitro Pavlenko,Дмитро Павленко,1,1978-08-20,No,Pro M1,D,M,Multi-ply,90,85.4,,,,,,,,,,,100,,,100,,100,Ukraine
Ilyas Abdullayev,,1,1989-10-15,No,Pro O,D,M,Multi-ply,100,97.45,,,,,,,,,,,-260,260,-272.5,260,,260,Azerbaijan
Andriy Romanchuk,Андрій Романчук,1,1976-12-26,No,Pro M1,D,M,Multi-ply,100,99.8,,,,,,,,,,,285,300,310,310,,310,Ukraine
Oleg Kovbasa,Олег Ковбаса,2,1975-02-06,No,Pro M1,D,M,Multi-ply,100,96.05,,,,,,,,,,,180,-200,,180,,180,Ukraine
Sergiy Kolisnik,Сергій Колісник,1,1963-01-03,No,Pro M2,D,M,Multi-ply,110,103.35,,,,,,,,,,,225,240,,240,,240,Ukraine
Vasilij Mazur,,1,1984-01-28,No,Pro O,D,M,Multi-ply,125,115.95,,,,,,,,,,,-300,300,320,320,,320,Moldova
