Name,BirthDate,Sex,Country,Age,Division,Event,Equipment,BodyweightKg,WeightClassKg,Squat1Kg,Squat2Kg,Squat3Kg,Best3SquatKg,Bench1Kg,Bench2Kg,Bench3Kg,Bench4Kg,Best3BenchKg,Deadlift1Kg,Deadlift2Kg,Deadlift3Kg,Deadlift4Kg,Best3DeadliftKg,TotalKg,Place
Amelia Osorio Macias,,F,Bolivia,,Open,SBD,Wraps,46.7,48,-80,80,90,90,37.5,40,42.5,,42.5,95,-102.5,105,,105,237.5,2
Karina Garcés,1993-07-24,F,Chile,25,Open,SBD,Wraps,47.4,48,102.5,107.5,112.5,112.5,47.5,50,-52.5,,50,125,130,135,,135,297.5,1
Carolina Ramos,1991-11-25,F,Argentina,26,Open,SBD,Wraps,51.8,52,140,152.5,-160,152.5,70,72.5,77.5,,77.5,150,162.5,172.5,,172.5,402.5,1
Paula Berrios,1989-02-09,F,Chile,29,Open,SBD,Wraps,51.9,52,95,105,115,115,47.5,50,-52.5,,50,117.5,125,130,,130,295,2
Mary Espinal Vasquez,,F,Peru,,Open,SBD,Wraps,55.8,56,115,120,-125,120,57.5,62.5,-67.5,,62.5,110,120,130,,130,312.5,2
Mariana Miguez,1983-08-29,F,Argentina,35,Open,SBD,Wraps,54.7,56,130,140,150,150,65,70,-72.5,,70,150,160,170,,170,390,1
Liz Angulo,1974-01-18,F,Bolivia,44,M 40-49,SBD,Wraps,54.9,56,-127.5,127.5,130,130,70,75,-77.5,,75,140,145,-152.5,,145,350,1
Antonella Vasquez,1977-10-20,F,Argentina,40,M 40-49,SBD,Wraps,54.1,56,-140,-140,-140,,,,,,,,,,,,,DQ
Noemi Anaquin,1992-08-19,F,Argentina,26,Open,SBD,Multi-ply,53.8,56,145,152.5,-157.5,152.5,75,80,85,,85,145,155,160,,160,397.5,1
Nadreen El Abyad Céspedes,1997-11-07,F,Bolivia,20,Jun,SBD,Wraps,58.9,60,80,90,-100,90,30,35,-37.5,,35,-100,100,110,,110,235,1
Inés Alejandra Zeballos,1970-03-06,F,Argentina,48,M 40-49,SBD,Wraps,58.8,60,100,125,135,135,60,65,-70,,65,130,150,160,,160,360,2
Yassna Riffo,1973-11-01,F,Chile,44,M 40-49,SBD,Wraps,59.7,60,130,-140,,130,72.5,77.5,80,,80,140,150,155,,155,365,1
Macarena Aravena,2002-06-18,F,Chile,16,Tn 16-17,SBD,Wraps,60,60,50,57.5,-65,57.5,-20,25,-32.5,,25,85,-95,-100,,85,167.5,1
Natalys Aravena,1993-12-30,F,Chile,24,Open,SBD,Wraps,66.9,67.5,160,170,180,180,70,75,77.5,,77.5,140,150,160,,160,417.5,1
Génesis Pacheco,2000-04-28,F,Chile,18,Tn 18-19,SBD,Wraps,66.7,67.5,135,140,150,150,62.5,65,70,,70,-125,130,140,,140,360,1
Rosalía Llancaleo,1968-09-19,F,Chile,49,M 40-49,SBD,Wraps,65.8,67.5,190,-200,200,200,80,90,95,,95,150,160,170,,170,465,1
Erika Cruces,1974-08-11,F,Chile,44,M 40-49,SBD,Wraps,72.6,75,200,220,230,230,90,100,105,,105,180,-190,200,,200,535,1
Daniela Ricail,1991-12-03,F,Argentina,26,Open,SBD,Wraps,76.9,82.5,170,182.5,192.5,192.5,82.5,-90,97.5,,97.5,160,172.5,182.5,,182.5,472.5,1
Maria Renaut,1974-03-24,F,Chile,44,Open,SBD,Wraps,80,82.5,150,160,170,170,-60,65,70,,70,-180,180,,,180,420,2
Adriana Jorgensen Ibañez,,F,Bolivia,,Open,SBD,Wraps,82.3,82.5,145,150,157.5,157.5,50,57.5,62.5,,62.5,145,150,155,,155,375,3
Severo Pacheco Ramos,2000-06-07,M,Peru,18,Tn 18-19,SBD,Wraps,55.8,56,130,140,-150,140,67.5,-75,-75,,67.5,145,157.5,-161,,157.5,365,1
Cristian Mateluna,1986-07-14,M,Chile,32,Open,SBD,Wraps,55.2,56,135,138,-141,138,90,-91,91,-93,91,162.5,-187.5,-187.5,,162.5,391.5,1
Luis Romero,2000-10-22,M,Chile,17,Tn 16-17,SBD,Wraps,59,60,120,-130,137.5,137.5,70,75,-80,,75,120,-135,135,,135,347.5,1
Julio Chura Quentasi,1946-07-01,M,Peru,72,M 70-79,SBD,Multi-ply,64.1,67.5,115,125,130,130,100,-110,-110,,100,140,150,155,,155,385,1
Álvaro Mardones,1998-04-06,M,Chile,20,Jun,SBD,Wraps,67.4,67.5,-200,200,220,220,115,120,125,,125,240,255,-265,,255,600,1
Julio Flores Blas,,M,Peru,,Open,SBD,Wraps,66.4,67.5,150,160,170,170,95,102.5,-107.5,,102.5,170,185,-195,,185,457.5,2
Jorge González,2003-06-08,M,Chile,15,Tn 13-15,SBD,Wraps,65.4,67.5,115,120,-132.5,120,60,67.5,-72.5,,67.5,130,-140,-140,,130,317.5,1
Cristian García,1989-01-02,M,Chile,29,Open,SBD,Multi-ply,66.5,67.5,200,-215,-215,200,-90,90,95,,95,205,220,-240,,220,515,1
Isaac Huamaní,,M,Peru,,Open,SBD,Wraps,74.9,75,200,-210,212.5,212.5,135,142.5,145,,145,200,210,225,,225,582.5,3
Julio Ticona Nieto,1959-09-04,M,Peru,58,M 50-59,SBD,Multi-ply,74.6,75,130,150,165,165,105,112.5,115,,115,150,165,170,,170,450,1
Rodrigo Puchó,1999-08-04,M,Bolivia,19,Tn 18-19,SBD,Wraps,70.5,75,175,185,-195,185,82.5,87.5,92.5,,92.5,185,197.5,205,,205,482.5,1
Leandro Albornoz,1992-09-15,M,Argentina,25,Open,SBD,Wraps,74.8,75,225,-245,245,245,122.5,-132.5,132.5,,132.5,-250,-250,250,,250,627.5,2
Arnaldo Salinas,1983-04-01,M,Chile,35,Open,SBD,Wraps,74,75,255,-275,-275,255,120,130,135,,135,250,265,-277.5,,265,655,1
Raúl Gajardo,2002-08-19,M,Chile,16,Tn 16-17,SBD,Wraps,74.2,75,115,120,125,125,65,72.5,77.5,,77.5,-155,160,170,,170,372.5,1
Óscar Vásquez,1995-08-31,M,Chile,22,Jun,SBD,Wraps,74.2,75,170,-182.5,187.5,187.5,95,100,-102.5,,100,195,202.5,212.5,,212.5,500,1
Darlyn Nima Ramos,1984-10-05,M,Peru,33,Open,SBD,Wraps,78.6,82.5,190,205,220,220,135,145,-150,,145,210,230,-235,,230,595,2
Marco Salinas Castro,,M,Bolivia,,Open,SBD,Wraps,78.2,82.5,195,-207.5,-220,195,110,120,-130,,120,195,215,230,,230,545,3
Roberto Guzman Roca,1996-02-16,M,Bolivia,22,Jun,SBD,Wraps,82.4,82.5,-250,-250,250,250,130,140,-145,,140,245,255,257.5,263,257.5,647.5,1
Felipe Lleucún,2002-09-06,M,Chile,15,Tn 13-15,SBD,Wraps,78.8,82.5,130,140,-150,140,72.5,-77.5,-77.5,,72.5,180,190,200,-210,200,412.5,1
Lenin Rojas,2000-09-25,M,Chile,17,Tn 16-17,SBD,Wraps,82.4,82.5,130,145,-160,145,60,75,-87.5,,75,170,180,-200,,180,400,1
Francisco Parra,1994-10-31,M,Chile,23,Jun,SBD,Wraps,79.7,82.5,250,-260,260,260,130,140,145,,145,215,225,-240,,225,630,1
Alejo Philipp,1994-12-18,M,Argentina,23,Jun,SBD,Wraps,90,90,245,265,-270,265,140,152.5,-160,,152.5,225,245,257.5,,257.5,675,1
Felipe Hernández,1998-04-03,M,Chile,20,Jun,SBD,Wraps,82.7,90,180,200,-215,200,100,105,-112.5,,105,160,175,185,,185,490,2
Nicolas Quilodran,1972-11-05,M,Argentina,45,M 40-49,SBD,Wraps,86.8,90,220,235,255,255,145,155,-167.5,,155,220,235,-245,,235,645,1
Juan Ales,1957-03-09,M,Argentina,61,M 60-69,SBD,Wraps,88.7,90,170,185,210,210,120,125,-132.5,,125,180,200,210,,210,545,1
Cristian Marín,1984-11-05,M,Chile,33,Open,SBD,Wraps,89.8,90,250,-260,-260,250,155,160,-165,,160,240,-250,,,240,650,1
Diego Carrasco,2000-06-08,M,Chile,18,Tn 18-19,SBD,Wraps,88.2,90,210,-230,240,240,105,112.5,115,,115,230,250,265,,265,620,1
Alexis Solis,1981-04-26,M,Ecuador,37,Open,SBD,Multi-ply,72.8,75,215,225,235,235,-130,130,,,130,195,205,,,205,570,1
Gregorio Gritzmann,1965-09-24,M,Paraguay,52,M 50-59,SBD,Wraps,98.4,100,145,155,165,165,105,110,115,,115,170,185,195,,195,475,1
Jose Oviedo,1993-09-23,M,Paraguay,24,Open,SBD,Wraps,92,100,-220,-220,-220,,,,,,,,,,,,,DQ
Reucher Correa Arroyo,2002-09-08,M,Peru,15,Tn 13-15,SBD,Wraps,91.1,100,160,190,220,220,100,120,-132.5,,120,170,190,205,,205,545,1
Juan Parada,1987-09-12,M,Chile,30,Open,SBD,Wraps,98.5,100,265,-282.5,282.5,282.5,130,-140,140,,140,260,270,-277.5,,270,692.5,1
Christian Sepúlveda,1995-02-10,M,Chile,23,Jun,SBD,Wraps,96.9,100,230,240,,240,140,150,,,150,215,,,,215,605,1
Matías Iturra,1991-08-08,M,Chile,27,Open,SBD,Wraps,106.1,110,280,-300,-300,280,180,190,-197.5,,190,250,280,-300,,280,750,1
Fernando Rivera,2002-02-25,M,Chile,16,Tn 16-17,SBD,Wraps,108.7,110,170,180,190,190,90,100,-110,,100,200,210,215,,215,505,1
Manuel Lleucún,1998-08-10,M,Chile,20,Jun,SBD,Wraps,100.2,110,-190,190,-220,190,-100,105,-110,,105,240,255,-270,,255,550,1
Enzo Castro,1984-09-02,M,Chile,33,Open,SBD,Multi-ply,110,110,310,-325,,310,200,-210,210,,210,240,255,262.5,,262.5,782.5,1
Javier Melgar Henrich,1982-01-21,M,Bolivia,36,Open,SBD,Wraps,122.5,125,320,-340,-340,320,170,-180,-180,,170,267.5,280,290,,290,780,1
José Cortés,1992-10-07,M,Chile,25,Open,SBD,Wraps,123.4,125,240,260,270,270,132.5,140,147.5,,147.5,240,260,-280,,260,677.5,2
Sergio Mardones,1989-05-10,M,Chile,29,Open,SBD,Wraps,139.9,140,381,405,-426,405,200,220,232.5,,232.5,285,312.5,-320,,312.5,950,1
Moisés Muñoz,2000-10-05,M,Chile,17,Tn 16-17,SBD,Wraps,130.2,140,130,-140,-150,130,60,65,70,,70,170,172.5,-180,,172.5,372.5,1
Edgardo Leal,1973-04-19,M,Chile,45,M 40-49,SBD,Wraps,164.6,140+,310,320,,320,180,-190,190,,190,260,-280,-280,,260,770,1
Rosalía Llancaleo,1968-09-19,F,Chile,49,M 40-49,B,Raw,66.5,67.5,,,,,90,95,-97.5,,95,,,,,,95,1
César Sotomayor Galindo,1970-10-19,M,Peru,47,M 40-49,B,Raw,58.7,60,,,,,60,-85,-85,,60,,,,,,60,1
Gonzalo Nuñez Borja,1976-11-07,M,Peru,41,M 40-49,B,Raw,65.6,67.5,,,,,100,110,-112.5,,110,,,,,,110,1
Luis Ahumada,1974-02-24,M,Chile,44,Open,B,Raw,66.7,67.5,,,,,130,135,-140,,135,,,,,,135,1
Fabio Goldfarb,1986-03-23,M,Argentina,32,Open,B,Raw,75,75,,,,,130,140,-147.5,,140,,,,,,140,1
Darlyn Nima Ramos,1984-10-05,M,Peru,33,Open,B,Raw,80.3,82.5,,,,,137.5,142.5,-150,,142.5,,,,,,142.5,3
Juan Lema,1992-08-09,M,Chile,26,Open,B,Raw,82.3,82.5,,,,,150,-152.5,-157.5,,150,,,,,,150,2
Sergio Barrientos,1978-09-03,M,Argentina,39,Open,B,Raw,81.4,82.5,,,,,147.5,152.5,155,,155,,,,,,155,1
Roberto Cavani Rosas,1965-09-05,M,Argentina,52,M 50-59,B,Raw,81.7,82.5,,,,,145,152.5,155,-160.5,155,,,,,,155,1
Enrique Miranda,2001-05-30,M,Chile,17,Tn 16-17,B,Raw,84.9,90,,,,,100,105,-110,,105,,,,,,105,1
Luis Muñoz,1997-05-09,M,Chile,21,Jun,B,Raw,89.2,90,,,,,120,135,-145,,135,,,,,,135,1
Fernando Vargas do Santos,,M,Brazil,,Open,B,Raw,88.8,90,,,,,140,-150,-150,,140,,,,,,140,1
Reucher Correa Arroyo,2002-09-08,M,Peru,15,Tn 13-15,B,Raw,91.3,100,,,,,100,120,-130,,120,,,,,,120,1
Jorge Carello,1978-08-16,M,Argentina,40,M 40-49,B,Raw,95.7,100,,,,,120,130,145,,145,,,,,,145,1
Christian Sepúlveda,1995-02-10,M,Chile,23,Jun,B,Raw,99.1,100,,,,,150,-157.5,-157.5,,150,,,,,,150,1
Matías Iturra,1991-08-08,M,Chile,27,Open,B,Raw,108.9,110,,,,,180,190,192.5,,192.5,,,,,,192.5,1
Enzo Castro,1984-09-02,M,Chile,33,Open,B,Multi-ply,110,110,,,,,-200,200,215,,215,,,,,,215,1
Carlos Rogers,1980-10-27,M,Chile,37,Open,B,Raw,118.2,125,,,,,155,165,-170,,165,,,,,,165,1
Maryorie Flores,1995-12-01,F,Chile,22,Jun,BD,Raw,56,56,,,,,62.5,,,,62.5,130,135,-141,,135,197.5,1
Angelica B Otharam,,F,Brazil,,Open,BD,Raw,66.5,67.5,,,,,50,-60,-62.5,,50,125,-130,,,125,175,1
Erika Cruces,1974-08-11,F,Chile,44,M 40-49,BD,Raw,73,75,,,,,80,-90,90,,90,180,190,,,190,280,1
Mario Espinoza,2001-09-23,M,Chile,16,Tn 16-17,BD,Raw,57.1,60,,,,,60,67.5,-76,,67.5,145,150,-155,,150,217.5,1
Omar Gutiérrez,1990-09-15,M,Chile,27,Open,BD,Raw,66.6,67.5,,,,,110,120,122.5,,122.5,200,220,225,,225,347.5,1
Vicent Burgos,2000-11-15,M,Chile,17,Tn 16-17,BD,Raw,66.8,67.5,,,,,50,55,-60,,55,110,115,120,,120,175,1
Juan Hernández,1996-01-16,M,Chile,22,Jun,BD,Raw,66.2,67.5,,,,,95,100,-107.5,,100,165,175,180,,180,280,1
Fabio Goldfar,1986-03-23,M,Argentina,32,Open,BD,Raw,75,75,,,,,-130,130,-142.5,,130,-180,180,-247.5,,180,310,1
Josue Riffo,2002-09-28,M,Chile,15,Tn 13-15,BD,Raw,74.2,75,,,,,60,65,-72.5,,65,-145,145,150,155,150,215,1
Cristian González,2001-10-29,M,Chile,16,Tn 16-17,BD,Raw,73.9,75,,,,,52.5,-60,62.5,,62.5,140,-150,-150,,140,202.5,1
Ariel Martinez,1999-07-13,M,Chile,19,Tn 18-19,BD,Raw,72.3,75,,,,,70,75,-80,,75,155,160,170,,170,245,1
José Rivas,1988-06-11,M,Chile,30,Open,BD,Raw,81.6,82.5,,,,,140,-150,,,140,240,250,260,,260,400,1
Maximiliano Sáez,2002-09-13,M,Chile,15,Tn 13-15,BD,Raw,75.4,82.5,,,,,65,70,-72.5,,70,135,140,145,,145,215,1
Anibal Mardones,1996-05-06,M,Chile,22,Jun,BD,Raw,80.4,82.5,,,,,120,130,-135,,130,190,200,210,,210,340,1
Cristian Marín,1984-11-05,M,Chile,33,Open,BD,Raw,89.9,90,,,,,160,165,-167.5,,165,230,240,-250,,240,405,1
Jeremías Paredes,1996-07-15,M,Peru,22,Jun,BD,Raw,88.4,90,,,,,-130,130,-137.5,,130,190,210,-220,,210,340,1
Miguel Aguirre,1974-04-09,M,Argentina,44,M 40-49,BD,Multi-ply,95.2,100,,,,,100,130,,,130,160,200,,,200,330,1
Juan Parada,1987-09-12,M,Chile,30,Open,BD,Raw,98.5,100,,,,,120,130,,,130,255,272.5,,,272.5,402.5,1
Bastían Oñate,2001-03-08,M,Chile,17,Tn 16-17,BD,Raw,96.8,100,,,,,55,-57.5,60,,60,140,147.5,150,,150,210,1
Raul Olivieri,1983-11-30,M,Argentina,34,Open,BD,Multi-ply,104.7,110,,,,,-150,160,-170,,160,200,230,250,,250,410,1
Matías Iturra,1991-08-08,M,Chile,27,Open,BD,Raw,108.9,110,,,,,170,180,190,,190,280,,,,280,470,1
Oscar Melgar Rivero,,M,Bolivia,,Open,BD,Raw,122.8,125,,,,,167.5,-175,177.5,,177.5,235,250,-262.5,,250,427.5,1
Aldo Cornejo,1971-01-05,M,Chile,47,M 40-49,BD,Raw,140.5,140+,,,,,150,160,167.5,,167.5,285,-306,,,285,452.5,1
Yassna Riffo,1973-11-01,F,Chile,44,M 40-49,D,Raw,63.5,67.5,,,,,,,,,,140,150,-155,,150,150,1
Scarlet Silva,2003-02-13,F,Chile,15,Tn 13-15,D,Raw,72.2,75,,,,,,,,,,95,100,105,107.5,105,105,1
Laura Valderrama,2001-05-15,F,Chile,17,Tn 16-17,D,Raw,72.6,75,,,,,,,,,,82.5,90,-95,,90,90,1
Yomara Soto,2003-11-05,F,Chile,14,Tn 13-15,D,Raw,75.3,82.5,,,,,,,,,,85,90,95,-97.5,95,95,1
Cristian Mateluna,1986-07-14,M,Chile,32,Open,D,Raw,55.8,56,,,,,,,,,,165,170,180,-200,180,180,1
Dilan Brante,1994-04-04,M,Chile,24,Open,D,Raw,65.7,67.5,,,,,,,,,,-195,205,210,215,210,210,1
Diego Pérez,2000-12-16,M,Chile,17,Tn 16-17,D,Raw,77.5,82.5,,,,,,,,,,110,117.5,125,,125,125,1
Roberto Guzman,1996-02-16,M,Bolivia,22,Jun,D,Raw,82.4,82.5,,,,,,,,,,251,271,-280,,271,271,1
Mauricio Rodríguez #4,1988-07-06,M,Chile,30,Open,D,Raw,89.7,90,,,,,,,,,,220,-242.5,-242.5,,220,220,1
Jose Aguirre,1970-11-17,M,Argentina,47,M 40-49,D,Multi-ply,98.6,100,,,,,,,,,,180,220,240,,240,240,1
Juan Parada,1987-09-12,M,Chile,30,Open,D,Raw,98.5,100,,,,,,,,,,240,,,,240,240,1
