Name,Division,Sex,Best3SquatKg,Best3BenchKg,Best3DeadliftKg,TotalKg,Event,Equipment,Place,BodyweightKg,WeightClassKg
Michelle Chesney,F-E-U20,F,105,62.5,115,282.5,SBD,Single-ply,1,54,56
Andrew Baker,M-E-U18,M,60,50,120,230,SBD,Single-ply,1,54.3,56
William Kirkbright,M-E-U18,M,102.5,95,150,347.5,SBD,Single-ply,1,79.2,82.5
Kye Simpson,M-E-U18,M,120,85,140,345,SBD,Single-ply,2,82.4,82.5
Ryan Binner,M-E-U18,M,165,75,195,435,SBD,Single-ply,1,99.5,100
Saun Trebillock,M-E-U20,M,185,100,220,505,SBD,Single-ply,1,85,90
Harry Grigg,M-E-U20,M,220,150,210,580,SBD,Single-ply,1,123.1,125
Mark Fleming,M-E-U23,M,200,135,222.5,557.5,SBD,Single-ply,1,73.8,75
