Division,WeightClassKg,Place,Name,Team,BodyweightKg,Best3SquatKg,Best3BenchKg,Best3DeadliftKg,TotalKg,Equipment,Event,Sex
Boys,55.79,1,Dylan Elkins,Needville,51.94,115.67,86.18,138.35,340.19,Single-ply,SBD,M
Boys,55.79,2,Curtis Miller,Cleveland Tarkington,51.94,113.4,65.77,138.35,317.51,Single-ply,SBD,M
Boys,51.71,3,Jacques Spikes,Jasper,50.35,120.2,72.57,122.47,315.25,Single-ply,SBD,M
Boys,51.71,4,Thomas Heltum,Coldspring-Oakhurst,49.9,113.4,56.7,133.81,303.91,Single-ply,SBD,M
Boys,51.71,5,Brandon Nguyen,Palacios,51.44,99.79,56.7,124.74,281.23,Single-ply,SBD,M
Boys,55.79,6,Tyler Smith,West Columbia,51.94,86.18,65.77,104.33,256.28,Single-ply,SBD,M
Boys,51.71,7,Juan Esteban,Needville,51.71,90.72,40.82,111.13,242.67,Single-ply,SBD,M
Boys,51.71,8,Tanner Royal,Bridge City,50.26,90.72,45.36,99.79,235.87,Single-ply,SBD,M
Boys,51.71,9,Matt Durham,West Columbia,50.35,86.18,43.09,90.72,219.99,Single-ply,SBD,M
Boys,51.71,10,Corey Fuller,Shepherd,51.71,65.77,52.16,88.45,206.38,Single-ply,SBD,M
Boys,55.79,DQ,Devonte Fountain,Liberty,51.94,,,,,Single-ply,SBD,M
Boys,55.79,1,David Tsan,Orangefield,54.66,158.76,77.11,174.63,410.5,Single-ply,SBD,M
Boys,55.79,2,Jonathan Hardaway,Edna,55.57,136.08,104.33,163.29,403.7,Single-ply,SBD,M
Boys,55.79,3,Clint Shippey,Cleveland Tarkington,55.79,136.08,74.84,149.69,360.61,Single-ply,SBD,M
Boys,55.79,4,Tony Hart,Silsbee,54.66,122.47,68.04,145.15,335.66,Single-ply,SBD,M
Boys,55.79,5,Jonathan Nguyen,Palacios,55.34,122.47,68.04,142.88,333.39,Single-ply,SBD,M
Boys,59.87,6,Vuong Nguyen,Palacios,56.02,120.2,65.77,133.81,319.78,Single-ply,SBD,M
Boys,55.79,DQ,Nate Jones,Shepherd,55.11,,,,,Single-ply,SBD,M
Boys,55.79,DQ,Greg Gomez,West Columbia,54.79,111.13,,,,Single-ply,SBD,M
Boys,55.79,DQ,Hunter Stout,Bridge City,55.11,136.08,,,,Single-ply,SBD,M
Boys,55.79,DQ,Dominique Singletary,Cleveland,54.98,,,,,Single-ply,SBD,M
Boys,55.79,DQ,Justin Bradley,Orangefield,54.88,,,,,Single-ply,SBD,M
Boys,67.13,1,Trevor Banaszak,Shepherd,60.06,190.51,113.4,195.04,498.95,Single-ply,SBD,M
Boys,59.87,2,Jose Jimenez,Palacios,59.87,140.61,92.99,163.29,396.89,Single-ply,SBD,M
Boys,67.13,3,Chaz Vercher,Needville,59.96,147.42,97.52,151.95,396.89,Single-ply,SBD,M
Boys,59.87,4,David Fercado,Palacios,59.6,145.15,77.11,158.76,381.02,Single-ply,SBD,M
Boys,59.87,5,Josh Vasquez,Cleveland,57.97,151.95,68.04,158.76,378.75,Single-ply,SBD,M
Boys,59.87,6,Kristian Grifaldo,Edna,57.15,147.42,74.84,142.88,365.14,Single-ply,SBD,M
Boys,67.13,7,Sean Longmire,Bridge City,59.96,129.27,81.65,136.08,347,Single-ply,SBD,M
Boys,67.13,8,Garrett Hawthorne,Cleveland Tarkington,60.1,122.47,77.11,142.88,342.46,Single-ply,SBD,M
Boys,59.87,DQ,Floyd Bess,West Columbia,59.78,,,,,Single-ply,SBD,M
Boys,67.13,1,Bryan Pham,Palacios,65.54,192.78,108.86,206.38,508.02,Single-ply,SBD,M
Boys,67.13,2,Matthew Nguyen,Palacios,67.13,174.63,88.45,195.04,458.13,Single-ply,SBD,M
Boys,74.84,3,Wilson Washington,West Orange-Stark,67.31,172.37,104.33,181.44,458.13,Single-ply,SBD,M
Boys,67.13,4,Justin Hussey,West Columbia,63.87,172.37,106.59,170.1,449.06,Single-ply,SBD,M
Boys,74.84,5,Cody Garner,Cleveland Tarkington,67.22,167.83,122.47,158.76,449.06,Single-ply,SBD,M
Boys,67.13,6,Kameron Lattimore,Needville,63.59,161.03,92.99,179.17,433.18,Single-ply,SBD,M
Boys,67.13,7,Cameron Hughes,Cleveland Tarkington,66.9,151.95,97.52,183.7,433.18,Single-ply,SBD,M
Boys,67.13,8,Jackson Calhoun,Orangefield,64.95,158.76,90.72,167.83,417.3,Single-ply,SBD,M
Boys,67.13,9,Tk Smith,Orangefield,65.95,154.22,83.91,176.9,415.04,Single-ply,SBD,M
Boys,67.13,10,Jeremy Jarrett,Edna,66,145.15,92.99,174.63,412.77,Single-ply,SBD,M
Boys,67.13,DQ,Dalton Blum,Cleveland Tarkington,67,,,,,Single-ply,SBD,M
Boys,67.13,DQ,Chase Hamshire,Silsbee,62.14,,,,,Single-ply,SBD,M
Boys,82.1,1,Cameron Russell,Cleveland Tarkington,75.07,204.12,129.27,229.06,562.45,Single-ply,SBD,M
Boys,74.84,2,Brenson Lindsey,West Orange-Stark,72.12,215.46,124.74,210.92,551.11,Single-ply,SBD,M
Boys,74.84,3,Austin Simmons,Hamshire-Fannett,68.72,199.58,138.35,183.7,521.63,Single-ply,SBD,M
Boys,74.84,4,Nathan Markiewicz,Edna,71.85,192.78,124.74,192.78,510.29,Single-ply,SBD,M
Boys,74.84,5,Tyler Sample,Edna,73.71,183.7,111.13,190.51,485.34,Single-ply,SBD,M
Boys,74.84,6,Dalton Horn,Sour Lake Hardin-Jefferson,74.84,170.1,117.93,197.31,485.34,Single-ply,SBD,M
Boys,74.84,7,David Saucedo,Shepherd,72.3,181.44,108.86,188.24,478.54,Single-ply,SBD,M
Boys,74.84,8,Juan Lopez,Palacios,74.57,151.95,102.06,217.72,471.74,Single-ply,SBD,M
Boys,74.84,9,Justin Courvelle,Shepherd,73.57,167.83,97.52,167.83,433.18,Single-ply,SBD,M
Boys,74.84,DQ,Hunter Clift,Splendora,74.48,217.72,122.47,,,Single-ply,SBD,M
Boys,82.1,1,Rj Densen,Needville,76.84,192.78,117.93,226.8,537.51,Single-ply,SBD,M
Boys,82.1,2,Cody Cummings,Coldspring-Oakhurst,79.38,192.78,122.47,206.38,521.63,Single-ply,SBD,M
Boys,82.1,3,Hunter Woolls,Bridge City,81.19,204.12,120.2,192.78,517.1,Single-ply,SBD,M
Boys,82.1,4,Trevin Sechler,Sour Lake Hardin-Jefferson,82.01,192.78,117.93,204.12,514.83,Single-ply,SBD,M
Boys,82.1,5,Chris Garcia,Palacios,77.02,165.56,138.35,206.38,510.29,Single-ply,SBD,M
Boys,82.1,6,Greg Sexton,Palacios,75.48,188.24,106.59,213.19,508.02,Single-ply,SBD,M
Boys,82.1,7,Jacob Little,Splendora,79.15,192.78,104.33,190.51,487.61,Single-ply,SBD,M
Boys,82.1,8,Tyrell Franks,Cleveland,80.65,204.12,113.4,165.56,483.08,Single-ply,SBD,M
Boys,82.1,9,Dustin Meadows,Cleveland,81.28,188.24,106.59,174.63,469.47,Single-ply,SBD,M
Boys,82.1,10,Stephen Zwahr,Needville,80.92,149.69,104.33,210.92,464.93,Single-ply,SBD,M
Boys,82.1,DQ,Martin Sterling,Liberty,81.65,,,,,Single-ply,SBD,M
Boys,82.1,DQ,James Freeman,Liberty,79.38,,,,,Single-ply,SBD,M
Boys,82.1,DQ,Austin Broussard,Bridge City,81.19,,,,,Single-ply,SBD,M
Boys,89.81,1,Marcus Ferree,Palacios,89.09,229.06,147.42,235.87,612.35,Single-ply,SBD,M
Boys,89.81,2,Nathan Brantner,Splendora,89.45,199.58,170.1,217.72,587.4,Single-ply,SBD,M
Boys,89.81,3,Evander Guillory,West Orange-Stark,84.37,222.26,124.74,224.53,571.53,Single-ply,SBD,M
Boys,89.81,4,Marcus Moody,Stafford,86.55,215.46,120.2,226.8,562.45,Single-ply,SBD,M
Boys,89.81,5,Trey Annonson,Cleveland,86.82,204.12,136.08,208.65,548.85,Single-ply,SBD,M
Boys,89.81,6,Juan Escamilla,Needville,89.54,197.31,142.88,208.65,548.85,Single-ply,SBD,M
Boys,89.81,7,Jose Vasquez,Needville,88.36,208.65,129.27,208.65,546.58,Single-ply,SBD,M
Boys,89.81,8,Tanner Banaszak,Shepherd,87.09,204.12,127.01,181.44,512.56,Single-ply,SBD,M
Boys,89.81,9,Thomas Steuart,West Columbia,88.99,188.24,124.74,190.51,503.49,Single-ply,SBD,M
Boys,89.81,10,Dalton Duke,West Columbia,82.46,174.63,108.86,199.58,483.08,Single-ply,SBD,M
Boys,99.79,DQ,Cameron Phillips,Huffman Hargrave,89.9,,,,,Single-ply,SBD,M
Boys,89.81,DQ,Micheal Swearingen,Cleveland,89.22,,,,,Single-ply,SBD,M
Boys,89.81,DQ,Adam Prosperie,Bridge City,88.81,,,,,Single-ply,SBD,M
Boys,99.79,1,Shane Stankus,Bridge City,96.71,265.35,165.56,254.01,684.92,Single-ply,SBD,M
Boys,99.79,2,Darren Stewart,Splendora,92.99,265.35,147.42,238.14,650.91,Single-ply,SBD,M
Boys,99.79,3,Joe Traylor,Coldspring-Oakhurst,99.52,215.46,129.27,226.8,571.53,Single-ply,SBD,M
Boys,109.77,4,Jacob Courvelle,Shepherd,100.02,226.8,115.67,226.8,569.26,Single-ply,SBD,M
Boys,99.79,5,Alex Kendrick,Huffman Hargrave,96.8,204.12,115.67,226.8,546.58,Single-ply,SBD,M
Boys,99.79,6,Michael Garcia,Palacios,98.52,208.65,122.47,210.92,542.04,Single-ply,SBD,M
Boys,99.79,7,Joe Stover,Coldspring-Oakhurst,95.35,201.85,124.74,206.38,532.97,Single-ply,SBD,M
Boys,109.77,8,Brian Morgan,Cleveland,99.97,208.65,124.74,199.58,532.97,Single-ply,SBD,M
Boys,99.79,DQ,Quentin Poindexter,Cleveland,95.75,,,,,Single-ply,SBD,M
Boys,99.79,DQ,Lorence Richard,Hamshire-Fannett,92.62,,,,,Single-ply,SBD,M
Boys,99.79,DQ,Lawrence Gilmore,West Orange-Stark,93.17,195.04,113.4,,,Single-ply,SBD,M
Boys,109.77,1,Thomas Luce,Bridge City,108.32,294.84,156.49,238.14,689.46,Single-ply,SBD,M
Boys,109.77,2,Kevin Crew,Splendora,105.46,263.08,174.63,242.67,680.39,Single-ply,SBD,M
Boys,109.77,3,Joaquin Trevino,Splendora,103.15,249.48,199.58,213.19,662.24,Single-ply,SBD,M
Boys,109.77,4,Dylan Duke,West Columbia,109.09,247.21,140.61,258.55,646.37,Single-ply,SBD,M
Boys,109.77,5,Cj Duenas,Coldspring-Oakhurst,106.37,238.14,120.2,235.87,594.21,Single-ply,SBD,M
Boys,109.77,6,Ian Jenkins,West Orange-Stark,107.68,219.99,142.88,226.8,589.67,Single-ply,SBD,M
Boys,109.77,7,Brandon Fogle,West Columbia,105.32,226.8,136.08,210.92,573.79,Single-ply,SBD,M
Boys,109.77,8,Bret Treadway,Silsbee,101.15,181.44,122.47,183.7,487.61,Single-ply,SBD,M
Boys,109.77,DQ,Hall Tyler,Huffman Hargrave,104.05,,,,,Single-ply,SBD,M
Boys,109.77,DQ,Dejong Robinson,Liberty,109.77,,,,,Single-ply,SBD,M
Boys,109.77,DQ,Dillon Bryer,Jasper,101.33,197.31,127.01,,,Single-ply,SBD,M
Boys,124.74,1,Adam Aucoin,Palacios,110.9,272.16,156.49,226.8,655.44,Single-ply,SBD,M
Boys,124.74,2,Aaron Boucher,West Columbia,113.85,222.26,140.61,226.8,589.67,Single-ply,SBD,M
Boys,124.74,3,Charlie Courvelle,Shepherd,116.3,226.8,156.49,199.58,582.87,Single-ply,SBD,M
Boys,124.74,4,Edwin Morales,Needville,112.22,219.99,117.93,233.6,571.53,Single-ply,SBD,M
Boys,124.74,5,Doc Maricle,Silsbee,119.84,183.7,133.81,213.19,530.7,Single-ply,SBD,M
Boys,124.74,6,Dylan Davalos,Orangefield,116.35,201.85,122.47,204.12,528.44,Single-ply,SBD,M
Boys,124.74,7,Justin Rooks,Edna,118.48,199.58,120.2,208.65,528.44,Single-ply,SBD,M
Boys,124.74,8,Miguel Banda,Cleveland,112.85,208.65,124.74,154.22,487.61,Single-ply,SBD,M
Boys,124.74,DQ,Garrett Bellamy,Jasper,114.49,183.7,131.54,,,Single-ply,SBD,M
Boys,124.74,DQ,Levi Lunsford,Splendora,122.38,247.21,,,,Single-ply,SBD,M
Boys,124.74,DQ,Vincen Shorter,West Columbia,111.36,,,,,Single-ply,SBD,M
Boys,124.74+,1,Cullen Burch,Cleveland,134.63,260.82,183.7,192.78,637.3,Single-ply,SBD,M
Boys,124.74+,2,Ryan Allen,West Orange-Stark,143.52,238.14,142.88,256.28,637.3,Single-ply,SBD,M
Boys,124.74+,3,Omar Tebo,Liberty,138.8,231.33,129.27,213.19,573.79,Single-ply,SBD,M
Boys,124.74+,4,Dalton Conrad,Coldspring-Oakhurst,127.23,206.38,127.01,215.46,548.85,Single-ply,SBD,M
Boys,124.74+,5,Ethan Cowart,Orangefield,180.3,208.65,142.88,195.04,546.58,Single-ply,SBD,M
Boys,124.74+,6,Nolan Walker,Coldspring-Oakhurst,126.28,210.92,122.47,201.85,535.24,Single-ply,SBD,M
Boys,124.74+,7,Derek Fiew,Edna,137.08,249.48,104.33,158.76,512.56,Single-ply,SBD,M
Boys,124.74+,DQ,Josh Sell,Liberty,143.88,,,,,Single-ply,SBD,M
Boys,124.74+,DQ,Miguel Vara,Liberty,127.01,,,,,Single-ply,SBD,M
Boys,124.74+,DQ,Jarvis Adams,Jasper,144.42,,,,,Single-ply,SBD,M
Boys,124.74+,DQ,Shawn Smith,Silsbee,135.17,,,,,Single-ply,SBD,M
