Division,WeightClassKg,Place,Name,Team,BodyweightKg,Best3SquatKg,Best3BenchKg,Best3DeadliftKg,TotalKg,Equipment,Event,Sex
Boys,51.71,1,Jose Rodriguez,Athens,50.8,158.76,81.65,149.69,390.09,Single-ply,SBD,M
Boys,51.71,2,Marcrislin Barksdale,Palestine,50.35,117.93,81.65,127.01,326.59,Single-ply,SBD,M
Boys,51.71,3,Johney Phelps,Palestine Westwood,48.4,117.93,52.16,111.13,281.23,Single-ply,SBD,M
Boys,55.79,4,Briley Piersol,Palestine Westwood,51.85,90.72,54.43,104.33,249.48,Single-ply,SBD,M
Boys,51.71,5,Dakota Johnson,Brownsboro,51.48,90.72,47.63,97.52,235.87,Single-ply,SBD,M
Boys,55.79,1,Chantz Gibson,Palestine Westwood,54.88,156.49,90.72,163.29,410.5,Single-ply,SBD,M
Boys,55.79,2,Ricardo Rodriguez,Athens,54.88,120.2,86.18,151.95,358.34,Single-ply,SBD,M
Boys,59.87,3,Colton Edmonds,Teague,56.02,133.81,79.38,140.61,353.8,Single-ply,SBD,M
Boys,55.79,4,Caleb Terrell,Frankston,55.11,120.2,72.57,136.08,328.85,Single-ply,SBD,M
Boys,55.79,5,Garrian McCallister,Malakoff,54.43,124.74,61.23,129.27,315.25,Single-ply,SBD,M
Boys,59.87,1,Theron Dingas,Palestine Westwood,59.78,172.37,104.33,179.17,455.86,Single-ply,SBD,M
Boys,59.87,2,Luis Camacho,Athens,56.74,136.08,95.25,136.08,367.41,Single-ply,SBD,M
Boys,59.87,3,Ryne Moore,Oakwood,58.06,117.93,70.31,127.01,315.25,Single-ply,SBD,M
Boys,59.87,DQ,Dakota Hobbs,Brownsboro,59.87,115.67,72.57,,,Single-ply,SBD,M
Boys,59.87,DQ,Devin Eggins,Fairfield,59.65,149.69,,,,Single-ply,SBD,M
Boys,67.13,1,David Calixtro,Teague,65.77,215.46,99.79,213.19,528.44,Single-ply,SBD,M
Boys,67.13,2,Michael Murray,Palestine Westwood,64.91,195.04,83.91,185.97,464.93,Single-ply,SBD,M
Boys,67.13,3,Jared Arey,Teague,64.86,176.9,95.25,181.44,453.59,Single-ply,SBD,M
Boys,67.13,4,Dustin Bendall,Brownsboro,65.77,165.56,97.52,185.97,449.06,Single-ply,SBD,M
Boys,67.13,5,Karson Street,Malakoff,65.32,165.56,102.06,158.76,426.38,Single-ply,SBD,M
Boys,67.13,6,Daniel Salazar,Athens,66.45,149.69,104.33,167.83,421.84,Single-ply,SBD,M
Boys,67.13,7,Rowdy Dodson,Fairfield,62.82,142.88,92.99,167.83,403.7,Single-ply,SBD,M
Boys,67.13,8,Matthew Howard,Grapeland,66.22,133.81,102.06,154.22,390.09,Single-ply,SBD,M
Boys,67.13,9,Zach Holloway,Palestine,61.78,142.88,70.31,124.74,337.93,Single-ply,SBD,M
Boys,67.13,10,Omar Gonzales,Malakoff,65.32,124.74,68.04,142.88,335.66,Single-ply,SBD,M
Boys,67.13,11,Joey Gelske,Oakwood,65.54,117.93,83.91,117.93,319.78,Single-ply,SBD,M
Boys,67.13,12,Deon Lewis,Athens,62.82,102.06,86.18,117.93,306.17,Single-ply,SBD,M
Boys,74.84,1,Coy Jorden,Teague,74.16,183.7,117.93,197.31,498.95,Single-ply,SBD,M
Boys,74.84,2,Christian Ward,Palestine,71.94,183.7,102.06,181.44,467.2,Single-ply,SBD,M
Boys,74.84,3,Devin Hall,Athens,72.12,172.37,108.86,176.9,458.13,Single-ply,SBD,M
Boys,82.1,4,Cesar Garcia,Malakoff,75.07,181.44,97.52,179.17,458.13,Single-ply,SBD,M
Boys,74.84,5,DaQuinton Anderson,Palestine Westwood,69.67,156.49,95.25,170.1,421.84,Single-ply,SBD,M
Boys,74.84,6,Christian Huerta,Palestine Westwood,72.57,163.29,74.84,181.44,419.57,Single-ply,SBD,M
Boys,74.84,7,Jason Smith,Teague,70.76,163.29,68.04,172.37,403.7,Single-ply,SBD,M
Boys,74.84,8,Kolby Venoy,Palestine Westwood,69.94,174.63,79.38,147.42,401.43,Single-ply,SBD,M
Boys,82.1,9,José Pérez,Teague,75.07,151.95,63.5,151.95,367.41,Single-ply,SBD,M
Boys,74.84,10,LaMarcus Newsome,Oakwood,70.99,136.08,83.91,142.88,362.87,Single-ply,SBD,M
Boys,74.84,11,Braylon Cable,Malakoff,70.31,124.74,88.45,131.54,344.73,Single-ply,SBD,M
Boys,74.84,12,Kyle Allen,Frankston,68.72,113.4,68.04,133.81,315.25,Single-ply,SBD,M
Boys,89.81,1,Aaryon Robinson,Palestine Westwood,82.33,222.26,113.4,249.48,585.13,Single-ply,SBD,M
Boys,82.1,2,Caleb Williams,Frankston,78.02,179.17,113.4,238.14,530.7,Single-ply,SBD,M
Boys,82.1,3,Louis Collins,Oakwood,81.19,199.58,131.54,199.58,530.7,Single-ply,SBD,M
Boys,82.1,4,Dj Cumby,Athens,78.93,199.58,102.06,199.58,501.22,Single-ply,SBD,M
Boys,89.81,5,Hunter Luce,Palestine Westwood,82.15,181.44,86.18,213.19,480.81,Single-ply,SBD,M
Boys,82.1,6,Miles Spencer,Brownsboro,77.79,174.63,111.13,181.44,467.2,Single-ply,SBD,M
Boys,82.1,7,Tristan Moore,Brownsboro,79.83,176.9,104.33,176.9,458.13,Single-ply,SBD,M
Boys,82.1,8,Cullen Lyles,Fairfield,77.56,181.44,90.72,163.29,435.45,Single-ply,SBD,M
Boys,89.81,9,Alberto Martinez,Athens,82.33,145.15,111.13,163.29,419.57,Single-ply,SBD,M
Boys,82.1,10,Brett Workman,Frankston,82.1,165.56,83.91,151.95,401.43,Single-ply,SBD,M
Boys,82.1,11,Raheen Miller,Athens,76.2,138.35,90.72,167.83,396.89,Single-ply,SBD,M
Boys,82.1,12,Johntae Harmon,Brownsboro,76.88,124.74,90.72,170.1,385.55,Single-ply,SBD,M
Boys,82.1,13,Cameron Litchfield,Oakwood,77.11,149.69,79.38,149.69,378.75,Single-ply,SBD,M
Boys,82.1,14,Hoss Jones,Palestine Westwood,77.34,111.13,70.31,120.2,301.64,Single-ply,SBD,M
Boys,82.1,15,Jordan Hobbs,Palestine,80.83,90.72,47.63,97.52,235.87,Single-ply,SBD,M
Boys,99.79,1,Nicoli Morgan,Palestine Westwood,89.95,226.8,108.86,249.48,585.13,Single-ply,SBD,M
Boys,89.81,2,Dalton Barker,Fairfield,88.9,222.26,120.2,204.12,546.58,Single-ply,SBD,M
Boys,89.81,3,Jawuan Martin,Athens,89.22,195.04,136.08,199.58,530.7,Single-ply,SBD,M
Boys,89.81,4,Tate Taylor,Malakoff,84.82,213.19,122.47,190.51,526.17,Single-ply,SBD,M
Boys,89.81,5,Christian Brummett,Oakwood,83.91,190.51,97.52,199.58,487.61,Single-ply,SBD,M
Boys,89.81,6,Ben Barlow,Fairfield,82.55,195.04,108.86,170.1,474,Single-ply,SBD,M
Boys,89.81,7,Taner Tunstall,Teague,86.41,170.1,92.99,199.58,462.66,Single-ply,SBD,M
Boys,99.79,8,Jessie Davis,Frankston,90.04,170.1,106.59,181.44,458.13,Single-ply,SBD,M
Boys,89.81,9,Zack Wright,Frankston,87.54,190.51,97.52,158.76,446.79,Single-ply,SBD,M
Boys,89.81,10,Jordan Harris,Malakoff,83.91,147.42,95.25,163.29,405.97,Single-ply,SBD,M
Boys,89.81,11,Randy Mullins,Malakoff,86.86,163.29,86.18,149.69,399.16,Single-ply,SBD,M
Boys,89.81,12,Dusty Garrison,Palestine Westwood,85.05,129.27,90.72,142.88,362.87,Single-ply,SBD,M
Boys,89.81,13,Jesus Sanchez,Palestine,83.05,136.08,72.57,149.69,358.34,Single-ply,SBD,M
Boys,89.81,DQ,Javon Johnson,Jacksonville,89.68,,,,,Single-ply,SBD,M
Boys,99.79,1,Kelton Henderson,Teague,98.88,294.84,145.15,240.4,680.39,Single-ply,SBD,M
Boys,99.79,2,Chase Palmer,Jacksonville,96.39,210.92,124.74,222.26,557.92,Single-ply,SBD,M
Boys,99.79,3,Diego Medina,Malakoff,99.79,190.51,108.86,190.51,489.88,Single-ply,SBD,M
Boys,99.79,4,Robert Burden,Oakwood,96.84,190.51,106.59,190.51,487.61,Single-ply,SBD,M
Boys,99.79,5,Will Doyle,Fairfield,93.89,185.97,102.06,195.04,483.08,Single-ply,SBD,M
Boys,99.79,6,Swaide Houston,Brownsboro,98.2,156.49,97.52,204.12,458.13,Single-ply,SBD,M
Boys,99.79,7,Aaron De La Garza,Brownsboro,92.53,165.56,115.67,161.03,442.25,Single-ply,SBD,M
Boys,99.79,8,Nelson Ochoa,Malakoff,99.34,163.29,92.99,176.9,433.18,Single-ply,SBD,M
Boys,99.79,9,Ty Swindle,Palestine,98.07,161.03,79.38,163.29,403.7,Single-ply,SBD,M
Boys,99.79,10,Josh Gallegos,Fairfield,97.52,140.61,97.52,145.15,383.29,Single-ply,SBD,M
Boys,99.79,11,Justin Caldwell,Frankston,96.62,145.15,90.72,142.88,378.75,Single-ply,SBD,M
Boys,99.79,12,Kobe Brown,Palestine,90.31,136.08,77.11,154.22,367.41,Single-ply,SBD,M
Boys,99.79,DQ,Ty Tunstall,Teague,93.67,,,,,Single-ply,SBD,M
Boys,99.79,DQ,Kevin Valladares,Palestine Westwood,94.89,,,,,Single-ply,SBD,M
Boys,99.79,DQ,Alex Link,Palestine Westwood,99.47,117.93,,,,Single-ply,SBD,M
Boys,109.77,1,Cliffton Jones,Fairfield,107.95,249.48,138.35,213.19,601.01,Single-ply,SBD,M
Boys,109.77,2,Michael Raymond,Fairfield,107.5,260.82,104.33,217.72,582.87,Single-ply,SBD,M
Boys,109.77,3,LaRodney Brown,Palestine Westwood,107.91,226.8,104.33,185.97,517.1,Single-ply,SBD,M
Boys,109.77,4,Joey Duncan,Brownsboro,106.82,195.04,120.2,197.31,512.56,Single-ply,SBD,M
Boys,109.77,5,Ben Long,Teague,107.95,204.12,108.86,197.31,510.29,Single-ply,SBD,M
Boys,109.77,6,Pete Commander,Teague,100.24,167.83,102.06,174.63,444.52,Single-ply,SBD,M
Boys,109.77,DQ,Jacob McKinney,Palestine Westwood,106.78,,,,,Single-ply,SBD,M
Boys,124.74,1,William Anderson,Palestine,124.28,278.96,151.95,210.92,641.83,Single-ply,SBD,M
Boys,124.74,2,Jose Diaz,Teague,111.13,238.14,129.27,240.4,607.81,Single-ply,SBD,M
Boys,124.74,3,Brady Burleson,Brownsboro,111.13,235.87,122.47,210.92,569.26,Single-ply,SBD,M
Boys,124.74,4,Juan Gomez,Brownsboro,124.51,226.8,122.47,215.46,564.72,Single-ply,SBD,M
Boys,124.74+,1,Charlie Perry,Palestine,135.4,235.87,185.97,258.55,680.39,Single-ply,SBD,M
Boys,124.74+,2,Thomas Acol,Malakoff,127.91,231.33,122.47,229.06,582.87,Single-ply,SBD,M
Boys,124.74+,3,Lex Ticer,Jacksonville,142.2,181.44,140.61,192.78,514.83,Single-ply,SBD,M
Boys,124.74+,4,Rashaan Bloomer,Jacksonville,134.26,161.03,117.93,208.65,487.61,Single-ply,SBD,M
Boys,124.74+,5,Manuel Solis,Palestine,129.82,147.42,81.65,161.03,390.09,Single-ply,SBD,M
