Division,WeightClassKg,Place,Name,Team,BodyweightKg,Best3SquatKg,Best3BenchKg,Best3DeadliftKg,TotalKg,Equipment,Event,Sex
Boys,51.71,1,Colt Baranowski,Smithville,50.62,127.01,68.04,151.95,347,Single-ply,SBD,M
Boys,51.71,2,Juan Padron,Navasota,51.71,131.54,74.84,140.61,347,Single-ply,SBD,M
Boys,51.71,3,Rudy Pina,Del Valle,49.17,106.59,65.77,129.27,301.64,Single-ply,SBD,M
Boys,51.71,4,Pedro Saldivar,Kyle Lehman,50.89,102.06,58.97,127.01,288.03,Single-ply,SBD,M
Boys,55.79,1,Cameron Saucedo,Kyle Lehman,55.34,167.83,92.99,181.44,442.25,Single-ply,SBD,M
Boys,55.79,2,Tucker Klein,Fredericksburg,54.88,104.33,68.04,129.27,301.64,Single-ply,SBD,M
Boys,55.79,3,James Lightfoot,Channelview,55.79,106.59,63.5,111.13,281.23,Single-ply,SBD,M
Boys,55.79,4,Christian James,Bastrop,55.25,68.04,56.7,104.33,229.06,Single-ply,SBD,M
Boys,59.87,1,Adrian Yanez,Kyle Lehman,59.42,154.22,108.86,167.83,430.91,Single-ply,SBD,M
Boys,59.87,2,Marc Anthony Govea,Del Valle,58.97,142.88,81.65,158.76,383.29,Single-ply,SBD,M
Boys,59.87,3,Michael Cardenas,Gonzales,58.51,120.2,74.84,129.27,324.32,Single-ply,SBD,M
Boys,59.87,4,Logan Arrington,Navasota,56.7,99.79,65.77,140.61,306.17,Single-ply,SBD,M
Boys,59.87,5,Nathan Natal,Smithville,59.78,90.72,70.31,129.27,290.3,Single-ply,SBD,M
Boys,59.87,DQ,Blake Kiker,Smithville,59.87,,,,,Single-ply,SBD,M
Boys,67.13,1,Ian Campbell,Navasota,61.14,174.63,127.01,163.29,464.93,Single-ply,SBD,M
Boys,67.13,2,Kadarus Taylor,Channelview,66.22,149.69,97.52,183.7,430.91,Single-ply,SBD,M
Boys,67.13,3,Raul Arrizola,Smithville,65.95,154.22,106.59,165.56,426.38,Single-ply,SBD,M
Boys,67.13,4,Sutton Lindsley,Bastrop,63.5,138.35,99.79,145.15,383.29,Single-ply,SBD,M
Boys,67.13,5,Jacob Reece,Bastrop,64.32,147.42,79.38,156.49,383.29,Single-ply,SBD,M
Boys,67.13,6,Rj Cardwell,Smithville,65.68,115.67,79.38,145.15,340.19,Single-ply,SBD,M
Boys,67.13,7,Mathew Fourberg,Luling,60.87,92.99,65.77,129.27,288.03,Single-ply,SBD,M
Boys,67.13,DQ,Taylor Stein,Luling,63.23,,,,,Single-ply,SBD,M
Boys,67.13,DQ,Donovan Thomas,Navasota,65.77,127.01,90.72,,,Single-ply,SBD,M
Boys,67.13,DQ,Ray Heiser,Kyle Lehman,66.22,176.9,,,,Single-ply,SBD,M
Boys,74.84,1,Aj Castaneda,Bellville,74.84,238.14,142.88,215.46,596.47,Single-ply,SBD,M
Boys,74.84,2,Andrew Wyatt,Smithville,74.48,201.85,133.81,219.99,555.65,Single-ply,SBD,M
Boys,74.84,3,KeKoa Engleman,Kyle Lehman,73.21,174.63,117.93,199.58,492.15,Single-ply,SBD,M
Boys,74.84,4,Daniel Cobia,Smithville,73.94,167.83,106.59,181.44,455.86,Single-ply,SBD,M
Boys,74.84,5,Jacob Bandera,Smithville,74.12,165.56,106.59,181.44,453.59,Single-ply,SBD,M
Boys,74.84,6,Josh Handley,Fredericksburg,74.84,163.29,102.06,183.7,449.06,Single-ply,SBD,M
Boys,74.84,7,Micheal Allgood,Giddings,74.84,174.63,92.99,181.44,449.06,Single-ply,SBD,M
Boys,74.84,8,Dax Dietrich,Fredericksburg,70.49,154.22,102.06,156.49,412.77,Single-ply,SBD,M
Boys,74.84,9,Darious Parker,Brookshire Royal,69.76,142.88,83.91,183.7,410.5,Single-ply,SBD,M
Boys,74.84,10,Jonathan Martinez,Luling,68.49,136.08,83.91,133.81,353.8,Single-ply,SBD,M
Boys,74.84,11,Leza Niko,Smithville,71.67,127.01,68.04,154.22,349.27,Single-ply,SBD,M
Boys,74.84,12,Gabriel Ramos,Giddings,72.39,142.88,74.84,131.54,349.27,Single-ply,SBD,M
Boys,74.84,DQ,Justin Bohm,Austin Bowie,67.86,151.95,,,,Single-ply,SBD,M
Boys,74.84,DQ,Sal Johnson,Austin Bowie,71.58,,,,,Single-ply,SBD,M
Boys,74.84,DQ,Cord Miller,Smithville,67.95,111.13,,,,Single-ply,SBD,M
Boys,82.1,1,Nathan Bryson,Kyle Lehman,81.01,242.67,161.03,219.99,623.69,Single-ply,SBD,M
Boys,82.1,2,Kalob Jonas,Smithville,77.56,206.38,122.47,226.8,555.65,Single-ply,SBD,M
Boys,82.1,3,George Sanchez,Luling,77.29,197.31,120.2,192.78,510.29,Single-ply,SBD,M
Boys,82.1,4,Drake Bustamante,Bellville,81.47,188.24,115.67,188.24,492.15,Single-ply,SBD,M
Boys,82.1,5,Dennis Belema,Del Valle,81.74,176.9,108.86,192.78,478.54,Single-ply,SBD,M
Boys,82.1,6,Jhe'Que Chretin,Bastrop,80.92,170.1,106.59,183.7,460.4,Single-ply,SBD,M
Boys,82.1,7,Eston Epton,Fredericksburg,81.1,151.95,113.4,181.44,446.79,Single-ply,SBD,M
Boys,82.1,8,James Martinez,Gonzales,80.29,158.76,113.4,158.76,430.91,Single-ply,SBD,M
Boys,82.1,9,Alex Marek,Bellville,80.01,167.83,83.91,174.63,426.38,Single-ply,SBD,M
Boys,82.1,10,Logan Gaskey,Bastrop,81.19,147.42,97.52,174.63,419.57,Single-ply,SBD,M
Boys,82.1,11,Camren Willworth,Del Valle,78.2,151.95,95.25,167.83,415.04,Single-ply,SBD,M
Boys,82.1,12,Hugo Urrurita,Austin Bowie,76.02,156.49,83.91,163.29,403.7,Single-ply,SBD,M
Boys,82.1,DQ,Terance Drust,Austin Bowie,79.29,183.7,136.08,,,Single-ply,SBD,M
Boys,82.1,DQ,Zach Smith,Austin Bowie,77.2,151.95,,,,Single-ply,SBD,M
Boys,82.1,DQ,Jose Cruz,Luling,80.56,,,,,Single-ply,SBD,M
Boys,89.81,1,Nomar Rivera,Smithville,84.46,233.6,138.35,233.6,605.55,Single-ply,SBD,M
Boys,89.81,2,Sammy Segura,Giddings,88.27,208.65,138.35,192.78,539.77,Single-ply,SBD,M
Boys,89.81,3,Will Sebera,Fredericksburg,86.36,192.78,127.01,217.72,537.51,Single-ply,SBD,M
Boys,89.81,4,Tyrek Houston,Navasota,89.36,172.37,122.47,204.12,498.95,Single-ply,SBD,M
Boys,89.81,5,Titus Terrell,Navasota,85.28,183.7,108.86,172.37,464.93,Single-ply,SBD,M
Boys,89.81,6,Jude Dennis,Bastrop,82.92,156.49,95.25,174.63,426.38,Single-ply,SBD,M
Boys,89.81,7,Brian Ortiz,Del Valle,89.81,142.88,102.06,170.1,415.04,Single-ply,SBD,M
Boys,89.81,8,Andrew Rodriguez,Giddings,87.82,131.54,88.45,142.88,362.87,Single-ply,SBD,M
Boys,89.81,9,Justin Rangel,Bastrop,88.09,61.23,61.23,92.99,215.46,Single-ply,SBD,M
Boys,89.81,DQ,Tristian Fahrenthold,Austin Bowie,89.72,147.42,,,,Single-ply,SBD,M
Boys,89.81,DQ,Justin Torres,Austin Bowie,84.37,131.54,,,,Single-ply,SBD,M
Boys,89.81,DQ,Brian Garza,Gonzales,88.27,210.92,,,,Single-ply,SBD,M
Boys,99.79,1,Josh Ewald,Kyle Lehman,90.08,217.72,122.47,240.4,580.6,Single-ply,SBD,M
Boys,99.79,2,Seth Sanchez,Kyle Lehman,93.17,199.58,133.81,240.4,573.79,Single-ply,SBD,M
Boys,99.79,3,Jt Esparza,Gonzales,99.79,192.78,154.22,197.31,544.31,Single-ply,SBD,M
Boys,99.79,4,Jackson Green,Austin Bowie,94.26,188.24,92.99,188.24,469.47,Single-ply,SBD,M
Boys,99.79,5,Acosta Xavier,Del Valle,92.9,158.76,106.59,165.56,430.91,Single-ply,SBD,M
Boys,99.79,6,Teagen Lopez,Austin Bowie,99.61,142.88,113.4,172.37,428.64,Single-ply,SBD,M
Boys,99.79,7,Christian Almaguer,Gonzales,96.52,147.42,83.91,138.35,369.68,Single-ply,SBD,M
Boys,99.79,8,Jonathan Stuart,Del Valle,91.72,108.86,70.31,140.61,319.78,Single-ply,SBD,M
Boys,99.79,DQ,Chris Ruiz,Austin Bowie,90.99,142.88,,,,Single-ply,SBD,M
Boys,99.79,DQ,Seth Fields,Luling,93.71,,,,,Single-ply,SBD,M
Boys,109.77,1,Hilario Rodriguez,Navasota,104.05,251.74,136.08,238.14,625.96,Single-ply,SBD,M
Boys,109.77,2,Kyle Nelson,Bellville,103.42,219.99,124.74,242.67,587.4,Single-ply,SBD,M
Boys,109.77,3,Richard Rogers,Giddings,101.7,229.06,120.2,233.6,582.87,Single-ply,SBD,M
Boys,109.77,4,Michael Bush,Channelview,101.97,210.92,120.2,210.92,542.04,Single-ply,SBD,M
Boys,109.77,5,Vicente Reyna,Gonzales,103.42,201.85,120.2,206.38,528.44,Single-ply,SBD,M
Boys,109.77,6,Cameron Wilkins,Del Valle,103.69,188.24,115.67,195.04,498.95,Single-ply,SBD,M
Boys,109.77,7,Juan Hernández,Brookshire Royal,107.05,190.51,92.99,204.12,487.61,Single-ply,SBD,M
Boys,109.77,8,Jordian Martin,Brookshire Royal,100.24,172.37,106.59,183.7,462.66,Single-ply,SBD,M
Boys,109.77,9,Andrew Zaragoza,Channelview,106.5,183.7,92.99,185.97,462.66,Single-ply,SBD,M
Boys,109.77,10,Robbie Gregg,Smithville,105.23,158.76,113.4,154.22,426.38,Single-ply,SBD,M
Boys,109.77,11,Silvano Reyes,Gonzales,101.06,124.74,86.18,113.4,324.32,Single-ply,SBD,M
Boys,109.77,DQ,Brendon Rodriguez,Gonzales,106.23,197.31,115.67,,,Single-ply,SBD,M
Boys,124.74,1,Justin Hoffman,Bastrop,121.38,260.82,201.85,226.8,689.46,Single-ply,SBD,M
Boys,124.74,2,Tyvionne Roaches,Kyle Lehman,123.38,278.96,161.03,235.87,675.85,Single-ply,SBD,M
Boys,124.74,3,Tyrone Wilson,Bastrop,111.86,224.53,145.15,231.33,601.01,Single-ply,SBD,M
Boys,124.74,4,Kaiser Forcade,Fredericksburg,117.57,240.4,124.74,208.65,573.79,Single-ply,SBD,M
Boys,124.74,5,D'Anthony Jackson,Giddings,124.19,199.58,136.08,201.85,537.51,Single-ply,SBD,M
Boys,124.74,6,Ethan Psencik,Smithville,113.49,197.31,115.67,190.51,503.49,Single-ply,SBD,M
Boys,124.74,7,Bryan Vasquez,Del Valle,113.04,145.15,108.86,192.78,446.79,Single-ply,SBD,M
Boys,124.74,8,Ryan Gomez,Gonzales,117.57,188.24,92.99,158.76,439.98,Single-ply,SBD,M
Boys,124.74,9,Klayton Manning,Luling,123.01,149.69,81.65,142.88,374.21,Single-ply,SBD,M
Boys,124.74,DQ,Korbin Robinson,Brookshire Royal,111.67,124.74,92.99,,,Single-ply,SBD,M
Boys,124.74,DQ,Landon West,Fredericksburg,117.57,172.37,,,,Single-ply,SBD,M
Boys,124.74,DQ,Luis Tello,Giddings,115.3,229.06,,,,Single-ply,SBD,M
Boys,124.74,DQ,Eduardo Arteaga,Brookshire Royal,118.48,185.97,,,,Single-ply,SBD,M
Boys,124.74,DQ,Korbin Dietrich,Bellville,117.75,183.7,,,,Single-ply,SBD,M
Boys,124.74,DQ,Azreal Valle,Luling,111.58,,,,,Single-ply,SBD,M
Boys,124.74,DQ,Nick Ramirez,Gonzales,123.74,276.69,,,,Single-ply,SBD,M
Boys,124.74+,1,Kaleb Barho,Smithville,125.28,290.3,154.22,215.46,659.98,Single-ply,SBD,M
Boys,124.74+,2,Scale Igiehon,Del Valle,152.41,240.4,142.88,249.48,632.76,Single-ply,SBD,M
Boys,124.74+,3,Chris Sifuentes,Giddings,133.45,244.94,129.27,208.65,582.87,Single-ply,SBD,M
Boys,124.74+,4,Byron Henderson,Channelview,125.55,215.46,151.95,192.78,560.19,Single-ply,SBD,M
Boys,124.74+,5,Paula Vaipulu,Channelview,131.9,208.65,115.67,199.58,523.9,Single-ply,SBD,M
Boys,124.74+,6,Dietrich Summons,Del Valle,144.15,170.1,90.72,158.76,419.57,Single-ply,SBD,M
Boys,124.74+,7,Brok Garcia,Smithville,146.51,127.01,97.52,136.08,360.61,Single-ply,SBD,M
Boys,124.74+,DQ,Jonathan Murry,Luling,145.15,276.69,145.15,,,Single-ply,SBD,M
