Division,WeightClassKg,Place,Name,Team,BodyweightKg,Best3SquatKg,Best3BenchKg,Best3DeadliftKg,TotalKg,Equipment,Event,Sex
Boys,55.79,1,Gabe Spikes,Lago Vista,51.8,115.67,79.38,136.08,331.12,Single-ply,SBD,M
Boys,55.79,1,Seth Kerchiville,Liberty Hill,55.25,122.47,74.84,138.35,335.66,Single-ply,SBD,M
Boys,67.13,1,Clay Stamper,Lago Vista,59.96,113.4,72.57,136.08,322.05,Single-ply,SBD,M
Boys,67.13,1,Kirk Bookman,Cameron Yoe,63.96,161.03,88.45,158.76,408.23,Single-ply,SBD,M
Boys,74.84,2,Rudy Munguia,Taylor,67.22,154.22,102.06,138.35,394.63,Single-ply,SBD,M
Boys,67.13,3,Freddie White,Liberty Hill,63.96,151.95,95.25,145.15,392.36,Single-ply,SBD,M
Boys,67.13,4,Christian Lopez,Taylor,66.22,136.08,86.18,161.03,383.29,Single-ply,SBD,M
Boys,67.13,5,Matthew Kocian,Taylor,66.86,151.95,90.72,136.08,378.75,Single-ply,SBD,M
Boys,74.84,DQ,Darryl Florez,Cameron Yoe,67.18,151.95,99.79,,,Single-ply,SBD,M
Boys,82.1,1,Van Shamblin,Liberty Hill,74.89,226.8,113.4,172.37,512.56,Single-ply,SBD,M
Boys,74.84,2,Scott Zufelt,Lago Vista,70.94,181.44,92.99,233.6,508.02,Single-ply,SBD,M
Boys,74.84,3,Colton Cunningham,Liberty Hill,74.34,165.56,106.59,174.63,446.79,Single-ply,SBD,M
Boys,74.84,4,Ryan Hill,Lago Vista,74.03,161.03,104.33,176.9,442.25,Single-ply,SBD,M
Boys,74.84,5,Michael Carpeno,Lago Vista,70.4,161.03,90.72,165.56,417.3,Single-ply,SBD,M
Boys,74.84,6,Jason Reeves,Liberty Hill,74.84,158.76,115.67,142.88,417.3,Single-ply,SBD,M
Boys,74.84,7,Dawson Hernandez,Lago Vista,74.66,145.15,83.91,174.63,403.7,Single-ply,SBD,M
Boys,74.84,DQ,Connor Vernachio,Lago Vista,74.84,,,,,Single-ply,SBD,M
Boys,74.84,DQ,Titus Lewis,Cameron Yoe,72.57,,,,,Single-ply,SBD,M
Boys,74.84,DQ,Josh Briggs,Taylor,74.84,,,,,Single-ply,SBD,M
Boys,82.1,1,Jacob Hernandez,Lago Vista,79.83,151.95,90.72,176.9,419.57,Single-ply,SBD,M
Boys,82.1,2,Grant Smith,Liberty Hill,76.2,136.08,106.59,167.83,410.5,Single-ply,SBD,M
Boys,99.79,1,Jacob Covington,Liberty Hill,89.99,217.72,124.74,192.78,535.24,Single-ply,SBD,M
Boys,89.81,2,Dakota Corbett,Liberty Hill,88.36,197.31,106.59,206.38,510.29,Single-ply,SBD,M
Boys,89.81,3,Ryan Bode,Lago Vista,86.55,167.83,111.13,188.24,467.2,Single-ply,SBD,M
Boys,89.81,4,Justin Wilson,Liberty Hill,88.09,158.76,115.67,176.9,451.32,Single-ply,SBD,M
Boys,89.81,5,Russell Sweet,Lago Vista,86.45,167.83,90.72,185.97,444.52,Single-ply,SBD,M
Boys,89.81,6,Kody Knowles,Liberty Hill,85.73,161.03,86.18,167.83,415.04,Single-ply,SBD,M
Boys,89.81,7,Johnathon Pety,Lago Vista,85.91,158.76,86.18,161.03,405.97,Single-ply,SBD,M
Boys,99.79,8,Jason Allen,Taylor,89.99,149.69,102.06,154.22,405.97,Single-ply,SBD,M
Boys,89.81,9,Noah Gonzales,Cameron Yoe,88.9,147.42,106.59,149.69,403.7,Single-ply,SBD,M
Boys,89.81,10,Kyle Huppee,Liberty Hill,85.28,145.15,83.91,156.49,385.55,Single-ply,SBD,M
Boys,89.81,11,Cody Sutton,Lago Vista,87.36,136.08,79.38,138.35,353.8,Single-ply,SBD,M
Boys,89.81,DQ,Chayseland Taylor,Lago Vista,85,,,,,Single-ply,SBD,M
Boys,89.81,DQ,Evan Wotipka,Lago Vista,84.28,,,,,Single-ply,SBD,M
Boys,99.79,1,John Beebe,Lago Vista,92.62,206.38,147.42,272.16,625.96,Single-ply,SBD,M
Boys,99.79,2,Eric Brown,Lago Vista,97.52,136.08,111.13,149.69,396.89,Single-ply,SBD,M
Boys,109.77,1,Daegan Fowler,Lago Vista,101.79,192.78,136.08,219.99,548.85,Single-ply,SBD,M
Boys,109.77,2,Bailey Cloughy,Liberty Hill,104.92,204.12,120.2,188.24,512.56,Single-ply,SBD,M
Boys,124.74,3,Tomas Salomon,Cameron Yoe,109.91,201.85,104.33,195.04,501.22,Single-ply,SBD,M
Boys,109.77,4,Craig Orona,Lago Vista,103.42,154.22,90.72,176.9,421.84,Single-ply,SBD,M
Boys,109.77,5,Brian McDonald,Cameron Yoe,109.32,108.86,65.77,124.74,299.37,Single-ply,SBD,M
Boys,109.77,DQ,Pablo Rodrigues,Cameron Yoe,102.06,,,,,Single-ply,SBD,M
Boys,124.74,1,Will Smith,Liberty Hill,112.81,256.28,158.76,208.65,623.69,Single-ply,SBD,M
Boys,124.74,2,Jacob Sanders,Liberty Hill,124.42,265.35,133.81,219.99,619.15,Single-ply,SBD,M
Boys,124.74,3,Robert Salvaterria,Liberty Hill,112.99,215.46,120.2,192.78,528.44,Single-ply,SBD,M
Boys,124.74,4,Andrew Mokry,Taylor,119.75,151.95,97.52,158.76,408.23,Single-ply,SBD,M
Boys,124.74+,1,Kristian Tovar,Taylor,127.73,183.7,129.27,226.8,539.77,Single-ply,SBD,M
Boys,124.74+,2,Axel Werner,Taylor,134.72,174.63,97.52,172.37,444.52,Single-ply,SBD,M
