Division,WeightClassKg,Place,Name,Team,BodyweightKg,Best3SquatKg,Best3BenchKg,Best3DeadliftKg,TotalKg,Equipment,Event,Sex
Boys,51.71,1,Ivan Rosales,Columbus,50.62,142.88,81.65,161.03,385.55,Single-ply,SBD,M
Boys,51.71,2,Joe Castillo,Altair Rice,46.27,99.79,49.9,97.52,247.21,Single-ply,SBD,M
Boys,51.71,3,Mason Neisner,Columbus,37.38,43.09,38.56,68.04,149.69,Single-ply,SBD,M
Boys,55.79,1,Kolbe Kutac,Schulenburg,55.79,127.01,56.7,136.08,319.78,Single-ply,SBD,M
Boys,55.79,2,Haiderman Carias,Altair Rice,54.02,90.72,52.16,115.67,258.55,Single-ply,SBD,M
Boys,55.79,3,Javier Camacho,Weimar,55.25,102.06,54.43,102.06,258.55,Single-ply,SBD,M
Boys,59.87,1,Lucio Davila,Altair Rice,59.01,154.22,81.65,172.37,408.23,Single-ply,SBD,M
Boys,59.87,2,Zachary Baker,Hallettsville,58.56,151.95,81.65,142.88,376.48,Single-ply,SBD,M
Boys,59.87,3,Colby Rodriguez,Vanderbilt Industrial,59.01,142.88,70.31,149.69,362.87,Single-ply,SBD,M
Boys,59.87,4,Yuli Samaniego,Altair Rice,59.1,142.88,70.31,124.74,337.93,Single-ply,SBD,M
Boys,59.87,5,Joseph Marsalia,Altair Rice,59.42,117.93,70.31,136.08,324.32,Single-ply,SBD,M
Boys,59.87,6,Reece Kollaja,La Grange,59.69,120.2,70.31,120.2,310.71,Single-ply,SBD,M
Boys,59.87,7,Jose Renoso,Columbus,58.56,113.4,52.16,120.2,285.76,Single-ply,SBD,M
Boys,59.87,8,Alex Bonorden,Victoria St. Joseph,58.65,86.18,52.16,136.08,274.42,Single-ply,SBD,M
Boys,59.87,9,Ricky Rico,East Bernard,57.11,102.06,52.16,111.13,265.35,Single-ply,SBD,M
Boys,67.13,1,Erick Cruz,Victoria St. Joseph,63.55,185.97,111.13,179.17,476.27,Single-ply,SBD,M
Boys,67.13,2,Sam Bonorden,Victoria St. Joseph,67.04,174.63,95.25,183.7,453.59,Single-ply,SBD,M
Boys,67.13,3,Nic Reyes,Altair Rice,66.68,156.49,86.18,179.17,421.84,Single-ply,SBD,M
Boys,67.13,4,Trevor Howard,Bellville,67.13,165.56,68.04,170.1,403.7,Single-ply,SBD,M
Boys,67.13,5,Drew Powell,Hallettsville,65.73,151.95,97.52,147.42,396.89,Single-ply,SBD,M
Boys,67.13,6,Andrew Small,Wallis Brazos,65.68,151.95,83.91,158.76,394.63,Single-ply,SBD,M
Boys,67.13,7,David Duffla,Bellville,62.6,129.27,72.57,136.08,337.93,Single-ply,SBD,M
Boys,67.13,8,Seth Patten,Schulenburg,65.68,113.4,65.77,147.42,326.59,Single-ply,SBD,M
Boys,67.13,9,Shawn Torres,Altair Rice,66.22,124.74,72.57,124.74,322.05,Single-ply,SBD,M
Boys,67.13,10,Juan Barboza,Altair Rice,65.77,113.4,52.16,115.67,281.23,Single-ply,SBD,M
Boys,67.13,11,Deviro Yanis,La Grange,60.87,97.52,70.31,111.13,278.96,Single-ply,SBD,M
Boys,74.84,1,Matthew Vallejo,Victoria St. Joseph,73.53,204.12,115.67,208.65,528.44,Single-ply,SBD,M
Boys,74.84,2,Carson Berger,Vanderbilt Industrial,72.67,172.37,120.2,190.51,483.08,Single-ply,SBD,M
Boys,74.84,3,Nathan Besch,Weimar,67.27,183.7,102.06,190.51,476.27,Single-ply,SBD,M
Boys,74.84,4,Josh Beane,Columbus,71.26,188.24,97.52,163.29,449.06,Single-ply,SBD,M
Boys,74.84,5,Nick Freshnecht,Columbus,71.76,174.63,92.99,161.03,428.64,Single-ply,SBD,M
Boys,74.84,6,Dalton Dieringer,Hallettsville,70.99,158.76,88.45,158.76,405.97,Single-ply,SBD,M
Boys,74.84,7,Jacob Estrada,Columbus,70.26,147.42,90.72,151.95,390.09,Single-ply,SBD,M
Boys,74.84,8,Caleb Edmonds,Hallettsville,74.53,142.88,99.79,142.88,385.55,Single-ply,SBD,M
Boys,74.84,9,Adrian Castaneda,Bellville,73.84,142.88,83.91,142.88,369.68,Single-ply,SBD,M
Boys,74.84,10,Hunter Schultz,Schulenburg,67.86,127.01,72.57,133.81,333.39,Single-ply,SBD,M
Boys,74.84,11,Daniel Jordan,Hempstead,68.08,102.06,65.77,120.2,288.03,Single-ply,SBD,M
Boys,74.84,DQ,Keaton McDonald,East Bernard,68.99,142.88,,,,Single-ply,SBD,M
Boys,74.84,DQ,Reagan Kirk,La Grange,73.94,151.95,,,,Single-ply,SBD,M
Boys,74.84,DQ,Kyle Mikes,East Bernard,74.62,142.88,,,,Single-ply,SBD,M
Boys,74.84,DQ,Christian Otto,East Bernard,72.94,120.2,,,,Single-ply,SBD,M
Boys,74.84,DQ,Joel Moore,Weimar,67.63,102.06,,,,Single-ply,SBD,M
Boys,82.1,1,Jaric Crider,Bellville,80.83,213.19,127.01,208.65,548.85,Single-ply,SBD,M
Boys,82.1,2,Isaiah Herring,Hallettsville,78.43,213.19,136.08,197.31,546.58,Single-ply,SBD,M
Boys,82.1,3,Dylan Tomek,Hallettsville,79.92,206.38,129.27,210.92,546.58,Single-ply,SBD,M
Boys,82.1,4,Hunter Adkins,Altair Rice,79.92,197.31,129.27,176.9,503.49,Single-ply,SBD,M
Boys,82.1,5,Dereck Morris,Hempstead,81.37,192.78,92.99,199.58,485.34,Single-ply,SBD,M
Boys,82.1,6,Cullen Schrader,Bellville,82.1,170.1,120.2,174.63,464.93,Single-ply,SBD,M
Boys,82.1,7,Will Anderson,East Bernard,79.7,172.37,106.59,179.17,458.13,Single-ply,SBD,M
Boys,82.1,8,Liam Porr,Victoria St. Joseph,79.74,167.83,106.59,172.37,446.79,Single-ply,SBD,M
Boys,82.1,9,Reid Henke,Hallettsville,77.79,172.37,99.79,167.83,439.98,Single-ply,SBD,M
Boys,82.1,10,Kendall McCloud,Weimar,81.6,165.56,111.13,142.88,419.57,Single-ply,SBD,M
Boys,82.1,11,Juan Reyna,Schulenburg,75.93,156.49,92.99,147.42,396.89,Single-ply,SBD,M
Boys,82.1,12,Dylan Ramirez,Weimar,76.07,138.35,83.91,170.1,392.36,Single-ply,SBD,M
Boys,82.1,13,Refugio Rosales,Weimar,81.74,147.42,79.38,145.15,371.95,Single-ply,SBD,M
Boys,82.1,14,Vernon Smith,Bellville,81.96,129.27,92.99,149.69,371.95,Single-ply,SBD,M
Boys,82.1,15,Andre Taylor,Weimar,80.15,147.42,79.38,133.81,360.61,Single-ply,SBD,M
Boys,82.1,16,Ian Garner,Wallis Brazos,77.43,104.33,104.33,142.88,351.53,Single-ply,SBD,M
Boys,82.1,DQ,Jake Salem,Schulenburg,82.01,172.37,97.52,,,Single-ply,SBD,M
Boys,82.1,DQ,Avery Srebalus,East Bernard,75.3,154.22,,,,Single-ply,SBD,M
Boys,82.1,DQ,Trevor Bagby,East Bernard,76.84,161.03,106.59,,,Single-ply,SBD,M
Boys,89.81,1,Trace McAfee,Hallettsville,86.73,235.87,142.88,204.12,582.87,Single-ply,SBD,M
Boys,89.81,2,Ben Carmean,Bellville,88.41,231.33,136.08,183.7,551.11,Single-ply,SBD,M
Boys,89.81,3,Vaughn Morris,Hempstead,82.74,217.72,111.13,204.12,532.97,Single-ply,SBD,M
Boys,89.81,4,James Taylor,Wallis Brazos,86.86,215.46,117.93,165.56,498.95,Single-ply,SBD,M
Boys,89.81,5,Hayden Henry,Hallettsville,84.59,188.24,117.93,183.7,489.88,Single-ply,SBD,M
Boys,89.81,6,Locke Rowley,East Bernard,83.32,179.17,106.59,181.44,467.2,Single-ply,SBD,M
Boys,89.81,7,Ben Maldanado,Wallis Brazos,82.92,145.15,104.33,149.69,399.16,Single-ply,SBD,M
Boys,89.81,8,Chance Chambers,La Grange,87.5,154.22,88.45,142.88,385.55,Single-ply,SBD,M
Boys,89.81,9,Joseph Herrera,Columbus,87.59,138.35,92.99,151.95,383.29,Single-ply,SBD,M
Boys,89.81,DQ,Cole Patlovany,Hallettsville,85.96,90.72,,,,Single-ply,SBD,M
Boys,89.81,DQ,Kenley Smith,Schulenburg,87.5,106.59,77.11,,,Single-ply,SBD,M
Boys,99.79,1,Lex Leibfried,Bellville,98.02,249.48,158.76,226.8,635.03,Single-ply,SBD,M
Boys,99.79,2,Andrew Tavera,Altair Rice,98.43,251.74,136.08,233.6,621.42,Single-ply,SBD,M
Boys,99.79,3,Jacob Garza,Vanderbilt Industrial,98.88,254.01,165.56,192.78,612.35,Single-ply,SBD,M
Boys,99.79,4,Julio Ramirez,La Grange,95.53,217.72,111.13,215.46,544.31,Single-ply,SBD,M
Boys,99.79,5,John Garza,La Grange,95.8,222.26,115.67,204.12,542.04,Single-ply,SBD,M
Boys,99.79,6,Armando Rosales,Weimar,95.71,199.58,133.81,204.12,537.51,Single-ply,SBD,M
Boys,99.79,7,Michael Rodgers,Hempstead,99.06,190.51,127.01,199.58,517.1,Single-ply,SBD,M
Boys,99.79,8,Cordale Ellison,La Grange,97.57,219.99,106.59,185.97,512.56,Single-ply,SBD,M
Boys,99.79,9,Jesus Vargas,Altair Rice,99.11,192.78,122.47,188.24,503.49,Single-ply,SBD,M
Boys,99.79,10,Brigham Nelson,Victoria St. Joseph,90.22,208.65,108.86,174.63,492.15,Single-ply,SBD,M
Boys,99.79,11,Steve Hampson,Hallettsville,93.8,188.24,124.74,174.63,487.61,Single-ply,SBD,M
Boys,99.79,12,Luke Berglund,Bellville,97.48,170.1,122.47,195.04,487.61,Single-ply,SBD,M
Boys,99.79,13,Jamie Lopez,Hempstead,97.39,174.63,111.13,192.78,478.54,Single-ply,SBD,M
Boys,99.79,14,Casey Marek,Bellville,96.75,165.56,99.79,170.1,435.45,Single-ply,SBD,M
Boys,99.79,15,Joseph Clay,Wallis Brazos,98.97,158.76,102.06,147.42,408.23,Single-ply,SBD,M
Boys,99.79,16,Ryan Johnson,Bellville,92.53,127.01,81.65,124.74,333.39,Single-ply,SBD,M
Boys,99.79,DQ,Shannon Tesch,Vanderbilt Industrial,98.79,170.1,,,,Single-ply,SBD,M
Boys,109.77,1,Oliver Shorter,Altair Rice,102.97,240.4,131.54,197.31,569.26,Single-ply,SBD,M
Boys,109.77,2,Brennan Schimcek,Hallettsville,108.86,226.8,149.69,190.51,566.99,Single-ply,SBD,M
Boys,109.77,3,Tyler Vasut,East Bernard,108.45,215.46,124.74,204.12,544.31,Single-ply,SBD,M
Boys,109.77,4,Andrew Hlavinka,East Bernard,107.95,204.12,117.93,210.92,532.97,Single-ply,SBD,M
Boys,109.77,5,William Sanchez,Columbus,101.15,190.51,142.88,179.17,512.56,Single-ply,SBD,M
Boys,109.77,6,Shawn Allen,Schulenburg,109.45,201.85,127.01,172.37,501.22,Single-ply,SBD,M
Boys,109.77,7,Louie Lopez,Victoria St. Joseph,101.97,181.44,97.52,195.04,474,Single-ply,SBD,M
Boys,109.77,8,Genaro Casas,Weimar,105.64,176.9,115.67,174.63,467.2,Single-ply,SBD,M
Boys,109.77,9,Kyle Nelson,Bellville,104.28,172.37,79.38,172.37,424.11,Single-ply,SBD,M
Boys,109.77,10,Kiezland Quintero,Schulenburg,107.59,154.22,102.06,142.88,399.16,Single-ply,SBD,M
Boys,109.77,11,PJ Moreida,Altair Rice,104.33,117.93,61.23,104.33,283.5,Single-ply,SBD,M
Boys,124.74,1,Ezequiel Garza,La Grange,111.67,217.72,120.2,217.72,555.65,Single-ply,SBD,M
Boys,124.74,2,Brandon Higginbotham,East Bernard,114.85,185.97,124.74,206.38,517.1,Single-ply,SBD,M
Boys,124.74,3,Hunter Breaux,Bellville,122.97,204.12,136.08,170.1,510.29,Single-ply,SBD,M
Boys,124.74,4,Sergio Calvo,Victoria St. Joseph,111.99,161.03,95.25,170.1,426.38,Single-ply,SBD,M
Boys,124.74,5,Trevor Benavides,Victoria St. Joseph,110.13,140.61,102.06,136.08,378.75,Single-ply,SBD,M
Boys,124.74,DQ,Blake Ray,Columbus,120.38,192.78,,,,Single-ply,SBD,M
Boys,124.74+,1,James Nino,Weimar,142.84,249.48,167.83,244.94,662.24,Single-ply,SBD,M
Boys,124.74+,2,Jadan Thomas,Weimar,133.13,195.04,113.4,172.37,480.81,Single-ply,SBD,M
Boys,124.74+,3,Trevor Gloor,Victoria St. Joseph,126.64,174.63,120.2,163.29,458.13,Single-ply,SBD,M
Boys,124.74+,4,Ethan Pray,Victoria St. Joseph,141.07,102.06,86.18,131.54,319.78,Single-ply,SBD,M
Boys,,NS,Jacqui Shorter,Columbus,,,,,,Single-ply,SBD,M
Boys,,NS,Khamron Thomas,Hempstead,,,,,,Single-ply,SBD,M
Boys,,NS,Jeremiah Rosales,Hempstead,,,,,,Single-ply,SBD,M
Boys,,NS,Eli Eichler,La Grange,,,,,,Single-ply,SBD,M
Boys,,NS,JK Dobbins,La Grange,,,,,,Single-ply,SBD,M
