Place,Name,Sex,BirthDate,Age,Country,State,Equipment,Division,BodyweightKg,WeightClassKg,Squat1Kg,Squat2Kg,Squat3Kg,Squat4Kg,Best3SquatKg,Bench1Kg,Bench2Kg,Bench3Kg,Best3BenchKg,Deadlift1Kg,Deadlift2Kg,Deadlift3Kg,Best3DeadliftKg,TotalKg,Event
1,Dany Vallejo,F,1996-07-31,22,Mexico,JA,Raw,Elite Juniors 20-23,56.11,60,82.5,87.5,95,-100,95,60,-65,65,65,110,117.5,,117.5,277.5,SBD
1,Madison Shoebottom,F,1985-07-05,33,USA,AR,Wraps,Pro Open,76.11,82.5,150,172.5,-185,,172.5,90,-100,-102.5,90,162.5,177.5,-192.5,177.5,440,SBD
1,Sara Brady,F,1990-11-19,28,USA,AR,Raw,Amateur Open,84.78,90,160,172.5,177.5,,177.5,80,85,-92.5,85,155,167.5,177.5,177.5,440,SBD
1,JT Deaton,M,2004-05-11,14,USA,OK,Raw,Amateur Teen 14-15,65,67.5,107.5,115,122.5,,122.5,65,70,-77.5,70,125,142.5,,142.5,335,SBD
DQ,James Blakenship,M,1960-09-02,58,USA,AR,Raw,Elite Masters 55-59,99.88,100,-127.5,127.5,137.5,,137.5,-122.5,-122.5,-122.5,,,,,,,SBD
1,Jay Oliver,M,1991-09-04,27,USA,OK,Raw,Police Pro Open,117.12,125,192.5,202.5,217.5,,217.5,137.5,145,157.5,157.5,210,220,240,240,615,SBD
1,Matt Delmarty,M,1993-06-30,25,USA,AR,Raw,Crossfit,72.62,75,110,145,150,,150,82.5,-97.5,-97.5,82.5,115,152.5,160,160,392.5,SBD
1,Fröde Gundersen,M,1966-10-12,52,USA,AR,Raw,Amateur Masters 50-54,88.9,90,-165,165,-182.5,,165,112.5,122.5,-132.5,122.5,160,170,182.5,182.5,470,SBD
1,Robert Clark,M,1997-03-17,22,USA,TX,Wraps,Amateur Juniors 20-23,92.08,100,230,247.5,,,247.5,130,142.5,-147.5,142.5,257.5,272.5,-282.5,272.5,662.5,SBD
1,Jonathan Busby,M,1984-07-25,34,USA,AR,Wraps,Pro Open,105.78,110,292.5,317.5,340,,340,175,190,195,195,282.5,300,-305,300,835,SBD
2,Kalen Thorn,M,1986-12-05,32,USA,AR,Wraps,Pro Open,108.91,110,227.5,-245,250,,250,150,160,-167.5,160,227.5,250,-272.5,250,660,SBD
1,Daniel Sanderson,M,1970-12-04,48,USA,AR,Wraps,Military Amateur Masters 45-49,122.29,125,202.5,215,220,,220,162.5,170,175,175,207.5,215,-227.5,215,610,SBD
1,Cole McCutchen,M,1996-08-03,22,USA,OK,Raw,Pro Juniors 20-23,113.31,125,225,240,252.5,,252.5,165,177.5,-185,177.5,252.5,267.5,-272.5,267.5,697.5,SBD
DQ,Quintin Beck,M,1995-03-25,23,USA,OK,Raw,Pro Juniors 20-23,128.91,140,235,-257.5,-257.5,,235,175,-182.5,182.5,182.5,-265,-265,,,,SBD
1,Conner Branch,M,1992-11-07,26,USA,AR,Wraps,Pro Open,134.22,140,262.5,272.5,282.5,,282.5,170,177.5,185,185,262.5,282.5,290,290,757.5,SBD
DQ,Thomas Blackwell,M,1993-04-20,25,USA,AR,Wraps,Pro Open,126.51,140,-302.5,,,,,,,,,,,,,,SBD
1,Calvin Wren,M,1983-02-24,,USA,AR,Raw,Elite Open,118.98,125,,,,,,215,232.5,235,235,,,,,235,B
1,Michael Butler,M,1969-06-06,49,USA,AR,Raw,Elite Masters 45-49,139.48,140,,,,,,-192.5,-192.5,192.5,192.5,,,,,192.5,B
1,Travis Paul Rose,M,1994-04-04,24,USA,AR,Raw,Elite Open,74.71,75,,,,,,,,,,215,230,-235,230,230,D
