Division,WeightClassKg,Place,Name,Team,BodyweightKg,Best3SquatKg,Best3BenchKg,Best3DeadliftKg,TotalKg,Equipment,Event,Sex
Boys,51.71,1,Joseph Dodds,Dickinson,51.26,158.76,86.18,165.56,410.5,Single-ply,SBD,M
Boys,51.71,2,Fidencio Cruz,Dickinson,48.99,115.67,56.7,111.13,283.5,Single-ply,SBD,M
Boys,51.71,3,Anthony Grimes,Katy Mayde Creek,51.26,74.84,61.23,124.74,260.82,Single-ply,SBD,M
Boys,51.71,4,Brian Frank,Houston Madison,50.8,90.72,52.16,104.33,247.21,Single-ply,SBD,M
Boys,51.71,DQ,Shawn Loyola,Stafford,51.71,,,,,Single-ply,SBD,M
Boys,55.79,1,Chaise Edwards,Montgomery,54.88,138.35,81.65,129.27,349.27,Single-ply,SBD,M
Boys,55.79,2,Jacob Simpson,Houston Bellaire,54.43,104.33,88.45,138.35,331.12,Single-ply,SBD,M
Boys,55.79,3,Bryce Walker,Houston Madison,55.34,131.54,63.5,122.47,317.51,Single-ply,SBD,M
Boys,55.79,4,Tony Nava,Houston Chavez,55.34,88.45,65.77,124.74,278.96,Single-ply,SBD,M
Boys,55.79,5,Jeff Ryan,Danbury,54.43,95.25,54.43,90.72,240.4,Single-ply,SBD,M
Boys,59.87,1,Andrew Brooks,Houston Madison,57.15,172.37,99.79,195.04,467.2,Single-ply,SBD,M
Boys,59.87,2,Alex Sharp,Dickinson,58.97,183.7,111.13,172.37,467.2,Single-ply,SBD,M
Boys,59.87,3,Luis McDaniel,La Porte,58.97,138.35,81.65,145.15,365.14,Single-ply,SBD,M
Boys,59.87,4,Sergio Vences,La Porte,58.06,142.88,63.5,147.42,353.8,Single-ply,SBD,M
Boys,59.87,5,Chris Cargile,Pasadena Memorial,59.42,117.93,63.5,163.29,344.73,Single-ply,SBD,M
Boys,59.87,6,Don Hernandez,Danbury,57.61,99.79,65.77,106.59,272.16,Single-ply,SBD,M
Boys,59.87,7,Ramiro Barron,Danbury,59.42,102.06,61.23,108.86,272.16,Single-ply,SBD,M
Boys,59.87,DQ,Jimmy Parker,Houston Eisenhower,59.87,,,,,Single-ply,SBD,M
Boys,59.87,DQ,Josh Hill,Montgomery,59.87,,,,,Single-ply,SBD,M
Boys,67.13,1,Jared Wetuski,Montgomery,62.6,167.83,97.52,185.97,451.32,Single-ply,SBD,M
Boys,67.13,2,Kevin Green,Katy Mayde Creek,66.22,181.44,97.52,158.76,437.72,Single-ply,SBD,M
Boys,67.13,3,Jessie Trevino,Houston Chavez,67.13,158.76,97.52,174.63,430.91,Single-ply,SBD,M
Boys,67.13,4,Dorian Taylor,Houston Madison,60.78,136.08,83.91,133.81,353.8,Single-ply,SBD,M
Boys,67.13,5,Matt Shaver,Danbury,61.69,120.2,77.11,136.08,333.39,Single-ply,SBD,M
Boys,67.13,6,Rey Galaviz,Katy Mayde Creek,65.77,102.06,72.57,158.76,333.39,Single-ply,SBD,M
Boys,67.13,7,Zuhayr Ali,Houston Bellaire,65.77,92.99,92.99,124.74,310.71,Single-ply,SBD,M
Boys,67.13,8,Gilberto Cantu,Houston Chavez,67.13,83.91,61.23,117.93,263.08,Single-ply,SBD,M
Boys,67.13,DQ,Rosendo Media,Danbury,67.13,,,,,Single-ply,SBD,M
Boys,67.13,DQ,Shawn Foster,Dickinson,67.13,,,,,Single-ply,SBD,M
Boys,67.13,DQ,Ruben Diaz,Houston Milby,67.13,,,,,Single-ply,SBD,M
Boys,74.84,1,Luke Chimes,Dickinson,74.84,195.04,124.74,215.46,535.24,Single-ply,SBD,M
Boys,74.84,2,Jeremy McNeil,La Porte,69.85,165.56,124.74,183.7,474,Single-ply,SBD,M
Boys,74.84,3,Jessie Hooper,Montgomery,73.48,165.56,102.06,192.78,460.4,Single-ply,SBD,M
Boys,74.84,4,Shamus Johnson,Katy Mayde Creek,74.39,183.7,92.99,181.44,458.13,Single-ply,SBD,M
Boys,74.84,5,Robert Coneley,Dickinson,73.48,172.37,102.06,167.83,442.25,Single-ply,SBD,M
Boys,74.84,6,AJ Coleman,Houston Chavez,74.84,172.37,83.91,185.97,442.25,Single-ply,SBD,M
Boys,74.84,7,Matt Wynn,Danbury,73.94,163.29,81.65,172.37,417.3,Single-ply,SBD,M
Boys,74.84,8,Eddie Ramos,Pasadena Memorial,71.21,142.88,97.52,170.1,410.5,Single-ply,SBD,M
Boys,74.84,9,Eric Morales,Houston Bellaire,70.31,131.54,104.33,154.22,390.09,Single-ply,SBD,M
Boys,74.84,10,Jonathan Vasquez,Houston Bellaire,73.94,145.15,97.52,142.88,385.55,Single-ply,SBD,M
Boys,74.84,11,Bobby Ellis,Crosby,71.21,131.54,83.91,149.69,365.14,Single-ply,SBD,M
Boys,74.84,12,Karl Terrebonne,La Porte,72.12,127.01,90.72,147.42,365.14,Single-ply,SBD,M
Boys,74.84,13,Scott Montes,La Porte,73.03,142.88,83.91,120.2,347,Single-ply,SBD,M
Boys,74.84,14,Jose Olivas,Houston Milby,74.84,97.52,97.52,142.88,337.93,Single-ply,SBD,M
Boys,74.84,15,Jacob Foyt,Danbury,73.48,113.4,86.18,131.54,331.12,Single-ply,SBD,M
Boys,74.84,16,David SanMiguel,Pasadena Memorial,73.94,104.33,74.84,111.13,290.3,Single-ply,SBD,M
Boys,74.84,DQ,Johnie Robertson,Houston Math Science & Tech,74.84,,,,,Single-ply,SBD,M
Boys,74.84,DQ,Stephen Dumachet,Texas City,74.84,,,,,Single-ply,SBD,M
Boys,82.1,1,Jordan Glenn,Houston Bellaire,80.74,213.19,149.69,238.14,601.01,Single-ply,SBD,M
Boys,82.1,2,Tim Ward,Katy Mayde Creek,80.74,249.48,117.93,226.8,594.21,Single-ply,SBD,M
Boys,82.1,3,Byron Wells,Dickinson,81.19,199.58,122.47,217.72,539.77,Single-ply,SBD,M
Boys,82.1,4,Nathan Taylor,Montgomery,79.83,195.04,127.01,201.85,523.9,Single-ply,SBD,M
Boys,82.1,5,Chase Parmelly,Montgomery,80.29,181.44,115.67,192.78,489.88,Single-ply,SBD,M
Boys,82.1,6,Garrett Reagan,Dickinson,78.47,183.7,111.13,192.78,487.61,Single-ply,SBD,M
Boys,82.1,7,Buddy Garza,Pasadena Memorial,82.1,183.7,106.59,174.63,464.93,Single-ply,SBD,M
Boys,82.1,8,Victor Tran,Dickinson,75.3,174.63,97.52,165.56,437.72,Single-ply,SBD,M
Boys,82.1,9,Tim Gay,Houston Chavez,82.1,149.69,86.18,185.97,421.84,Single-ply,SBD,M
Boys,82.1,10,Xavier Green,Crosby,75.75,147.42,95.25,170.1,412.77,Single-ply,SBD,M
Boys,82.1,11,Joe Jack,Crosby,79.38,136.08,92.99,183.7,412.77,Single-ply,SBD,M
Boys,82.1,12,Juan Delgado,Danbury,78.47,136.08,90.72,176.9,403.7,Single-ply,SBD,M
Boys,82.1,13,Jose Baltazar,Danbury,80.74,142.88,95.25,131.54,369.68,Single-ply,SBD,M
Boys,82.1,14,Gaspar Barza,Texas City,82.1,127.01,83.91,124.74,335.66,Single-ply,SBD,M
Boys,82.1,15,Anthony Norville,Pasadena Memorial,78.93,117.93,70.31,142.88,331.12,Single-ply,SBD,M
Boys,82.1,16,Raul Gama,Houston Math Science & Tech,77.56,102.06,77.11,138.35,317.51,Single-ply,SBD,M
Boys,82.1,17,Justin Duhon,Crosby,81.65,158.76,,,158.76,Single-ply,S,M
Boys,82.1,18,Ryan Higgins,Texas City,78.93,124.74,,,124.74,Single-ply,S,M
Boys,82.1,19,Cory Rowlee,Crosby,76.66,102.06,,,102.06,Single-ply,S,M
Boys,82.1,DQ,Christian Dolphus,Houston Bellaire,82.1,,,,,Single-ply,S,M
Boys,82.1,DQ,Demontrey Wiggins,Stafford,82.1,,,,,Single-ply,S,M
Boys,82.1,DQ,Victory Ngoku,Stafford,82.1,,,,,Single-ply,S,M
Boys,82.1,DQ,Zach Cash,Texas City,82.1,,,,,Single-ply,S,M
Boys,89.81,1,Tony Pullings,Katy Mayde Creek,87.54,240.4,145.15,204.12,589.67,Single-ply,SBD,M
Boys,89.81,2,Michael McDonald,Pasadena Dobie,88,226.8,113.4,215.46,555.65,Single-ply,SBD,M
Boys,89.81,3,John Le,Dickinson,82.55,192.78,97.52,174.63,464.93,Single-ply,SBD,M
Boys,89.81,4,Josh Marshall,Texas City,89.36,170.1,108.86,181.44,460.4,Single-ply,SBD,M
Boys,89.81,5,Segundo Abrego,Houston Chavez,89.81,158.76,113.4,188.24,460.4,Single-ply,SBD,M
Boys,89.81,6,Eric Olivia,Houston Math Science & Tech,83.46,163.29,113.4,181.44,458.13,Single-ply,SBD,M
Boys,89.81,7,Jacobo Fajardo,Katy Mayde Creek,84.37,181.44,102.06,174.63,458.13,Single-ply,SBD,M
Boys,89.81,8,Marcus Moody,Stafford,87.09,151.95,113.4,192.78,458.13,Single-ply,SBD,M
Boys,89.81,9,Sam Barrett,Montgomery,88,167.83,113.4,172.37,453.59,Single-ply,SBD,M
Boys,89.81,10,Troy Scrutchen,Houston Eisenhower,86.18,174.63,102.06,165.56,442.25,Single-ply,SBD,M
Boys,89.81,11,Jordan Graham,Houston Eisenhower,89.36,165.56,102.06,174.63,442.25,Single-ply,SBD,M
Boys,89.81,12,Gayron Booker,Houston Eisenhower,83.01,167.83,102.06,156.49,426.38,Single-ply,SBD,M
Boys,89.81,13,Elon Fusiler,Houston Eisenhower,87.09,127.01,111.13,167.83,405.97,Single-ply,SBD,M
Boys,89.81,14,Ceasar Garza,Houston Chavez,89.81,124.74,113.4,158.76,396.89,Single-ply,SBD,M
Boys,89.81,15,Doug Holder,Pasadena Memorial,87.54,124.74,88.45,176.9,390.09,Single-ply,SBD,M
Boys,89.81,16,Caleb Osborn,Danbury,83.91,154.22,74.84,158.76,387.82,Single-ply,SBD,M
Boys,89.81,17,Jeremiah Gibson,Houston Eisenhower,88.9,106.59,90.72,147.42,344.73,Single-ply,SBD,M
Boys,89.81,18,Tyrone Graves,La Porte,89.36,142.88,68.04,124.74,335.66,Single-ply,SBD,M
Boys,89.81,19,Alfredo Franco,Houston Math Science & Tech,83.01,113.4,70.31,142.88,326.59,Single-ply,SBD,M
Boys,89.81,20,Walter Pratt,Houston Math Science & Tech,86.18,106.59,72.57,124.74,303.91,Single-ply,SBD,M
Boys,89.81,DQ,Robert Walton,Stafford,89.81,,,,,Single-ply,SBD,M
Boys,89.81,DQ,Otis Johnson,Texas City,88,,,,,Single-ply,SBD,M
Boys,99.79,1,Stephon Williams,Houston Madison,99.79,226.8,151.95,217.72,596.47,Single-ply,SBD,M
Boys,99.79,2,Ashante Joseph,Pasadena Dobie,98.43,215.46,124.74,233.6,573.79,Single-ply,SBD,M
Boys,99.79,3,Julian Jimenez,Katy Mayde Creek,92.08,188.24,124.74,204.12,517.1,Single-ply,SBD,M
Boys,99.79,4,Roderick Wiltz,Houston Madison,96.16,192.78,129.27,190.51,512.56,Single-ply,SBD,M
Boys,99.79,5,Jesus Morales,Houston Milby,99.79,165.56,156.49,188.24,510.29,Single-ply,SBD,M
Boys,99.79,6,Anthony Messer,Texas City,91.63,176.9,108.86,208.65,494.42,Single-ply,SBD,M
Boys,99.79,7,Zach Gunn,Pasadena Memorial,90.72,158.76,115.67,208.65,483.08,Single-ply,SBD,M
Boys,99.79,8,Henderson Watkins,Montgomery,90.26,183.7,102.06,195.04,480.81,Single-ply,SBD,M
Boys,99.79,9,Aaron Oates,Stafford,95.71,161.03,136.08,183.7,480.81,Single-ply,SBD,M
Boys,99.79,10,Anthony Frank,Houston Madison,99.79,170.1,122.47,172.37,464.93,Single-ply,SBD,M
Boys,99.79,11,Dominic Merka,Crosby,98.88,149.69,108.86,195.04,453.59,Single-ply,SBD,M
Boys,99.79,12,Ray Mendez,Crosby,94.8,147.42,113.4,174.63,435.45,Single-ply,SBD,M
Boys,99.79,13,Jesse Blackburn,Crosby,94.35,147.42,106.59,165.56,419.57,Single-ply,SBD,M
Boys,99.79,14,Marco Munoz,Houston Eisenhower,98.88,142.88,79.38,165.56,387.82,Single-ply,SBD,M
Boys,99.79,15,Adrian White,Crosby,94.35,133.81,97.52,149.69,381.02,Single-ply,SBD,M
Boys,99.79,16,Glen Brown,Houston Chavez,99.79,138.35,86.18,142.88,367.41,Single-ply,SBD,M
Boys,99.79,17,Justin Walker,Crosby,98.88,165.56,,,165.56,Single-ply,S,M
Boys,99.79,DQ,James Johnson,Houston Chavez,99.79,,,,,Single-ply,S,M
Boys,109.77,1,Charles Tisby,Pasadena Dobie,107.5,238.14,142.88,249.48,630.49,Single-ply,SBD,M
Boys,109.77,2,Justin Rice,Pasadena Dobie,100.7,219.99,120.2,238.14,578.33,Single-ply,SBD,M
Boys,109.77,3,Seve Ramirez,Montgomery,107.05,231.33,149.69,181.44,562.45,Single-ply,SBD,M
Boys,109.77,4,Nick Simpson,Houston Madison,104.33,188.24,115.67,192.78,496.68,Single-ply,SBD,M
Boys,109.77,5,Jacod Nichols,Houston Eisenhower,101.15,156.49,122.47,204.12,483.08,Single-ply,SBD,M
Boys,109.77,6,Cameron Hodge,Katy Mayde Creek,102.51,167.83,120.2,183.7,471.74,Single-ply,SBD,M
Boys,109.77,7,Ambrose Paige,Houston Bellaire,101.15,167.83,129.27,172.37,469.47,Single-ply,SBD,M
Boys,109.77,8,Jemi Villa,Houston Math Science & Tech,103.42,102.06,142.88,163.29,408.23,Single-ply,SBD,M
Boys,109.77,9,Nathan Bang,Crosby,102.51,115.67,92.99,142.88,351.53,Single-ply,SBD,M
Boys,109.77,DQ,Dillon Smith,Houston Chavez,109.77,,,,,Single-ply,SBD,M
Boys,109.77,DQ,Rudy Ramos,Texas City,109.77,,,,,Single-ply,SBD,M
Boys,124.74,1,Frank Green,Dickinson,119.29,317.51,183.7,240.4,741.62,Single-ply,SBD,M
Boys,124.74,2,Nick Alvarez,Montgomery,118.84,240.4,165.56,217.72,623.69,Single-ply,SBD,M
Boys,124.74,3,Julius Davila,Pasadena Memorial,122.47,217.72,149.69,226.8,594.21,Single-ply,SBD,M
Boys,124.74,4,Matt Simonette,Houston Bellaire,121.56,208.65,154.22,204.12,566.99,Single-ply,SBD,M
Boys,124.74,5,Richard Goodson,Texas City,120.2,213.19,127.01,217.72,557.92,Single-ply,SBD,M
Boys,124.74,6,Michael Abrams,Houston Bellaire,123.83,192.78,113.4,210.92,517.1,Single-ply,SBD,M
Boys,124.74,7,Chris Rose,Houston Madison,121.11,195.04,131.54,181.44,508.02,Single-ply,SBD,M
Boys,124.74,8,Kenneth Wilkins,Texas City,122.02,170.1,140.61,181.44,492.15,Single-ply,SBD,M
Boys,124.74,9,Mark McNeil,Pasadena Memorial,124.74,195.04,97.52,197.31,489.88,Single-ply,SBD,M
Boys,124.74,10,Caleb Clark,Crosby,119.29,181.44,102.06,183.7,467.2,Single-ply,SBD,M
Boys,124.74,11,Cole Ralston,La Porte,121.11,170.1,97.52,195.04,462.66,Single-ply,SBD,M
Boys,124.74,12,Malcom Glover,Pasadena Dobie,112.94,147.42,120.2,192.78,460.4,Single-ply,SBD,M
Boys,124.74,13,Tremon Green,Houston Eisenhower,115.67,172.37,97.52,183.7,453.59,Single-ply,SBD,M
Boys,124.74,14,Jonathan Romero,Houston Madison,110.68,161.03,99.79,163.29,424.11,Single-ply,SBD,M
Boys,124.74,15,Blake Beamer,La Porte,116.57,151.95,111.13,133.81,396.89,Single-ply,SBD,M
Boys,124.74,16,Colby Geissen,Danbury,114.31,136.08,68.04,136.08,340.19,Single-ply,SBD,M
Boys,124.74,17,Dillan Warner,Danbury,115.21,136.08,56.7,136.08,328.85,Single-ply,SBD,M
Boys,124.74,18,Kevin Arcizo,Houston Milby,120.2,104.33,63.5,142.88,310.71,Single-ply,SBD,M
Boys,124.74,19,Michael Igwe,Houston Eisenhower,123.38,142.88,,165.56,308.44,Single-ply,SD,M
Boys,124.74,20,Irvin Arana,Houston Milby,120.2,,72.57,138.35,210.92,Single-ply,BD,M
Boys,124.74,21,Pedro Vasquez,Houston Milby,120.2,,,165.56,165.56,Single-ply,D,M
Boys,124.74+,1,Revis Davis,La Porte,141.97,233.6,181.44,233.6,648.64,Single-ply,SBD,M
Boys,124.74+,2,Theo Reed,Montgomery,140.16,260.82,147.42,204.12,612.35,Single-ply,SBD,M
Boys,124.74+,3,Charles Phillips,Houston Madison,133.81,217.72,161.03,174.63,553.38,Single-ply,SBD,M
Boys,124.74+,4,Anthony Landry,Houston Bellaire,133.36,197.31,129.27,213.19,539.77,Single-ply,SBD,M
Boys,124.74+,5,Joe Brewer,La Porte,149.23,226.8,111.13,199.58,537.51,Single-ply,SBD,M
Boys,124.74+,6,Nick Hamilton,La Porte,127.01,204.12,127.01,204.12,535.24,Single-ply,SBD,M
Boys,124.74+,7,Felix Aguillar,Houston Math Science & Tech,152.41,192.78,129.27,174.63,496.68,Single-ply,SBD,M
Boys,124.74+,8,Zack Hamilton,La Porte,138.35,199.58,113.4,179.17,492.15,Single-ply,SBD,M
Boys,124.74+,9,Colby Hermis,Katy Mayde Creek,152.41,170.1,115.67,183.7,469.47,Single-ply,SBD,M
Boys,124.74+,10,Adley Lai,Stafford,127.46,151.95,90.72,183.7,426.38,Single-ply,SBD,M
Boys,124.74+,11,Luis Cavazos,Texas City,151.05,142.88,102.06,172.37,417.3,Single-ply,SBD,M
Boys,124.74+,12,Javier Roel,Houston Math Science & Tech,126.55,158.76,83.91,167.83,410.5,Single-ply,SBD,M
Boys,124.74+,13,Josh Bolen,Houston Eisenhower,136.98,145.15,97.52,154.22,396.89,Single-ply,SBD,M
Boys,124.74+,14,John Almaraz,Katy Mayde Creek,138.35,147.42,83.91,142.88,374.21,Single-ply,SBD,M
Boys,124.74+,15,Marcus Reed,Montgomery,158.76,238.14,,,238.14,Single-ply,S,M
