Place,Name,Division,Country,BodyweightKg,Squat1Kg,Squat2Kg,Squat3Kg,Best3SquatKg,Squat4Kg,Bench1Kg,Bench2Kg,Bench3Kg,Best3BenchKg,Bench4Kg,Deadlift1Kg,Deadlift2Kg,Deadlift3Kg,Best3DeadliftKg,Deadlift4Kg,TotalKg,WeightClassKg,Sex,BirthYear,Equipment,Event
1,Magda Urbanowicz,O,Poland,46.8,87.5,92.5,97.5,97.5,,55,57.5,-60,57.5,,100,105,107.5,107.5,,262.5,48,F,1993,Wraps,SBD
2,Marta Stachowicz,O,Poland,44.8,75,80,87.5,87.5,,-52.5,52.5,-55,52.5,,105,-115,-115,105,,245,48,F,1989,Wraps,SBD
1,Kasandra Patelczyk,T3,Poland,51.6,107.5,112.5,117.5,117.5,-120,57.5,-60,-60,57.5,,122.5,-127.5,-127.5,122.5,,297.5,52,F,2000,Wraps,SBD
1,Kinga Bobek,O,Poland,51.8,77.5,85,90,90,,37.5,-45,-45,37.5,,100,107.5,110,110,,237.5,52,F,1988,Wraps,SBD
1,Monika Świrska,M1,Poland,54.2,90,100,110,110,,60,65,-70,65,,130,135,-140,135,,310,56,F,1976,Wraps,SBD
1,Natalia Materek,J,Poland,59.2,112.5,120,-125.5,120,,55,-60,-60,55,,132.5,138,-145.5,138,,313,60,F,1996,Wraps,SBD
1,Joanna Dróždž,O,Poland,58.4,110,115,120,120,,-65,65,-67.5,65,,120,127.5,132.5,132.5,,317.5,60,F,1990,Wraps,SBD
2,Daria Walczykiewicz,O,Poland,59.4,95,100,-105,100,,67.5,70,72.5,72.5,,112.5,117.5,122.5,122.5,,295,60,F,1982,Wraps,SBD
3,Katarzyna Mikulska,O,Poland,58.2,110,-115,115,115,,-55,-55,55,55,,110,120,-125,120,,290,60,F,1982,Wraps,SBD
1,Laura Napora,T2,Poland,66.7,100.5,110,-120,110,,-52.5,-52.5,52.5,52.5,,110,120.5,-130,120.5,,283,67.5,F,2001,Wraps,SBD
2,Liliana Chorvátová,T2,Slovakia,64.1,85,95,105,105,,40,45,-47.5,45,,90,102.5,112.5,112.5,,262.5,67.5,F,2000,Wraps,SBD
1,Julia Łanecka,J,Poland,67.2,115,-130,-130,115,,62.5,67.5,-72.5,67.5,,125,135,-140,135,,317.5,67.5,F,1997,Wraps,SBD
2,Aleksandra Traczyk,J,Poland,62,75,87.5,90,90,,37.5,42.5,45,45,,85,95,105,105,,240,67.5,F,1996,Wraps,SBD
3,Tereza Štrobová,J,Czechia,65.5,75,82.5,-87.5,82.5,,42.5,47.5,-50,47.5,,95,-110,-115,95,,225,67.5,F,1995,Wraps,SBD
1,Marta Madeja,O,Poland,61.5,-105,105,115,115,,55,-60,60,60,,110,120,-130,120,,295,67.5,F,1986,Wraps,SBD
1,Katarzyna Derlatka,T3,Poland,68,90,95,-100,95,,35,37.5,40,40,-45.5,112.5,118,-122.5,118,,253,75,F,1998,Wraps,SBD
1,Tetyana Brodetska,J,Ukraine,73.5,-180,180,-190,180,,80,87.5,-90,87.5,,-160,160,-170,160,,427.5,75,F,1996,Wraps,SBD
1,Petra Kočková,O,Czechia,74.6,-150,-150,160,160,,85,95,-100,95,,160,180,187.5,187.5,,442.5,75,F,1983,Wraps,SBD
2,Ewa Skorupińska,O,Poland,75,85,-95,-100,85,,35,-40,-42.5,35,,120,125,-130,125,,245,75,F,1993,Wraps,SBD
1,Beata Kowalska,M1,Poland,74.8,105,-115,115,115,,65,-70,-72.5,65,,130,137.5,145,145,,325,75,F,1973,Wraps,SBD
1,Anna Pluta,O,Poland,80.2,100,110,-125,110,,70,75,-80,75,,120,130,-140,130,,315,82.5,F,1987,Wraps,SBD
DQ,Emilia Brzezińska,O,Poland,81.9,-140,-140,-140,,,,,,,,,,,,,,82.5,F,1988,Wraps,SBD
DQ,Marlena Wronka,J,Poland,98.9,-130,-135,-135,,,,,,,,,,,,,,90+,F,1996,Wraps,SBD
1,Karolina Koszela,O,Poland,97.6,200,215,-225,215,,80,90,95,95,-100,200,212.5,220,220,,530,90+,F,1980,Wraps,SBD
1,Bartlomij Stania,O,Poland,59.9,150,160,-167,160,-167,100,105,-107.5,105,-107.5,170,181,186,186,190,451,60,M,1993,Wraps,SBD
2,Rafał Grzesiuk,O,Poland,59.1,145,-160,160,160,167.5,90,92.5,-95,92.5,,165,172.5,-181.5,172.5,,425,60,M,1986,Wraps,SBD
3,Piotr Stefaniuk,O,Poland,59.7,115,122.5,127.5,127.5,,100,-105,-105,100,,170,181,-187,181,,408.5,60,M,1991,Wraps,SBD
1,Szymon Skrudlik,T2,Poland,60.9,-100,100,110,110,,65,70,75,75,,110,120,130,130,140,315,67.5,M,2001,Wraps,SBD
1,Dawid Starchuski,T3,Poland,67,155,170,181,181,195,85,95,105,105,,170,201,210,210,,496,67.5,M,2000,Wraps,SBD
2,Aleš Havelka,T3,Czechia,65.5,90,-105,105,105,,70,77.5,-80,77.5,,130,140,145,145,,327.5,67.5,M,1999,Wraps,SBD
1,Dawid Kluczyńśki,O,Poland,66.4,140,152.5,160,160,,100,110,115,115,,170,185,-195,185,,460,67.5,M,1990,Wraps,SBD
1,Csaba Bajczer,T2,Hungary,73.4,-170,-170,170,170,180,110,115,120,120,125,220,230,-240,230,,520,75,M,2001,Wraps,SBD
1,Richard Marienka,T3,Czechia,68.9,75,85,92.5,92.5,,50,57.5,60,60,,125,140,155,155,,307.5,75,M,1999,Wraps,SBD
2,Kacper Tułodziecki,T3,Poland,75,-80,80,-100,80,,50,60,-70,60,,100,120,135,135,,275,75,M,1999,Wraps,SBD
1,František Šuška,J,Slovakia,73.7,215,230,-240,230,,125,132.5,135,135,,200,220,225,225,,590,75,M,1995,Wraps,SBD
2,Kamil Olewicz,J,Poland,72.5,190,200,205,205,,120,127.5,-130,127.5,,230,240,-250,240,,572.5,75,M,1994,Wraps,SBD
3,Alexander Wartig,J,Germany,74.4,175,185,-195,185,,127.5,-132.5,-132.5,127.5,,200,220,-230,220,,532.5,75,M,1995,Wraps,SBD
4,Jacek Waingertner,J,Poland,74.9,-150,-160,160,160,,110,-117.5,-117.5,110,,190,200,207.5,207.5,,477.5,75,M,1994,Wraps,SBD
DQ,Bernard Zygmunt,J,Poland,74.7,-200,-210,-210,,,,,,,,,,,,,,75,M,1996,Wraps,SBD
1,Maciej Hallmann,O,Poland,72.9,-230,230,,230,,100,107.5,115,115,,200,220,-225,220,,565,75,M,1983,Wraps,SBD
2,Marek Remiszewski,O,Poland,73.4,175,185,192.5,192.5,,127.5,137.5,142.5,142.5,,200,210,-215,210,,545,75,M,1978,Wraps,SBD
3,Paweł Grab,O,Poland,74.1,155,-165,170,170,,150.5,155,-157.5,155,,210,-222.5,-222.5,210,,535,75,M,1983,Wraps,SBD
4,Damian Zapart,O,Poland,74.5,180,190,200,200,,110,115,120,120,,-185,185,190,190,,510,75,M,1983,Wraps,SBD
5,Jakub Lemański,O,Poland,71.6,170,-180,180,180,,107.5,112.5,,112.5,,190,200,-212.5,200,,492.5,75,M,1992,Wraps,SBD
6,Adrian Wierzbicki,O,Poland,72.6,155,170,-175,170,,110,115,-120,115,,185,200,-210,200,,485,75,M,1993,Wraps,SBD
1,Martin Hráček,T3,Czechia,81.5,210,-222.5,-222.5,210,,120,-130,-130,120,,-200,200,225,225,,555,82.5,M,1998,Wraps,SBD
1,Jakub Harasim,J,Poland,80,-200,-210,215,215,,100,-115,-117.5,100,,190,210,220,220,,535,82.5,M,1997,Wraps,SBD
DQ,Kacper Bala,J,Poland,79.7,185,-200,-200,185,,-115,-115,-115,,,,,,,,,82.5,M,1997,Wraps,SBD
1,Marcin Helwig,O,Poland,82.4,-225,225,232.5,232.5,,147.5,155,160,160,,252.5,262.5,267.5,267.5,275.5,660,82.5,M,1987,Wraps,SBD
1,Janusz Tułodziecki,M3,Poland,80.9,135,150,155,155,,40,55,65,65,,160,180,-200,180,,400,82.5,M,1967,Wraps,SBD
1,Adam Jasiński,M6,Poland,81.6,200,210,220,220,,105,112.5,-117.5,112.5,,200,210,217.5,217.5,,550,82.5,M,1951,Wraps,SBD
1,Kazimierz Tamiłowski,M7,Poland,81.2,110,120,130,130,,125,127.5,-130,127.5,,130,140,145,145,,402.5,82.5,M,1948,Wraps,SBD
1,Michał Rożnowski,MS,Poland,81.7,-175,175,205,205,,100,110,115,115,,185,-205,-250,185,,505,82.5,M,1979,Wraps,SBD
1,Eick Lewin,T3,Austria,88.9,220,240,255,255,266,130,140,150,150,,240,260,276.5,276.5,280,681.5,90,M,1998,Wraps,SBD
2,Juraj Bokroš,T3,Slovakia,87.7,-200,200,,200,,110,120,-130,120,,170,185,-200,185,,505,90,M,1999,Wraps,SBD
1,Damian Maśliński,J,Poland,89.6,242.5,270.5,280,280,,152.5,-160,160,160,,255,265,275,275,285,715,90,M,1995,Wraps,SBD
2,Marcel Kleuß,J,Germany,88.9,200,210,-220,210,,130,135,-140,135,,210,220,-230,220,,565,90,M,1995,Wraps,SBD
1,Peter Klimo,O,Slovakia,90,270,-290,290,290,,140,150,-155,150,,250,270,-280,270,,710,90,M,1985,Wraps,SBD
2,Tino Spann,O,Germany,89.2,200,212.5,220,220,,170,182.5,-190.5,182.5,,190,202.5,215,215,,617.5,90,M,1985,Wraps,SBD
3,Marcin Majewski,O,Poland,89.5,200,215,225,225,,135,-145,,135,,220,250,-260,250,,610,90,M,1988,Wraps,SBD
1,Khachatur Hovhannisyan,M1,Armenia,88.6,-240,240,255,255,,170,182.5,,182.5,,240,250,-260,250,,687.5,90,M,1974,Wraps,SBD
1,Tám Nguyen,M2,Slovakia,85.2,140,-160,-160,140,,140,150,,150,,150,170,180,180,,470,90,M,1970,Wraps,SBD
1,Krzysztof Tur,M3,Poland,88.8,205,-210,215,215,,135,145,-152.5,145,,215,225,230,230,,590,90,M,1967,Wraps,SBD
1,Józef Bejgrowicz,M6,Poland,83.8,150,160,165,165,,80,85,87.5,87.5,,210,220,-225,220,,472.5,90,M,1952,Wraps,SBD
2,Stefan Sochański,M6,Poland,89.4,170,-182.5,-182.5,170,,87.5,92.5,-95,92.5,,190,210,-217.5,210,,472.5,90,M,1948,Wraps,SBD
1,Kazimierz Jasiński,M7,Poland,87.2,140,-150,-150,140,,-80,-82.5,82.5,82.5,,170,180,-185,180,,402.5,90,M,1947,Wraps,SBD
1,Piotr Kandefer,MS,Poland,90,-190,190,230,230,,160,170,182.5,182.5,,200,220,240,240,,652.5,90,M,1981,Wraps,SBD
2,Piotr Gawle,MS,Poland,87.7,170,-175,-175,170,,110,-115,115,115,,200,210,215,215,,500,90,M,1982,Wraps,SBD
3,Piotr Guzik,MS,Poland,88.7,155,165,-172.5,165,,100,105,110,110,,170,-180,-180,170,,445,90,M,1982,Wraps,SBD
1,Kevin Anthony Kalapoš,T3,Slovakia,94.4,165,180,190,190,,100,110,-112.5,110,,200,225,-230,225,,525,100,M,2000,Wraps,SBD
2,Tomáš Štrob,T3,Czechia,91.6,120,-160,-180,120,,90,110,-125,110,,170,190,200,200,,430,100,M,1999,Wraps,SBD
1,Kacper Maszczak,J,Poland,97.8,-220,230,-242.5,230,,145,152.5,-155,152.5,,260,280,300,300,,682.5,100,M,1996,Wraps,SBD
2,Patryk Citko,J,Poland,98.6,-240,250,-260,250,,140,150,155,155,,220,240,-250,240,,645,100,M,1994,Wraps,SBD
3,Aram Grigoryan,J,Armenia,99.1,-220,-220,220,220,,140,150,160,160,,220,240,250,250,,630,100,M,1994,Wraps,SBD
4,Samuel Roskoš,J,Slovakia,94.3,190,-215,-220,190,,145,155,-162.5,155,,240,-260,-260,240,,585,100,M,1997,Wraps,SBD
5,Przemysław Grenda,J,Poland,97.7,-180,-190,190,190,,120,-125,125,125,,200,212.5,225,225,,540,100,M,1994,Wraps,SBD
DQ,Dominik Turek,J,Poland,97.2,-200,-200,-200,,,,,,,,,,,,,,100,M,1996,Wraps,SBD
1,Karol Frąckowiak,O,Poland,99.7,-240,240,260,260,,140,155,-160,155,,260,280,292.5,292.5,,707.5,100,M,1991,Wraps,SBD
2,Kamil Warżała,O,Poland,97.5,232.5,247.5,252.5,252.5,,165,177.5,-182.5,177.5,,235,260,275,275,,705,100,M,1992,Wraps,SBD
3,Michał Marciniak,O,Poland,98.4,250,-260,,250,,175,182.5,-190,182.5,,270,-285,-285,270,,702.5,100,M,1990,Wraps,SBD
4,Mario Rudolph,O,Germany,99.2,240,250,255,255,,155,162.5,167.5,167.5,,230,240,247.5,247.5,,670,100,M,1986,Wraps,SBD
5,Hubert Jaszczuk,O,Poland,93.6,210,225,-235,225,,115,125,-132.5,125,,220,240,260,260,,610,100,M,1993,Wraps,SBD
6,Kamil Racinowski,O,Poland,95.1,200,-215,-215,200,,125,130,,130,,240,-255,-255,240,,570,100,M,1992,Wraps,SBD
7,Michał Michajłowski,O,Poland,92,170,-180,-180,170,,147.5,150,-152.5,150,,-200,200,-205,200,,520,100,M,1992,Wraps,SBD
8,Filip Znojek,O,Poland,96.2,-175,180,-190,180,,95,-102.5,102.5,102.5,,210,-220,-220,210,,492.5,100,M,1990,Wraps,SBD
DQ,Nshan Malkhasyan,O,Armenia,99.5,-240,-240,-240,,,,,,,,,,,,,,100,M,1991,Wraps,SBD
1,Martin Horák,M1,Czechia,97.5,215,-225,225,225,,155,-165,165,165,,220,235,-242.5,235,,625,100,M,1977,Wraps,SBD
2,Grzegorz Drewniany,M1,Poland,97.5,215,235,240,240,,140,150,,150,,200,220,-237.5,220,,610,100,M,1977,Wraps,SBD
1,Mariusz Rufkiewicz,M3,Poland,99.5,200,220,235,235,-246,140,150,155.5,155.5,-160,200,220,240,240,250.5,630.5,100,M,1967,Wraps,SBD
1,Wiesław Wróbel,M5,Poland,98.5,-200,200,225,225,,120,125,127.5,127.5,,240,250,255,255,,607.5,100,M,1957,Wraps,SBD
1,Martin Havlíček,T3,Czechia,107.6,270,290,300,300,310,140,155,160,160,,300,310,325,325,,785,110,M,1998,Wraps,SBD
2,Miroslav Horniak,T3,Slovakia,103.4,190,210,215.5,215.5,,130,-137.5,137.5,137.5,,220,240,250,250,,603,110,M,1999,Wraps,SBD
1,Konrad Blewązka,J,Poland,107.1,310,330,-345,330,,195,-205,,195,,310,325,-330,325,,850,110,M,1998,Wraps,SBD
2,Marek Gortad,J,Poland,109.5,280,-300,-300,280,,-182.5,182.5,-190,182.5,,260,275,-300,275,,737.5,110,M,1995,Wraps,SBD
3,Adam Kijak,J,Poland,105.9,-260,270,280,280,,140,-150,-150,140,,230,240,-250,240,,660,110,M,1995,Wraps,SBD
DQ,Jakub Dylewski,J,Poland,109.8,-240,-240,-240,,,,,,,,,,,,,,110,M,1997,Wraps,SBD
DQ,Mateusz Sobczak,J,Poland,105.1,-260,260,-280,260,,145,152.5,,152.5,,-280,-280,-280,,,,110,M,1993,Wraps,SBD
1,Łukasz Lipka,O,Poland,108.5,300,310,320,320,,165,175,-180,175,,300,310,,310,,805,110,M,1992,Wraps,SBD
2,Dmitro Gotlashov,O,Ukraine,107.7,275,290,-300,290,,157.5,162.5,-167.5,162.5,,280,300,-310,300,,752.5,110,M,1985,Wraps,SBD
3,Sergey Fedoruk,O,Belarus,106.1,260,280,-282.5,280,,180,190,-197.5,190,,-280,280,-290,280,,750,110,M,1982,Wraps,SBD
4,Tomasz Szafranko,O,Poland,101.1,250,260,-270,260,,155,162.5,170,170,,240,260,-270,260,,690,110,M,1993,Wraps,SBD
5,Michal Blahovský,O,Slovakia,106.7,-240,240,250,250,,-140,140,145,145,,230,240,250,250,,645,110,M,1987,Wraps,SBD
DQ,Józef Sokołowski,M5,Poland,100.2,-250,-250,-250,,,,,,,,,,,,,,110,M,1956,Wraps,SBD
1,Tomasz Bejgrowicz,MS,Poland,105.7,150,170,180,180,,130,140,150,150,,180,200,210,210,,540,110,M,1979,Wraps,SBD
1,Jakub Horčičiak,T3,Slovakia,118.8,-260,260,,260,,100,165.5,,165.5,,250,275.5,-290,275.5,,701,125,M,1998,Wraps,SBD
1,Sebastian Kwiatkowski,J,Poland,121.5,215,222.5,230,230,,145,152.5,-155,152.5,,250,262.5,275,275,,657.5,125,M,1996,Wraps,SBD
2,Mikuláš Sopoliga,J,Slovakia,112.5,190,215,-225,215,,90,105,-115,105,,190,240,-260,240,,560,125,M,1994,Wraps,SBD
DQ,Damian Ziemlewski,J,Poland,114.3,270,-280,280,280,,-165,165,-172.5,165,,-300,-300,-300,,,,125,M,1995,Wraps,SBD
1,Radovan Ondričko,O,Slovakia,121.9,-340,-340,340,340,,190,202.5,-205,202.5,,290,-310,,290,,832.5,125,M,1990,Wraps,SBD
2,Rafał Wójcik,O,Poland,117,-265,275,290,290,,180,185,190,190,,300,320,-330.5,320,,800,125,M,1987,Wraps,SBD
3,Przemysław Tomica,O,Poland,117.5,215,245,265,265,,150,175,185,185,,220,275,-305,275,,725,125,M,1987,Wraps,SBD
1,Sven Nethe,M1,Germany,115.5,190,207.5,220,220,,155,-160,-160,155,,220,240,250,250,,625,125,M,1975,Wraps,SBD
2,Adam Muraszko,M1,Poland,117.9,180,195,205,205,,-120,125,-132.5,125,,220,232.5,-240,232.5,,562.5,125,M,1976,Wraps,SBD
1,Rafał Klauz,M2,Poland,114,200,215,225,225,,150,155,-160,155,,230,-245,,230,,610,125,M,1971,Wraps,SBD
2,Olaf Engler,M2,Poland,111.8,120,-135,135,135,,137.5,142.5,-147.5,142.5,,160,170,-180,170,,447.5,125,M,1971,Wraps,SBD
1,Gagik Tonoyan,M3,Armenia,110.2,-250,250,260,260,,120,-125,125,125,,-270,270,280,280,,665,125,M,1966,Wraps,SBD
1,Daniel Spodzieja,J,Poland,125.8,220,235,250,250,,155,162.5,175,175,,240,260,280,280,,705,140,M,1995,Wraps,SBD
1,Bartłomiej Jaruga,O,Poland,139.3,280,300,310,310,,205,-212.5,-212.5,205,,290,310,-320,310,,825,140,M,1986,Wraps,SBD
2,Róbert Blácha,O,Slovakia,125.3,240,-270,280,280,,165,180,190,190,,300,315,-320,315,,785,140,M,1989,Wraps,SBD
3,Marek Makarewicz,O,Poland,130.5,250,270,-285,270,,210,220,-225,220,,-280,280,-297.5,280,,770,140,M,1979,Wraps,SBD
4,Damian Sieradzki,O,Poland,125.8,260,280,-290,280,,175,185,-190,185,,200,240,,240,,705,140,M,1989,Wraps,SBD
5,Krzysztof Grześkowiak,O,Poland,138,250,265,270,270,,130,135,,135,,250,260,-267.5,260,,665,140,M,1981,Wraps,SBD
1,Oleksandr Desyatskiy,M1,Ukraine,127,-240,240,-260,240,,190,200,-207.5,200,,270,285,-295,285,,725,140,M,1976,Wraps,SBD
1,Kamil Hadas,O,Poland,153.1,240,-250,260,260,,135,-140,-140,135,,210,-230,-230,210,,605,140+,M,1989,Wraps,SBD
1,Erik Valent,O,Slovakia,74.8,190,210,230,230,,150,160,-175,160,,200,-230,230,230,,620,75,M,1984,Multi-ply,SBD
1,Martin Hráček,T3,Czechia,81.4,230,250,-270,250,,120,130,137.5,137.5,,210,225,-232.5,225,,612.5,82.5,M,1998,Multi-ply,SBD
1,Rudolf Siska,M2,Slovakia,82.4,230,250,-255,250,,175,182.5,-190,182.5,,185,195,-202.5,195,,627.5,82.5,M,1971,Multi-ply,SBD
1,Lukáš Seifert,J,Czechia,84.9,260,290,305,305,,120,145,155,155,,240,260,275,275,,735,90,M,1996,Multi-ply,SBD
1,Stefan Sochański,M6,Poland,89.1,-200,200,-225,200,,102.5,-112.5,,102.5,,220,,,220,,522.5,90,M,1948,Multi-ply,SBD
DQ,Patrik Poperník,J,Slovakia,94.9,-280,-280,-280,,,,,,,,,,,,,,100,M,1997,Multi-ply,SBD
1,Nórbert Zajac,O,Slovakia,98.6,-290,290,330,330,,200,230,-240,230,,-260,-260,260,260,,820,100,M,1990,Multi-ply,SBD
2,Michael Korber,O,Austria,97.5,220,240,260,260,,130,150,-170,150,,220,250,280,280,,690,100,M,1987,Multi-ply,SBD
3,Edward Rożnowski,O,Poland,90.8,140,-205,215,215,,70,-125,-125,70,,205,225,240,240,,525,100,M,1951,Multi-ply,SBD
DQ,Heinz Stroj,M6,Austria,94.5,100,,,100,,,,,,,,,,,,,100,M,1951,Multi-ply,SBD
1,Katalin Mezei,MS,Hungary,51,,,,,,60,65,-70,65,,,,,,,65,52,F,1979,Raw,B
1,Wiktoria Paga,J,Poland,58.8,,,,,,52.5,55,60,60,62.5,,,,,,60,60,F,1995,Raw,B
1,Malgorzata Halas-Koralewska,O,Poland,60,,,,,,107.5,115,120,120,-121,,,,,,120,60,F,1987,Raw,B
DQ,Bettina Razzouki-Korkis,M3,Poland,56.8,,,,,,-60,,,,,,,,,,,60,F,1965,Raw,B
1,Honorata Kaczorowska,O,Poland,62.5,,,,,,117.5,120,122.5,122.5,-131,,,,,,122.5,67.5,F,1985,Raw,B
2,Nicole Kegeler,O,Germany,63.2,,,,,,85,90,95,95,,,,,,,95,67.5,F,1982,Raw,B
3,Emila Truszkowska,O,Poland,62.8,,,,,,47.5,52.5,-55,52.5,,,,,,,52.5,67.5,F,1994,Raw,B
1,Justyna Miś,T2,Poland,72.7,,,,,,55,57.5,60,60,,,,,,,60,75,F,2000,Raw,B
1,Marta Zawadzka,J,Poland,69.9,,,,,,90,95,-100,95,,,,,,,95,75,F,1996,Raw,B
1,Marta Chachuła,O,Poland,69,,,,,,100,105,-107.5,105,,,,,,,105,75,F,1987,Raw,B
1,Tatiana Magulová,MS,Slovakia,73.8,,,,,,82.5,-87.5,87.5,87.5,,,,,,,87.5,75,F,1981,Raw,B
2,Monika Gryziecka,MS,Poland,70.1,,,,,,60,62.5,67.5,67.5,,,,,,,67.5,75,F,1981,Raw,B
1,Krystyna Puzio,M3,Poland,91,,,,,,55,-60,-65,55,,,,,,,55,100,F,1965,Raw,B
1,Gyorgy Sztano,J,Hungary,54.4,,,,,,120,125,130,130,132.5,,,,,,130,56,M,1997,Raw,B
1,Marcin Biegun,O,Poland,55.2,,,,,,90,95,102.5,102.5,,,,,,,102.5,56,M,1982,Raw,B
2,Michael Mikolaj,O,Germany,47.8,,,,,,75,-80,85,85,,,,,,,85,56,M,1990,Raw,B
1,Patryk Wójcik,T3,Poland,59.9,,,,,,110,112.5,-115,112.5,,,,,,,112.5,60,M,2000,Raw,B
1,Piotr Jęsiak,O,Poland,59.5,,,,,,140,142.5,145,145,146,,,,,,145,60,M,1993,Raw,B
2,Ondrej Oláh,O,Slovakia,59.9,,,,,,142.5,-150,-150,142.5,,,,,,,142.5,60,M,1991,Raw,B
3,Michał Zębrowski,O,Poland,59.1,,,,,,95,100,102.5,102.5,,,,,,,102.5,60,M,1991,Raw,B
1,István Tóth,M5,Hungary,57.6,,,,,,100,105,107.5,107.5,,,,,,,107.5,60,M,1956,Raw,B
1,Krystian Tuzikowski,T2,Poland,66,,,,,,90,-95,-95,90,,,,,,,90,67.5,M,2001,Raw,B
2,Kacper Kolsnik,T2,Poland,65.8,,,,,,87.5,-92.5,-92.5,87.5,,,,,,,87.5,67.5,M,2001,Raw,B
1,Bartosz Słodek,M1,Poland,63.9,,,,,,100,110,-115,110,,,,,,,110,67.5,M,1977,Raw,B
1,Erwin Trichlin,M8,Austria,65,,,,,,85,-92.5,-92.5,85,,,,,,,85,67.5,M,1939,Raw,B
1,Dieter Schweitzer,M9,Germany,66.6,,,,,,45,47.5,-50,47.5,,,,,,,47.5,67.5,M,1938,Raw,B
1,Csaba Péter,T3,Slovakia,70.6,,,,,,110,120,127.5,127.5,,,,,,,127.5,75,M,1999,Raw,B
2,Dawid Urbanowicz,T3,Poland,73,,,,,,90,102.5,110,110,,,,,,,110,75,M,1999,Raw,B
1,Jakub Chrzanowski,J,Poland,73,,,,,,190,-200,-200,190,,,,,,,190,75,M,1997,Raw,B
2,Sebastian Żurawski,J,Poland,72.2,,,,,,-165,165,-170,165,,,,,,,165,75,M,1997,Raw,B
1,Łukasz Kozłowski,O,Poland,71.5,,,,,,140,-145,-145,140,,,,,,,140,75,M,1982,Raw,B
2,Tomasz Koszowski,O,Poland,73.7,,,,,,105,110,-115,110,,,,,,,110,75,M,1982,Raw,B
1,József Németh,M5,Hungary,74.5,,,,,,100,102.5,107.5,107.5,,,,,,,107.5,75,M,1958,Raw,B
2,Zbigniew Koper,M5,Poland,75,,,,,,95,102.5,-107.5,102.5,,,,,,,102.5,75,M,1953,Raw,B
1,Edward Limański,M9,Poland,73.4,,,,,,50,-55,55,55,,,,,,,55,75,M,1936,Raw,B
1,Patryk Konieczny,T2,Poland,80.8,,,,,,85,97.5,102.5,102.5,,,,,,,102.5,82.5,M,2002,Raw,B
1,Dominik Hudaček,J,Slovakia,78.8,,,,,,170,-175,175,175,,,,,,,175,82.5,M,1995,Raw,B
2,Marcin Bała,J,Poland,81.1,,,,,,170,175,-177.5,175,,,,,,,175,82.5,M,1995,Raw,B
3,Bartlomiej Koziara,J,Poland,80.5,,,,,,160,162.5,-165,162.5,,,,,,,162.5,82.5,M,1996,Raw,B
1,Artur Miksa,O,Poland,82.4,,,,,,215,225,230,230,232.5,,,,,,230,82.5,M,1983,Raw,B
2,Marcin Dulko,O,Poland,80.7,,,,,,172.5,180,185,185,,,,,,,185,82.5,M,1993,Raw,B
3,Tomasz Kociubiński,O,Poland,82,,,,,,170,177.5,-185,177.5,,,,,,,177.5,82.5,M,1981,Raw,B
4,Kamil Babiš,O,Czechia,81.9,,,,,,157.5,-167.5,-167.5,157.5,,,,,,,157.5,82.5,M,1991,Raw,B
1,Janusz Lazorko,O,Poland,79.9,,,,,,140,150,-160,150,,,,,,,150,82.5,M,1990,Raw,B
2,Krzysztof Wieczorek,O,Poland,76,,,,,,-120,120,130,130,,,,,,,130,82.5,M,1979,Raw,B
1,Rafał Bartelik,M1,Poland,82.5,,,,,,122.5,127.5,-132.5,127.5,,,,,,,127.5,82.5,M,1975,Raw,B
2,Łukasz Lisiecki,M1,Poland,81.2,,,,,,120,125,-130,125,,,,,,,125,82.5,M,1977,Raw,B
1,Tám Nguyen,M2,Slovakia,81.9,,,,,,140,150,-160,150,,,,,,,150,82.5,M,1970,Raw,B
1,Ladislav Jantek,M3,Slovakia,82.4,,,,,,160,-170,-170,160,,,,,,,160,82.5,M,1965,Raw,B
2,Marek Gruszecki,M3,Poland,80.9,,,,,,120,127.5,130,130,,,,,,,130,82.5,M,1968,Raw,B
3,Piotr Jurkiewicz,M3,Poland,75.7,,,,,,120,125,-127.5,125,,,,,,,125,82.5,M,1966,Raw,B
1,Mirosław Urbaniak,M4,Poland,82,,,,,,135,140,145,145,,,,,,,145,82.5,M,1961,Raw,B
2,Zdzisław Leśniewski,M4,Poland,81,,,,,,-90,-90,90,90,,,,,,,90,82.5,M,1959,Raw,B
1,Karel Schoř,M5,Czechia,81.7,,,,,,125,135,-142.5,135,,,,,,,135,82.5,M,1955,Raw,B
2,Ireneusz Czupryn,M5,Poland,81.5,,,,,,85,90,-95,90,,,,,,,90,82.5,M,1956,Raw,B
1,Gerd Müller,M6,Germany,80.9,,,,,,115,125,130,130,,,,,,,130,82.5,M,1952,Raw,B
1,Kazimierz Tamiłowski,M7,Poland,81.2,,,,,,-125,-125,125,125,,,,,,,125,82.5,M,1948,Raw,B
2,Sylwester Kubacki,M7,Poland,81.4,,,,,,-82.5,82.5,87.5,87.5,,,,,,,87.5,82.5,M,1944,Raw,B
1,Marek Tokarski,MS,Poland,82.5,,,,,,142.5,147.5,150,150,,,,,,,150,82.5,M,1981,Raw,B
1,Mateusz Schmidla,T3,Poland,89.5,,,,,,80,90,-100,90,,,,,,,90,90,M,2000,Raw,B
1,Patryk Kaczmarek,J,Poland,89.5,,,,,,160,165,170,170,,,,,,,170,90,M,1995,Raw,B
1,Marcin Kowalski,O,Poland,84.4,,,,,,220,225,-227.5,225,,,,,,,225,90,M,1978,Raw,B
2,Ernest Gromov,O,Ukraine,89,,,,,,190,200,-202.5,200,,,,,,,200,90,M,1994,Raw,B
3,Jozef Grega,O,Slovakia,84.8,,,,,,180,190,-200,190,,,,,,,190,90,M,1993,Raw,B
4,Grzegorz Joka,O,Poland,87.5,,,,,,170,175,-180,175,,,,,,,175,90,M,1987,Raw,B
5,Konrad Piaszczyk,O,Poland,88.8,,,,,,170,-175,-175,170,,,,,,,170,90,M,1978,Raw,B
6,Tim Kassner,O,Germany,87.5,,,,,,-157.5,-157.5,160,160,,,,,,,160,90,M,1989,Raw,B
7,Kamil Kuś,O,Poland,85.1,,,,,,-140,145,155,155,,,,,,,155,90,M,1990,Raw,B
8,Mariusz Wlazło,O,Poland,88.3,,,,,,132.5,-137.5,137.5,137.5,,,,,,,137.5,90,M,1989,Raw,B
1,Andrzej Juraszek,M1,Poland,90,,,,,,160,165,167.5,167.5,,,,,,,167.5,90,M,1977,Raw,B
1,Jacek Krysiuk,M2,Poland,87.1,,,,,,165,170,-175,170,,,,,,,170,90,M,1973,Raw,B
2,Mario Auer,M2,Austria,87.7,,,,,,155,167.5,-172.5,167.5,,,,,,,167.5,90,M,1972,Raw,B
1,Gábor Reichert,M3,Hungary,85.4,,,,,,120,-125,-125,120,,,,,,,120,90,M,1964,Raw,B
1,Rémy Krayzel,M5,Czechia,84.8,,,,,,150,160,170,170,,,,,,,170,90,M,1955,Raw,B
2,Frank Thomas Kutzsch,M5,Germany,88.3,,,,,,150,-157.5,-157.5,150,,,,,,,150,90,M,1956,Raw,B
1,Roman Wanot,M7,Poland,82.9,,,,,,-85,85,-90,85,,,,,,,85,90,M,1948,Raw,B
1,Kamil Kowalski,T3,Poland,98.6,,,,,,150,-157.5,157.5,157.5,-166,,,,,,157.5,100,M,1998,Raw,B
1,Nikolas Neuman,J,Czechia,99.9,,,,,,160,167.5,175,175,,,,,,,175,100,M,1997,Raw,B
1,Bartosz Borowski,O,Poland,97.1,,,,,,215,225,227.5,227.5,-232.5,,,,,,227.5,100,M,1984,Raw,B
2,Hovhannes Yazichyan,O,Poland,96,,,,,,215,220,225,225,-230,,,,,,225,100,M,1971,Raw,B
3,Jarek Fabieszwski,O,Poland,95.1,,,,,,-190,190,215,215,,,,,,,215,100,M,1989,Raw,B
4,Michał Wilk,O,Poland,99.9,,,,,,205,210,-217.5,210,,,,,,,210,100,M,1981,Raw,B
5,Marcin Rybicki,O,Poland,94.8,,,,,,160,170,-172.5,170,,,,,,,170,100,M,1990,Raw,B
6,Jan Satrapa,O,Czechia,97.2,,,,,,160,170,-175,170,,,,,,,170,100,M,1986,Raw,B
1,Robert Kanclerz,M1,Poland,95.5,,,,,,195,200,205,205,,,,,,,205,100,M,1978,Raw,B
2,Ryszard Sobierajski,M1,Poland,98.5,,,,,,-150,150,160,160,,,,,,,160,100,M,1977,Raw,B
1,František Sajko,M2,Slovakia,93.8,,,,,,145,155,162.5,162.5,,,,,,,162.5,100,M,1971,Raw,B
1,Jerzy Janowski,M3,Poland,99.3,,,,,,185,195,-207.5,195,,,,,,,195,100,M,1965,Raw,B
2,Helmut Silberbauer,M3,Austria,98.2,,,,,,150,160,-162.5,160,,,,,,,160,100,M,1964,Raw,B
1,Grzegorz Gapiński,M5,Poland,91.5,,,,,,165,173.5,175,175,,,,,,,175,100,M,1958,Raw,B
2,Zbigniew Cabaj,M5,Poland,90.5,,,,,,120,130,-140,130,,,,,,,130,100,M,1955,Raw,B
1,Hans-Ulrich Vetter,M6,Germany,98.8,,,,,,140,-146,-146,140,,,,,,,140,100,M,1952,Raw,B
1,Mirosław Orłowski,M7,Poland,97.4,,,,,,135,140,-144,140,,,,,,,140,100,M,1943,Raw,B
1,Michał Wilk,MS,Poland,99.9,,,,,,180,200,-217.5,200,,,,,,,200,100,M,1981,Raw,B
1,Jakub Drozdowski,T2,Poland,104.1,,,,,,137.5,145,-150,145,,,,,,,145,110,M,2000,Raw,B
1,Branislav Haber,J,Slovakia,105.6,,,,,,200,207.5,-215,207.5,,,,,,,207.5,110,M,1995,Raw,B
2,Tobiasz Tyszko,J,Poland,109.5,,,,,,190,-200,-200,190,,,,,,,190,110,M,1996,Raw,B
1,Rafal Zawadzki,O,Poland,107,,,,,,250,258,265,265,270,,,,,,265,110,M,1976,Raw,B
2,Ákos Oláh,O,Hungary,105.2,,,,,,215,222.5,227.5,227.5,,,,,,,227.5,110,M,1989,Raw,B
3,Zdzisław Sadowski,O,Poland,108.7,,,,,,210,220,-227.5,220,,,,,,,220,110,M,1989,Raw,B
4,Szymon Stachowicz,O,Poland,108.1,,,,,,195,205,210,210,,,,,,,210,110,M,1988,Raw,B
5,Arkadiusz Redzynia,O,Poland,100.5,,,,,,190,200,-205,200,,,,,,,200,110,M,1993,Raw,B
6,Tomasz Weltrowski,O,Poland,109.6,,,,,,190,195,-200,195,,,,,,,195,110,M,1984,Raw,B
7,Kamil Zdzieblowski,O,Poland,107.1,,,,,,172.5,177.5,-180,177.5,,,,,,,177.5,110,M,1986,Raw,B
1,Vojtech Lazok,M2,Slovakia,107.3,,,,,,170,180,185,185,,,,,,,185,110,M,1968,Raw,B
1,Krzysztof Bożyczko-Jałocha,M3,Poland,107.6,,,,,,205,210,215,215,,,,,,,215,110,M,1965,Raw,B
1,Roman Raczykowski,M4,Poland,100.7,,,,,,120,127.5,-130,127.5,,,,,,,127.5,110,M,1961,Raw,B
1,Ryszard Wilczak,M5,Poland,103.1,,,,,,140,147.5,152.5,152.5,156,,,,,,152.5,110,M,1955,Raw,B
1,Tomasz Napierała,MS,Poland,102.6,,,,,,180,190,200,200,,,,,,,200,110,M,1979,Raw,B
1,Nicolas Tóth,T3,Slovakia,120.7,,,,,,160,170,182.5,182.5,,,,,,,182.5,125,M,1998,Raw,B
1,Gatis Lepste,O,Latvia,113.4,,,,,,230,240,245,245,,,,,,,245,125,M,1982,Raw,B
2,Adrian Grabski,O,Poland,117.1,,,,,,200,-205,205,205,,,,,,,205,125,M,1982,Raw,B
3,Robert Dudek,O,Poland,118.4,,,,,,180,190,202.5,202.5,,,,,,,202.5,125,M,1987,Raw,B
4,Adam Hajman,O,Poland,116.2,,,,,,190,195,-200,195,,,,,,,195,125,M,1994,Raw,B
5,Piotr Laskiewicz,O,Poland,124.4,,,,,,180,190,-200,190,,,,,,,190,125,M,1988,Raw,B
1,Rafał Palubicki,M1,Poland,116.8,,,,,,200,205,-210,205,,,,,,,205,125,M,1976,Raw,B
2,Björn Pscherer,M1,Germany,124.5,,,,,,180,190,195,195,,,,,,,195,125,M,1975,Raw,B
DQ,Rudolf Hlavsa,M1,Czechia,123.6,,,,,,-200,-200,-200,,,,,,,,,125,M,1974,Raw,B
1,Roman Fabian,M2,Czechia,114.3,,,,,,130,152.5,155,155,,,,,,,155,125,M,1969,Raw,B
2,Jan Hubay,M2,Slovakia,119.1,,,,,,140,150,155,155,,,,,,,155,125,M,1971,Raw,B
1,Csaba Molnár,M3,Hungary,123.4,,,,,,186,-193,193,193,,,,,,,193,125,M,1964,Raw,B
2,Adam Ubertowski,M3,Poland,121.5,,,,,,150,160,-170,160,,,,,,,160,125,M,1967,Raw,B
1,Jiří Hájek,M4,Czechia,121.3,,,,,,160,170,-180,170,,,,,,,170,125,M,1962,Raw,B
1,Henryk Świerzy,M5,Poland,110.7,,,,,,130,135,140,140,,,,,,,140,125,M,1956,Raw,B
1,Hans-Jürgen Kuhlmey,M8,Germany,122.5,,,,,,120,-125,-125,120,,,,,,,120,125,M,1941,Raw,B
1,Bartosz Kachelski,MS,Poland,115.5,,,,,,230,240,248,248,-250,,,,,,248,125,M,1981,Raw,B
1,Marcin Szemberg,J,Poland,130.1,,,,,,190,-195,-195,190,,,,,,,190,140,M,1996,Raw,B
1,Krzysztof Halczyk,M1,Poland,131.4,,,,,,170,177.5,180,180,,,,,,,180,140,M,1974,Raw,B
1,Zbigniew Drewniak,M2,Poland,130,,,,,,160,170,180,180,,,,,,,180,140,M,1973,Raw,B
1,László Vass,M3,Hungary,138.9,,,,,,190,-200,200,200,,,,,,,200,140,M,1964,Raw,B
1,Piotr Redzik,M5,Poland,125.7,,,,,,130,140,150,150,,,,,,,150,140,M,1957,Raw,B
1,Piotr Różański Rudolf,M6,Poland,128.4,,,,,,-100,105,110,110,115,,,,,,110,140,M,1950,Raw,B
1,Arkadiusz Duranowski,MS,Poland,135.9,,,,,,190,200,-207.5,200,,,,,,,200,140,M,1982,Raw,B
1,Marcin Karkula,O,Poland,151.9,,,,,,250,257.5,-260,257.5,,,,,,,257.5,140+,M,1982,Raw,B
2,Dawid Lange,O,Poland,142,,,,,,205,212.5,220,220,,,,,,,220,140+,M,1988,Raw,B
3,Denis Vlček,O,Czechia,161,,,,,,215,-222.5,-222.5,215,,,,,,,215,140+,M,1991,Raw,B
1,Tomasz Węgliński,M1,Poland,142.9,,,,,,200,210,-220,210,,,,,,,210,140+,M,1978,Raw,B
2,Mirosław Hendzel,M1,Austria,150,,,,,,200,210,,210,,,,,,,210,140+,M,1974,Raw,B
1,Grzegorz Kantor,M2,Poland,147.5,,,,,,180,-185,185,185,,,,,,,185,140+,M,1972,Raw,B
1,Bernard Hojka,M6,Poland,67.5,,,,,,70,80,-85,80,,,,,,,80,67.5,M,1953,Multi-ply,B
1,Erwin Trichlin,M8,Austria,65.3,,,,,,95,102.5,-107.5,102.5,,,,,,,102.5,67.5,M,1939,Multi-ply,B
1,Dawid Urbanowicz,T3,Poland,74,,,,,,120,130,140,140,,,,,,,140,75,M,1999,Multi-ply,B
1,Krzysztof Wolszczak,O,Poland,74.2,,,,,,140,-150,-160,140,,,,,,,140,75,M,1985,Multi-ply,B
1,Marcin Musiol,O,Poland,81.2,,,,,,190,-200,-200,190,,,,,,,190,82.5,M,1988,Multi-ply,B
1,Igors Marudins,M1,Latvia,82.2,,,,,,-170,-170,170,170,,,,,,,170,82.5,M,1975,Multi-ply,B
1,Kazimierz Tamiłowski,M7,Poland,81.7,,,,,,145,-150,-150,145,,,,,,,145,82.5,M,1948,Multi-ply,B
1,Dawid Deptuch,O,Poland,90,,,,,,220,230,242.5,242.5,,,,,,,242.5,90,M,1986,Multi-ply,B
2,Sebastian Dąbrowski,O,Poland,85.5,,,,,,230,-235,240,240,,,,,,,240,90,M,1980,Multi-ply,B
3,Jozef Grega,O,Slovakia,84.8,,,,,,220,230,-242.5,230,,,,,,,230,90,M,1993,Multi-ply,B
4,Jan Lorenc,O,Czechia,89.2,,,,,,170,-180,,170,,,,,,,170,90,M,1990,Multi-ply,B
5,Robin Oswald,O,Czechia,88.5,,,,,,140,-150,150,150,,,,,,,150,90,M,1986,Multi-ply,B
DQ,Martin Siska,O,Slovakia,85,,,,,,-200,-200,-200,,,,,,,,,90,M,1984,Multi-ply,B
1,Stanisław Kozeko,M5,Poland,89.7,,,,,,140,145,150,150,,,,,,,150,90,M,1957,Multi-ply,B
1,Tomasz Wawrzyczek,J,Poland,92,,,,,,210,-220,-230,210,,,,,,,210,100,M,1996,Multi-ply,B
DQ,Patryk Citko,J,Poland,100,,,,,,-190,-190,-190,,,,,,,,,100,M,1994,Multi-ply,B
1,Rafał Żarnowski,O,Poland,91.8,,,,,,200,205,210,210,,,,,,,210,100,M,1992,Multi-ply,B
2,Bartłomiej Rogoziński,O,Poland,97.6,,,,,,190,-195,,190,,,,,,,190,100,M,1982,Multi-ply,B
1,Mihails Rekaikins,M1,Latvia,92.1,,,,,,-170,-170,170,170,,,,,,,170,100,M,1977,Multi-ply,B
1,Franciszek Szabluk,M5,Poland,99.9,,,,,,-200,200,210,210,-223,,,,,,210,100,M,1956,Multi-ply,B
1,Hans-Ulrich Vetter,M6,Germany,99.8,,,,,,170,175,-183,175,-183,,,,,,175,100,M,1952,Multi-ply,B
1,Robert Hojka,MS,Poland,99.1,,,,,,-130,130,140,140,,,,,,,140,100,M,1978,Multi-ply,B
1,Łukasz Pawlowski,J,Poland,105.8,,,,,,180,190,-200,190,,,,,,,190,110,M,1996,Multi-ply,B
DQ,Petr Bolf,O,Czechia,109.3,,,,,,-330,-330,-330,,,,,,,,,110,M,1987,Multi-ply,B
1,Krzysztof Zakrzewski,M1,Poland,103.6,,,,,,262.5,-273,273,273,-282.5,,,,,,273,110,M,1977,Multi-ply,B
1,Petr Poláček,M2,Czechia,108.5,,,,,,-200,200,217.5,217.5,,,,,,,217.5,110,M,1971,Multi-ply,B
2,Aladár Uherík,M2,Slovakia,102.7,,,,,,200,215,-217.5,215,,,,,,,215,110,M,1972,Multi-ply,B
1,Nicolas Tóth,T3,Slovakia,119.8,,,,,,230,240,-250,240,,,,,,,240,125,M,1998,Multi-ply,B
1,Peter Sakala,J,Slovakia,125,,,,,,-260,-260,260,260,,,,,,,260,125,M,1996,Multi-ply,B
1,Grzegorz Wałga,O,Poland,114.5,,,,,,320,-400,-400,320,,,,,,,320,125,M,1987,Multi-ply,B
2,Piotr Słapa,O,Poland,124.9,,,,,,290,-300,300,300,,,,,,,300,125,M,1983,Multi-ply,B
3,Richard Szanyi,O,Slovakia,115.6,,,,,,245,255,260,260,,,,,,,260,125,M,1992,Multi-ply,B
1,Rafał Palubicki,M1,Poland,116.8,,,,,,220,230,-250,230,,,,,,,230,125,M,1976,Multi-ply,B
1,Wojciech Kramer,M4,Poland,120.1,,,,,,170,175,-180,175,,,,,,,175,125,M,1961,Multi-ply,B
1,Ján Šiska,MS,Slovakia,119.7,,,,,,200,230,-250,230,,,,,,,230,125,M,1980,Multi-ply,B
1,Petr Kohout,O,Czechia,126.3,,,,,,230,250,262.5,262.5,,,,,,,262.5,140,M,1984,Multi-ply,B
DQ,Václav Češka,O,Czechia,126.2,,,,,,-320,-320,,,,,,,,,,140,M,1985,Multi-ply,B
1,Magdalena Szpila,T2,Poland,41.7,,,,,,,,,,,65,70,75,75,80,75,48,F,2002,Raw,D
1,Marta Stachowicz,O,Poland,45.6,,,,,,,,,,,110,120,-130,120,,120,48,F,1989,Raw,D
1,Olga Kirpicenko-Tybora,O,Poland,52,,,,,,,,,,,110,-120,-120,110,,110,52,F,1994,Raw,D
1,Ela Kardaś,T3,Poland,54.1,,,,,,,,,,,100,110,-115,110,,110,56,F,1999,Raw,D
1,Nikola Pich,T2,Poland,56.8,,,,,,,,,,,120,-127.5,-127.5,120,,120,60,F,2002,Raw,D
1,Joanna Gawron,O,Poland,58.3,,,,,,,,,,,120,132.5,145,145,,145,60,F,1993,Raw,D
1,Bettina Razzouki-Korkis,M3,Poland,56.9,,,,,,,,,,,100,110,120,120,125,120,60,F,1965,Raw,D
1,Irena Kopeć,O,Poland,61.9,,,,,,,,,,,110,120,125,125,,125,67.5,F,1990,Raw,D
1,Renata Zapała,J,Poland,72.7,,,,,,,,,,,120,130,136,136,,136,75,F,1994,Raw,D
1,Katarzyna Klate Stępniewska,O,Poland,72.5,,,,,,,,,,,120,130,140,140,,140,75,F,1985,Raw,D
1,Beata Kowalska,M1,Poland,74.7,,,,,,,,,,,130,140,150,150,,150,75,F,1973,Raw,D
1,Krystyna Puzio,M3,Poland,88.8,,,,,,,,,,,140,150,155,155,,155,90,F,1965,Raw,D
1,Pavel Balážik,O,Slovakia,54.7,,,,,,,,,,,140,150,-158,150,-158,150,56,M,1979,Raw,D
1,Huba Hablicsek Jr,J,Hungary,59.1,,,,,,,,,,,130,145,155,155,170,155,60,M,1998,Raw,D
1,Piotr Stefaniuk,O,Poland,59.7,,,,,,,,,,,170,175,180,180,,180,60,M,1991,Raw,D
1,Kamil Bogusz,J,Poland,67.5,,,,,,,,,,,140,155,162.5,162.5,,162.5,67.5,M,1998,Raw,D
1,Antoni Kaliński,M5,Poland,67,,,,,,,,,,,125,135,140,140,,140,67.5,M,1953,Raw,D
1,Bernard Hojka,M6,Poland,67.5,,,,,,,,,,,130,-140,140,140,,140,67.5,M,1953,Raw,D
1,Oliver Kurek,T3,Slovakia,72.9,,,,,,,,,,,220,-230,230,230,,230,75,M,1999,Raw,D
1,Oliver Kurek,T3,Slovakia,72.9,,,,,,,,,,,220.5,230,-243,230,,230,75,M,1999,Raw,D
1,Andriy Avdeev,O,Ukraine,75,,,,,,,,,,,195,207.5,221,221,,221,75,M,1983,Raw,D
1,Zbigniew Koper,M5,Poland,75,,,,,,,,,,,150,160,-165,160,,160,75,M,1953,Raw,D
1,Ryszard Śliwiński,M6,Poland,74.3,,,,,,,,,,,145,156,162,162,,162,75,M,1950,Raw,D
2,Hans Malchau,M6,Germany,74.9,,,,,,,,,,,-120,120,-130,120,,120,75,M,1951,Raw,D
1,Nikodem Romanowski,J,Poland,80.9,,,,,,,,,,,-230,230,-240,230,,230,82.5,M,1997,Raw,D
1,Tomasz Miloch,O,Poland,80.3,,,,,,,,,,,245,255,265.5,265.5,-270,265.5,82.5,M,1983,Raw,D
2,Mateusz Rufkiewicz,O,Poland,82.3,,,,,,,,,,,230,247.5,265.5,265.5,-266,265.5,82.5,M,1988,Raw,D
3,Dmitro Karpenko,O,Ukraine,81.6,,,,,,,,,,,180,190,200,200,,200,82.5,M,1985,Raw,D
1,Konrad Troll,M2,Poland,78.8,,,,,,,,,,,180,190,-200,190,,190,82.5,M,1972,Raw,D
1,Andrzej Stasiak,M3,Poland,80.8,,,,,,,,,,,-180,190,200,200,,200,82.5,M,1965,Raw,D
1,Karel Schoř,M5,Czechia,81.7,,,,,,,,,,,180,192.5,200,200,,200,82.5,M,1955,Raw,D
1,Józef Bejgrowicz,M6,Poland,80.9,,,,,,,,,,,210,220,222.5,222.5,,222.5,82.5,M,1952,Raw,D
1,Gerd Meyerhofer,M9,Germany,77.7,,,,,,,,,,,85,90,,90,,90,82.5,M,1938,Raw,D
1,Vadim Sugonyaka,T2,Ukraine,89.2,,,,,,,,,,,220,250,-252.5,250,,250,90,M,2000,Raw,D
1,Przemysław Kaźmierczak,O,Poland,88.4,,,,,,,,,,,220,230,-252.5,230,,230,90,M,1993,Raw,D
2,Mateusz Sobczak,O,Poland,84.2,,,,,,,,,,,195,207.5,215,215,,215,90,M,1993,Raw,D
1,Thomas Schimana,M2,Germany,88.2,,,,,,,,,,,-235,245,-260,245,,245,90,M,1972,Raw,D
1,Frank Thomas Kutzsch,M5,Germany,88.7,,,,,,,,,,,220,232.5,240,240,-246.5,240,90,M,1956,Raw,D
2,Marian Knuth,M5,Poland,89.5,,,,,,,,,,,220,-230,-230,220,,220,90,M,1958,Raw,D
1,Jan Łuka,M6,Poland,89.6,,,,,,,,,,,210,220,225,225,,225,90,M,1949,Raw,D
1,Piotr Gawle,MS,Poland,88.4,,,,,,,,,,,185,200,-210,200,,200,90,M,1982,Raw,D
1,Kevin Anthony Kalapoš,T3,Slovakia,93.2,,,,,,,,,,,200,220,-230,220,-230,220,100,M,2000,Raw,D
1,Oleksandr Klokov,J,Poland,96.2,,,,,,,,,,,280,-290,-290,280,,280,100,M,1997,Raw,D
2,Helmut Silberbauer,J,Austria,95.5,,,,,,,,,,,185,205,-225,205,,205,100,M,1996,Raw,D
3,Robin Hejl,J,Czechia,93.6,,,,,,,,,,,170,-190,-190,170,,170,100,M,1996,Raw,D
1,Nshan Malkhasyan,O,Armenia,100,,,,,,,,,,,290,300,-310,300,,300,100,M,1991,Raw,D
2,Piotr Kurek,O,Poland,98.4,,,,,,,,,,,260,270,280,280,,280,100,M,1992,Raw,D
3,Karol Frąckowiak,O,Poland,99.7,,,,,,,,,,,270,280,-282.5,280,,280,100,M,1991,Raw,D
4,Konrad Czupryn,O,Poland,99.3,,,,,,,,,,,230,245,-250,245,,245,100,M,1989,Raw,D
5,Krzysztof Grzemiński,O,Poland,95.8,,,,,,,,,,,210,230,-250,230,,230,100,M,1987,Raw,D
6,Paweł Chilakowski,O,Poland,97,,,,,,,,,,,230,-250,-255,230,,230,100,M,1993,Raw,D
7,Hans Haß,O,Germany,97.7,,,,,,,,,,,180,195,205,205,,205,100,M,1989,Raw,D
1,Vadym Kotsaga,M1,Ukraine,96,,,,,,,,,,,190,202.5,-217.5,202.5,,202.5,100,M,1977,Raw,D
1,Przemysław Kozioł,M2,Poland,98.6,,,,,,,,,,,215,225,232.5,232.5,,232.5,100,M,1973,Raw,D
1,Helmut Silberbauer Sr,M3,Austria,97.5,,,,,,,,,,,250,265,-270,265,,265,100,M,1964,Raw,D
2,Mariusz Rufkiewicz,M3,Poland,99.7,,,,,,,,,,,210,230,252.5,252.5,-265.5,252.5,100,M,1967,Raw,D
1,Wiesław Wróbel,M5,Poland,99.1,,,,,,,,,,,230,252.5,260,260,,260,100,M,1957,Raw,D
2,Zbigniew Cabaj,M5,Poland,90.1,,,,,,,,,,,180,190,200,200,,200,100,M,1955,Raw,D
1,Stefan Sochański,M6,Poland,90.5,,,,,,,,,,,185,205,,205,,205,100,M,1948,Raw,D
1,Artur Hakobyan,MS,Armenia,96.1,,,,,,,,,,,270,290,-302.5,290,,290,100,M,1980,Raw,D
1,Martin Havlíček,T3,Czechia,109.9,,,,,,,,,,,300,315,330,330,,330,110,M,1998,Raw,D
1,Juraj Grígeľ,O,Slovakia,108.9,,,,,,,,,,,305,320,-330,320,-345.5,320,110,M,1992,Raw,D
1,Norbert Hablicsek Sr,M1,Hungary,108.9,,,,,,,,,,,240,260,280,280,,280,110,M,1974,Raw,D
1,Vojtech Lazok,M2,Slovakia,107.2,,,,,,,,,,,220,240,-250,240,,240,110,M,1968,Raw,D
1,Tibor Gejdoš,M3,Slovakia,104.2,,,,,,,,,,,225,240,250,250,,250,110,M,1963,Raw,D
1,Józef Sokołowski,M5,Poland,102.5,,,,,,,,,,,250,280,-300,280,,280,110,M,1956,Raw,D
1,Piotr Sadowski,J,Poland,113.4,,,,,,,,,,,300,315,326,326,,326,125,M,1996,Raw,D
1,Rafał Wójcik,O,Poland,116.1,,,,,,,,,,,270,302.5,310,310,,310,125,M,1987,Raw,D
2,Marcin Skowroński,O,Poland,118.6,,,,,,,,,,,280,300,,300,,300,125,M,1990,Raw,D
3,Vladimír Ptačin,O,Slovakia,117,,,,,,,,,,,290,-302.5,-302.5,290,,290,125,M,1993,Raw,D
4,Mariusz Bartołowicz,O,Poland,110.9,,,,,,,,,,,280,-290,,280,,280,125,M,1979,Raw,D
1,Björn Pscherer,M1,Germany,123.2,,,,,,,,,,,270,286,290,290,-300,290,125,M,1975,Raw,D
1,Robert Nemś,M2,Poland,117.5,,,,,,,,,,,230,250,-280,250,,250,125,M,1969,Raw,D
1,Péter Szabó,M3,Slovakia,120.6,,,,,,,,,,,235,250,-260,250,,250,125,M,1964,Raw,D
1,Mariusz Bojanowski,MS,Poland,113.8,,,,,,,,,,,-290,292.5,300,300,300.5,300,125,M,1983,Raw,D
2,Mariusz Bartołowicz,MS,Poland,110.9,,,,,,,,,,,280,292.5,-300,292.5,,292.5,125,M,1979,Raw,D
1,Maroš Gažúr,T3,Slovakia,132.3,,,,,,,,,,,210,220,-230,220,,220,140,M,1998,Raw,D
1,Marek Włodarczyk,J,Poland,133.8,,,,,,,,,,,260,280,290,290,-300,290,140,M,1997,Raw,D
1,Piotr Gaj,O,Poland,125.5,,,,,,,,,,,285,-302.5,-302.5,285,,285,140,M,1993,Raw,D
1,Piotr Redzik,M5,Poland,125.1,,,,,,,,,,,200,215,230,230,,230,140,M,1957,Raw,D
1,Huba Hablicsek Jr,J,Hungary,59.1,,,,,,,,,,,140,155,165,165,,165,60,M,1998,Multi-ply,D
1,István Hangyál,O,Hungary,67.5,,,,,,,,,,,145,157.5,165,165,,165,67.5,M,1988,Multi-ply,D
1,Tomasz Miloch,O,Poland,80.3,,,,,,,,,,,260.5,270.5,275.5,275.5,-280.5,275.5,82.5,M,1983,Multi-ply,D
1,Gerd Meyerhofer,M9,Germany,77.7,,,,,,,,,,,85,90,100,100,,100,82.5,M,1938,Multi-ply,D
1,Przemysław Kaźmierczak,O,Poland,88.4,,,,,,,,,,,210,225,240,240,,240,90,M,1993,Multi-ply,D
1,László Eck,M1,Hungary,86.5,,,,,,,,,,,-240,240,250,250,,250,90,M,1978,Multi-ply,D
1,Niclas Friberg,M1,Sweden,93.3,,,,,,,,,,,252.5,265,-280,265,,265,100,M,1974,Multi-ply,D
1,Stefan Sochański,M6,Poland,90.5,,,,,,,,,,,215,230,,230,,230,100,M,1948,Multi-ply,D
1,Seweryn Rzepecki,J,Poland,109.8,,,,,,,,,,,250,270,-282.5,270,-282.5,270,110,M,1997,Multi-ply,D
1,Norbert Hablicsek Sr,M1,Hungary,108.9,,,,,,,,,,,280,300,310,310,-320,310,110,M,1974,Multi-ply,D
1,Przemysław Tomica,O,Poland,117.5,,,,,,,,,,,210,280,300,300,,300,125,M,1987,Multi-ply,D
DQ,Karol Repiský,M3,Slovakia,124.6,,,,,,,,,,,-250.5,,,,,,125,M,1964,Multi-ply,D
1,Ján Šiska,MS,Slovakia,120.3,,,,,,,,,,,250,-267.5,,250,,250,125,M,1980,Multi-ply,D
1,Peter Hallberg,O,Sweden,127.8,,,,,,,,,,,270,300,-305,300,,300,140,M,1987,Multi-ply,D
1,Martin Malínek,MS,Czechia,134.1,,,,,,,,,,,320.5,340,345,345,,345,140,M,1980,Multi-ply,D
