Division,WeightClassKg,Place,Name,Team,BodyweightKg,Best3SquatKg,Best3BenchKg,Best3DeadliftKg,TotalKg,Equipment,Event,Sex
Boys,55.79,1,Charlie Rosa,Karnes City,51.94,133.81,72.57,156.49,362.87,Single-ply,SBD,M
Boys,51.71,2,Eloy Garza,Corpus Christi West Oso,51.26,138.35,61.23,124.74,324.32,Single-ply,SBD,M
Boys,51.71,DQ,Devin Cowen,Rockport-Fulton,49.03,90.72,,,,Single-ply,SBD,M
Boys,55.79,1,Noah Rodriguez,Gregory-Portland,54.2,129.27,68.04,145.15,342.46,Single-ply,SBD,M
Boys,55.79,2,Remi Herrera,Skidmore-Tynan,54.88,77.11,54.43,113.4,244.94,Single-ply,SBD,M
Boys,55.79,DQ,Mike Nunez,Corpus Christi West Oso,55.52,,,,,Single-ply,SBD,M
Boys,59.87,1,Marcos Lara,Mathis,58.88,158.76,102.06,190.51,451.32,Single-ply,SBD,M
Boys,59.87,2,Joe Castillo,Gregory-Portland,57.52,156.49,92.99,183.7,433.18,Single-ply,SBD,M
Boys,59.87,3,Cody Hartman,Corpus Christi West Oso,59.38,167.83,88.45,170.1,426.38,Single-ply,SBD,M
Boys,59.87,4,Daniel Tortu,Corpus Christi West Oso,59.65,165.56,92.99,149.69,408.23,Single-ply,SBD,M
Boys,59.87,5,Tim Diaz,Skidmore-Tynan,58.97,102.06,79.38,154.22,335.66,Single-ply,SBD,M
Boys,59.87,6,Lance Glew,Skidmore-Tynan,59.42,113.4,68.04,136.08,317.51,Single-ply,SBD,M
Boys,59.87,7,Brady Carpenter,Skidmore-Tynan,58.97,111.13,56.7,117.93,285.76,Single-ply,SBD,M
Boys,74.84,1,Samuel Navarro,Beeville Jones,67.18,215.46,129.27,215.46,560.19,Single-ply,SBD,M
Boys,67.13,2,Alex Rocha,Skidmore-Tynan,66.68,190.51,136.08,158.76,485.34,Single-ply,SBD,M
Boys,67.13,3,Alonzo Moya,Corpus Christi West Oso,63.59,176.9,92.99,181.44,451.32,Single-ply,SBD,M
Boys,67.13,4,Anthony Huerta,Gregory-Portland,61.82,154.22,108.86,183.7,446.79,Single-ply,SBD,M
Boys,67.13,5,Mario Zarate,Kingsville King,65.77,145.15,83.91,161.03,390.09,Single-ply,SBD,M
Boys,74.84,6,Isaiah Dennis,Pettus,67.36,145.15,88.45,147.42,381.02,Single-ply,SBD,M
Boys,67.13,7,Rico Flores,Skidmore-Tynan,66.68,138.35,86.18,154.22,378.75,Single-ply,SBD,M
Boys,67.13,8,Edward Valderas,Three Rivers,62.37,136.08,79.38,147.42,362.87,Single-ply,SBD,M
Boys,67.13,9,Steven Benavides,Pettus,65.5,99.79,68.04,104.33,272.16,Single-ply,SBD,M
Boys,67.13,10,Eli Ramirez,Runge,63.59,92.99,61.23,106.59,260.82,Single-ply,SBD,M
Boys,67.13,11,Ivan Diaz,Pettus,61.82,83.91,54.43,,138.35,Single-ply,SB,M
Boys,67.13,DQ,Devin Kelly,Aransas Pass,60.78,142.88,,,,Single-ply,SB,M
Boys,74.84,1,Taylor Nguyen,Rockport-Fulton,73.35,195.04,111.13,183.7,489.88,Single-ply,SBD,M
Boys,74.84,2,JP Ruth,Gregory-Portland,70.85,183.7,102.06,188.24,474,Single-ply,SBD,M
Boys,74.84,3,Austen Reynolds,Rockport-Fulton,68.99,172.37,90.72,195.04,458.13,Single-ply,SBD,M
Boys,74.84,4,Jeremy Hernandez,Corpus Christi West Oso,72.67,183.7,92.99,172.37,449.06,Single-ply,SBD,M
Boys,74.84,5,Johnathon Garza,Kingsville King,73.57,165.56,102.06,181.44,449.06,Single-ply,SBD,M
Boys,74.84,6,Josef Garza,Mathis,71.85,170.1,92.99,170.1,433.18,Single-ply,SBD,M
Boys,82.1,7,Josh D Perez,Beeville Jones,75.07,149.69,106.59,161.03,417.3,Single-ply,SBD,M
Boys,74.84,8,Chris Madrigal,Beeville Jones,73.89,133.81,92.99,181.44,408.23,Single-ply,SBD,M
Boys,74.84,9,Derrick Carroll,Beeville Jones,69.35,145.15,81.65,172.37,399.16,Single-ply,SBD,M
Boys,74.84,10,Rey Borjon,Kingsville Academy,73.12,138.35,99.79,156.49,394.63,Single-ply,SBD,M
Boys,74.84,11,Micky Retzloff,Three Rivers,69.81,129.27,83.91,147.42,360.61,Single-ply,SBD,M
Boys,74.84,12,Dustin Toelkin,Skidmore-Tynan,74.39,136.08,70.31,154.22,360.61,Single-ply,SBD,M
Boys,74.84,13,Johnathon Soloman,Pettus,74.48,83.91,61.23,97.52,242.67,Single-ply,SBD,M
Boys,74.84,DQ,Fabian Navarro,Kingsville King,69.85,97.52,,,,Single-ply,SBD,M
Boys,74.84,DQ,Luis Perez,Kingsville King,74.39,102.06,,,,Single-ply,SBD,M
Boys,74.84,DQ,Tony Turrubiartes,Karnes City,74.03,129.27,,,,Single-ply,SBD,M
Boys,74.84,DQ,Cynea Perry,Rockport-Fulton,69.85,131.54,,,,Single-ply,SBD,M
Boys,82.1,1,Milton Sarceno,Kingsville King,78.65,188.24,124.74,215.46,528.44,Single-ply,SBD,M
Boys,82.1,2,Mitchell Rees,Karnes City,80.42,181.44,97.52,181.44,460.4,Single-ply,SBD,M
Boys,82.1,3,Alec Lara,Mathis,81.78,163.29,124.74,154.22,442.25,Single-ply,SBD,M
Boys,82.1,4,Elijah Holifield,Skidmore-Tynan,81.65,163.29,92.99,176.9,433.18,Single-ply,SBD,M
Boys,82.1,5,JoeAllen Herrera,Beeville Jones,80.42,149.69,102.06,176.9,428.64,Single-ply,SBD,M
Boys,82.1,6,Ryan Retzloff,Three Rivers,82.05,131.54,99.79,154.22,385.55,Single-ply,SBD,M
Boys,82.1,7,Patrick Prieto,Beeville Jones,77.88,136.08,79.38,163.29,378.75,Single-ply,SBD,M
Boys,82.1,8,Miguel Castro,Kingsville Academy,78.83,136.08,83.91,154.22,374.21,Single-ply,SBD,M
Boys,82.1,9,Zachariah Segovia,Beeville Jones,76.52,83.91,52.16,108.86,244.94,Single-ply,SBD,M
Boys,82.1,DQ,Nazario Chapa,Aransas Pass,78.97,201.85,,,,Single-ply,SBD,M
Boys,89.81,1,Karl Gibson,Mathis,88.77,229.06,124.74,215.46,569.26,Single-ply,SBD,M
Boys,89.81,2,Ryan Lasko,Skidmore-Tynan,89.36,181.44,113.4,226.8,521.63,Single-ply,SBD,M
Boys,89.81,3,Rey Ferrer,Kingsville King,86.36,163.29,136.08,215.46,514.83,Single-ply,SBD,M
Boys,89.81,4,Andres Moncada,Karnes City,83.64,197.31,102.06,201.85,501.22,Single-ply,SBD,M
Boys,89.81,5,Gilbert Aguirre,Three Rivers,85.23,190.51,117.93,185.97,494.42,Single-ply,SBD,M
Boys,89.81,6,Resha Durst,Rockport-Fulton,83.82,181.44,115.67,185.97,483.08,Single-ply,SBD,M
Boys,89.81,7,Brandon Mejia,Corpus Christi West Oso,88.68,156.49,102.06,154.22,412.77,Single-ply,SBD,M
Boys,89.81,8,Mason Crawley,Skidmore-Tynan,89.36,158.76,92.99,136.08,387.82,Single-ply,SBD,M
Boys,89.81,9,Rudy Olivarez,Skidmore-Tynan,88.9,92.99,74.84,136.08,303.91,Single-ply,SBD,M
Boys,89.81,10,Matthew Leal,Runge,83.51,95.25,61.23,117.93,274.42,Single-ply,SBD,M
Boys,99.79,1,Zach Kwiatkowski,Corpus Christi West Oso,98.66,242.67,129.27,238.14,610.08,Single-ply,SBD,M
Boys,109.77,2,Aaron Rodriguez,Beeville Jones,99.84,249.48,156.49,204.12,610.08,Single-ply,SBD,M
Boys,99.79,3,Jason Patterson,Kingsville King,97.84,235.87,124.74,247.21,607.81,Single-ply,SBD,M
Boys,99.79,4,Aaron Puga,Beeville Jones,94.76,217.72,129.27,195.04,542.04,Single-ply,SBD,M
Boys,99.79,5,JD Zapata,Rockport-Fulton,90.54,206.38,113.4,204.12,523.9,Single-ply,SBD,M
Boys,99.79,6,Jon Andrew Villarreal,Corpus Christi West Oso,94.35,197.31,122.47,199.58,519.36,Single-ply,SBD,M
Boys,99.79,7,Whitaker Tystan,Gregory-Portland,91.35,188.24,131.54,170.1,489.88,Single-ply,SBD,M
Boys,99.79,8,Ilas Rodriguez,Three Rivers,97.07,163.29,92.99,149.69,405.97,Single-ply,SBD,M
Boys,99.79,9,Josh Garcia,Runge,98.16,142.88,74.84,158.76,376.48,Single-ply,SBD,M
Boys,99.79,10,Caleb Wilson,Skidmore-Tynan,92.99,97.52,74.84,117.93,290.3,Single-ply,SBD,M
Boys,99.79,11,Bobby Castillo,Skidmore-Tynan,96.62,102.06,65.77,117.93,285.76,Single-ply,SBD,M
Boys,99.79,DQ,Angel Rodriquez,Corpus Christi West Oso,97.11,,,,,Single-ply,SBD,M
Boys,99.79,DQ,Noel Cortez,Kingsville King,91.44,147.42,,,,Single-ply,SBD,M
Boys,109.77,1,Ricardo Perez,Kingsville Academy,108.5,229.06,158.76,208.65,596.47,Single-ply,SBD,M
Boys,109.77,2,Matthew German,Rockport-Fulton,101.7,226.8,117.93,208.65,553.38,Single-ply,SBD,M
Boys,109.77,3,Adrian Puga,Beeville Jones,105.01,219.99,136.08,195.04,551.11,Single-ply,SBD,M
Boys,109.77,4,William Withers,Gregory-Portland,103.83,195.04,124.74,210.92,530.7,Single-ply,SBD,M
Boys,109.77,5,John Castilla,Beeville Jones,107.05,117.93,77.11,136.08,331.12,Single-ply,SBD,M
Boys,109.77,DQ,Josh Sturgeon,Corpus Christi West Oso,100.29,,,,,Single-ply,SBD,M
Boys,109.77,DQ,Michael Duenes,Gregory-Portland,108.95,176.9,99.79,,,Single-ply,SBD,M
Boys,109.77,DQ,Alex Martinez,Kingsville King,102.06,140.61,,,,Single-ply,SBD,M
Boys,109.77,DQ,Brandon Nunez,Runge,103.06,,,,,Single-ply,SBD,M
Boys,124.74,1,Trent Enriquez,Karnes City,120.25,272.16,158.76,244.94,675.85,Single-ply,SBD,M
Boys,124.74,2,Isaac Salinas,Gregory-Portland,120.7,260.82,151.95,231.33,644.1,Single-ply,SBD,M
Boys,124.74,3,Javier Henderson,Mathis,112.72,265.35,142.88,201.85,610.08,Single-ply,SBD,M
Boys,124.74,4,Levi Fulcher,Three Rivers,118.89,204.12,138.35,199.58,542.04,Single-ply,SBD,M
Boys,124.74,5,Al Cancino,Kingsville King,119.43,219.99,115.67,206.38,542.04,Single-ply,SBD,M
Boys,124.74,6,Diego Fonseca,Mathis,113.85,213.19,133.81,192.78,539.77,Single-ply,SBD,M
Boys,124.74,7,Joshua Leal,Karnes City,114.76,201.85,117.93,213.19,532.97,Single-ply,SBD,M
Boys,124.74,8,Joey Rodriguez,Corpus Christi West Oso,119.52,204.12,120.2,185.97,510.29,Single-ply,SBD,M
Boys,124.74,9,Anthony Cantu,Mathis,114.21,206.38,142.88,156.49,505.76,Single-ply,SBD,M
Boys,124.74,10,Jeremy Trevino,Gregory-Portland,113.53,192.78,113.4,192.78,498.95,Single-ply,SBD,M
Boys,124.74,11,Seth Watts,Gregory-Portland,111.49,179.17,106.59,185.97,471.74,Single-ply,SBD,M
Boys,124.74,12,Kyle Kellner,Karnes City,114.89,181.44,108.86,174.63,464.93,Single-ply,SBD,M
Boys,124.74,13,Juan Gonzalez,Riviera Kaufer,117.21,163.29,95.25,188.24,446.79,Single-ply,SBD,M
Boys,124.74,14,Jaggar Weatherford,Gregory-Portland,119.02,179.17,97.52,161.03,437.72,Single-ply,SBD,M
Boys,124.74+,1,Mikey Esparza,Rockport-Fulton,129.36,272.16,170.1,192.78,635.03,Single-ply,SBD,M
Boys,124.74+,2,Alexander Acosta,Skidmore-Tynan,127.91,226.8,154.22,235.87,616.89,Single-ply,SBD,M
Boys,124.74+,3,Joe Rodriguez,Kingsville King,131.09,195.04,111.13,188.24,494.42,Single-ply,SBD,M
Boys,124.74+,4,Johnathon Turner,Three Rivers,161.93,158.76,79.38,163.29,401.43,Single-ply,SBD,M
Boys,124.74+,5,Daniel Nino,Skidmore-Tynan,128.82,102.06,70.31,136.08,308.44,Single-ply,SBD,M
Boys,124.74+,6,Billy Moon,Pettus,157.26,29.48,34.02,86.18,149.69,Single-ply,SBD,M
Boys,,NS,Carlos Wallace,Riviera Kaufer,,,,,,Single-ply,SBD,M
