Division,WeightClassKg,Place,Name,Team,BodyweightKg,Best3SquatKg,Best3BenchKg,Best3DeadliftKg,TotalKg,Equipment,Event,Sex
Boys,55.79,1,Erik Torres,Celina,51.8,113.4,74.84,117.93,306.17,Single-ply,SBD,M
Boys,51.71,2,Zachary Kuntz,Rockwall,48.9,102.06,56.7,131.54,290.3,Single-ply,SBD,M
Boys,55.79,3,Rey Rodriguez,North Forney,51.8,111.13,47.63,102.06,260.82,Single-ply,SBD,M
Boys,51.71,4,Javier Garcia,Lancaster,49.9,88.45,43.09,111.13,242.67,Single-ply,SBD,M
Boys,51.71,5,Colby Cowan,Forney,50.98,92.99,38.56,102.06,233.6,Single-ply,SBD,M
Boys,51.71,6,Michael Brown,Lancaster,46.54,68.04,40.82,86.18,195.04,Single-ply,SBD,M
Boys,51.71,7,Aj Aybar,North Forney,49.35,,,81.65,81.65,Single-ply,D,M
Boys,55.79,1,Devon Harris,North Forney,53.61,124.74,92.99,136.08,353.8,Single-ply,SBD,M
Boys,67.13,1,Jonathan Juarez,Celina,60.06,163.29,86.18,176.9,426.38,Single-ply,SBD,M
Boys,59.87,2,Juan Llamas,Celina,59.42,165.56,102.06,151.95,419.57,Single-ply,SBD,M
Boys,74.84,1,Austin Vaden,Celina,67.22,165.56,92.99,172.37,430.91,Single-ply,SBD,M
Boys,67.13,2,Arhman Mathis,Carrollton Ranchview,65.95,156.49,88.45,149.69,394.63,Single-ply,SBD,M
Boys,67.13,3,Garry Rollins,De Soto,63.05,133.81,83.91,151.95,369.68,Single-ply,SBD,M
Boys,67.13,4,Hakeem Regis,North Forney,64.86,149.69,,199.58,349.27,Single-ply,SD,M
Boys,67.13,5,Regan Murphy,Celina,61.42,133.81,74.84,133.81,342.46,Single-ply,SBD,M
Boys,67.13,6,Denton Bridges,Terrell,62.87,122.47,86.18,133.81,342.46,Single-ply,SBD,M
Boys,67.13,7,Kyle Rhinehart,Celina,67.13,172.37,,156.49,328.85,Single-ply,SD,M
Boys,67.13,8,Devin Shaw,Lone Oak,66.59,136.08,,158.76,294.84,Single-ply,SD,M
Boys,74.84,1,Bacardi Clark,Forney,72.85,213.19,104.33,226.8,544.31,Single-ply,SBD,M
Boys,74.84,2,Cody Prince,Lone Oak,68.04,165.56,113.4,172.37,451.32,Single-ply,SBD,M
Boys,74.84,3,Chris Rhinehart,Celina,73.94,181.44,97.52,165.56,444.52,Single-ply,SBD,M
Boys,74.84,4,Ty Tolleson,Lone Oak,73.39,156.49,92.99,181.44,430.91,Single-ply,SBD,M
Boys,74.84,5,Kason Freelen,Lone Oak,67.68,158.76,104.33,165.56,428.64,Single-ply,SBD,M
Boys,74.84,6,Jace Hart,Lone Oak,74.21,161.03,97.52,161.03,419.57,Single-ply,SBD,M
Boys,74.84,7,Eric Valenzuela,Dallas Life Oak Cliff,67.86,147.42,97.52,170.1,415.04,Single-ply,SBD,M
Boys,74.84,7,Eric Valenzuela,Dallas Life Oak Cliff,67.86,147.42,97.52,170.1,415.04,Single-ply,SBD,M
Boys,74.84,8,Robert Clinard,North Forney,74.66,156.49,104.33,149.69,410.5,Single-ply,SBD,M
Boys,74.84,9,Paul Lacy,Lancaster,70.4,154.22,88.45,158.76,401.43,Single-ply,SBD,M
Boys,74.84,10,Eli Gammage,Lone Oak,74.75,138.35,83.91,163.29,385.55,Single-ply,SBD,M
Boys,74.84,11,Antony Smith,Carrollton Ranchview,71.12,156.49,88.45,136.08,381.02,Single-ply,SBD,M
Boys,74.84,12,Fajon Mitchell,Terrell,69.4,145.15,81.65,142.88,369.68,Single-ply,SBD,M
Boys,74.84,13,Tre Taylor,De Soto,69.76,124.74,83.91,156.49,365.14,Single-ply,SBD,M
Boys,74.84,14,Hakim Smith,North Forney,71.4,158.76,,149.69,308.44,Single-ply,SD,M
Boys,74.84,15,Tanner Cole,North Forney,74.03,99.79,,136.08,235.87,Single-ply,SD,M
Boys,74.84,16,Skylar LaBounty,North Forney,68.95,74.84,45.36,90.72,210.92,Single-ply,SBD,M
Boys,82.1,1,Michael Williams,Dallas Life Oak Cliff,80.38,192.78,124.74,256.28,573.79,Single-ply,SBD,M
Boys,82.1,1,Michael Williams,Dallas Life Oak Cliff,80.38,192.78,124.74,256.28,573.79,Single-ply,SBD,M
Boys,82.1,2,Tay Roper,Forney,76.66,201.85,83.91,226.8,512.56,Single-ply,SBD,M
Boys,82.1,3,Collins Adeagbo,De Soto,81.74,192.78,111.13,183.7,487.61,Single-ply,SBD,M
Boys,82.1,4,Deunte Levine,Dallas Life Oak Cliff,79.74,165.56,106.59,188.24,460.4,Single-ply,SBD,M
Boys,82.1,4,Deunte Levine,Dallas Life Oak Cliff,79.74,165.56,106.59,188.24,460.4,Single-ply,SBD,M
Boys,82.1,5,Brian Funderburke,Dallas Life Oak Cliff,75.66,165.56,83.91,188.24,437.72,Single-ply,SBD,M
Boys,82.1,5,Brian Funderburke,Dallas Life Oak Cliff,75.66,165.56,83.91,188.24,437.72,Single-ply,SBD,M
Boys,82.1,6,Chris Saunders,Dallas Life Oak Cliff,76.11,165.56,111.13,161.03,437.72,Single-ply,SBD,M
Boys,82.1,6,Chris Saunders,Dallas Life Oak Cliff,76.11,165.56,111.13,161.03,437.72,Single-ply,SBD,M
Boys,82.1,7,Chris Davis,De Soto,81.37,151.95,113.4,149.69,415.04,Single-ply,SBD,M
Boys,82.1,8,Derion Woods,De Soto,78.11,149.69,83.91,151.95,385.55,Single-ply,SBD,M
Boys,82.1,9,Chris Orr,De Soto,79.83,124.74,83.91,158.76,367.41,Single-ply,SBD,M
Boys,82.1,10,Noah Mendez,North Forney,77.2,117.93,83.91,140.61,342.46,Single-ply,SBD,M
Boys,82.1,DQ,Stephen Buckley,North Forney,80.1,,,,,Single-ply,SBD,M
Boys,89.81,1,Denzel Lewis,Lancaster,88.27,210.92,111.13,222.26,544.31,Single-ply,SBD,M
Boys,89.81,2,Miguel Sepulveda,North Forney,87.09,185.97,115.67,185.97,487.61,Single-ply,SBD,M
Boys,89.81,3,Peter Gatson,Lancaster,87.09,181.44,88.45,206.38,476.27,Single-ply,SBD,M
Boys,89.81,4,Malik Johnson,Carrollton Ranchview,83.1,192.78,88.45,192.78,474,Single-ply,SBD,M
Boys,89.81,5,Christopher Richardson,North Forney,88.09,165.56,108.86,185.97,460.4,Single-ply,SBD,M
Boys,89.81,6,Joseph Martinez,Rockwall,89.45,154.22,102.06,165.56,421.84,Single-ply,SBD,M
Boys,89.81,7,Tyle Weaver,Carrollton Ranchview,83.19,136.08,,142.88,278.96,Single-ply,SD,M
Boys,89.81,8,Quadarrion George,North Forney,86.73,136.08,,142.88,278.96,Single-ply,SD,M
Boys,89.81,9,Dylon Wieland,Terrell,88.72,136.08,,127.01,263.08,Single-ply,SD,M
Boys,99.79,10,Giresse Forchu,North Forney,89.99,249.48,,,249.48,Single-ply,S,M
Boys,89.81,11,Nathaniel Reyes,Dallas Life Oak Cliff,89.81,92.99,,124.74,217.72,Single-ply,SD,M
Boys,89.81,11,Nathaniel Reyes,Dallas Life Oak Cliff,89.81,92.99,,124.74,217.72,Single-ply,SD,M
Boys,89.81,12,Tyler McClain,Lone Oak,87.82,181.44,,,181.44,Single-ply,S,M
Boys,89.81,13,Santiago Flores,Forney,83.91,163.29,,,163.29,Single-ply,S,M
Boys,99.79,1,Terry Jackson,North Forney,96.71,238.14,151.95,238.14,628.23,Single-ply,SBD,M
Boys,99.79,2,Christian Stewart,Forney,95.89,213.19,147.42,233.6,594.21,Single-ply,SBD,M
Boys,99.79,3,Jeremiah Bottoms,Celina,96.16,226.8,138.35,181.44,546.58,Single-ply,SBD,M
Boys,99.79,4,Julius Hall,Carrollton Ranchview,98.88,192.78,131.54,213.19,537.51,Single-ply,SBD,M
Boys,99.79,5,Chris Sepulveda,Forney,95.71,208.65,120.2,185.97,514.83,Single-ply,SBD,M
Boys,109.77,6,Dorian Yearby,De Soto,99.97,179.17,117.93,210.92,508.02,Single-ply,SBD,M
Boys,99.79,7,Colton Henderson,Terrell,93.26,179.17,124.74,195.04,498.95,Single-ply,SBD,M
Boys,99.79,8,Devonta Leary,De Soto,97.98,176.9,106.59,190.51,474,Single-ply,SBD,M
Boys,99.79,9,Cody Ray,Forney,99.34,181.44,104.33,174.63,460.4,Single-ply,SBD,M
Boys,99.79,10,Ezavian Franklin,Dallas Life Oak Cliff,91.44,147.42,83.91,147.42,378.75,Single-ply,SBD,M
Boys,99.79,10,Ezavian Franklin,Dallas Life Oak Cliff,91.44,147.42,83.91,147.42,378.75,Single-ply,SBD,M
Boys,109.77,11,Brian Taylor,Lancaster,99.97,138.35,74.84,138.35,351.53,Single-ply,SBD,M
Boys,99.79,12,Jermal Warren,Dallas Life Oak Cliff,98.07,124.74,88.45,111.13,324.32,Single-ply,SBD,M
Boys,99.79,12,Jermal Warren,Dallas Life Oak Cliff,98.07,124.74,88.45,111.13,324.32,Single-ply,SBD,M
Boys,109.77,1,Jackson Bolin,Rockwall,107.14,199.58,158.76,219.99,578.33,Single-ply,SBD,M
Boys,109.77,2,Darius Jones,Lancaster,103.6,224.53,106.59,197.31,528.44,Single-ply,SBD,M
Boys,109.77,3,Terrence Walker,North Forney,108.68,206.38,120.2,192.78,519.36,Single-ply,SBD,M
Boys,109.77,4,Dequan Washington,Carrollton Ranchview,105.96,199.58,124.74,192.78,517.1,Single-ply,SBD,M
Boys,109.77,5,Ryan Ramirez,Rockwall,109.23,199.58,102.06,188.24,489.88,Single-ply,SBD,M
Boys,109.77,6,Christian Crook,Rockwall,101.97,170.1,117.93,181.44,469.47,Single-ply,SBD,M
Boys,109.77,7,Clayton Amendson,Forney,107.23,165.56,106.59,181.44,453.59,Single-ply,SBD,M
Boys,109.77,8,Adan Lagunas,North Forney,107.5,172.37,79.38,172.37,424.11,Single-ply,SBD,M
Boys,124.74,9,Emmanuel Davis,Lancaster,109.95,106.59,70.31,120.2,297.1,Single-ply,SBD,M
Boys,109.77,10,Alan Garcia,Dallas Life Oak Cliff,108.86,79.38,61.23,79.38,219.99,Single-ply,SBD,M
Boys,109.77,10,Alan Garcia,Dallas Life Oak Cliff,108.86,79.38,61.23,79.38,219.99,Single-ply,SBD,M
Boys,124.74,1,Quinton Carroll,Dallas Life Oak Cliff,124.01,219.99,115.67,201.85,537.51,Single-ply,SBD,M
Boys,124.74,1,Quinton Carroll,Dallas Life Oak Cliff,124.01,219.99,115.67,201.85,537.51,Single-ply,SBD,M
Boys,124.74,2,Dan Bluitt,Dallas Life Oak Cliff,121.93,215.46,142.88,170.1,528.44,Single-ply,SBD,M
Boys,124.74,2,Dan Bluitt,Dallas Life Oak Cliff,121.93,215.46,142.88,170.1,528.44,Single-ply,SBD,M
Boys,124.74,3,Trevor Adams,North Forney,122.83,199.58,113.4,192.78,505.76,Single-ply,SBD,M
Boys,124.74,4,Matthew Price,Forney,115.48,197.31,97.52,201.85,496.68,Single-ply,SBD,M
Boys,124.74,5,Brian Lorts,Rockwall,115.85,158.76,117.93,176.9,453.59,Single-ply,SBD,M
Boys,124.74,6,Kendall Jennings,De Soto,123.65,158.76,92.99,183.7,435.45,Single-ply,SBD,M
Boys,124.74,7,Markeist Scott,Lancaster,120.47,106.59,74.84,133.81,315.25,Single-ply,SBD,M
Boys,124.74,8,Christian Ramos,Forney,121.83,240.4,,,240.4,Single-ply,S,M
Boys,124.74,9,Matthew Busby,Lone Oak,111.86,226.8,,,226.8,Single-ply,S,M
Boys,124.74+,1,Markel Garner,Lancaster,140.98,226.8,102.06,181.44,510.29,Single-ply,SBD,M
Boys,124.74+,2,Khalil Reese,De Soto,128.91,181.44,113.4,204.12,498.95,Single-ply,SBD,M
Boys,124.74+,3,Marcus McGarity,De Soto,132,174.63,106.59,190.51,471.74,Single-ply,SBD,M
Boys,124.74+,4,Ryan Turner,Carrollton Ranchview,136.71,217.72,122.47,,340.19,Single-ply,SB,M
Boys,124.74+,5,Jeremiah Johnson,Dallas Life Oak Cliff,126.92,124.74,92.99,115.67,333.39,Single-ply,SBD,M
Boys,124.74+,5,Jeremiah Johnson,Dallas Life Oak Cliff,126.92,124.74,92.99,115.67,333.39,Single-ply,SBD,M
Boys,124.74+,6,John Johnson,Lancaster,140.61,,97.52,151.95,249.48,Single-ply,BD,M
