Division,WeightClassKg,Place,Name,Team,BodyweightKg,Best3SquatKg,Best3BenchKg,Best3DeadliftKg,TotalKg,Equipment,Event,Sex
Boys,55.79,DQ,Russell Morrison,El Maton Tidehaven,53.34,113.4,52.16,124.74,,Single-ply,SBD,M
Boys,55.79,DQ,Haiderman Carias,Altair Rice,54.34,,45.36,102.06,,Single-ply,SBD,M
Boys,55.79,DQ,David Padilla,Bloomington,53.8,108.86,,108.86,,Single-ply,SBD,M
Boys,59.87,1,Lamar Turner,Edna,59.24,158.76,90.72,190.51,439.98,Single-ply,SBD,M
Boys,59.87,2,Tyler Le,Palacios,57.97,161.03,88.45,181.44,430.91,Single-ply,SBD,M
Boys,59.87,3,Lucio Davila,Altair Rice,59.24,142.88,79.38,163.29,385.55,Single-ply,SBD,M
Boys,59.87,4,Colby Rodriguez,Vanderbilt Industrial,59.33,138.35,72.57,140.61,351.53,Single-ply,SBD,M
Boys,59.87,5,Yuli Samaniego,Altair Rice,59.69,117.93,56.7,117.93,292.57,Single-ply,SBD,M
Boys,59.87,6,Alex Bonorden,Victoria St. Joseph,59.42,90.72,52.16,108.86,251.74,Single-ply,SBD,M
Boys,59.87,7,Ricky Rico,East Bernard,56.25,83.91,49.9,92.99,226.8,Single-ply,SBD,M
Boys,67.13,1,Erick Cruz,Victoria St. Joseph,63.87,172.37,99.79,181.44,453.59,Single-ply,SBD,M
Boys,67.13,2,Samuel Bonorden,Victoria St. Joseph,66.86,170.1,88.45,181.44,439.98,Single-ply,SBD,M
Boys,67.13,3,Denver Evans,Yoakum,65.32,149.69,83.91,165.56,399.16,Single-ply,SBD,M
Boys,67.13,4,Chris Eastwood,Goliad,66.22,142.88,72.57,149.69,365.14,Single-ply,SBD,M
Boys,67.13,5,Jordan Garza,Yoakum,66.04,124.74,81.65,136.08,342.46,Single-ply,SBD,M
Boys,67.13,6,Tre Evans,Edna,64.14,108.86,86.18,136.08,331.12,Single-ply,SBD,M
Boys,67.13,7,Michael Foster,Edna,63.05,102.06,72.57,124.74,299.37,Single-ply,SBD,M
Boys,67.13,8,Shawn Torres,Altair Rice,65.5,113.4,68.04,102.06,283.5,Single-ply,SBD,M
Boys,67.13,9,Steven Appling,Louise,66.59,83.91,52.16,120.2,256.28,Single-ply,SBD,M
Boys,67.13,DQ,Drew Powell,Hallettsville,61.51,,83.91,138.35,,Single-ply,SBD,M
Boys,74.84,1,Eric Lucio,Louise,74.21,204.12,122.47,204.12,530.7,Single-ply,SBD,M
Boys,74.84,2,Matt Vallejo,Victoria St. Joseph,74.3,188.24,111.13,199.58,498.95,Single-ply,SBD,M
Boys,74.84,3,Dylon Sefcik,Sweeny,74.3,174.63,106.59,204.12,485.34,Single-ply,SBD,M
Boys,74.84,4,Carson Berger,Vanderbilt Industrial,74.53,165.56,117.93,183.7,467.2,Single-ply,SBD,M
Boys,74.84,5,Dalton Dornburg,Goliad,73.39,167.83,86.18,165.56,419.57,Single-ply,SBD,M
Boys,74.84,6,Jacob Galvez,El Maton Tidehaven,74.84,158.76,92.99,158.76,410.5,Single-ply,SBD,M
Boys,74.84,7,Nic Reyes,Altair Rice,68.13,142.88,86.18,170.1,399.16,Single-ply,SBD,M
Boys,74.84,8,Caleb Edmonds,Hallettsville,73.84,136.08,92.99,142.88,371.95,Single-ply,SBD,M
Boys,74.84,9,Matt Harris,El Maton Tidehaven,70.94,113.4,79.38,142.88,335.66,Single-ply,SBD,M
Boys,74.84,10,Cameron Ledwig,El Maton Tidehaven,68.76,83.91,52.16,133.81,269.89,Single-ply,SBD,M
Boys,74.84,DQ,Pete Moreno,Louise,69.85,,,,,Single-ply,SBD,M
Boys,74.84,DQ,Christian Otto,East Bernard,72.39,136.08,,147.42,,Single-ply,SBD,M
Boys,74.84,DQ,Keaton McDonald,East Bernard,68.49,122.47,,120.2,,Single-ply,SBD,M
Boys,74.84,DQ,Kyle Mikes,East Bernard,73.84,136.08,,156.49,,Single-ply,SBD,M
Boys,74.84,DQ,Tyler Bagby,East Bernard,73.3,,95.25,158.76,,Single-ply,SBD,M
Boys,82.1,1,Dominic Garcia,Palacios,82.1,208.65,120.2,235.87,564.72,Single-ply,SBD,M
Boys,82.1,2,Seth Alvarez,Palacios,77.93,233.6,104.33,206.38,544.31,Single-ply,SBD,M
Boys,82.1,3,Kolbi Foster,Sweeny,76.75,204.12,92.99,197.31,494.42,Single-ply,SBD,M
Boys,82.1,4,Hunter Adkins,Altair Rice,81.92,188.24,117.93,172.37,478.54,Single-ply,SBD,M
Boys,82.1,5,Morgan Segovia,Palacios,75.66,183.7,106.59,167.83,458.13,Single-ply,SBD,M
Boys,82.1,6,Liam Porr,Victoria St. Joseph,79.47,161.03,108.86,165.56,435.45,Single-ply,SBD,M
Boys,82.1,7,Jatorian Travis,El Maton Tidehaven,76.93,142.88,92.99,156.49,392.36,Single-ply,SBD,M
Boys,82.1,8,Malik Willer,Sweeny,77.11,124.74,83.91,170.1,378.75,Single-ply,SBD,M
Boys,82.1,DQ,Dylan Tomek,Hallettsville,79.2,208.65,120.2,204.12,,Single-ply,SBD,M
Boys,82.1,DQ,Isaiah Herring,Hallettsville,76.66,190.51,122.47,,,Single-ply,SBD,M
Boys,82.1,DQ,Jeff Williams,El Maton Tidehaven,81.92,,124.74,190.51,,Single-ply,SBD,M
Boys,82.1,DQ,Luke Trevino,East Bernard,79.74,113.4,,,,Single-ply,SBD,M
Boys,82.1,DQ,Trevor Bagby,East Bernard,76.43,,106.59,151.95,,Single-ply,SBD,M
Boys,89.81,1,Justin Garza,Yoakum,84.37,142.88,124.74,188.24,455.86,Single-ply,SBD,M
Boys,89.81,2,Brigham Nelson,Victoria St. Joseph,88.72,188.24,95.25,165.56,449.06,Single-ply,SBD,M
Boys,89.81,3,Brady Byrd,Sweeny,86.27,145.15,83.91,158.76,387.82,Single-ply,SBD,M
Boys,89.81,4,Tariq Barron,Louise,83.1,158.76,81.65,145.15,385.55,Single-ply,SBD,M
Boys,89.81,5,Jackson Engel,Palacios,84.1,136.08,81.65,156.49,374.21,Single-ply,SBD,M
Boys,89.81,6,JD Laughlin,Sweeny,83.37,124.74,83.91,156.49,365.14,Single-ply,SBD,M
Boys,89.81,DQ,Hayden Henry,Hallettsville,83.46,,113.4,181.44,,Single-ply,SBD,M
Boys,89.81,DQ,Trace McAfee,Hallettsville,86.82,,129.27,188.24,,Single-ply,SBD,M
Boys,89.81,DQ,Locke Rowley,East Bernard,83.55,,97.52,167.83,,Single-ply,SBD,M
Boys,99.79,1,Parker Dean,Sweeny,96.52,181.44,92.99,185.97,460.4,Single-ply,SBD,M
Boys,99.79,2,Sam Romero,Sweeny,94.26,161.03,111.13,167.83,439.98,Single-ply,SBD,M
Boys,99.79,3,Shannon Tesch,Vanderbilt Industrial,99.61,154.22,90.72,161.03,405.97,Single-ply,SBD,M
Boys,99.79,DQ,Efrain Guerra,Edna,93.98,170.1,102.06,,,Single-ply,SBD,M
Boys,99.79,DQ,Steve Hampson,Hallettsville,93.17,,,158.76,,Single-ply,SBD,M
Boys,99.79,DQ,Jesus Vargas,Altair Rice,97.61,185.97,,,,Single-ply,SBD,M
Boys,99.79,DQ,Kevin Carpenter,Palacios,98.79,192.78,,,,Single-ply,SBD,M
Boys,109.77,1,Brady Vickery,Vanderbilt Industrial,109.54,294.84,167.83,217.72,680.39,Single-ply,SBD,M
Boys,109.77,2,Tristan Caballero,Yoakum,107.59,240.4,151.95,199.58,591.94,Single-ply,SBD,M
Boys,109.77,3,Alex Nguyen,Palacios,109.77,233.6,147.42,192.78,573.79,Single-ply,SBD,M
Boys,109.77,4,Jacob Garza,Vanderbilt Industrial,103.87,229.06,145.15,161.03,535.24,Single-ply,SBD,M
Boys,109.77,5,Brennan Schimcek,Hallettsville,109.68,204.12,136.08,185.97,526.17,Single-ply,SBD,M
Boys,109.77,6,Miguel Montes,Louise,104.42,215.46,102.06,195.04,512.56,Single-ply,SBD,M
Boys,109.77,7,Will Dowell,Hallettsville,102.51,204.12,117.93,181.44,503.49,Single-ply,SBD,M
Boys,109.77,9,Ryan Hessong,Edna,104.78,136.08,86.18,154.22,376.48,Single-ply,SBD,M
Boys,109.77,10,Ryan Ferguson,Sweeny,105.32,120.2,81.65,120.2,322.05,Single-ply,SBD,M
Boys,109.77,11,PJ Moreida,Altair Rice,104.33,106.59,58.97,102.06,267.62,Single-ply,SBD,M
Boys,109.77,DQ,Andrew Tavara,Altair Rice,101.88,238.14,131.54,226.8,,Single-ply,SBD,M
Boys,109.77,DQ,Dominique Brazil,Palacios,104.24,190.51,,197.31,,Single-ply,SBD,M
Boys,124.74,1,Jose Avalos,Louise,112.67,233.6,136.08,219.99,589.67,Single-ply,SBD,M
Boys,124.74,2,Robert Martinez,Louise,120.84,226.8,111.13,208.65,546.58,Single-ply,SBD,M
Boys,124.74,3,Joey Dominguez,Yoakum,117.3,158.76,90.72,149.69,399.16,Single-ply,SBD,M
Boys,124.74,4,Sergio Calvo,Victoria St. Joseph,112.31,138.35,83.91,138.35,360.61,Single-ply,SBD,M
Boys,124.74,5,Trevor Benavides,Victoria St. Joseph,110.77,127.01,90.72,133.81,351.53,Single-ply,SBD,M
Boys,124.74,6,Morgan Neuman,Edna,123.47,129.27,65.77,124.74,319.78,Single-ply,SBD,M
Boys,124.74,8,Tyler Vasut,East Bernard,109.86,208.65,104.33,183.7,496.68,Single-ply,SBD,M
Boys,124.74,DQ,Brandon Higginbotham,East Bernard,113.31,,,,,Single-ply,SBD,M
Boys,124.74+,1,Michael Willer,Sweeny,126.73,242.67,127.01,226.8,596.47,Single-ply,SBD,M
Boys,124.74+,2,Wyatt Neuman,Edna,134.54,215.46,106.59,183.7,505.76,Single-ply,SBD,M
Boys,124.74+,3,Jake Carr,Palacios,132.45,192.78,106.59,183.7,483.08,Single-ply,SBD,M
Boys,124.74+,4,Chandler Wasson,Sweeny,148.51,185.97,124.74,167.83,478.54,Single-ply,SBD,M
Boys,124.74+,5,Trevor Gloor,Victoria St. Joseph,125.28,172.37,106.59,142.88,421.84,Single-ply,SBD,M
Boys,124.74+,DQ,Blake Weise,Goliad,132.54,,,,,Single-ply,SBD,M
Boys,,NS,Daniel Rodriguez #6,Goliad,,,,,,Single-ply,SBD,M
Boys,,NS,Jesus Rios,Palacios,,,,,,Single-ply,SBD,M
Boys,,NS,Elijah Edwards,Palacios,,,,,,Single-ply,SBD,M
