Division,WeightClassKg,Place,Name,Team,BodyweightKg,Best3SquatKg,Best3BenchKg,Best3DeadliftKg,TotalKg,Equipment,Event,Sex
Girls,44.23,1,Alex Villegas,Wylie East,42.27,95.25,47.63,106.59,249.48,Single-ply,SBD,F
Girls,44.23,2,Mars Reese,Cedar Hill,44.18,52.16,29.48,79.38,161.03,Single-ply,SBD,F
Girls,44.23,DQ,Joseline Vega,Ferris,39.46,,,,,Single-ply,SBD,F
Girls,47.85,1,Aakilah McCoy,Cedar Hill,47.08,108.86,40.82,113.4,263.08,Single-ply,SBD,F
Girls,47.85,2,Marleigh Ortega,Wylie East,46.36,104.33,52.16,92.99,249.48,Single-ply,SBD,F
Girls,47.85,3,Mayah Levy,Oakridge School,46.45,52.16,31.75,63.5,147.42,Single-ply,SBD,F
Girls,47.85,DQ,Skyler Bladgett,Wylie East,45.45,61.23,24.95,,,Single-ply,SBD,F
Girls,51.94,1,Sonni Gehring,Wylie,51.07,122.47,61.23,113.4,297.1,Single-ply,SBD,F
Girls,51.94,2,Cecelia Allen,Wylie,50.53,106.59,54.43,117.93,278.96,Single-ply,SBD,F
Girls,51.94,3,Hope DeMaranville,Midlothian Heritage,49.62,104.33,52.16,104.33,260.82,Single-ply,SBD,F
Girls,51.94,4,Ally Hathaway,Wylie,51.89,102.06,56.7,99.79,258.55,Single-ply,SBD,F
Girls,51.94,5,Kaitlyn George,Mansfield,51.17,92.99,45.36,90.72,229.06,Single-ply,SBD,F
Girls,51.94,DQ,Kaylee Keasler,Midlothian Heritage,51.71,,,,,Single-ply,SBD,F
Girls,51.94,DQ,Gracie Larkin,Midlothian Heritage,49.99,92.99,,,,Single-ply,SBD,F
Girls,56.02,1,Bernabeth Beason,Wylie,53.98,131.54,79.38,131.54,342.46,Single-ply,SBD,F
Girls,56.02,2,Cristina Sanchez,Wylie,54.98,127.01,61.23,140.61,328.85,Single-ply,SBD,F
Girls,56.02,3,Giovanna Valdez,Wylie,55.97,113.4,79.38,122.47,315.25,Single-ply,SBD,F
Girls,56.02,4,Jolie Inglis,Wylie East,55.07,104.33,49.9,97.52,251.74,Single-ply,SBD,F
Girls,56.02,5,Violet Mejia,Mansfield Timberview,53.71,90.72,47.63,111.13,249.48,Single-ply,SBD,F
Girls,56.02,6,Jesse Veler,Bishop Lynch,55.43,95.25,45.36,108.86,249.48,Single-ply,SBD,F
Girls,56.02,7,Cami Kelley,Midlothian Heritage,54.88,99.79,45.36,102.06,247.21,Single-ply,SBD,F
Girls,56.02,8,Bailee Rader,Cedar Hill,54.93,86.18,40.82,104.33,231.33,Single-ply,SBD,F
Girls,56.02,9,Allie Smith,Mansfield,55.34,86.18,43.09,102.06,231.33,Single-ply,SBD,F
Girls,56.02,10,Krista St John,Justin Northwest,52.89,81.65,36.29,106.59,224.53,Single-ply,SBD,F
Girls,56.02,11,Lauren Glotfelty,Mansfield,54.52,83.91,45.36,95.25,224.53,Single-ply,SBD,F
Girls,56.02,DQ,Anahu Gomez,Ferris,54.98,,,,,Single-ply,SBD,F
Girls,60.1,1,Jane Onuoha,Bishop Lynch,59.78,127.01,52.16,142.88,322.05,Single-ply,SBD,F
Girls,60.1,2,Abby Hendrix,Midlothian Heritage,58.79,136.08,56.7,124.74,317.51,Single-ply,SBD,F
Girls,60.1,3,Shanttell James,Wylie,56.88,127.01,65.77,113.4,306.17,Single-ply,SBD,F
Girls,60.1,4,Katelyn Nwonumah,Mansfield Timberview,58.79,113.4,56.7,131.54,301.64,Single-ply,SBD,F
Girls,60.1,5,Tokyra Tate,Cedar Hill,58.79,104.33,52.16,127.01,283.5,Single-ply,SBD,F
Girls,60.1,6,Victoria Bell,Wylie,58.88,95.25,61.23,117.93,274.42,Single-ply,SBD,F
Girls,60.1,7,Arielle Artist,Mansfield Timberview,59.87,90.72,63.5,108.86,263.08,Single-ply,SBD,F
Girls,60.1,8,Rylie Sharp,Midlothian Heritage,58.15,95.25,52.16,108.86,256.28,Single-ply,SBD,F
Girls,60.1,DQ,Shaylee Richardson,Wylie East,56.7,108.86,,,,Single-ply,SBD,F
Girls,60.1,DQ,Hannah Saldivar,Wylie,57.79,,,,,Single-ply,SBD,F
Girls,60.1,DQ,Salma Sharaf,Midlothian Heritage,59.06,,,,,Single-ply,SBD,F
Girls,67.36,1,Courtney DeCoste,Wylie,67.31,151.95,68.04,149.69,369.68,Single-ply,SBD,F
Girls,67.36,2,Madalyn Whatley,Wylie,65.77,138.35,86.18,140.61,365.14,Single-ply,SBD,F
Girls,67.36,3,Tianna Rainey,Cedar Hill,66.86,138.35,56.7,167.83,362.87,Single-ply,SBD,F
Girls,67.36,4,Alissa Saldivar,Wylie,61.96,124.74,77.11,145.15,347,Single-ply,SBD,F
Girls,67.36,5,Gina Jaworski,Wylie,67.13,120.2,77.11,129.27,326.59,Single-ply,SBD,F
Girls,67.36,6,Mya Adeoye,Cedar Hill,67.31,117.93,47.63,120.2,285.76,Single-ply,SBD,F
Girls,67.36,7,Kaylen Jacobs,Mansfield Timberview,66.59,108.86,54.43,113.4,276.69,Single-ply,SBD,F
Girls,67.36,8,Lillia Farlow,Bishop Lynch,63.41,111.13,56.7,104.33,272.16,Single-ply,SBD,F
Girls,67.36,9,Kaci Wiens,Midlothian Heritage,60.15,92.99,52.16,113.4,258.55,Single-ply,SBD,F
Girls,67.36,10,Isabelle LeBlanc,Justin Northwest,66.04,92.99,49.9,99.79,242.67,Single-ply,SBD,F
Girls,67.36,11,Andrea Martinez,Justin Northwest,63.41,72.57,36.29,86.18,195.04,Single-ply,SBD,F
Girls,67.36,DQ,Nicole Gomez,Bishop Lynch,65.95,,,,,Single-ply,SBD,F
Girls,67.36,DQ,Evonne Tomlin,Midlothian Heritage,63.32,90.72,,,,Single-ply,SBD,F
Girls,67.36,DQ,Cate Stowell,Wylie,61.42,102.06,68.04,,,Single-ply,SBD,F
Girls,75.07,1,Onize Musa,Wylie,73.03,142.88,70.31,149.69,362.87,Single-ply,SBD,F
Girls,75.07,2,Lauren Foley,Wylie East,74.03,136.08,77.11,145.15,358.34,Single-ply,SBD,F
Girls,75.07,3,Sydni Allen,Mansfield Timberview,74.03,131.54,63.5,151.95,347,Single-ply,SBD,F
Girls,75.07,4,Brenna Price,Wylie East,72.03,108.86,49.9,115.67,274.42,Single-ply,SBD,F
Girls,75.07,5,Myanna Pryor,Cedar Hill,71.03,95.25,43.09,113.4,251.74,Single-ply,SBD,F
Girls,75.07,6,Danielle Bowling,Oakridge School,74.48,97.52,47.63,102.06,247.21,Single-ply,SBD,F
Girls,75.07,7,Marissa Leon,Cedar Hill,69.58,92.99,45.36,92.99,231.33,Single-ply,SBD,F
Girls,82.33,1,Ashtyn Burget,Wylie,77.56,158.76,90.72,167.83,417.3,Single-ply,SBD,F
Girls,82.33,2,Madalyn Whaley,Wylie,81.65,158.76,90.72,133.81,383.29,Single-ply,SBD,F
Girls,82.33,3,Victoria Olaoye,Mansfield Timberview,79.38,113.4,63.5,136.08,312.98,Single-ply,SBD,F
Girls,82.33,4,Laetecia Evang,Wylie,77.29,117.93,63.5,129.27,310.71,Single-ply,SBD,F
Girls,82.33,5,Maddie Burke,Wylie East,75.48,120.2,65.77,122.47,308.44,Single-ply,SBD,F
Girls,82.33,6,Bryanna Malcom,Mansfield Timberview,80.92,120.2,68.04,117.93,306.17,Single-ply,SBD,F
Girls,82.33,7,Jordan Hart,Mansfield Timberview,78.11,90.72,34.02,99.79,224.53,Single-ply,SBD,F
Girls,90.04,1,Abigail Lutz,Wylie East,87.63,213.19,115.67,158.76,487.61,Single-ply,SBD,F
Girls,90.04,2,Hailey Covington,Wylie,86.73,147.42,90.72,142.88,381.02,Single-ply,SBD,F
Girls,90.04,3,Takaira Scott,Ferris,87.27,133.81,58.97,151.95,344.73,Single-ply,SBD,F
Girls,90.04,4,Kennedy Martin,Bishop Lynch,86.36,127.01,68.04,131.54,326.59,Single-ply,SBD,F
Girls,90.04,5,Marielle Crump,Wylie,88.54,124.74,72.57,124.74,322.05,Single-ply,SBD,F
Girls,90.04,6,Libby McCune,Wylie East,88,122.47,77.11,115.67,315.25,Single-ply,SBD,F
Girls,90.04,7,Talia Hayes,Cedar Hill,86.09,108.86,61.23,138.35,308.44,Single-ply,SBD,F
Girls,90.04,8,Makenna Morman,Justin Northwest,85.64,127.01,49.9,117.93,294.84,Single-ply,SBD,F
Girls,90.04,9,Immila Payton,Wylie,85.18,115.67,61.23,111.13,288.03,Single-ply,SBD,F
Girls,90.04,10,Chelsea Valdez,Ferris,82.55,79.38,45.36,90.72,215.46,Single-ply,SBD,F
Girls,100.02,1,Hanna Beattie,Wylie,93.8,190.51,92.99,145.15,428.64,Single-ply,SBD,F
Girls,100.02,2,Kelsy Medlin,Wylie East,99.97,192.78,77.11,140.61,410.5,Single-ply,SBD,F
Girls,100.02,3,Ebony Thibodeaux,Mansfield Timberview,94.35,161.03,95.25,149.69,405.97,Single-ply,SBD,F
Girls,100.02,4,Brenna Little,Wylie,95.8,149.69,92.99,124.74,367.41,Single-ply,SBD,F
Girls,100.02,5,Tirya Kemp,Cedar Hill,92.62,108.86,61.23,122.47,292.57,Single-ply,SBD,F
Girls,100.02,6,Darielle Haynes,Ferris,98.7,79.38,61.23,122.47,263.08,Single-ply,SBD,F
Girls,100.02,7,Teanna Lewis,Mansfield Timberview,90.72,95.25,52.16,99.79,247.21,Single-ply,SBD,F
Girls,117.71,1,Nia Wilson,Mansfield,111.04,136.08,72.57,104.33,312.98,Single-ply,SBD,F
Girls,117.71,2,Madyson Mills,Wylie East,110.68,113.4,70.31,120.2,303.91,Single-ply,SBD,F
Girls,117.71,3,Devonn Bivens,Mansfield Timberview,103.69,72.57,52.16,104.33,229.06,Single-ply,SBD,F
Girls,117.71,DQ,Faith Smith,Mansfield Timberview,110.59,,,,,Single-ply,SBD,F
Girls,117.71+,1,Khali Edwards,Mansfield,151.23,113.4,74.84,136.08,324.32,Single-ply,SBD,F
