Division,WeightClassKg,Place,Name,Team,BodyweightKg,Best3SquatKg,Best3BenchKg,Best3DeadliftKg,TotalKg,Equipment,Event,Sex
Girls,44.23,1,Leanne Le,Alvin Shadow Creek,43.82,95.25,45.36,124.74,265.35,Single-ply,SBD,F
Girls,44.23,2,Kayleena Valdez,Manvel,42.09,61.23,52.16,77.11,190.51,Single-ply,SBD,F
Girls,44.23,3,Hadley Rennie,Sweeny,37.29,56.7,29.48,68.04,154.22,Single-ply,SBD,F
Girls,44.23,4,Mychael Broussard,Alvin Shadow Creek,40.01,58.97,24.95,65.77,149.69,Single-ply,SBD,F
Girls,44.23,5,Adrian Calvillo,Freeport Brazosport,43.54,34.02,20.41,47.63,102.06,Single-ply,SBD,F
Girls,47.85,1,Adile Leal,Clute Brazoswood,47.63,108.86,58.97,113.4,281.23,Single-ply,SBD,F
Girls,47.85,2,Angela Luna,Clute Brazoswood,47.72,90.72,47.63,95.25,233.6,Single-ply,SBD,F
Girls,47.85,3,Hannah Cantrell,Hitchcock,47.81,83.91,40.82,99.79,224.53,Single-ply,SBD,F
Girls,47.85,4,Dianysha Casiano,Hitchcock,46.72,92.99,36.29,83.91,213.19,Single-ply,SBD,F
Girls,51.94,1,Destanee Maurer,Sweeny,51.71,108.86,61.23,108.86,278.96,Single-ply,SBD,F
Girls,51.94,2,Victoria Waidner,Hitchcock,51.07,104.33,43.09,117.93,265.35,Single-ply,SBD,F
Girls,51.94,3,Destiny Hernandez,Hitchcock,50.26,102.06,36.29,106.59,244.94,Single-ply,SBD,F
Girls,51.94,4,Ava Walker,Hitchcock,50.71,90.72,43.09,90.72,224.53,Single-ply,SBD,F
Girls,51.94,5,Jessica Hill,Manvel,51.44,47.63,22.68,52.16,122.47,Single-ply,SBD,F
Girls,51.94,6,Lizzy McElven,Freeport Brazosport,48.17,34.02,20.41,52.16,106.59,Single-ply,SBD,F
Girls,51.94,DQ,Haylei Reichel,Hitchcock,51.35,70.31,,65.77,,Single-ply,SBD,F
Girls,56.02,1,Hailey Zuniga,Clute Brazoswood,53.89,113.4,61.23,106.59,281.23,Single-ply,SBD,F
Girls,56.02,2,Melanie Gonzales,Clute Brazoswood,54.16,99.79,61.23,99.79,260.82,Single-ply,SBD,F
Girls,56.02,3,Chinyere Okonkwo,Alvin Shadow Creek,56.02,95.25,49.9,113.4,258.55,Single-ply,SBD,F
Girls,56.02,4,Julie Vu,Clute Brazoswood,53.16,92.99,45.36,106.59,244.94,Single-ply,SBD,F
Girls,56.02,5,Rebecca Plante,West Columbia,55.25,97.52,47.63,97.52,242.67,Single-ply,SBD,F
Girls,56.02,6,Annahy Gonzalez,Hitchcock,55.7,90.72,34.02,113.4,238.14,Single-ply,SBD,F
Girls,56.02,7,Allie Torres,Hitchcock,53.61,90.72,45.36,99.79,235.87,Single-ply,SBD,F
Girls,56.02,8,Jocelyn Faour,Hitchcock,55.25,95.25,43.09,83.91,222.26,Single-ply,SBD,F
Girls,56.02,9,Crystal Lemus,Pasadena Rayburn,53.61,63.5,29.48,65.77,158.76,Single-ply,SBD,F
Girls,56.02,10,Natalie Mendez,Alvin Shadow Creek,54.88,47.63,34.02,49.9,131.54,Single-ply,SBD,F
Girls,56.02,DQ,Shelby Clements,Freeport Brazosport,53.16,56.7,,63.5,,Single-ply,SBD,F
Girls,60.1,1,Selena Goodman,Manvel,59.78,133.81,52.16,136.08,322.05,Single-ply,SBD,F
Girls,60.1,2,Harmony Hysten,Sweeny,60.1,122.47,56.7,120.2,299.37,Single-ply,SBD,F
Girls,60.1,3,Aaliyah Reyes,Manvel,60.1,113.4,36.29,104.33,254.01,Single-ply,SBD,F
Girls,60.1,4,Jasmyn Harper,Clute Brazoswood,58.97,92.99,47.63,104.33,244.94,Single-ply,SBD,F
Girls,60.1,5,Ashlyn Parker,Clute Brazoswood,58.24,97.52,49.9,88.45,235.87,Single-ply,SBD,F
Girls,60.1,6,Morgan Smith,Alvin Shadow Creek,58.06,79.38,40.82,102.06,222.26,Single-ply,SBD,F
Girls,60.1,7,Kaley Bureman,Hitchcock,60.1,70.31,34.02,83.91,188.24,Single-ply,SBD,F
Girls,60.1,8,Makenna Fiedler,Hitchcock,58.51,72.57,40.82,70.31,183.7,Single-ply,SBD,F
Girls,67.36,1,J'Laila Dotson,Hitchcock,67.36,145.15,61.23,156.49,362.87,Single-ply,SBD,F
Girls,67.36,2,Amaya Batiste,Manvel,64.77,136.08,61.23,147.42,344.73,Single-ply,SBD,F
Girls,67.36,3,Mazzy Hardy,Clute Brazoswood,65.41,111.13,61.23,122.47,294.84,Single-ply,SBD,F
Girls,67.36,4,Hannah Theard,Alvin Shadow Creek,65.68,113.4,52.16,129.27,294.84,Single-ply,SBD,F
Girls,67.36,5,Launa Sanders,West Columbia,64.23,102.06,61.23,127.01,290.3,Single-ply,SBD,F
Girls,67.36,6,Cecilia Espinoza,Clute Brazoswood,66.13,115.67,54.43,113.4,283.5,Single-ply,SBD,F
Girls,67.36,7,Taylor Reed,Stafford,66.77,97.52,38.56,104.33,240.4,Single-ply,SBD,F
Girls,67.36,8,Nadia Guajardo,Hitchcock,64.68,92.99,40.82,90.72,224.53,Single-ply,SBD,F
Girls,67.36,9,Belinda Zepeda,Freeport Brazosport,60.96,81.65,47.63,83.91,213.19,Single-ply,SBD,F
Girls,67.36,10,Erika Kaale,Freeport Brazosport,63.05,81.65,47.63,83.91,213.19,Single-ply,SBD,F
Girls,67.36,11,Tay Townsend,Clute Brazoswood,62.32,81.65,43.09,83.91,208.65,Single-ply,SBD,F
Girls,67.36,12,Samantha Arredondo,Pasadena Rayburn,62.87,74.84,31.75,90.72,197.31,Single-ply,SBD,F
Girls,75.07,1,Anna Green,Sweeny,67.86,117.93,77.11,142.88,337.93,Single-ply,SBD,F
Girls,75.07,2,Diana Del Angel,Alvin Shadow Creek,73.21,122.47,58.97,136.08,317.51,Single-ply,SBD,F
Girls,75.07,3,Ariana Williams,Sweeny,68.22,120.2,63.5,124.74,308.44,Single-ply,SBD,F
Girls,75.07,4,Morgan Shelton,Alvin Shadow Creek,68.04,115.67,63.5,124.74,303.91,Single-ply,SBD,F
Girls,75.07,5,Celeste Salinas,Clute Brazoswood,69.13,113.4,61.23,102.06,276.69,Single-ply,SBD,F
Girls,75.07,6,Rebekah Maynor,West Columbia,72.94,97.52,54.43,122.47,274.42,Single-ply,SBD,F
Girls,75.07,7,Marlene Hipolito,Hitchcock,73.94,115.67,43.09,106.59,265.35,Single-ply,SBD,F
Girls,75.07,8,Sanua Scott,Hitchcock,69.85,106.59,54.43,90.72,251.74,Single-ply,SBD,F
Girls,75.07,9,Yesenia Ceballos,Freeport Brazosport,68.86,83.91,47.63,104.33,235.87,Single-ply,SBD,F
Girls,75.07,10,Abby Creswell,West Columbia,70.94,65.77,52.16,97.52,215.46,Single-ply,SBD,F
Girls,75.07,11,Jennifer Galindo,Alvin Shadow Creek,72.48,65.77,38.56,70.31,174.63,Single-ply,SBD,F
Girls,82.33,1,Tiana McClendon,Alvin Shadow Creek,81.74,124.74,65.77,127.01,317.51,Single-ply,SBD,F
Girls,82.33,2,Sarah Briggs,Sweeny,76.75,117.93,68.04,120.2,306.17,Single-ply,SBD,F
Girls,82.33,3,Hailey Santimauro,Sweeny,75.75,133.81,54.43,115.67,303.91,Single-ply,SBD,F
Girls,82.33,4,Kennedi Williams,Manvel,77.29,102.06,45.36,113.4,260.82,Single-ply,SBD,F
Girls,82.33,5,Maria Castro,Manvel,77.75,106.59,45.36,102.06,254.01,Single-ply,SBD,F
Girls,82.33,6,Kassisdy Tucker,Sweeny,79.02,117.93,52.16,79.38,249.48,Single-ply,SBD,F
Girls,82.33,7,Ashley Cabrales,Clute Brazoswood,77.93,81.65,54.43,97.52,233.6,Single-ply,SBD,F
Girls,82.33,8,Cassandra Ruiz,Alvin Shadow Creek,81.56,86.18,38.56,102.06,226.8,Single-ply,SBD,F
Girls,82.33,9,Melissa Hernandez,Alvin Shadow Creek,78.11,68.04,38.56,79.38,185.97,Single-ply,SBD,F
Girls,90.04,1,Lorelei Irby,Sweeny,89.9,183.7,99.79,154.22,437.72,Single-ply,SBD,F
Girls,90.04,2,Racheal Brown,West Columbia,87.63,158.76,77.11,156.49,392.36,Single-ply,SBD,F
Girls,90.04,3,Eryanna Copeland,Hitchcock,89.81,149.69,77.11,136.08,362.87,Single-ply,SBD,F
Girls,90.04,4,Bianca Paniagua,Clute Brazoswood,89.99,106.59,56.7,115.67,278.96,Single-ply,SBD,F
Girls,90.04,5,Alexxus Cole,Stafford,83.01,102.06,40.82,127.01,269.89,Single-ply,SBD,F
Girls,90.04,6,Alyssa Buentello,Sweeny,83.46,106.59,56.7,106.59,269.89,Single-ply,SBD,F
Girls,90.04,7,Camren Miller,Freeport Brazosport,88.54,102.06,38.56,102.06,242.67,Single-ply,SBD,F
Girls,100.02,1,Lataevia Thomas,Freeport Brazosport,96.98,172.37,79.38,165.56,417.3,Single-ply,SBD,F
Girls,100.02,2,Asianna Stewart,Sweeny,97.61,124.74,81.65,120.2,326.59,Single-ply,SBD,F
Girls,100.02,3,Emily Ramos,Hitchcock,93.98,133.81,61.23,117.93,312.98,Single-ply,SBD,F
Girls,100.02,4,Caitlynn Wichman,Sweeny,97.52,117.93,58.97,122.47,299.37,Single-ply,SBD,F
Girls,100.02,5,Tyra Patterson,Sweeny,94.8,115.67,56.7,111.13,283.5,Single-ply,SBD,F
Girls,100.02,6,Thalia Pina,Freeport Brazosport,100.02,54.43,36.29,102.06,192.78,Single-ply,SBD,F
Girls,100.02,7,Jocelyn Ochoa,Freeport Brazosport,99.97,70.31,38.56,81.65,190.51,Single-ply,SBD,F
Girls,117.71,1,Dariah Jennings,Alvin Shadow Creek,114.76,154.22,63.5,163.29,381.02,Single-ply,SBD,F
Girls,117.71,2,Eryn Harris,Clute Brazoswood,102.42,149.69,88.45,133.81,371.95,Single-ply,SBD,F
Girls,117.71,3,Ashlyn Moore,Sweeny,111.58,129.27,77.11,108.86,315.25,Single-ply,SBD,F
Girls,117.71,4,Lauryn Fisher,West Columbia,110.68,106.59,74.84,124.74,306.17,Single-ply,SBD,F
Girls,117.71,5,Katieana Amponsah,Stafford,102.51,99.79,40.82,95.25,235.87,Single-ply,SBD,F
Girls,117.71,6,Beyonce Twine,Stafford,112.94,86.18,38.56,79.38,204.12,Single-ply,SBD,F
Girls,117.71,DQ,Kamri Preston,Hitchcock,109.86,158.76,77.11,,,Single-ply,SBD,F
Girls,117.71+,1,Aniya Carter,Alvin Shadow Creek,118.57,81.65,43.09,102.06,226.8,Single-ply,SBD,F
Girls,117.71+,2,Kambrie Michie,Freeport Brazosport,119.29,52.16,36.29,102.06,190.51,Single-ply,SBD,F
Girls,117.71+,3,Emma May,Freeport Brazosport,120.56,54.43,29.48,61.23,145.15,Single-ply,SBD,F
