Division,WeightClassKg,Place,Name,Team,BodyweightKg,Best3SquatKg,Best3BenchKg,Best3DeadliftKg,TotalKg,Equipment,Event,Sex
Boys,51.71,1,Dominique John,Mansfield Summit,50.21,133.81,77.11,176.9,387.82,Single-ply,SBD,M
Boys,55.79,2,Dominique Moreland,Mansfield Summit,51.94,140.61,81.65,149.69,371.95,Single-ply,SBD,M
Boys,51.71,3,Michael Dixon,Mansfield,47.58,124.74,74.84,136.08,335.66,Single-ply,SBD,M
Boys,55.79,4,Ashton Williams,Everman,51.94,115.67,61.23,151.95,328.85,Single-ply,SBD,M
Boys,51.71,5,Shafiq Asmaty,Kennedale,51.26,104.33,58.97,106.59,269.89,Single-ply,SBD,M
Boys,51.71,6,Mohammad Ali,Mansfield Timberview,45.36,97.52,45.36,106.59,249.48,Single-ply,SBD,M
Boys,51.71,7,Brennan Morrell,Mansfield Legacy,49.12,83.91,56.7,92.99,233.6,Single-ply,SBD,M
Boys,51.71,8,Kyle Lovejoy,Burleson Centennial,46.9,92.99,45.36,90.72,229.06,Single-ply,SBD,M
Boys,51.71,9,Kendall Kuklies,Cleburne,39.69,88.45,45.36,88.45,222.26,Single-ply,SBD,M
Boys,51.71,DQ,Mike Pope,North Crowley,50.58,,,,,Single-ply,SBD,M
Boys,55.79,DQ,Calvin Ford,Burleson,52.8,,,,,Single-ply,SBD,M
Boys,59.87,2,Colton Bedford,Burleson,55.93,158.76,106.59,167.83,433.18,Single-ply,SBD,M
Boys,55.79,3,Austin Wooldridge,Mansfield Legacy,55.38,145.15,99.79,145.15,390.09,Single-ply,SBD,M
Boys,59.87,4,Alejandra Olmos,Everman,56.02,142.88,104.33,136.08,383.29,Single-ply,SBD,M
Boys,55.79,5,Kevin Henry,Mansfield,55.25,131.54,81.65,140.61,353.8,Single-ply,SBD,M
Boys,55.79,6,Albert Acheampong,Mansfield Summit,54.79,127.01,74.84,136.08,337.93,Single-ply,SBD,M
Boys,59.87,7,Kyler Jordan,Burleson Centennial,56.02,108.86,49.9,108.86,267.62,Single-ply,SBD,M
Boys,59.87,1,Shon Parker,Dallas Seagoville,59.65,174.63,127.01,208.65,510.29,Single-ply,SBD,M
Boys,67.13,2,Tyler Hickman,Joshua,60.1,179.17,104.33,204.12,487.61,Single-ply,SBD,M
Boys,67.13,3,AmonTah Settle,Mansfield Summit,60.1,145.15,79.38,167.83,392.36,Single-ply,SBD,M
Boys,59.87,4,Fouad Ali,Kennedale,59.47,136.08,88.45,165.56,390.09,Single-ply,SBD,M
Boys,67.13,5,Gary Hampton,Everman,60.1,122.47,68.04,161.03,351.53,Single-ply,SBD,M
Boys,59.87,6,Kyle Kriby,Burleson Centennial,59.1,136.08,56.7,136.08,328.85,Single-ply,SBD,M
Boys,67.13,7,Brandon Green,Mansfield Timberview,60.1,124.74,54.43,142.88,322.05,Single-ply,SBD,M
Boys,59.87,8,Devion Simpson,North Crowley,59.01,108.86,63.5,136.08,308.44,Single-ply,SBD,M
Boys,59.87,9,Caleb Waugh,Mansfield Legacy,58.88,117.93,70.31,113.4,301.64,Single-ply,SBD,M
Boys,59.87,10,Robert Sims,Fort Worth Arlington Heights,56.7,120.2,61.23,113.4,294.84,Single-ply,SBD,M
Boys,67.13,1,Clarington Lightfoot,Everman,61.01,226.8,106.59,215.46,548.85,Single-ply,SBD,M
Boys,67.13,2,Nolan Salas,Crowley,66.22,226.8,115.67,199.58,542.04,Single-ply,SBD,M
Boys,67.13,3,David Carter,Everman,66.68,204.12,108.86,217.72,530.7,Single-ply,SBD,M
Boys,67.13,4,Rene Rivas,Venus,66.18,181.44,102.06,199.58,483.08,Single-ply,SBD,M
Boys,67.13,5,Jared Clark,Burleson,67.13,181.44,108.86,174.63,464.93,Single-ply,SBD,M
Boys,74.84,6,Trey Williams,Kennedale,67.36,174.63,99.79,174.63,449.06,Single-ply,SBD,M
Boys,67.13,7,Dakota Kundent,Burleson,67.13,145.15,120.2,174.63,439.98,Single-ply,SBD,M
Boys,74.84,8,Cameron Johns,South Grand Prairie,67.36,179.17,104.33,156.49,439.98,Single-ply,SBD,M
Boys,74.84,9,Devin Walker,Everman,67.36,190.51,113.4,136.08,439.98,Single-ply,SBD,M
Boys,67.13,10,Jake Cook,Mansfield,62.23,154.22,90.72,154.22,399.16,Single-ply,SBD,M
Boys,67.13,11,Tony Armador,Cleburne,66.68,142.88,88.45,142.88,374.21,Single-ply,SBD,M
Boys,67.13,12,Jeremy Fuentes,Cleburne,66.68,147.42,74.84,149.69,371.95,Single-ply,SBD,M
Boys,67.13,13,Michael Garcia,Fort Worth Paschal,63.64,120.2,74.84,154.22,349.27,Single-ply,SBD,M
Boys,67.13,14,Ryan McBeth,North Crowley,61.46,124.74,58.97,149.69,333.39,Single-ply,SBD,M
Boys,67.13,DQ,Ronald Ford,North Crowley,65.68,181.44,,,,Single-ply,SBD,M
Boys,67.13,DQ,Coy Hart,Venus,65.09,163.29,,,,Single-ply,SBD,M
Boys,74.84,DQ,Brandon Marsh,Burleson Centennial,67.36,163.29,,,,Single-ply,SBD,M
Boys,74.84,1,Dylan Byrd,Joshua,74.34,249.48,161.03,222.26,632.76,Single-ply,SBD,M
Boys,82.1,2,Brandon Allen #3,Mansfield Summit,75.07,174.63,120.2,226.8,521.63,Single-ply,SBD,M
Boys,82.1,3,Alex Swisher,Cleburne,75.07,192.78,97.52,195.04,485.34,Single-ply,SBD,M
Boys,74.84,4,Wilbert Presley,South Grand Prairie,73.39,161.03,122.47,174.63,458.13,Single-ply,SBD,M
Boys,74.84,5,Richard Akinwale,Mansfield,74.34,167.83,97.52,172.37,437.72,Single-ply,SBD,M
Boys,82.1,6,Ben Hoyt,Fort Worth Paschal,75.07,154.22,88.45,181.44,424.11,Single-ply,SBD,M
Boys,74.84,7,Jt Ibe,Mansfield,68.27,167.83,74.84,176.9,419.57,Single-ply,SBD,M
Boys,74.84,8,Matthew O'Brian,Mansfield Timberview,73.84,149.69,95.25,174.63,419.57,Single-ply,SBD,M
Boys,82.1,9,Henry Manning,Fort Worth Paschal,75.07,156.49,97.52,165.56,419.57,Single-ply,SBD,M
Boys,74.84,10,Collin Radford,Joshua,71.89,138.35,95.25,181.44,415.04,Single-ply,SBD,M
Boys,74.84,11,Matt Jones,Mansfield,68.04,151.95,97.52,156.49,405.97,Single-ply,SBD,M
Boys,74.84,12,Jorge Cruz,Grand Prairie,73.12,142.88,104.33,158.76,405.97,Single-ply,SBD,M
Boys,74.84,13,Tracey Walker,Mansfield Timberview,71.89,149.69,92.99,158.76,401.43,Single-ply,SBD,M
Boys,74.84,14,Sydney Lester,Crowley,73.94,140.61,106.59,145.15,392.36,Single-ply,SBD,M
Boys,74.84,15,Riley Parovlek,Kennedale,68.13,138.35,83.91,163.29,385.55,Single-ply,SBD,M
Boys,74.84,16,David Leal,Fort Worth Paschal,70.99,136.08,77.11,158.76,371.95,Single-ply,SBD,M
Boys,74.84,17,Travis Ferguson,Fort Worth Arlington Heights,73.71,142.88,79.38,149.69,371.95,Single-ply,SBD,M
Boys,74.84,18,Michael Clift,Venus,74.84,138.35,70.31,131.54,340.19,Single-ply,SBD,M
Boys,74.84,19,Regan Roberts,Crowley,68.04,117.93,74.84,120.2,312.98,Single-ply,SBD,M
Boys,74.84,DQ,Collin Seago,Burleson,72.85,204.12,,,,Single-ply,SBD,M
Boys,74.84,DQ,Patrick Eisner,Burleson Centennial,74.75,154.22,,,,Single-ply,SBD,M
Boys,82.1,DQ,Blake Dunham,Burleson Centennial,74.93,170.1,,,,Single-ply,SBD,M
Boys,82.1,1,Scott Froman,Fort Worth Paschal,81.69,210.92,133.81,208.65,553.38,Single-ply,SBD,M
Boys,89.81,2,Ben Ohene,Mansfield Summit,82.33,185.97,115.67,226.8,528.44,Single-ply,SBD,M
Boys,82.1,3,Brendan Lavergne,Mansfield Summit,79.92,185.97,113.4,226.8,526.17,Single-ply,SBD,M
Boys,82.1,4,KJ Evans,Joshua,80.2,199.58,113.4,208.65,521.63,Single-ply,SBD,M
Boys,82.1,5,Eddie Smith,South Grand Prairie,80.97,183.7,131.54,206.38,521.63,Single-ply,SBD,M
Boys,82.1,6,Marcus Lattimore,Mansfield Legacy,78.47,183.7,131.54,192.78,508.02,Single-ply,SBD,M
Boys,82.1,7,Ray Hollins,North Crowley,82.01,188.24,111.13,204.12,503.49,Single-ply,SBD,M
Boys,82.1,8,Zach Haler,Cleburne,77.07,181.44,122.47,192.78,496.68,Single-ply,SBD,M
Boys,82.1,9,Matthew Nieman,Mansfield Legacy,77.02,188.24,108.86,188.24,485.34,Single-ply,SBD,M
Boys,82.1,10,Trey McGahan,Kennedale,80.65,195.04,90.72,192.78,478.54,Single-ply,SBD,M
Boys,82.1,11,Hunter Smith,Kennedale,81.83,188.24,90.72,190.51,469.47,Single-ply,SBD,M
Boys,82.1,12,Quantence Walker,Everman,77.92,172.37,95.25,176.9,444.52,Single-ply,SBD,M
Boys,89.81,13,Trevoris Buckner,Grand Prairie,82.28,161.03,95.25,185.97,442.25,Single-ply,SBD,M
Boys,82.1,14,Ramizes Norris,Everman,79.38,161.03,81.65,197.31,439.98,Single-ply,SBD,M
Boys,82.1,15,Cameron Bundy,Kennedale,79.74,167.83,102.06,170.1,439.98,Single-ply,SBD,M
Boys,82.1,16,Eric Martinez,Venus,78.7,161.03,95.25,172.37,428.64,Single-ply,SBD,M
Boys,82.1,17,Darian Adams,Everman,79.97,142.88,104.33,181.44,428.64,Single-ply,SBD,M
Boys,82.1,18,Lee Brooks,Kennedale,80.29,151.95,104.33,165.56,421.84,Single-ply,SBD,M
Boys,89.81,19,Daniel Ambriz,Everman,82.28,149.69,77.11,140.61,367.41,Single-ply,SBD,M
Boys,82.1,20,Domingo Fuentes,Everman,77.02,122.47,72.57,149.69,344.73,Single-ply,SBD,M
Boys,82.1,DQ,Zach Maxey,Joshua,80.33,201.85,,,,Single-ply,SBD,M
Boys,89.81,DQ,Tony Rubio,Grand Prairie,82.19,165.56,,,,Single-ply,SBD,M
Boys,89.81,1,Ozioma Ejim,Mansfield Summit,89.36,226.8,136.08,285.76,648.64,Single-ply,SBD,M
Boys,99.79,2,Cedric Shaw,Everman,90.04,251.74,127.01,222.26,601.01,Single-ply,SBD,M
Boys,89.81,3,Chris Carnes,Burleson,86.27,226.8,142.88,224.53,594.21,Single-ply,SBD,M
Boys,89.81,4,Michael Adefolarin,Mansfield Timberview,86.95,215.46,124.74,217.72,557.92,Single-ply,SBD,M
Boys,89.81,5,John Blair,Cleburne,89.77,213.19,129.27,213.19,555.65,Single-ply,SBD,M
Boys,89.81,6,Josh Whitworth,Joshua,86.14,192.78,113.4,226.8,532.97,Single-ply,SBD,M
Boys,89.81,7,Derrick Ndede,Mansfield Legacy,87.72,201.85,120.2,197.31,519.36,Single-ply,SBD,M
Boys,99.79,8,Samuel Amaka,Mansfield Timberview,90.04,201.85,102.06,181.44,485.34,Single-ply,SBD,M
Boys,99.79,9,Daniel Reiling,Fort Worth Paschal,89.86,172.37,111.13,197.31,480.81,Single-ply,SBD,M
Boys,89.81,10,Reggie Austin,North Crowley,87.63,181.44,124.74,170.1,476.27,Single-ply,SBD,M
Boys,89.81,11,Luqman Adeniyi,Mansfield,88.95,181.44,95.25,192.78,469.47,Single-ply,SBD,M
Boys,99.79,12,Devin Jackson,Kennedale,89.86,181.44,86.18,172.37,439.98,Single-ply,SBD,M
Boys,89.81,13,Dickson Caldwell,Fort Worth Paschal,86.18,165.56,79.38,170.1,415.04,Single-ply,SBD,M
Boys,89.81,14,Lane Walker,Mansfield Timberview,88.86,158.76,90.72,163.29,412.77,Single-ply,SBD,M
Boys,89.81,15,Jose Galindo,Fort Worth South Hills,84.82,142.88,65.77,145.15,353.8,Single-ply,SBD,M
Boys,89.81,DQ,Jacob Rose,Milford,88.04,174.63,,,,Single-ply,SBD,M
Boys,109.77,1,Eissa Eissa,Joshua,99.97,260.82,151.95,229.06,641.83,Single-ply,SBD,M
Boys,99.79,2,Kentrell Joyner,Mansfield,99.7,235.87,147.42,242.67,625.96,Single-ply,SBD,M
Boys,99.79,3,Cameron Chamberlain,Burleson,96.3,226.8,147.42,195.04,569.26,Single-ply,SBD,M
Boys,99.79,4,Dub Ingram,Mansfield Legacy,97.48,222.26,142.88,192.78,557.92,Single-ply,SBD,M
Boys,99.79,5,Addison Parrish,Burleson,95.62,226.8,124.74,201.85,553.38,Single-ply,SBD,M
Boys,99.79,6,Jaquan Richmond,North Crowley,95.93,195.04,140.61,217.72,553.38,Single-ply,SBD,M
Boys,99.79,7,Jorge Acevedo,Mansfield Timberview,93.44,208.65,140.61,199.58,548.85,Single-ply,SBD,M
Boys,99.79,8,Jordan Anderson,South Grand Prairie,97.61,192.78,129.27,224.53,546.58,Single-ply,SBD,M
Boys,99.79,9,Chris McCoy,Mansfield Timberview,98.88,217.72,122.47,204.12,544.31,Single-ply,SBD,M
Boys,99.79,10,Andrew Loos,Mansfield Summit,99.25,190.51,136.08,204.12,530.7,Single-ply,SBD,M
Boys,109.77,11,James Thornburg,Cleburne,100.02,213.19,122.47,195.04,530.7,Single-ply,SBD,M
Boys,99.79,12,Chris Navarro,North Crowley,94.17,176.9,115.67,206.38,498.95,Single-ply,SBD,M
Boys,109.77,13,Matt Kress,Burleson Centennial,99.93,176.9,102.06,181.44,460.4,Single-ply,SBD,M
Boys,99.79,14,Demitri Webb,Fort Worth Arlington Heights,95.71,142.88,120.2,192.78,455.86,Single-ply,SBD,M
Boys,99.79,15,Bimi Shabani,Fort Worth Arlington Heights,90.72,158.76,108.86,181.44,449.06,Single-ply,SBD,M
Boys,109.77,16,Brandon Hunt,South Grand Prairie,100.02,167.83,104.33,165.56,437.72,Single-ply,SBD,M
Boys,99.79,17,Marquez Cruz,Joshua,98.07,151.95,90.72,176.9,419.57,Single-ply,SBD,M
Boys,99.79,18,Robert Ramirez,Fort Worth South Hills,96.16,127.01,97.52,120.2,344.73,Single-ply,SBD,M
Boys,99.79,19,Anthony Strother,Crowley,91.63,102.06,88.45,102.06,292.57,Single-ply,SBD,M
Boys,99.79,DQ,Martin Gomez,Grand Prairie,91.81,,,,,Single-ply,SBD,M
Boys,99.79,DQ,Jarrod Graham,North Crowley,90.49,,,,,Single-ply,SBD,M
Boys,109.77,1,Devin Benton,Mansfield Summit,108.77,231.33,174.63,272.16,678.12,Single-ply,SBD,M
Boys,109.77,2,Paul Cox,Everman,106.59,272.16,151.95,242.67,666.78,Single-ply,SBD,M
Boys,109.77,3,Dayrell Freeman,Crowley,103.87,274.42,149.69,240.4,664.51,Single-ply,SBD,M
Boys,124.74,4,Michael Stanley,Burleson,109.91,242.67,147.42,219.99,610.08,Single-ply,SBD,M
Boys,109.77,5,Rene Lawson,Mansfield Timberview,107.14,226.8,133.81,226.8,587.4,Single-ply,SBD,M
Boys,109.77,6,Hunter Heins,Burleson,104.33,217.72,131.54,226.8,576.06,Single-ply,SBD,M
Boys,109.77,7,Sean Young,Cleburne,105.73,215.46,131.54,217.72,564.72,Single-ply,SBD,M
Boys,109.77,8,Koltyn Davis,Kennedale,100.7,213.19,122.47,215.46,551.11,Single-ply,SBD,M
Boys,109.77,9,Donte Fraklin,North Crowley,106.23,208.65,131.54,199.58,539.77,Single-ply,SBD,M
Boys,109.77,10,Kenny DeLeon,Venus,101.65,215.46,111.13,199.58,526.17,Single-ply,SBD,M
Boys,109.77,11,Matt Keller,Fort Worth Paschal,108,190.51,120.2,208.65,519.36,Single-ply,SBD,M
Boys,109.77,12,Mutrye Hammatah,North Crowley,103.56,170.1,111.13,226.8,508.02,Single-ply,SBD,M
Boys,109.77,13,Ty Underwood,Burleson Centennial,104.33,188.24,122.47,172.37,483.08,Single-ply,SBD,M
Boys,109.77,14,Serigo Garcia,Fort Worth Arlington Heights,107.95,183.7,97.52,183.7,464.93,Single-ply,SBD,M
Boys,109.77,15,Eric Presscott,Fort Worth Arlington Heights,108.86,174.63,113.4,142.88,430.91,Single-ply,SBD,M
Boys,124.74,16,Nolin Anderson,North Crowley,109.95,165.56,72.57,188.24,426.38,Single-ply,SBD,M
Boys,109.77,17,Jessie Deckard,Everman,106.78,154.22,99.79,158.76,412.77,Single-ply,SBD,M
Boys,109.77,18,Lionel Bellazin,Everman,108.73,154.22,95.25,151.95,401.43,Single-ply,SBD,M
Boys,109.77,19,Victor Tores,Fort Worth South Hills,107.5,151.95,92.99,133.81,378.75,Single-ply,SBD,M
Boys,109.77,DQ,Darwin Figeroa,Grand Prairie,100.88,156.49,,,,Single-ply,SBD,M
Boys,109.77,DQ,Shawn Edwards,North Crowley,104.24,,,,,Single-ply,SBD,M
Boys,124.74,1,Derek Carrington,Burleson,120.84,283.5,136.08,244.94,664.51,Single-ply,SBD,M
Boys,124.74+,2,Fred Gipson,Everman,124.96,263.08,176.9,208.65,648.64,Single-ply,SBD,M
Boys,124.74,3,TJ Williams,Fort Worth Paschal,123.65,247.21,120.2,249.48,616.89,Single-ply,SBD,M
Boys,124.74,4,Diego Mejia,Everman,116.12,263.08,124.74,224.53,612.35,Single-ply,SBD,M
Boys,124.74,5,Othon Perales,Fort Worth Arlington Heights,114.89,235.87,147.42,215.46,598.74,Single-ply,SBD,M
Boys,124.74,6,Ernest Thomas,Fort Worth Arlington Heights,118.84,235.87,156.49,201.85,594.21,Single-ply,SBD,M
Boys,124.74,7,Kimball Williams,North Crowley,110.4,251.74,136.08,204.12,591.94,Single-ply,SBD,M
Boys,124.74,8,Timberin Shanks,Crowley,114.99,251.74,147.42,188.24,587.4,Single-ply,SBD,M
Boys,124.74,9,John Resendez,North Crowley,119.7,226.8,131.54,226.8,585.13,Single-ply,SBD,M
Boys,124.74,10,Derrian Johnson,North Crowley,118.02,226.8,102.06,235.87,564.72,Single-ply,SBD,M
Boys,124.74,11,Anthony Zapata,Everman,117.53,229.06,111.13,210.92,551.11,Single-ply,SBD,M
Boys,124.74,12,Pedro Rojas,Dallas Seagoville,118.39,185.97,167.83,197.31,551.11,Single-ply,SBD,M
Boys,124.74,13,Ivan Garciduenas,Burleson Centennial,122.15,204.12,136.08,201.85,542.04,Single-ply,SBD,M
Boys,124.74,14,Dakota Larson,Venus,119.39,208.65,133.81,185.97,528.44,Single-ply,SBD,M
Boys,124.74,15,JaQuosie Brown,Fort Worth South Hills,118.84,183.7,136.08,183.7,503.49,Single-ply,SBD,M
Boys,124.74,16,Quandre Scott,Fort Worth South Hills,122.47,190.51,129.27,183.7,503.49,Single-ply,SBD,M
Boys,124.74,17,Russell Manning,Grand Prairie,117.21,192.78,102.06,204.12,498.95,Single-ply,SBD,M
Boys,124.74,18,Geno Whitt,Burleson Centennial,118.84,217.72,95.25,183.7,496.68,Single-ply,SBD,M
Boys,124.74,19,Ethan Jones,Burleson,117.21,204.12,115.67,170.1,489.88,Single-ply,SBD,M
Boys,124.74,20,Alejandro Garcia,Fort Worth South Hills,120.66,165.56,115.67,185.97,467.2,Single-ply,SBD,M
Boys,124.74,21,Paul Granados,Fort Worth South Hills,114.31,161.03,77.11,138.35,376.48,Single-ply,SBD,M
Boys,124.74,22,Alan Johnson,North Crowley,116.03,133.81,77.11,133.81,344.73,Single-ply,SBD,M
Boys,124.74,DQ,Aystin McCord,Joshua,116.94,197.31,,,,Single-ply,SBD,M
Boys,124.74+,1,Xavier Johnson,Burleson,147.15,317.51,192.78,317.51,827.81,Single-ply,SBD,M
Boys,124.74+,2,Bobby Romero,Everman,148.87,317.51,204.12,260.82,782.45,Single-ply,SBD,M
Boys,124.74+,3,Marcel McDowell,Mansfield Legacy,137.89,272.16,158.76,219.99,650.91,Single-ply,SBD,M
Boys,124.74+,DQ,Bobby Lynch,Burleson,137.89,,,,,Single-ply,SBD,M
Boys,124.74+,5,Dylan Baldeschwiler,Burleson,127.28,249.48,151.95,215.46,616.89,Single-ply,SBD,M
Boys,124.74+,6,Jimmy Miller,Mansfield Summit,187.33,240.4,149.69,226.8,616.89,Single-ply,SBD,M
Boys,124.74+,7,Benny Williams,Fort Worth Arlington Heights,128.82,238.14,149.69,217.72,605.55,Single-ply,SBD,M
Boys,124.74+,8,Colten Pena,Joshua,152,249.48,156.49,197.31,603.28,Single-ply,SBD,M
Boys,124.74+,9,Alan Crottie,North Crowley,140.25,229.06,131.54,190.51,551.11,Single-ply,SBD,M
Boys,124.74+,10,Hyland Mullins,Fort Worth Paschal,130.73,215.46,108.86,215.46,539.77,Single-ply,SBD,M
Boys,124.74+,11,Eduardo Cassio,Cleburne,129.55,226.8,124.74,183.7,535.24,Single-ply,SBD,M
Boys,124.74+,12,Nathan Brown,Kennedale,130.59,204.12,117.93,204.12,526.17,Single-ply,SBD,M
Boys,124.74+,13,Kyle Green,Joshua,150.64,195.04,142.88,183.7,521.63,Single-ply,SBD,M
Boys,124.74+,14,Daryl Westbrook,Fort Worth South Hills,162.39,176.9,120.2,183.7,480.81,Single-ply,SBD,M
Boys,124.74+,15,Davion Ferguson,North Crowley,131.18,190.51,92.99,190.51,474,Single-ply,SBD,M
Boys,124.74+,16,Jesse Venegas,Fort Worth South Hills,135.62,170.1,106.59,147.42,424.11,Single-ply,SBD,M
Boys,124.74+,17,Marcos Arvizu,Fort Worth South Hills,153.31,174.63,102.06,142.88,419.57,Single-ply,SBD,M
Boys,124.74+,DQ,Jacinto Villereal,Grand Prairie,131.72,170.1,,,,Single-ply,SBD,M
