Division,WeightClassKg,Place,Name,Team,BodyweightKg,Best3SquatKg,Best3BenchKg,Best3DeadliftKg,TotalKg,Equipment,Event,Sex
Boys,51.71,1,Masih Zaman,Katy Mayde Creek,51.71,136.08,79.38,145.15,360.61,Single-ply,SBD,M
Boys,51.71,2,Kenny Nguyen,Dickinson,51.71,136.08,86.18,117.93,340.19,Single-ply,SBD,M
Boys,51.71,3,Anthony Grimes,Katy Mayde Creek,51.71,113.4,70.31,147.42,331.12,Single-ply,SBD,M
Boys,51.71,4,Fidencio Cruz,Dickinson,50.8,127.01,58.97,117.93,303.91,Single-ply,SBD,M
Boys,51.71,5,Gemargo Peterson,Houston Madison,49.44,113.4,74.84,102.06,290.3,Single-ply,SBD,M
Boys,51.71,6,Anthon Galvan,Channelview,49.9,106.59,61.23,120.2,288.03,Single-ply,SBD,M
Boys,51.71,7,Gabe Aguilar,La Porte,50.35,102.06,52.16,106.59,260.82,Single-ply,SBD,M
Boys,51.71,DQ,Blank Blank,Houston Lamar,51.71,,,,,Single-ply,SBD,M
Boys,51.71,DQ,Sergio Bautista,Houston Milby,51.71,,,,,Single-ply,SBD,M
Boys,55.79,1,Chris Smith,Katy Mayde Creek,55.34,201.85,113.4,238.14,553.38,Single-ply,SBD,M
Boys,55.79,2,Andrew Brooks,Houston Madison,55.79,192.78,97.52,181.44,471.74,Single-ply,SBD,M
Boys,55.79,3,Alex Sharp,Dickinson,54.43,174.63,108.86,158.76,442.25,Single-ply,SBD,M
Boys,55.79,4,Joseph Dodds,Dickinson,55.79,165.56,90.72,154.22,410.5,Single-ply,SBD,M
Boys,55.79,5,Sergio Vences,La Porte,55.79,158.76,83.91,161.03,403.7,Single-ply,SBD,M
Boys,55.79,6,Angel Garcia,Katy Mayde Creek,55.79,158.76,79.38,158.76,396.89,Single-ply,SBD,M
Boys,55.79,7,Jacob Simpson,Houston Bellaire,54.88,124.74,83.91,138.35,347,Single-ply,SBD,M
Boys,55.79,8,Brian Frank,Houston Madison,52.62,117.93,65.77,108.86,292.57,Single-ply,SBD,M
Boys,55.79,9,Justin Densen,Houston Lamar,55.79,102.06,54.43,104.33,260.82,Single-ply,SBD,M
Boys,55.79,DQ,Mark Esparza,Houston Milby,54.43,77.11,77.11,,,Single-ply,SBD,M
Boys,59.87,1,Juan Nunez,Katy Mayde Creek,59.87,154.22,83.91,170.1,408.23,Single-ply,SBD,M
Boys,59.87,2,Luis McDaniel,La Porte,58.06,147.42,92.99,136.08,376.48,Single-ply,SBD,M
Boys,59.87,3,Merbin Valladeras,Katy Mayde Creek,56.25,131.54,86.18,147.42,365.14,Single-ply,SBD,M
Boys,59.87,4,Bryce Walker,Houston Madison,57.15,151.95,74.84,136.08,362.87,Single-ply,SBD,M
Boys,59.87,5,Andrew Cantu,Houston Milby,57.61,113.4,79.38,149.69,342.46,Single-ply,SBD,M
Boys,59.87,6,Ramiro Barron,Danbury,58.51,131.54,68.04,142.88,342.46,Single-ply,SBD,M
Boys,59.87,7,Oscar Abrego,Houston Chavez,58.97,129.27,63.5,142.88,335.66,Single-ply,SBD,M
Boys,59.87,8,Don Hernandez,Danbury,57.15,117.93,65.77,142.88,326.59,Single-ply,SBD,M
Boys,59.87,9,Ricardo Garza,Houston Lamar,59.87,111.13,90.72,117.93,319.78,Single-ply,SBD,M
Boys,59.87,10,Wesely Evans,La Porte,56.25,120.2,68.04,127.01,315.25,Single-ply,SBD,M
Boys,59.87,11,Eric White,Houston Milby,57.15,95.25,79.38,136.08,310.71,Single-ply,SBD,M
Boys,59.87,12,Jeff Ryan,Danbury,56.25,106.59,56.7,108.86,272.16,Single-ply,SBD,M
Boys,59.87,13,Jasson Hernandez,Houston Chavez,58.51,74.84,70.31,124.74,269.89,Single-ply,SBD,M
Boys,67.13,1,Rodney Bigham,Channelview,61.69,181.44,120.2,204.12,505.76,Single-ply,SBD,M
Boys,67.13,2,Danzel Granderson,Channelview,66.68,183.7,102.06,219.99,505.76,Single-ply,SBD,M
Boys,67.13,3,Jesse Trevino,Houston Chavez,64.86,185.97,106.59,190.51,483.08,Single-ply,SBD,M
Boys,67.13,4,Shawn Foster,Dickinson,66.68,188.24,104.33,188.24,480.81,Single-ply,SBD,M
Boys,67.13,5,Ronald Winston,Katy Mayde Creek,65.77,183.7,99.79,183.7,467.2,Single-ply,SBD,M
Boys,67.13,6,Kevin Reid,Houston Bellaire,66.22,149.69,113.4,163.29,426.38,Single-ply,SBD,M
Boys,67.13,7,Brandon Jenkens,Houston Chavez,63.96,142.88,61.23,142.88,347,Single-ply,SBD,M
Boys,67.13,DQ,Zuhayr Ali,Houston Bellaire,67.13,,,,,Single-ply,SBD,M
Boys,67.13,DQ,Rosendo Medina,Danbury,67.13,,,,,Single-ply,SBD,M
Boys,67.13,DQ,Matt Shaver,Danbury,67.13,,,,,Single-ply,SBD,M
Boys,67.13,DQ,Josh Salas,Katy Mayde Creek,67.13,,,,,Single-ply,SBD,M
Boys,74.84,1,Justin Hicks,Channelview,74.39,204.12,136.08,249.48,589.67,Single-ply,SBD,M
Boys,74.84,2,Luke Chimes,Dickinson,74.84,226.8,136.08,226.8,589.67,Single-ply,SBD,M
Boys,74.84,3,Jeremy McNeal,La Porte,68.95,185.97,136.08,204.12,526.17,Single-ply,SBD,M
Boys,74.84,4,Garrett Reagan,Dickinson,74.84,204.12,115.67,201.85,521.63,Single-ply,SBD,M
Boys,74.84,5,AJ Coleman,Houston Chavez,73.94,197.31,97.52,204.12,498.95,Single-ply,SBD,M
Boys,74.84,6,Dante Alfred,Baytown Lee,72.12,179.17,111.13,197.31,487.61,Single-ply,SBD,M
Boys,74.84,7,Matt Wynn,Danbury,74.39,185.97,86.18,188.24,460.4,Single-ply,SBD,M
Boys,74.84,8,Victor Tran,Dickinson,73.03,188.24,102.06,165.56,455.86,Single-ply,SBD,M
Boys,74.84,9,Donald Hudson,Houston Lamar,73.03,154.22,113.4,170.1,437.72,Single-ply,SBD,M
Boys,74.84,10,Montez Scott,La Porte,74.84,174.63,102.06,136.08,412.77,Single-ply,SBD,M
Boys,74.84,11,Jose Olivas,Houston Milby,70.31,131.54,106.59,163.29,401.43,Single-ply,SBD,M
Boys,74.84,12,Tra'voen Ellis,Houston Chavez,71.21,149.69,79.38,170.1,399.16,Single-ply,SBD,M
Boys,74.84,13,George Sanders,Houston Chavez,72.57,142.88,92.99,158.76,394.63,Single-ply,SBD,M
Boys,74.84,14,Karl Terrebone,La Porte,73.48,142.88,88.45,149.69,381.02,Single-ply,SBD,M
Boys,74.84,15,Chris Vasquez,Baytown Lee,71.21,120.2,74.84,161.03,356.07,Single-ply,SBD,M
Boys,74.84,16,Dantre Leopaul,Pasadena Memorial,70.31,115.67,90.72,145.15,351.53,Single-ply,SBD,M
Boys,74.84,17,Toby Medina,Danbury,73.48,136.08,63.5,142.88,342.46,Single-ply,SBD,M
Boys,74.84,18,David SanMiguel,Pasadena Memorial,74.39,113.4,81.65,124.74,319.78,Single-ply,SBD,M
Boys,74.84,19,TeAndre Garrett,Houston Furr,68.04,106.59,83.91,124.74,315.25,Single-ply,SBD,M
Boys,74.84,20,Darius Jenkins,Houston Milby,68.49,102.06,72.57,140.61,315.25,Single-ply,SBD,M
Boys,74.84,21,Jonathan Vasquez,Houston Bellaire,74.84,156.49,,,156.49,Single-ply,S,M
Boys,74.84,DQ,Jacob Foyt,Danbury,74.84,,,,,Single-ply,S,M
Boys,74.84,DQ,Joe Mireles,Baytown Lee,74.84,,,,,Single-ply,S,M
Boys,74.84,DQ,Benjamin McIntire,Houston Furr,74.84,,,,,Single-ply,S,M
Boys,74.84,DQ,Eric Olvera,Houston Math Science & Tech,74.84,,,,,Single-ply,S,M
Boys,74.84,DQ,Eric Morales,Houston Bellaire,74.84,149.69,,181.44,,Single-ply,SD,M
Boys,82.1,1,Kevin Orellana,Katy Mayde Creek,82.1,249.48,142.88,242.67,635.03,Single-ply,SBD,M
Boys,82.1,2,Jordan Glenn,Houston Bellaire,81.19,215.46,154.22,254.01,623.69,Single-ply,SBD,M
Boys,82.1,3,Tim Ward,Katy Mayde Creek,81.19,254.01,115.67,233.6,603.28,Single-ply,SBD,M
Boys,82.1,4,Ashton Smith,Channelview,82.1,215.46,136.08,183.7,535.24,Single-ply,SBD,M
Boys,82.1,5,John Lee,Dickinson,80.29,208.65,97.52,192.78,498.95,Single-ply,SBD,M
Boys,82.1,6,Darrius Weatherspoon,Houston Lamar,82.1,163.29,131.54,181.44,476.27,Single-ply,SBD,M
Boys,82.1,7,Tim Gay,Houston Chavez,78.93,181.44,92.99,185.97,460.4,Single-ply,SBD,M
Boys,82.1,8,Jose Baltazar,Danbury,80.29,181.44,102.06,172.37,455.86,Single-ply,SBD,M
Boys,82.1,9,Luis Fuente,Houston Lamar,80.29,165.56,102.06,185.97,453.59,Single-ply,SBD,M
Boys,82.1,10,Juan Delgado,Danbury,76.2,161.03,90.72,181.44,433.18,Single-ply,SBD,M
Boys,82.1,11,Raul Gama,Houston Math Science & Tech,76.66,136.08,83.91,161.03,381.02,Single-ply,SBD,M
Boys,82.1,12,Trenth Davis,Houston Milby,77.11,102.06,95.25,145.15,342.46,Single-ply,SBD,M
Boys,82.1,DQ,Alfredo Franco,Houston Math Science & Tech,82.1,,,,,Single-ply,SBD,M
Boys,82.1,DQ,Antonio Montoya,Baytown Lee,82.1,,,,,Single-ply,SBD,M
Boys,82.1,DQ,Dan Devine,Houston Lamar,80.29,,,,,Single-ply,SBD,M
Boys,89.81,1,Byron Wells,Dickinson,85.28,217.72,136.08,238.14,591.94,Single-ply,SBD,M
Boys,89.81,2,Dustin Hicks,Channelview,83.91,215.46,142.88,215.46,573.79,Single-ply,SBD,M
Boys,89.81,3,Jason Ramirez,Channelview,87.54,210.92,131.54,226.8,569.26,Single-ply,SBD,M
Boys,89.81,4,Marcus Moody,Stafford,88.45,215.46,120.2,222.26,557.92,Single-ply,SBD,M
Boys,89.81,5,Derrick Thompson,Houston Chavez,87.54,195.04,108.86,183.7,487.61,Single-ply,SBD,M
Boys,89.81,6,Tyrone Graves,La Porte,88.45,174.63,111.13,172.37,458.13,Single-ply,SBD,M
Boys,89.81,7,Chris Wilson,Houston Milby,83.01,142.88,102.06,172.37,417.3,Single-ply,SBD,M
Boys,89.81,8,Caleb Osborne,Danbury,84.82,161.03,81.65,163.29,405.97,Single-ply,SBD,M
Boys,89.81,9,Chris Devine,Houston Lamar,85.73,136.08,111.13,151.95,399.16,Single-ply,SBD,M
Boys,89.81,10,Cesar Garza,Houston Chavez,85.73,120.2,113.4,158.76,392.36,Single-ply,SBD,M
Boys,89.81,11,Rocky Duplant,Houston Furr,87.09,117.93,111.13,158.76,387.82,Single-ply,SBD,M
Boys,89.81,12,Jose Molina,Houston Furr,83.01,111.13,115.67,158.76,385.55,Single-ply,SBD,M
Boys,89.81,13,Walter Pratt,Houston Math Science & Tech,83.91,142.88,83.91,149.69,376.48,Single-ply,SBD,M
Boys,89.81,14,Steve Lopez,Houston Chavez,84.82,124.74,86.18,165.56,376.48,Single-ply,SBD,M
Boys,89.81,15,Rey Lopez,Houston Chavez,84.82,113.4,79.38,145.15,337.93,Single-ply,SBD,M
Boys,89.81,16,Jesus Gomes,Houston Furr,87.54,117.93,99.79,117.93,335.66,Single-ply,SBD,M
Boys,89.81,17,Christian Ibarra,Houston Milby,83.46,124.74,74.84,129.27,328.85,Single-ply,SBD,M
Boys,89.81,18,Randy Nahhrun,Houston Westside,85.28,115.67,61.23,142.88,319.78,Single-ply,SBD,M
Boys,89.81,19,Jesus Morales,Houston Milby,84.82,181.44,,,181.44,Single-ply,S,M
Boys,89.81,DQ,Trey Brown,Houston Westside,89.81,,,,,Single-ply,S,M
Boys,89.81,DQ,Francisco Trevino,Baytown Lee,89.81,,,,,Single-ply,S,M
Boys,89.81,DQ,Zach Gunn,Pasadena Memorial,89.81,,,,,Single-ply,S,M
Boys,89.81,DQ,Oscar Ramirez,Katy Mayde Creek,89.81,,,,,Single-ply,S,M
Boys,89.81,DQ,Khaled Abdulmajid,Houston Lamar,85.73,,,,,Single-ply,S,M
Boys,89.81,DQ,Daniel Arias,Houston Madison,89.36,145.15,,,,Single-ply,S,M
Boys,89.81,DQ,Tony Pullings,Katy Mayde Creek,89.36,238.14,,,,Single-ply,S,M
Boys,99.79,1,Roderick Wiltz,Houston Madison,96.16,215.46,129.27,215.46,560.19,Single-ply,SBD,M
Boys,99.79,2,James Johnson,Houston Chavez,92.99,199.58,111.13,213.19,523.9,Single-ply,SBD,M
Boys,99.79,3,Ambrose Page,Houston Bellaire,98.88,190.51,136.08,181.44,508.02,Single-ply,SBD,M
Boys,99.79,4,Kenneth Quintana,Channelview,93.89,197.31,113.4,183.7,494.42,Single-ply,SBD,M
Boys,99.79,5,Alex Flores,Houston Madison,96.62,183.7,102.06,192.78,478.54,Single-ply,SBD,M
Boys,99.79,6,Javier Colunga,Houston Lamar,94.35,158.76,104.33,170.1,433.18,Single-ply,SBD,M
Boys,99.79,DQ,Prince Onye,Houston Westside,99.79,,,,,Single-ply,SBD,M
Boys,99.79,DQ,Nestor Gonzales,Houston Milby,99.79,,,,,Single-ply,SBD,M
Boys,99.79,DQ,Ryan Cruz,Houston Westside,95.25,133.81,,,,Single-ply,SBD,M
Boys,99.79,DQ,Ricca Simmons,Houston Chavez,99.79,,,,,Single-ply,SBD,M
Boys,99.79,DQ,Dietric Bowens,Houston Chavez,99.79,,,,,Single-ply,SBD,M
Boys,99.79,DQ,Segundo Abrego,Houston Chavez,99.79,,,,,Single-ply,SBD,M
Boys,109.77,1,Stephon Williams,Houston Madison,100.7,249.48,161.03,240.4,650.91,Single-ply,SBD,M
Boys,109.77,2,Josue Toledo,Channelview,108.86,249.48,136.08,249.48,635.03,Single-ply,SBD,M
Boys,109.77,3,Brett Urbanowski,Katy Mayde Creek,105.23,204.12,129.27,249.48,582.87,Single-ply,SBD,M
Boys,109.77,4,Nick Simpson,Houston Madison,104.33,208.65,113.4,215.46,537.51,Single-ply,SBD,M
Boys,109.77,5,Christian Vasquez,Houston Westside,101.15,199.58,127.01,170.1,496.68,Single-ply,SBD,M
Boys,109.77,6,Logan Brewer,Houston Lamar,108.86,158.76,136.08,179.17,474,Single-ply,SBD,M
Boys,109.77,7,Jemi Villa,Houston Math Science & Tech,101.6,102.06,142.88,176.9,421.84,Single-ply,SBD,M
Boys,109.77,8,Josh Roundtree,Houston Westside,108.41,142.88,106.59,165.56,415.04,Single-ply,SBD,M
Boys,109.77,9,Javier Bermutiz,Houston Westside,108.86,142.88,83.91,174.63,401.43,Single-ply,SBD,M
Boys,109.77,10,Ricardo Garcia,Houston Milby,104.78,133.81,102.06,151.95,387.82,Single-ply,SBD,M
Boys,109.77,11,Everado Cisneros,Houston Westside,104.33,142.88,92.99,145.15,381.02,Single-ply,SBD,M
Boys,109.77,12,Julio Fat,Houston Milby,106.59,142.88,79.38,156.49,378.75,Single-ply,SBD,M
Boys,109.77,13,Juan Izzaguire,Baytown Lee,103.87,124.74,92.99,156.49,374.21,Single-ply,SBD,M
Boys,109.77,DQ,Frank Green,Dickinson,109.77,,,,,Single-ply,SBD,M
Boys,109.77,DQ,Arturo Rivera,Houston Milby,109.77,,,,,Single-ply,SBD,M
Boys,109.77,DQ,Kevin Arcizo,Houston Milby,109.77,,,,,Single-ply,SBD,M
Boys,109.77,DQ,Richard Russel,Houston Madison,109.77,,,,,Single-ply,SBD,M
Boys,109.77,DQ,Jimmerick McCarter,Houston Westside,109.77,,65.77,138.35,,Single-ply,SBD,M
Boys,124.74,1,Julius Davilla,Pasadena Memorial,116.57,238.14,151.95,244.94,635.03,Single-ply,SBD,M
Boys,124.74,2,Matt Simonette,Houston Bellaire,124.74,256.28,172.37,204.12,632.76,Single-ply,SBD,M
Boys,124.74,3,Tim Smith,Baytown Lee,124.28,235.87,147.42,242.67,625.96,Single-ply,SBD,M
Boys,124.74,4,Chris Rose,Houston Madison,117.03,226.8,136.08,208.65,571.53,Single-ply,SBD,M
Boys,124.74,5,Avery Garcia,Baytown Lee,111.13,226.8,138.35,192.78,557.92,Single-ply,SBD,M
Boys,124.74,6,Lamil Kawah,Houston Madison,114.76,208.65,136.08,188.24,532.97,Single-ply,SBD,M
Boys,124.74,7,Cole Ralston,La Porte,124.74,204.12,104.33,204.12,512.56,Single-ply,SBD,M
Boys,124.74,8,Diego Lona,Houston Westside,111.58,151.95,97.52,188.24,437.72,Single-ply,SBD,M
Boys,124.74,9,Jonathan Ho,Channelview,116.12,158.76,102.06,174.63,435.45,Single-ply,SBD,M
Boys,124.74,10,Chris Nguyen,Houston Westside,114.31,142.88,102.06,174.63,419.57,Single-ply,SBD,M
Boys,124.74,11,Dillan Warner,Danbury,115.21,163.29,68.04,181.44,412.77,Single-ply,SBD,M
Boys,124.74,12,Cleveland Sims,Houston Madison,123.83,147.42,83.91,161.03,392.36,Single-ply,SBD,M
Boys,124.74,13,Dorian Wilson,Houston Westside,112.49,142.88,95.25,124.74,362.87,Single-ply,SBD,M
Boys,124.74,14,Irvin Arana,Houston Milby,117.93,117.93,72.57,147.42,337.93,Single-ply,SBD,M
Boys,124.74,15,Gerain Picaz,Channelview,124.74,117.93,,,117.93,Single-ply,S,M
Boys,124.74,DQ,Josh Contreras,Baytown Lee,124.74,,,,,Single-ply,S,M
Boys,124.74,DQ,Colby Geissen,Danbury,124.74,,,,,Single-ply,S,M
Boys,124.74,DQ,Javier Roel,Houston Math Science & Tech,124.74,,,,,Single-ply,S,M
Boys,124.74+,1,Rafael Gallo,Katy Mayde Creek,127.46,317.51,165.56,272.16,755.23,Single-ply,SBD,M
Boys,124.74+,2,Revis Davis,La Porte,140.61,249.48,179.17,258.55,687.19,Single-ply,SBD,M
Boys,124.74+,3,Charles Phillips,Houston Madison,133.81,249.48,165.56,192.78,607.81,Single-ply,SBD,M
Boys,124.74+,4,Felix Aguirre,Houston Math Science & Tech,149.69,249.48,136.08,204.12,589.67,Single-ply,SBD,M
Boys,124.74+,5,Anthony Landry,Houston Bellaire,136.98,208.65,147.42,224.53,580.6,Single-ply,SBD,M
Boys,124.74+,6,Michael Abrams,Houston Bellaire,127.01,233.6,113.4,204.12,551.11,Single-ply,SBD,M
Boys,124.74+,7,Larry Smith,La Porte,157.4,217.72,147.42,185.97,551.11,Single-ply,SBD,M
Boys,124.74+,8,Malcolm Hickenbothem,Houston Lamar,136.53,190.51,136.08,190.51,517.1,Single-ply,SBD,M
Boys,124.74+,9,Germaine Ifedi,Houston Westside,138.35,210.92,102.06,201.85,514.83,Single-ply,SBD,M
Boys,124.74+,10,Jared McFarlen,Houston Chavez,129.73,185.97,83.91,161.03,430.91,Single-ply,SBD,M
