Division,WeightClassKg,Place,Name,Team,BodyweightKg,Best3SquatKg,Best3BenchKg,Best3DeadliftKg,TotalKg,Equipment,Event,Sex
Boys,51.71,1,Trey Jimenez,Sweetwater,50.71,122.47,65.77,120.2,308.44,Single-ply,SBD,M
Boys,51.71,2,Nick Boyd,Colorado City Colorado,50.35,88.45,56.7,117.93,263.08,Single-ply,SBD,M
Boys,51.71,3,Chase White,Colorado City Colorado,49.44,90.72,49.9,120.2,260.82,Single-ply,SBD,M
Boys,51.71,4,Daniel Vela-Wences,Coahoma,47.99,61.23,54.43,77.11,192.78,Single-ply,SBD,M
Boys,55.79,1,Ethan Rodriguez,Midland Lee,54.88,102.06,95.25,124.74,322.05,Single-ply,SBD,M
Boys,55.79,2,Joseph Connell,Colorado City Colorado,54.43,86.18,56.7,129.27,272.16,Single-ply,SBD,M
Boys,55.79,3,Jack Blair,Midland Greenwood,53.43,95.25,58.97,111.13,265.35,Single-ply,SBD,M
Boys,55.79,4,Teagan Marlow,Midland,53.89,99.79,52.16,113.4,265.35,Single-ply,SBD,M
Boys,55.79,DQ,Augustine Maldonado,Midland,53.89,,,,,Single-ply,SBD,M
Boys,59.87,1,Isaac Estrada,Odessa,58.51,170.1,102.06,170.1,442.25,Single-ply,SBD,M
Boys,59.87,2,Junie Gonzales,Midland Greenwood,58.69,147.42,81.65,151.95,381.02,Single-ply,SBD,M
Boys,59.87,3,Blake Scott,Sweetwater,59.78,142.88,95.25,142.88,381.02,Single-ply,SBD,M
Boys,59.87,4,Chris Almaguer,Stanton,57.79,127.01,81.65,140.61,349.27,Single-ply,SBD,M
Boys,59.87,5,Johnny Martinez,Odessa Permian,57.97,127.01,77.11,142.88,347,Single-ply,SBD,M
Boys,59.87,6,Paul McMillian,Midland Classical Academy,56.52,106.59,61.23,154.22,322.05,Single-ply,SBD,M
Boys,59.87,7,Chris Ortiz,Colorado City Colorado,59.33,127.01,61.23,129.27,317.51,Single-ply,SBD,M
Boys,59.87,8,Mason Hudgins,Coahoma,57.97,104.33,61.23,124.74,290.3,Single-ply,SBD,M
Boys,59.87,9,Braden Waggoner,Stanton,59.06,113.4,65.77,106.59,285.76,Single-ply,SBD,M
Boys,59.87,10,Robert Jerez,Midland Greenwood,57.52,90.72,40.82,104.33,235.87,Single-ply,SBD,M
Boys,67.13,1,Jorge Martinez,Snyder,63.87,174.63,97.52,208.65,480.81,Single-ply,SBD,M
Boys,67.13,2,Kendal Adames,Sweetwater,65.14,158.76,86.18,185.97,430.91,Single-ply,SBD,M
Boys,67.13,3,Josh Ruiz,Coahoma,64.95,136.08,92.99,163.29,392.36,Single-ply,SBD,M
Boys,67.13,4,Ryan Austin,Midland Greenwood,64.86,142.88,90.72,145.15,378.75,Single-ply,SBD,M
Boys,67.13,5,Ramiro Aguilar,Hawley,65.77,136.08,68.04,151.95,356.07,Single-ply,SBD,M
Boys,67.13,6,Tab Cowan,Midland Greenwood,62.14,136.08,86.18,131.54,353.8,Single-ply,SBD,M
Boys,67.13,7,Tayo Dada,Midland Lee,62.78,120.2,74.84,158.76,353.8,Single-ply,SBD,M
Boys,67.13,8,Colton Childress,Hawley,62.23,115.67,70.31,115.67,301.64,Single-ply,SBD,M
Boys,67.13,9,Nicholas Harrell,Colorado City Colorado,66.54,111.13,58.97,122.47,292.57,Single-ply,SBD,M
Boys,67.13,10,Damian Rains,Coahoma,65.68,113.4,65.77,97.52,276.69,Single-ply,SBD,M
Boys,74.84,1,Brody Jasso,Snyder,74.66,208.65,115.67,204.12,528.44,Single-ply,SBD,M
Boys,74.84,2,Josh Camacho,Sweetwater,69.76,183.7,106.59,201.85,492.15,Single-ply,SBD,M
Boys,74.84,3,Tim Gates,Odessa Permian,74.84,181.44,108.86,201.85,492.15,Single-ply,SBD,M
Boys,74.84,4,Javon Mathews,Midland,69.58,201.85,92.99,183.7,478.54,Single-ply,SBD,M
Boys,74.84,5,Roberto Montez,Midland Lee,69.04,154.22,113.4,188.24,455.86,Single-ply,SBD,M
Boys,74.84,6,Oscar Sanchez,Odessa,73.48,149.69,92.99,167.83,410.5,Single-ply,SBD,M
Boys,74.84,7,Kyle Nichols,Hawley,72.12,151.95,83.91,170.1,405.97,Single-ply,SBD,M
Boys,74.84,8,Tim Avila,Stanton,74.84,163.29,106.59,136.08,405.97,Single-ply,SBD,M
Boys,74.84,9,Julian Vizcaino,Odessa,73.48,145.15,95.25,158.76,399.16,Single-ply,SBD,M
Boys,74.84,10,Jake Connell,Colorado City Colorado,74.84,147.42,97.52,151.95,396.89,Single-ply,SBD,M
Boys,74.84,11,David Hunt,Stanton,72.57,151.95,86.18,147.42,385.55,Single-ply,SBD,M
Boys,74.84,12,Artem Brendle,Midland Greenwood,74.84,142.88,99.79,142.88,385.55,Single-ply,SBD,M
Boys,74.84,13,Thomas Wells,Midland,70.03,142.88,65.77,154.22,362.87,Single-ply,SBD,M
Boys,74.84,14,Blaine Ramos,Odessa,67.68,129.27,81.65,147.42,358.34,Single-ply,SBD,M
Boys,74.84,15,Patrick Gutierrez,Coahoma,71.58,127.01,79.38,136.08,342.46,Single-ply,SBD,M
Boys,74.84,16,Cade Clary,Midland Classical Academy,68.22,108.86,65.77,158.76,333.39,Single-ply,SBD,M
Boys,74.84,17,Zach Kidd,Midland Greenwood,69.94,117.93,83.91,131.54,333.39,Single-ply,SBD,M
Boys,74.84,18,Jarod Humphries,Midland Greenwood,73.39,117.93,77.11,117.93,312.98,Single-ply,SBD,M
Boys,74.84,19,Grayson Layh,Midland Classical Academy,67.68,102.06,65.77,142.88,310.71,Single-ply,SBD,M
Boys,74.84,20,Brandon Barreras,Midland,74.03,106.59,47.63,113.4,267.62,Single-ply,SBD,M
Boys,74.84,DQ,Mack Plemons,Midland,72.94,142.88,,,,Single-ply,SBD,M
Boys,74.84,DQ,Ethan Brockman,Sweetwater,70.58,,,,,Single-ply,SBD,M
Boys,82.1,1,Nestor Jiminez,Midland Lee,75.66,251.74,136.08,254.01,641.83,Single-ply,SBD,M
Boys,82.1,2,Jj Burns,Snyder,81.74,244.94,124.74,244.94,614.62,Single-ply,SBD,M
Boys,82.1,3,Jazreel Sanchez-Juarez,Odessa,79.92,197.31,120.2,210.92,528.44,Single-ply,SBD,M
Boys,82.1,4,Jonathan Valdez,Snyder,76.84,195.04,104.33,174.63,474,Single-ply,SBD,M
Boys,82.1,5,Leo Uresti,Midland Lee,79.47,158.76,115.67,197.31,471.74,Single-ply,SBD,M
Boys,82.1,6,Ethan Quaid,Stanton,78.83,165.56,108.86,170.1,444.52,Single-ply,SBD,M
Boys,82.1,7,Tyler Paris,Odessa,80.74,129.27,120.2,190.51,439.98,Single-ply,SBD,M
Boys,82.1,8,Zion Ward,Midland,80.92,181.44,79.38,158.76,419.57,Single-ply,SBD,M
Boys,82.1,DQ,Wyatt McCoy,Sweetwater,80.47,158.76,90.72,,,Single-ply,SBD,M
Boys,89.81,1,Keegan Dobbs,Coahoma,87.54,229.06,124.74,206.38,560.19,Single-ply,SBD,M
Boys,89.81,2,Tony Padilla,Sweetwater,82.83,195.04,127.01,217.72,539.77,Single-ply,SBD,M
Boys,89.81,3,John Flores,Snyder,87.54,210.92,124.74,183.7,519.36,Single-ply,SBD,M
Boys,89.81,4,Colton Marshall,Hawley,88.18,170.1,127.01,204.12,501.22,Single-ply,SBD,M
Boys,89.81,5,Bryson Duncan,Snyder,86.82,204.12,108.86,181.44,494.42,Single-ply,SBD,M
Boys,89.81,6,Chris Pina,Midland Lee,83.01,181.44,124.74,183.7,489.88,Single-ply,SBD,M
Boys,89.81,7,Tate Thompson,Hawley,85.73,179.17,124.74,174.63,478.54,Single-ply,SBD,M
Boys,89.81,8,Luke Bland,Odessa Permian,83.91,158.76,90.72,142.88,392.36,Single-ply,SBD,M
Boys,89.81,9,Karson Martin,Colorado City Colorado,88.9,136.08,61.23,147.42,344.73,Single-ply,SBD,M
Boys,89.81,10,Elyin Lopez,Midland,83.55,124.74,56.7,106.59,288.03,Single-ply,SBD,M
Boys,89.81,11,Brett Blassingame,Colorado City Colorado,87.54,102.06,56.7,127.01,285.76,Single-ply,SBD,M
Boys,89.81,DQ,Tony Hatfield,Stanton,84.46,163.29,,,,Single-ply,SBD,M
Boys,99.79,1,Sean Ramirez,Odessa Permian,98.52,256.28,183.7,238.14,678.12,Single-ply,SBD,M
Boys,99.79,2,Reyes Silva,Snyder,96.16,235.87,122.47,226.8,585.13,Single-ply,SBD,M
Boys,99.79,3,Gary Brooks,Odessa,91.99,210.92,122.47,188.24,521.63,Single-ply,SBD,M
Boys,99.79,4,Ashton Smith,Stanton,99.61,188.24,136.08,192.78,517.1,Single-ply,SBD,M
Boys,99.79,5,Colton Strickland,Hawley,92.44,183.7,111.13,201.85,496.68,Single-ply,SBD,M
Boys,99.79,6,Jorge Pegueros,Odessa Permian,95.16,188.24,124.74,181.44,494.42,Single-ply,SBD,M
Boys,99.79,7,David Martinez,Odessa Permian,94.8,190.51,111.13,163.29,464.93,Single-ply,SBD,M
Boys,99.79,8,Jeremy Le,Sweetwater,99.61,176.9,108.86,165.56,451.32,Single-ply,SBD,M
Boys,99.79,9,Daniel Magallanes,Midland,97.43,108.86,61.23,158.76,328.85,Single-ply,SBD,M
Boys,109.77,1,Justin Castereno,Sweetwater,107.59,263.08,161.03,256.28,680.39,Single-ply,SBD,M
Boys,109.77,2,Cameron Burger,Midland Greenwood,103.15,240.4,124.74,208.65,573.79,Single-ply,SBD,M
Boys,109.77,3,Ricky Soto,Hawley,108.95,217.72,142.88,206.38,566.99,Single-ply,SBD,M
Boys,109.77,4,Bobby Zambrano,Coahoma,108.95,215.46,151.95,192.78,560.19,Single-ply,SBD,M
Boys,109.77,5,Nathaniel Whitmore,Forsan,104.05,199.58,136.08,201.85,537.51,Single-ply,SBD,M
Boys,109.77,6,Michael Huff,Colorado City Colorado,109.77,204.12,136.08,195.04,535.24,Single-ply,SBD,M
Boys,109.77,7,Zach Heller,Midland Lee,105.87,204.12,133.81,192.78,530.7,Single-ply,SBD,M
Boys,109.77,8,Ely Barrera,Sweetwater,105.14,185.97,102.06,240.4,528.44,Single-ply,SBD,M
Boys,109.77,9,Cameron Allen,Forsan,108.95,179.17,97.52,181.44,458.13,Single-ply,SBD,M
Boys,109.77,10,Justin Howeth,Hawley,108.14,158.76,117.93,165.56,442.25,Single-ply,SBD,M
Boys,109.77,11,Tristen Williams,Odessa Permian,107.77,181.44,86.18,167.83,435.45,Single-ply,SBD,M
Boys,109.77,12,Manny Ramirez,Odessa Permian,105.41,167.83,106.59,156.49,430.91,Single-ply,SBD,M
Boys,109.77,13,Garret Bowers,Roscoe Collegiate,104.51,149.69,79.38,174.63,403.7,Single-ply,SBD,M
Boys,109.77,14,Drake Womack,Odessa Permian,106.87,163.29,90.72,136.08,390.09,Single-ply,SBD,M
Boys,109.77,15,Reuben Lujan,Odessa Permian,109.77,158.76,79.38,133.81,371.95,Single-ply,SBD,M
Boys,109.77,16,Noah Harrell,Colorado City Colorado,102.06,131.54,77.11,145.15,353.8,Single-ply,SBD,M
Boys,109.77,17,Korey Bass,Odessa Permian,109.13,129.27,61.23,131.54,322.05,Single-ply,SBD,M
Boys,109.77,18,Hernandez Adam,Colorado City Colorado,102.06,106.59,56.7,129.27,292.57,Single-ply,SBD,M
Boys,109.77,DQ,Francisco Nave,Odessa,101.7,219.99,147.42,,,Single-ply,SBD,M
Boys,124.74,1,Kolter Willeford,Hawley,120.66,281.23,174.63,260.82,716.68,Single-ply,SBD,M
Boys,124.74,2,Bo Thompson,Hawley,118.75,249.48,204.12,233.6,687.19,Single-ply,SBD,M
Boys,124.74,3,Dakota Nichols,Hawley,120.66,233.6,183.7,210.92,628.23,Single-ply,SBD,M
Boys,124.74,4,Spencer Blue,Midland,118.84,224.53,145.15,235.87,605.55,Single-ply,SBD,M
Boys,124.74,5,Javier Cabello,Odessa,111.04,213.19,102.06,224.53,539.77,Single-ply,SBD,M
Boys,124.74,6,Isaiah Casias,Odessa Permian,111.86,204.12,124.74,192.78,521.63,Single-ply,SBD,M
Boys,124.74,7,Thad Hazelwood,Hawley,119.48,181.44,142.88,188.24,512.56,Single-ply,SBD,M
Boys,124.74,8,Aries Gilbert,Forsan,112.76,190.51,122.47,185.97,498.95,Single-ply,SBD,M
Boys,124.74,9,Isaak Gamboa,Odessa Permian,120.84,183.7,108.86,172.37,464.93,Single-ply,SBD,M
Boys,124.74,10,Jake Patterson,Forsan,123.1,172.37,102.06,190.51,464.93,Single-ply,SBD,M
Boys,124.74,11,Joaquin Gonzalez,Odessa Permian,112.67,181.44,113.4,167.83,462.66,Single-ply,SBD,M
Boys,124.74,12,Emilio Dominguez,Odessa,123.92,183.7,111.13,163.29,458.13,Single-ply,SBD,M
Boys,124.74,13,Cole Brannon,Odessa Permian,112.49,172.37,106.59,163.29,442.25,Single-ply,SBD,M
Boys,124.74,14,Justin Marsh,Coahoma,119.57,145.15,95.25,170.1,410.5,Single-ply,SBD,M
Boys,124.74,15,Hagan Davilla,Odessa Permian,124.47,167.83,72.57,142.88,383.29,Single-ply,SBD,M
Boys,124.74+,1,Kobe Fahntrapp,Snyder,126.64,340.19,192.78,272.16,805.13,Single-ply,SBD,M
Boys,124.74+,2,Eric Cisneros,Midland Lee,142.7,285.76,151.95,249.48,687.19,Single-ply,SBD,M
Boys,124.74+,3,Alejandro Gonzales,Coahoma,169.01,240.4,151.95,181.44,573.79,Single-ply,SBD,M
Boys,124.74+,4,Roberto Perez,Stanton,139.34,208.65,106.59,181.44,496.68,Single-ply,SBD,M
Boys,124.74+,5,Kody Ramsey,Hawley,150.05,183.7,133.81,158.76,476.27,Single-ply,SBD,M
Boys,124.74+,6,Chris Corralez,Odessa Permian,135.35,170.1,90.72,158.76,419.57,Single-ply,SBD,M
Boys,124.74+,7,Marteis Rogers,Odessa Permian,128.91,163.29,104.33,138.35,405.97,Single-ply,SBD,M
Boys,124.74+,8,Nick Herndon,Odessa Permian,127.73,140.61,90.72,127.01,358.34,Single-ply,SBD,M
Boys,124.74+,DQ,Kamarion Jackson,Midland,127.28,124.74,108.86,,,Single-ply,SBD,M
