Place,Name,BirthYear,Country,BodyweightKg,Squat1Kg,Squat2Kg,Squat3Kg,Best3SquatKg,Bench1Kg,Bench2Kg,Bench3Kg,Bench4Kg,Best3BenchKg,Deadlift1Kg,Deadlift2Kg,Deadlift3Kg,Deadlift4Kg,Best3DeadliftKg,TotalKg,WeightClassKg,Division,Event,Sex,Equipment
1,Raija Koskinen-Jurkko,1963,Finland,43.9,160,-167.5,-167.5,160,75,80,-82.5,,80,147.5,155,-167.5,,155,395,44,Open,SBD,F,Single-ply
2,Olga Golubeva,1970,Russia,43.8,140,150,-155,150,-75,-75,75,,75,140,150,,,150,375,44,Open,SBD,F,Single-ply
3,Laurence Hernandez,1976,France,43.85,110,-115,-115,110,52.5,60,-65,,60,115,120,125,,125,295,44,Open,SBD,F,Single-ply
2,Bénédicte LePanse,1978,France,47.3,135,-140,-140,135,72.5,77.5,80,,80,125,130,-135,,130,345,48,Open,SBD,F,Single-ply
3,Karin Hollaus,1971,Austria,47.9,117.5,-122.5,122.5,122.5,65,67.5,70,,70,120,127.5,132.5,,132.5,325,48,Open,SBD,F,Single-ply
4,Agnieszka Pawlicka,1985,Poland,47.6,90,-95,-95,90,-40,-40,40,,40,85,-95,95,,95,225,48,Open,SBD,F,Single-ply
1,Oksana Pochinkina-Sokovnina,1986,Russia,47.65,145,155,165,165,90,100,105,,105,130,140,-147.5,,140,410,48,Open,SBD,F,Single-ply
1,Mervi Anita Rantamäki,1974,Finland,51.95,162.5,167.5,172.5,172.5,85,-87.5,87.5,,87.5,162.5,167.5,-182.5,,167.5,427.5,52,Open,SBD,F,Single-ply
2,Mervi Sirkiä,1972,Finland,51.65,150,155,162.5,162.5,87.5,-92.5,92.5,,92.5,155,165,-172.5,,165,420,52,Open,SBD,F,Single-ply
3,Teresa Sawyer,1963,UK,51.6,132.5,142.5,-147.5,142.5,87.5,95,-100,,95,132.5,142.5,-147.5,,142.5,380,52,Open,SBD,F,Single-ply
4,Maria Pia Salemme,1975,Italy,50.75,115,125,130,130,57.5,60,-62.5,,60,135,145,-150,,145,335,52,Open,SBD,F,Single-ply
5,Monika Gavorníková,1974,Slovakia,51.8,110,120,-122.5,120,80,85,-87.5,,85,115,122.5,-127.5,,122.5,327.5,52,Open,SBD,F,Single-ply
DQ,Evgeniya Arkhypenko,1983,Ukraine,51.5,160,167.5,-172.5,167.5,95,100,105,,105,-160,-160,-160,,,,52,Open,SBD,F,Single-ply
1,Inna Filimonova #1,1976,Russia,55.5,190,210,220,220,90,100,110,,110,170,185,-195,,185,515,56,Open,SBD,F,Single-ply
2,Olena Dmytruk,1983,Ukraine,54,160,167.5,170,170,105,110,115,,115,150,157.5,-160,,157.5,442.5,56,Open,SBD,F,Single-ply
3,Magdolna Petróczki,1968,Hungary,54.5,150,162.5,170,170,80,85,90,,90,155,165,175,,175,435,56,Open,SBD,F,Single-ply
4,Ana Garcia-Agundez,1971,France,55.45,150,157.5,162.5,162.5,92.5,97.5,102.5,,102.5,160,-167.5,-167.5,,160,425,56,Open,SBD,F,Single-ply
5,Maria Szymkowiak,1961,Poland,55.9,150,160,-165,160,80,-85,-85,,80,150,-160,160,,160,400,56,Open,SBD,F,Single-ply
6,Marie Eriksson,1978,Sweden,54.2,125,135,-142.5,135,67.5,72.5,-77.5,,72.5,140,157.5,165,,165,372.5,56,Open,SBD,F,Single-ply
7,Zsuzsa Graner,1982,Hungary,54.85,100,-115,115,115,75,-80,80,,80,110,120,130,,130,325,56,Open,SBD,F,Single-ply
1,Valentina Nelyubova,1966,Russia,59.75,195,205,210,210,132.5,145,152.5,155,152.5,182.5,195,202.5,,202.5,565,60,Open,SBD,F,Single-ply
3,Tetyana Prymenchuk,1972,Ukraine,59.8,185,200,207.5,207.5,125,130,135,,135,175,187.5,-192.5,,187.5,530,60,Open,SBD,F,Single-ply
5,Marian Gibson,1964,UK,59.15,-152.5,152.5,160,160,107.5,-112.5,-112.5,,107.5,170,177.5,-182.5,,177.5,445,60,Open,SBD,F,Single-ply
6,Synnøve Lund,1972,Norway,60,170,175,-180,175,97.5,100,-102.5,,100,152.5,162.5,167.5,,167.5,442.5,60,Open,SBD,F,Single-ply
7,Linda Kåda Høiland,1979,Norway,59.5,150,-162.5,162.5,162.5,80,-85,-85,,80,165,180,-182.5,,180,422.5,60,Open,SBD,F,Single-ply
8,Carina Persson,1967,Sweden,58.7,140,150,155,155,65,-70,-70,,65,155,170,172.5,,172.5,392.5,60,Open,SBD,F,Single-ply
2,Irina Poletaeva,1982,Russia,59.6,200,-205,205,205,135,147.5,152.5,,152.5,185,200,-207.5,,200,557.5,60,Open,SBD,F,Single-ply
4,Mariana Plaksyva,1987,Ukraine,59.9,190,205,212.5,212.5,90,100,-107.5,,100,177.5,187.5,-192.5,,187.5,500,60,Open,SBD,F,Single-ply
1,Larysa Vitsievska,1978,Ukraine,66.6,205,212.5,217.5,217.5,140,150,-160.5,,150,220,230,-240.5,,230,597.5,67.5,Open,SBD,F,Single-ply
2,Antoinetta Orsini,1964,Italy,66.75,197.5,-207.5,-207.5,197.5,130,135,137.5,,137.5,192.5,-202.5,202.5,,202.5,537.5,67.5,Open,SBD,F,Single-ply
3,Tetyana Skrypka,1987,Ukraine,66.05,185,197.5,-205,197.5,130,-135,137.5,,137.5,180,-192.5,-192.5,,180,515,67.5,Open,SBD,F,Single-ply
4,Gundula Fiona Sommer von Bachhaus,1981,Germany,63.4,165,-175,175,175,125,132.5,137.5,,137.5,165,182.5,187.5,,187.5,500,67.5,Open,SBD,F,Single-ply
5,Gillian Wright,1973,UK,67.2,165,-175,175,175,105,-112.5,-112.5,,105,190,200,-202.5,,200,480,67.5,Open,SBD,F,Single-ply
6,Bente Arntsen,1976,Norway,66.95,162.5,170,172.5,172.5,122.5,127.5,-130,,127.5,165,-170,170,,170,470,67.5,Open,SBD,F,Single-ply
7,Anna Dittler,1946,Hungary,67.25,160,165,-170,165,-85,-85,85,,85,140,-150,150,,150,400,67.5,Open,SBD,F,Single-ply
8,Romy Schreiber,1979,Germany,60.6,140,-150,-150,140,77.5,-82.5,-85.5,,77.5,150,157.5,162.5,,162.5,380,67.5,Open,SBD,F,Single-ply
9,Eszter Nagy,1976,Hungary,61.8,135,145,-155,145,90,-95,-100,,90,145,-150,-150,,145,380,67.5,Open,SBD,F,Single-ply
10,Judith Overbeek,1981,Netherlands,66.75,-127.5,127.5,-135,127.5,82.5,-87.5,-87.5,,82.5,125,135,-140,,135,345,67.5,Open,SBD,F,Single-ply
1,Yulia Zaugolova,1981,Russia,74.35,250,-260,260,260,145,157.5,165,,165,230,245,-255,,245,670,75,Open,SBD,F,Single-ply
2,Inger Blikra,1961,Norway,74.1,215,227.5,232.5,232.5,127.5,135,140,,140,207.5,217.5,-222.5,,217.5,590,75,Open,SBD,F,Single-ply
3,Heidi Hille Arnesen,1970,Norway,73.3,200,207.5,210,210,110,115,-117.5,,115,180,190,197.5,,197.5,522.5,75,Open,SBD,F,Single-ply
4,Jana Sedláčková,1980,Slovakia,75,170,182.5,-190,182.5,85,92.5,97.5,,97.5,200,207.5,210,,210,490,75,Open,SBD,F,Single-ply
5,Lena Tjäder,1980,Sweden,70.15,140,152.5,-157.5,152.5,95,100,102.5,,102.5,145,155,-157.5,,155,410,75,Open,SBD,F,Single-ply
6,Dóra Vári-Szabó,1982,Hungary,73.9,140,150,-155,150,-80,87.5,92.5,,92.5,140,150,-152.5,,150,392.5,75,Open,SBD,F,Single-ply
1,Svetlana Dedyulya,1975,Russia,81.45,230,-250,-250,230,170,190,200,,200,210,230,240,-245.5,240,670,82.5,Open,SBD,F,Single-ply
2,Anna Starodubtseva,1983,Ukraine,78.05,220,-232.5,232.5,232.5,130,140,150,,150,190,200,-215,,200,582.5,82.5,Open,SBD,F,Single-ply
3,Tarja Koski-Sipil,1980,Finland,82.15,200,207.5,217.5,217.5,117.5,122.5,127.5,,127.5,187.5,-192.5,192.5,,192.5,537.5,82.5,Open,SBD,F,Single-ply
4,Nikoletta Nánási,1982,Hungary,80.3,-195,195,202.5,202.5,120,-127.5,-132.5,,120,185,195,-200,,195,517.5,82.5,Open,SBD,F,Single-ply
5,Ingrid Vidiscakova,1981,Slovakia,75.9,-190,190,-210,190,-100,100,115,,115,167.5,175,-180,,175,480,82.5,Open,SBD,F,Single-ply
6,Leena Takamaa,1973,Sweden,81.1,155,-167.5,-167.5,155,-97.5,97.5,102.5,,102.5,160,167.5,-172.5,,167.5,425,82.5,Open,SBD,F,Single-ply
1,Iryna Yavorska,1981,Ukraine,88,240,247.5,255,255,160,172.5,177.5,,177.5,230,242.5,247.5,,247.5,680,90,Open,SBD,F,Single-ply
2,Evgeniya Mazaylova,1982,Russia,83.3,250,-262.5,262.5,262.5,155,162.5,-167.5,,162.5,240,-250,,,240,665,90,Open,SBD,F,Single-ply
3,Inna Orobets,1971,Ukraine,89.65,240,250,-257.5,250,-165,165,-167.5,,165,200,212.5,-217.5,,212.5,627.5,90,Open,SBD,F,Single-ply
4,Ielja Strik,1973,Netherlands,86.85,235,-245,245,245,165,175,-180,,175,202.5,-212.5,-212.5,,202.5,622.5,90,Open,SBD,F,Single-ply
5,Edina Ulveczki,1978,Hungary,85.3,-130,135,145,145,100,-110,-115,,100,140,150,155,,155,400,90,Open,SBD,F,Single-ply
6,Anna Kierul,1984,Poland,82.6,130,145,155,155,77.5,-82.5,-82.5,,77.5,120,130,140,,140,372.5,90,Open,SBD,F,Single-ply
7,Ágnes Szabó,1989,Hungary,87.25,95,105,-112.5,105,-92.5,92.5,97.5,,97.5,115,-125,-125,,115,317.5,90,Open,SBD,F,Single-ply
DQ,Eliška Koppová,1982,Czechia,88,-140,-140,-140,,,,,,,,,,,,,90,Open,SBD,F,Single-ply
1,Viktoriya Olenytsya,1984,Ukraine,123.3,240,-255,-255,240,165,177.5,185,,185,225,232.5,245,,245,670,90+,Open,SBD,F,Single-ply
2,Anastasia Pavlova,1968,Russia,111.4,-250,250,260,260,140,150,152.5,,152.5,225,,-245,,225,637.5,90+,Open,SBD,F,Single-ply
3,Joanne Schaefer,1967,Netherlands,105.6,220,230,240,240,160,170,-175,,170,205,215,220,,220,630,90+,Open,SBD,F,Single-ply
4,Anna Śliwińska,1982,Poland,90.5,210,220,-230,220,140,147.5,152.5,,152.5,185,200,210,,210,582.5,90+,Open,SBD,F,Single-ply
5,Lilian Matonina,1980,Estonia,98.7,-160,-160,170,170,105,115,-125,,115,190,-205,-205,,190,475,90+,Open,SBD,F,Single-ply
6,Eszter Szollos,1983,Hungary,106.25,130,135,-145,135,105,110,115,,115,135,145,150,,150,400,90+,Open,SBD,F,Single-ply
7,Anita Rasekn Standinger,1973,Hungary,91.15,-135,-135,140,140,95,102.5,-107.5,,102.5,110,120,-145,,120,362.5,90+,Open,SBD,F,Single-ply
