Division,WeightClassKg,Place,Name,Team,BodyweightKg,Best3SquatKg,Best3BenchKg,Best3DeadliftKg,TotalKg,Equipment,Event,Sex
Boys,55.79,1,Bryant Carruth,Lumberton,51.85,108.86,68.04,140.61,317.51,Single-ply,SBD,M
Boys,55.79,2,Michael Yu #2,Lumberton,51.8,108.86,65.77,120.2,294.84,Single-ply,SBD,M
Boys,51.71,3,Tyler Cooper,Vidor,42.96,92.99,38.56,95.25,226.8,Single-ply,SBD,M
Boys,59.87,1,Cortrae Wiggins,Bay City,56.02,129.27,74.84,142.88,347,Single-ply,SBD,M
Boys,55.79,DQ,Bailey Newcost,Nederland,55.38,120.2,72.57,,,Single-ply,SBD,M
Boys,55.79,DQ,Patrick Herfurth,Orange Little Cypress-Mauriceville,53.16,,,,,Single-ply,SBD,M
Boys,55.79,DQ,Travis White,Orange Little Cypress-Mauriceville,54.48,,,,,Single-ply,SBD,M
Boys,67.13,1,Austin Alexander,Conroe Caney Creek,59.92,172.37,95.25,183.7,451.32,Single-ply,SBD,M
Boys,59.87,2,Ashtin Reed,Bridge City,58.2,120.2,83.91,131.54,335.66,Single-ply,SBD,M
Boys,59.87,3,Fernando Mendez,Conroe Caney Creek,59.28,120.2,63.5,124.74,308.44,Single-ply,SBD,M
Boys,59.87,4,Cody Ball,Anahuac,57.47,104.33,56.7,113.4,274.42,Single-ply,SBD,M
Boys,67.13,1,Brice LaMach,Bay City,66.63,215.46,129.27,217.72,562.45,Single-ply,SBD,M
Boys,67.13,2,Darvin Gatlin,Beaumont West Brook,67,190.51,106.59,190.51,487.61,Single-ply,SBD,M
Boys,74.84,3,Devon Collins,Vidor,67.22,163.29,122.47,201.85,487.61,Single-ply,SBD,M
Boys,67.13,4,Zach Massey,Vidor,65.09,181.44,111.13,185.97,478.54,Single-ply,SBD,M
Boys,74.84,5,Richy Lyttle,New Caney Porter,67.31,190.51,102.06,185.97,478.54,Single-ply,SBD,M
Boys,67.13,6,James Pierce,Nederland,63.09,127.01,86.18,163.29,376.48,Single-ply,SBD,M
Boys,67.13,7,Lane Cappel,Nederland,60.83,131.54,72.57,145.15,349.27,Single-ply,SBD,M
Boys,67.13,8,Jerry Manning,Bay City,66.54,122.47,74.84,136.08,333.39,Single-ply,SBD,M
Boys,67.13,9,Da'Shaun Smith,Bay City,62.73,104.33,72.57,145.15,322.05,Single-ply,SBD,M
Boys,74.84,DQ,Kenneth Jackson,Beaumont West Brook,67.31,,,,,Single-ply,SBD,M
Boys,67.13,DQ,Tristen Minley,Nederland,61.82,145.15,,,,Single-ply,SBD,M
Boys,67.13,DQ,Javier Garcia,Orange Little Cypress-Mauriceville,62.55,172.37,,,,Single-ply,SBD,M
Boys,67.13,DQ,Drake Meaux,Nederland,61.92,,,,,Single-ply,SBD,M
Boys,74.84,1,Courtland Taylor,Bay City,71.35,229.06,131.54,204.12,564.72,Single-ply,SBD,M
Boys,74.84,2,Michael Godeaux,Vidor,72.94,224.53,117.93,199.58,542.04,Single-ply,SBD,M
Boys,74.84,3,Patrick Dorn,Vidor,72.35,183.7,99.79,181.44,464.93,Single-ply,SBD,M
Boys,74.84,4,Colby Trahan,Bridge City,71.4,201.85,83.91,165.56,451.32,Single-ply,SBD,M
Boys,74.84,5,Alex Gallagher,Hamshire-Fannett,71.94,170.1,83.91,197.31,451.32,Single-ply,SBD,M
Boys,74.84,6,Austin Spear,Port Neches-Groves,73.71,165.56,111.13,165.56,442.25,Single-ply,SBD,M
Boys,74.84,7,Christian Quituga,Vidor,70.08,174.63,99.79,165.56,439.98,Single-ply,SBD,M
Boys,74.84,8,Jordin Pastorella,Nederland,71.3,154.22,97.52,165.56,417.3,Single-ply,SBD,M
Boys,74.84,9,Dave Bagwell,New Caney Porter,67.54,147.42,83.91,154.22,385.55,Single-ply,SBD,M
Boys,74.84,10,Blake Comeaux,Vidor,72.48,136.08,108.86,140.61,385.55,Single-ply,SBD,M
Boys,74.84,11,Bryan Comeaux,Vidor,70.49,117.93,88.45,149.69,356.07,Single-ply,SBD,M
Boys,74.84,12,Hayden Burden,Nederland,68.54,81.65,63.5,122.47,267.62,Single-ply,SBD,M
Boys,82.1,DQ,Daniel Perrigin,Cleveland Tarkington,75.07,,,,,Single-ply,SBD,M
Boys,74.84,DQ,DeMarcus Jackson,Beaumont West Brook,67.49,111.13,,,,Single-ply,SBD,M
Boys,74.84,DQ,Duane Owens,Beaumont West Brook,72.08,142.88,,,,Single-ply,SBD,M
Boys,82.1,1,Justin Eberly,Conroe Caney Creek,81.65,219.99,145.15,272.16,637.3,Single-ply,SBD,M
Boys,82.1,2,DJ Aull,Vidor,81.06,204.12,115.67,204.12,523.9,Single-ply,SBD,M
Boys,82.1,3,Troy Angelo,Orange Little Cypress-Mauriceville,77.38,188.24,104.33,226.8,519.36,Single-ply,SBD,M
Boys,82.1,4,Stevie Franklin,Bay City,80.51,192.78,120.2,181.44,494.42,Single-ply,SBD,M
Boys,82.1,5,Joshua Sims,Winnie East Chambers,81.69,179.17,117.93,181.44,478.54,Single-ply,SBD,M
Boys,82.1,6,Caleb Cook,Lumberton,78.34,170.1,104.33,183.7,458.13,Single-ply,SBD,M
Boys,82.1,7,Chris Cleveland,Vidor,80.69,158.76,104.33,174.63,437.72,Single-ply,SBD,M
Boys,82.1,8,Justin Cotton,Conroe Caney Creek,80.92,174.63,102.06,158.76,435.45,Single-ply,SBD,M
Boys,82.1,9,Bradley Broussard,Port Neches-Groves,77.2,133.81,86.18,161.03,381.02,Single-ply,SBD,M
Boys,82.1,DQ,Michael Aleksick,Conroe Caney Creek,75.57,192.78,124.74,,,Single-ply,SBD,M
Boys,89.81,DQ,Logan Warlick,Port Neches-Groves,82.15,181.44,,,,Single-ply,SBD,M
Boys,89.81,1,Edmund Horn,Lumberton,88.77,222.26,138.35,213.19,573.79,Single-ply,SBD,M
Boys,89.81,2,Chris Sherrill,Bay City,89.09,188.24,129.27,201.85,519.36,Single-ply,SBD,M
Boys,89.81,3,Colton LaFrance,Cleveland Tarkington,88.09,183.7,99.79,172.37,455.86,Single-ply,SBD,M
Boys,89.81,4,Matthew Carter,Beaumont West Brook,89.63,165.56,99.79,183.7,449.06,Single-ply,SBD,M
Boys,89.81,5,Dallas Guerrero,Nederland,89.72,170.1,99.79,170.1,439.98,Single-ply,SBD,M
Boys,89.81,6,Dominique Semien,Beaumont West Brook,88.63,174.63,95.25,142.88,412.77,Single-ply,SBD,M
Boys,89.81,7,Louis Hickman,New Caney Porter,84.82,158.76,95.25,147.42,401.43,Single-ply,SBD,M
Boys,89.81,8,Bryce Conde,Nederland,86.91,127.01,77.11,133.81,337.93,Single-ply,SBD,M
Boys,89.81,DQ,Colton Boudreaux,Orange Little Cypress-Mauriceville,87.36,263.08,,,,Single-ply,SBD,M
Boys,89.81,DQ,Zach Griffin,Beaumont Central,86.73,,,,,Single-ply,SBD,M
Boys,89.81,DQ,Juan Evangelista,Bay City,89.18,,,,,Single-ply,SBD,M
Boys,89.81,DQ,Blake Myers,Vidor,83.42,190.51,117.93,,,Single-ply,SBD,M
Boys,89.81,DQ,Dustin Hoeffler,New Caney Porter,88.41,192.78,,,,Single-ply,SBD,M
Boys,99.79,1,Mitchell Jennings,Orange Little Cypress-Mauriceville,96.25,249.48,165.56,215.46,630.49,Single-ply,SBD,M
Boys,109.77,2,Karl Brown,Bay City,100.02,210.92,145.15,219.99,576.06,Single-ply,SBD,M
Boys,99.79,3,Desmond Pickens,Beaumont West Brook,95.44,226.8,108.86,215.46,551.11,Single-ply,SBD,M
Boys,99.79,4,Lorenzo Flores,Conroe Caney Creek,98.02,215.46,124.74,204.12,544.31,Single-ply,SBD,M
Boys,99.79,5,Alex Rodriguez,Anahuac,95.3,156.49,129.27,201.85,487.61,Single-ply,SBD,M
Boys,99.79,6,Blake Trejo,Nederland,96.43,165.56,124.74,179.17,469.47,Single-ply,SBD,M
Boys,99.79,7,Jacob Frost,Nederland,98.25,170.1,111.13,174.63,455.86,Single-ply,SBD,M
Boys,99.79,8,Jeff Watson,Vidor,94.94,167.83,104.33,181.44,453.59,Single-ply,SBD,M
Boys,99.79,9,Michael Marion,Vidor,97.48,185.97,102.06,149.69,437.72,Single-ply,SBD,M
Boys,99.79,10,Colby Delk,Lumberton,92.08,158.76,86.18,136.08,381.02,Single-ply,SBD,M
Boys,99.79,11,Marcus Rogers,Lumberton,92.26,129.27,83.91,147.42,360.61,Single-ply,SBD,M
Boys,99.79,12,Lance Zeno,Beaumont West Brook,98.97,113.4,81.65,124.74,319.78,Single-ply,SBD,M
Boys,99.79,DQ,Chris Mejias,Bay City,98.34,174.63,,,,Single-ply,SBD,M
Boys,99.79,DQ,Zach Burkhalter,Lumberton,94.98,195.04,,,,Single-ply,SBD,M
Boys,99.79,DQ,Jekiel Tyler,Port Arthur Memorial,92.22,,,,,Single-ply,SBD,M
Boys,109.77,1,Josh Riley,Port Neches-Groves,108,242.67,142.88,213.19,598.74,Single-ply,SBD,M
Boys,109.77,2,Tyler McDaniel,Vidor,105.78,208.65,154.22,192.78,555.65,Single-ply,SBD,M
Boys,109.77,3,Blake Kight,Lumberton,108.86,192.78,102.06,213.19,508.02,Single-ply,SBD,M
Boys,109.77,4,Joseph Staggs,Conroe Caney Creek,104.73,170.1,115.67,170.1,455.86,Single-ply,SBD,M
Boys,109.77,5,Sam Collins,Cleveland Tarkington,105.64,172.37,104.33,172.37,449.06,Single-ply,SBD,M
Boys,109.77,6,Gage Baker,Vidor,104.96,163.29,95.25,156.49,415.04,Single-ply,SBD,M
Boys,109.77,DQ,Jacoby Callahan,New Caney Porter,109.72,,,,,Single-ply,SBD,M
Boys,109.77,DQ,Allan Harris,Beaumont Central,106.73,,,,,Single-ply,SBD,M
Boys,124.74,1,Chris Mangini,Port Neches-Groves,119.57,240.4,145.15,226.8,612.35,Single-ply,SBD,M
Boys,124.74,2,Cody Robinson,Lumberton,113.17,226.8,158.76,210.92,596.47,Single-ply,SBD,M
Boys,124.74,3,Mikael Cisneros,Lumberton,122.02,201.85,115.67,206.38,523.9,Single-ply,SBD,M
Boys,124.74,4,Allan Soriano,Port Neches-Groves,120.88,197.31,108.86,174.63,480.81,Single-ply,SBD,M
Boys,124.74,5,Stephan Griggs,Nederland,112.22,167.83,108.86,185.97,462.66,Single-ply,SBD,M
Boys,124.74,6,Cameron Bullion,Nederland,111.67,120.2,83.91,142.88,347,Single-ply,SBD,M
Boys,124.74,DQ,Shawndre Brown,Port Arthur Memorial,110.5,231.33,,,,Single-ply,SBD,M
Boys,124.74+,1,Jordin Laughlin,Hamshire-Fannett,129.82,208.65,131.54,208.65,548.85,Single-ply,SBD,M
Boys,124.74+,2,Cody Mills,Conroe Caney Creek,135.08,204.12,106.59,170.1,480.81,Single-ply,SBD,M
Boys,124.74+,3,Nicholas Dowdle,Bay City,125.83,129.27,70.31,142.88,342.46,Single-ply,SBD,M
