Division,WeightClassKg,Place,Name,Team,BodyweightKg,Best3SquatKg,Best3BenchKg,Best3DeadliftKg,TotalKg,Equipment,Event,Sex
Boys,51.71,1,Isaac Villalta,Little Elm,49.26,133.81,72.57,138.35,344.73,Single-ply,SBD,M
Boys,51.71,2,Felix Espinoza,Crandall,51.17,127.01,74.84,142.88,344.73,Single-ply,SBD,M
Boys,51.71,3,Blayze Ferguson,Frisco Heritage,50.62,102.06,77.11,106.59,285.76,Single-ply,SBD,M
Boys,51.71,4,Britton Despain,Little Elm,50.98,88.45,56.7,104.33,249.48,Single-ply,SBD,M
Boys,51.71,5,Zachary Doyle,Royse City,50.71,97.52,52.16,92.99,242.67,Single-ply,SBD,M
Boys,51.71,6,Braden Marking,Royse City,49.53,92.99,45.36,92.99,231.33,Single-ply,SBD,M
Boys,51.71,7,Brayton Witherspoon,South Garland,49.71,79.38,43.09,106.59,229.06,Single-ply,SBD,M
Boys,51.71,8,Steven Rachel,Ferris,50.53,61.23,47.63,106.59,215.46,Single-ply,SBD,M
Boys,51.71,9,Gary Tesell,Ferris,51.17,61.23,43.09,108.86,213.19,Single-ply,SBD,M
Boys,51.71,10,Cj Leos,Sunnyvale,48.99,77.11,43.09,90.72,210.92,Single-ply,SBD,M
Boys,55.79,1,Lane Anthony,Nevada Community,53.8,154.22,70.31,165.56,390.09,Single-ply,SBD,M
Boys,55.79,2,Angel Rico,Kennedale,55.43,147.42,81.65,158.76,387.82,Single-ply,SBD,M
Boys,55.79,3,Logen Combs,Royse City,55.25,131.54,83.91,158.76,374.21,Single-ply,SBD,M
Boys,55.79,4,Christian Cabra,Bishop Lynch,53.34,147.42,74.84,142.88,365.14,Single-ply,SBD,M
Boys,55.79,5,Joe Cullum,Kennedale,54.61,161.03,102.06,102.06,365.14,Single-ply,SBD,M
Boys,55.79,6,Kyle Amos,Royse City,55.7,111.13,56.7,104.33,272.16,Single-ply,SBD,M
Boys,55.79,7,Azyyah Wallace,Irving MacArthur,52.16,95.25,54.43,102.06,251.74,Single-ply,SBD,M
Boys,55.79,8,Spencer Evans,Sunnyvale,54.88,74.84,49.9,92.99,217.72,Single-ply,SBD,M
Boys,59.87,1,Michael Parsons,Bishop Lynch,58.33,165.56,108.86,183.7,458.13,Single-ply,SBD,M
Boys,59.87,2,Roberto Fernandez,Bishop Lynch,57.7,120.2,65.77,120.2,306.17,Single-ply,SBD,M
Boys,59.87,3,Andrew Luong,Sunnyvale,59.87,106.59,74.84,124.74,306.17,Single-ply,SBD,M
Boys,59.87,4,Elmer Jaimes,South Garland,58.33,92.99,74.84,129.27,297.1,Single-ply,SBD,M
Boys,59.87,5,Ac Kin,Mesquite Poteet,57.42,104.33,79.38,108.86,292.57,Single-ply,SBD,M
Boys,59.87,DQ,Kollom Moss,Royse City,57.97,127.01,,,,Single-ply,SBD,M
Boys,67.13,1,Mario Discua,Nevada Community,66.59,165.56,102.06,190.51,458.13,Single-ply,SBD,M
Boys,67.13,2,Tajohn Livingston,South Garland,62.6,156.49,79.38,192.78,428.64,Single-ply,SBD,M
Boys,67.13,3,Tyler Aguilar,Kennedale,65.86,165.56,97.52,154.22,417.3,Single-ply,SBD,M
Boys,67.13,4,Austin Hunt,Royse City,63.32,133.81,83.91,154.22,371.95,Single-ply,SBD,M
Boys,67.13,5,Dylan Brown,Mesquite Poteet,66.41,129.27,86.18,142.88,358.34,Single-ply,SBD,M
Boys,67.13,6,David Spencer,Little Elm,64.32,108.86,83.91,161.03,353.8,Single-ply,SBD,M
Boys,67.13,7,Dylan Shawver,Little Elm,62.14,124.74,88.45,138.35,351.53,Single-ply,SBD,M
Boys,67.13,8,Campbell Anderson,Forney,65.77,127.01,77.11,136.08,340.19,Single-ply,SBD,M
Boys,67.13,9,Tre Howard,Irving MacArthur,62.87,117.93,72.57,124.74,315.25,Single-ply,SBD,M
Boys,67.13,10,Aaron Mixell,Mesquite Poteet,60.06,120.2,68.04,124.74,312.98,Single-ply,SBD,M
Boys,67.13,11,Andrew Palmer-Bishop,Little Elm,62.69,106.59,72.57,120.2,299.37,Single-ply,SBD,M
Boys,67.13,12,Brett Johnston,Little Elm,64.95,83.91,56.7,102.06,242.67,Single-ply,SBD,M
Boys,67.13,DQ,Cory Johnson,North Forney,67.13,,,,,Single-ply,SBD,M
Boys,74.84,1,Presley Luce,Bishop Lynch,74.21,192.78,133.81,233.6,560.19,Single-ply,SBD,M
Boys,74.84,2,Braxton Lediaev,Kennedale,73.39,195.04,104.33,233.6,532.97,Single-ply,SBD,M
Boys,74.84,3,Larry Rittenhouse,Frisco Heritage,73.48,163.29,113.4,174.63,451.32,Single-ply,SBD,M
Boys,74.84,4,Kevonta Wilson,South Garland,74.84,151.95,92.99,183.7,428.64,Single-ply,SBD,M
Boys,74.84,5,Daniel Delgado,South Garland,73.12,158.76,92.99,174.63,426.38,Single-ply,SBD,M
Boys,74.84,6,Dalton Dale,Mesquite Poteet,73.66,154.22,104.33,154.22,412.77,Single-ply,SBD,M
Boys,74.84,7,Alex Kahn,North Forney,70.22,158.76,77.11,165.56,401.43,Single-ply,SBD,M
Boys,74.84,8,Jhonathan Villa,Little Elm,72.94,156.49,92.99,147.42,396.89,Single-ply,SBD,M
Boys,74.84,9,James Purkins,Nevada Community,74.84,158.76,90.72,145.15,394.63,Single-ply,SBD,M
Boys,74.84,10,Logan Moffitt,Crandall,73.03,131.54,95.25,165.56,392.36,Single-ply,SBD,M
Boys,74.84,11,Rj Canady,Sunnyvale,74.39,133.81,92.99,149.69,376.48,Single-ply,SBD,M
Boys,74.84,12,Kc Cornelius,North Forney,70.03,129.27,86.18,149.69,365.14,Single-ply,SBD,M
Boys,74.84,13,Griffin Merillat,Royse City,73.57,136.08,83.91,136.08,356.07,Single-ply,SBD,M
Boys,74.84,14,Grant Bass,Forney,68.31,117.93,88.45,145.15,351.53,Single-ply,SBD,M
Boys,74.84,15,Brian Alfaro,Ferris,73.48,129.27,83.91,136.08,349.27,Single-ply,SBD,M
Boys,74.84,16,Hudson Smith,Sunnyvale,71.21,129.27,72.57,136.08,337.93,Single-ply,SBD,M
Boys,74.84,17,Gireesh Daguppati,Frisco Heritage,68.49,124.74,56.7,136.08,317.51,Single-ply,SBD,M
Boys,74.84,18,Brendan Max,Forney,71.4,102.06,54.43,120.2,276.69,Single-ply,SBD,M
Boys,74.84,DQ,Adam Washington,Frisco Heritage,69.85,151.95,,,,Single-ply,SBD,M
Boys,74.84,DQ,Antwaine Edwards,South Garland,68.95,127.01,,,,Single-ply,SBD,M
Boys,74.84,DQ,Lenny Mazzola,North Forney,74.84,,,,,Single-ply,SBD,M
Boys,82.1,1,Marcos Gallegos,Mabank,80.65,188.24,113.4,192.78,494.42,Single-ply,SBD,M
Boys,82.1,2,Luis Flores,Kennedale,77.66,176.9,106.59,192.78,476.27,Single-ply,SBD,M
Boys,82.1,3,Connor Wolfe,Frisco Heritage,76.11,154.22,102.06,183.7,439.98,Single-ply,SBD,M
Boys,82.1,4,Ahmed Krubally,South Garland,82.1,145.15,92.99,188.24,426.38,Single-ply,SBD,M
Boys,82.1,5,Gabriel Dexter,Forney,76.29,158.76,104.33,156.49,419.57,Single-ply,SBD,M
Boys,82.1,6,Dakota Deal,Ferris,76.84,147.42,79.38,172.37,399.16,Single-ply,SBD,M
Boys,82.1,7,D'Angelo Lopez,Mesquite Poteet,78.74,129.27,108.86,154.22,392.36,Single-ply,SBD,M
Boys,82.1,8,Matt Enriquez,Bishop Lynch,78.74,115.67,81.65,136.08,333.39,Single-ply,SBD,M
Boys,82.1,9,Austin Payne,Sunnyvale,78.93,108.86,79.38,136.08,324.32,Single-ply,SBD,M
Boys,82.1,10,Josh English,Sunnyvale,81.65,102.06,70.31,120.2,292.57,Single-ply,SBD,M
Boys,82.1,DQ,Roby Robinson,North Forney,75.21,145.15,,,,Single-ply,SBD,M
Boys,82.1,DQ,Chris Acevado,Dallas Life Oak Cliff,78.2,156.49,97.52,,,Single-ply,SBD,M
Boys,89.81,1,Seth McGowan,Mesquite Poteet,87.82,199.58,120.2,233.6,553.38,Single-ply,SBD,M
Boys,89.81,2,Alex Hernandez,Irving MacArthur,86.18,204.12,131.54,215.46,551.11,Single-ply,SBD,M
Boys,89.81,3,Christopher Presley,Mesquite Poteet,88.72,183.7,122.47,215.46,521.63,Single-ply,SBD,M
Boys,89.81,4,Josh Hendricks,Royse City,82.19,172.37,113.4,217.72,503.49,Single-ply,SBD,M
Boys,89.81,5,Jeremiah Redord,Mesquite Poteet,87.54,167.83,138.35,197.31,503.49,Single-ply,SBD,M
Boys,89.81,6,Colton Wilson,Nevada Community,87.82,190.51,106.59,201.85,498.95,Single-ply,SBD,M
Boys,89.81,7,Jason Williams,Dallas Life Oak Cliff,85.18,174.63,99.79,181.44,455.86,Single-ply,SBD,M
Boys,89.81,8,Tyler Bryant,Crandall,87.72,170.1,104.33,176.9,451.32,Single-ply,SBD,M
Boys,89.81,9,Clay Hilton,Kennedale,87.91,161.03,102.06,181.44,444.52,Single-ply,SBD,M
Boys,89.81,10,Chris Connell,Ferris,84.28,156.49,88.45,192.78,437.72,Single-ply,SBD,M
Boys,89.81,11,Cauren Lynch,Irving MacArthur,88.09,161.03,79.38,197.31,437.72,Single-ply,SBD,M
Boys,89.81,12,Daniel Sylvia,Irving MacArthur,84.73,183.7,88.45,158.76,430.91,Single-ply,SBD,M
Boys,89.81,13,Nate Miller,North Forney,88.99,156.49,113.4,158.76,428.64,Single-ply,SBD,M
Boys,89.81,14,Cole Thompson,Little Elm,84.01,151.95,108.86,158.76,419.57,Single-ply,SBD,M
Boys,89.81,15,Chris Jones,Irving MacArthur,84.28,149.69,83.91,142.88,376.48,Single-ply,SBD,M
Boys,99.79,1,Ricardo Pena,Kennedale,98.61,272.16,161.03,226.8,659.98,Single-ply,SBD,M
Boys,99.79,2,Cameron Hanna,Kennedale,97.89,258.55,129.27,247.21,635.03,Single-ply,SBD,M
Boys,99.79,3,Roy Goins,Little Elm,91.26,240.4,133.81,240.4,614.62,Single-ply,SBD,M
Boys,99.79,4,Brody Wiggins,Blue Ridge,98.88,206.38,127.01,208.65,542.04,Single-ply,SBD,M
Boys,99.79,5,Jason Molina,Sunnyvale,97.52,188.24,136.08,181.44,505.76,Single-ply,SBD,M
Boys,99.79,6,Pedro Tobar,South Garland,94.17,197.31,108.86,197.31,503.49,Single-ply,SBD,M
Boys,99.79,7,Brandon Kim,Frisco Heritage,99.16,163.29,147.42,161.03,471.74,Single-ply,SBD,M
Boys,99.79,8,Cole Thomas,Sunnyvale,97.52,183.7,108.86,172.37,464.93,Single-ply,SBD,M
Boys,99.79,9,Cody Gonzales,Frisco Heritage,99.7,181.44,124.74,158.76,464.93,Single-ply,SBD,M
Boys,99.79,10,Graham Burns,Forney,93.26,158.76,106.59,188.24,453.59,Single-ply,SBD,M
Boys,99.79,11,Kameron Martin,Bishop Lynch,92.99,158.76,88.45,181.44,428.64,Single-ply,SBD,M
Boys,99.79,12,Cody Duran,Ferris,95.07,165.56,102.06,151.95,419.57,Single-ply,SBD,M
Boys,99.79,13,Curtis Kitchen,Forney,95.62,158.76,92.99,156.49,408.23,Single-ply,SBD,M
Boys,99.79,14,David Fielder,Kennedale,94.17,163.29,88.45,151.95,403.7,Single-ply,SBD,M
Boys,99.79,15,Billy Metzger,Sunnyvale,90.72,136.08,90.72,136.08,362.87,Single-ply,SBD,M
Boys,99.79,DQ,Clifford Funderburk,North Forney,97.61,170.1,,,,Single-ply,SBD,M
Boys,99.79,DQ,Brandon Kiernan,Kennedale,95.98,185.97,,,,Single-ply,SBD,M
Boys,99.79,DQ,Marcial Loa,Ferris,94.53,165.56,88.45,,,Single-ply,SBD,M
Boys,99.79,DQ,Isaac Chavez,Bishop Lynch,96.71,174.63,,,,Single-ply,SBD,M
Boys,99.79,DQ,Jose Bardalas,Irving MacArthur,90.26,,,,,Single-ply,SBD,M
Boys,109.77,1,Lazaro Garcia,South Garland,109.59,285.76,165.56,274.42,725.75,Single-ply,SBD,M
Boys,109.77,2,Jamie Cortez,Royse City,109.5,281.23,140.61,240.4,662.24,Single-ply,SBD,M
Boys,109.77,3,Cameron Rose,Frisco Heritage,102.69,192.78,120.2,204.12,517.1,Single-ply,SBD,M
Boys,109.77,4,Hayden Hudson,Kennedale,105.32,195.04,127.01,195.04,517.1,Single-ply,SBD,M
Boys,109.77,5,Chandler Davis,Mesquite Poteet,102.15,161.03,129.27,167.83,458.13,Single-ply,SBD,M
Boys,109.77,6,Alex Amar,Sunnyvale,106.14,170.1,111.13,167.83,449.06,Single-ply,SBD,M
Boys,109.77,7,Tyler Johnson,Dallas Life Oak Cliff,103.69,149.69,104.33,172.37,426.38,Single-ply,SBD,M
Boys,109.77,8,Christian Villalobos,South Garland,107.59,151.95,92.99,174.63,419.57,Single-ply,SBD,M
Boys,109.77,9,Dalton Wilcox,Little Elm,109.68,165.56,104.33,142.88,412.77,Single-ply,SBD,M
Boys,109.77,10,Noe Garcia,Nevada Community,108.86,158.76,74.84,170.1,403.7,Single-ply,SBD,M
Boys,109.77,11,Joseph Tate,Irving MacArthur,107.95,145.15,97.52,158.76,401.43,Single-ply,SBD,M
Boys,109.77,12,Israel Morales,Ferris,104.78,147.42,88.45,149.69,385.55,Single-ply,SBD,M
Boys,109.77,13,Aiden Rose,Royse City,105.05,124.74,54.43,136.08,315.25,Single-ply,SBD,M
Boys,109.77,DQ,Ryan Gabriel,Nevada Community,109.77,,,,,Single-ply,SBD,M
Boys,124.74,1,Austin Norton,Nevada Community,123.47,319.78,195.04,229.06,743.89,Single-ply,SBD,M
Boys,124.74,2,Jaden Webb,Royse City,121.74,240.4,147.42,242.67,630.49,Single-ply,SBD,M
Boys,124.74,3,Kolt Stephens,Mabank,123.01,238.14,158.76,233.6,630.49,Single-ply,SBD,M
Boys,124.74,4,Leo Figueroa,Ferris,122.47,249.48,142.88,192.78,585.13,Single-ply,SBD,M
Boys,124.74,5,Coty Neugin,Crandall,115.03,219.99,124.74,199.58,544.31,Single-ply,SBD,M
Boys,124.74,6,Kenny Singleton,Irving MacArthur,112.67,208.65,113.4,206.38,528.44,Single-ply,SBD,M
Boys,124.74,7,Marcus Sanchez,South Garland,122.2,213.19,127.01,183.7,523.9,Single-ply,SBD,M
Boys,124.74,8,Gage Dillon,Crandall,111.67,215.46,106.59,181.44,503.49,Single-ply,SBD,M
Boys,124.74,9,David Rodriguez,Mesquite Poteet,122.47,192.78,108.86,158.76,460.4,Single-ply,SBD,M
Boys,124.74,10,Sam Bartis,Sunnyvale,115.67,174.63,97.52,174.63,446.79,Single-ply,SBD,M
Boys,124.74,11,Cade Crawford,Forney,118.57,174.63,111.13,151.95,437.72,Single-ply,SBD,M
Boys,124.74,12,Elden McKinney,Dallas Life Oak Cliff,111.49,149.69,86.18,172.37,408.23,Single-ply,SBD,M
Boys,124.74,DQ,Abel Garcia,Irving MacArthur,119.84,183.7,111.13,,,Single-ply,SBD,M
Boys,124.74+,1,Tucker Rowland,Frisco Heritage,136.08,238.14,190.51,222.26,650.91,Single-ply,SBD,M
Boys,124.74+,2,Kaleb Arnold,Frisco Heritage,142.97,206.38,142.88,208.65,557.92,Single-ply,SBD,M
Boys,124.74+,3,Gabe Lutz,Nevada Community,127.91,231.33,145.15,161.03,537.51,Single-ply,SBD,M
Boys,124.74+,4,Cam Rogers,North Forney,169.73,208.65,113.4,183.7,505.76,Single-ply,SBD,M
Boys,124.74+,5,Jobin Chirayil,Sunnyvale,137.44,179.17,145.15,176.9,501.22,Single-ply,SBD,M
Boys,124.74+,6,Demaree Gay,Crandall,145.69,206.38,113.4,174.63,494.42,Single-ply,SBD,M
Boys,124.74+,7,Cedric Harris,Kennedale,132.9,188.24,102.06,190.51,480.81,Single-ply,SBD,M
Boys,124.74+,8,John Taylor,North Forney,129.36,201.85,104.33,170.1,476.27,Single-ply,SBD,M
Boys,124.74+,9,James Mantell,Kennedale,151.59,136.08,81.65,142.88,360.61,Single-ply,SBD,M
