Place,Name,Sex,Event,Division,WeightClassKg,Equipment,BirthYear,State,BodyweightKg,Squat1Kg,Squat2Kg,Squat3Kg,Best3SquatKg,Bench1Kg,Bench2Kg,Bench3Kg,Best3BenchKg,Deadlift1Kg,Deadlift2Kg,Deadlift3Kg,Best3DeadliftKg,TotalKg
1,Kelly Gibson Bateman,F,B,FR-M1,72,Raw,1969,NY,69.9,,,,,67.5,70,-72.5,70,,,,,70
1,Courtney Bangs,F,B,FR-O,57,Raw,1984,NY,56,,,,,50,52.5,-55,52.5,,,,,52.5
1,Kevin Johnson,M,B,M-M3,120,Single-ply,1954,NY,119.8,,,,,210,-220,-220,210,,,,,210
1,Dyton Humbert,M,B,MR-O,74,Raw,1996,NY,71.7,,,,,135,145,-150,145,,,,,145
1,Madeleine McElfresh,F,SBD,FR-Jr,57,Raw,1997,VA,53.2,80,85,90,90,52.5,55,57.5,57.5,105,110,115,115,262.5
1,Lisa Austin,F,SBD,FR-M1,84+,Raw,1973,NY,86,75,85,90,90,55,57.5,60,60,97.5,107.5,115,115,265
2,Valerie Butler,F,SBD,FR-M1,84+,Raw,1972,NY,97.5,82.5,85,87.5,87.5,52.5,57.5,60,60,82.5,90,97.5,97.5,245
3,Seana Juda,F,SBD,FR-M1,84+,Raw,1969,NY,101.3,65,70,75,75,-72.5,72.5,75,75,70,80,85,85,235
1,Michelle Cornwell,F,SBD,FR-M2,72,Raw,1966,NY,67.7,60,-72.5,-72.5,60,37.5,42.5,-50,42.5,80,87.5,92.5,92.5,195
1,Cristen Davis,F,SBD,FR-O,72,Raw,1994,NY,68.7,102.5,105,110,110,50,55,-62.5,55,110,117.5,122.5,122.5,287.5
2,Ann Claire Bales,F,SBD,FR-O,72,Raw,1981,NY,69.2,80,-85,-85,80,50,52.5,55,55,110,117.5,-127.5,117.5,252.5
1,Tasha Chamberlain,F,SBD,FR-O,84+,Raw,1988,NY,97.6,107.5,115,125,125,87.5,92.5,-95,92.5,125,135,142.5,142.5,360
1,Jasmine Nautel,F,SBD,FR-T1,47,Raw,2002,NY,45.8,77.5,82.5,-85,82.5,40,42.5,-45,42.5,85,-90,-92.5,85,210
1,Kate Jensen,F,SBD,FR-T2,63,Raw,2000,NY,57.9,80,85,-90,85,40,-45,45,45,100,105,110,110,240
1,Keith Nautel,M,SBD,M-M2,83,Single-ply,1965,NY,82.7,242.5,252.5,257.5,257.5,130,-177.5,-177.5,130,245,270,-275,270,657.5
1,Seth Hebert,M,SBD,MR-Jr,93,Raw,1993,NY,91.5,167.5,177.5,185,185,125,132.5,-140,132.5,207.5,215,-225,215,532.5
1,Christian Matos,M,SBD,MR-Jr,105,Raw,1994,NY,100.4,232.5,245,260,260,150,155,162.5,162.5,285,-300,-300,285,707.5
1,Damon Brown,M,SBD,MR-Jr,120+,Raw,1994,NY,130.1,165,182.5,200,200,-120,120,-145,120,182.5,-205,220,220,540
1,James Kapusta,M,SBD,MR-M1,66,Raw,1974,NY,66,-87.5,87.5,97.5,97.5,97.5,102.5,-107.5,102.5,137.5,152.5,160,160,360
1,Alexandre Ribeiro,M,SBD,MR-M1,93,Raw,1975,NY,88.3,125,160,-177.5,160,-125,125,-142.5,125,182.5,205,-215,205,490
1,R. Murray,M,SBD,MR-M2,93,Raw,1963,NY,90.8,-150,-150,150,150,-150,-150,150,150,142.5,200,-205,200,500
1,Mark Harrison,M,SBD,MR-M2,120,Raw,1964,NY,117.8,200,217.5,227.5,227.5,147.5,152.5,-155,152.5,245,260,265,265,645
1,James Kapusta,M,SBD,MR-O,66,Raw,1974,NY,66,-87.5,87.5,97.5,97.5,97.5,102.5,-107.5,102.5,137.5,152.5,160,160,360
1,Derek Nellis,M,SBD,MR-O,74,Raw,1985,NY,73.7,167.5,175,180,180,-140,140,142.5,142.5,207.5,215,230,230,552.5
2,Dave Davis,M,SBD,MR-O,74,Raw,1990,NY,71.9,130,137.5,142.5,142.5,115,120,-122.5,120,170,182.5,187.5,187.5,450
1,Austin Skeeters,M,SBD,MR-O,83,Raw,1993,NY,77.2,155,167.5,-170,167.5,125,-137.5,-137.5,125,190,207.5,225,225,517.5
2,Steve Gabriel,M,SBD,MR-O,83,Raw,1978,NY,82.3,-162.5,162.5,175,175,105,110,115,115,200,215,-227.5,215,505
3,Cody Dolloway,M,SBD,MR-O,83,Raw,1992,NY,79,140,147.5,155,155,105,110,-112.5,110,172.5,182.5,190,190,455
4,Jeff Blackburn,M,SBD,MR-O,83,Raw,1984,NY,77.4,142.5,150,157.5,157.5,100,107.5,-115,107.5,155,167.5,180,180,445
1,James Perra,M,SBD,MR-O,93,Raw,1997,NY,92.8,237.5,250,255,255,155,160,-165,160,247.5,255,-260,255,670
2,Ruslan Pasichenko,M,SBD,MR-O,93,Raw,1991,NY,90.8,-210,210,220,220,145,150,-160,150,230,-240,240,240,610
3,James Deferio,M,SBD,MR-O,93,Raw,1986,NY,92.2,177.5,190,195,195,162.5,172.5,-182.5,172.5,-227.5,230,232.5,232.5,600
4,Christopher Cianci,M,SBD,MR-O,93,Raw,1984,NY,89.6,180,190,192.5,192.5,110,-115,-115,110,225,240,250,250,552.5
5,Corey Burns,M,SBD,MR-O,93,Raw,1984,NY,86.6,162.5,-170,172.5,172.5,130,137.5,145,145,-182.5,192.5,205,205,522.5
6,Bradley Straw,M,SBD,MR-O,93,Raw,1999,NY,86.1,-185,190,195,195,-110,115,-122.5,115,205,210,,210,520
7,Alexandre Ribeiro,M,SBD,MR-O,93,Raw,1975,NY,88.3,125,160,-177.5,160,-125,125,-142.5,125,182.5,205,-215,205,490
8,David Sam,M,SBD,MR-O,93,Raw,1988,NY,86.1,137.5,147.5,155,155,95,100,-107.5,100,177.5,192.5,200,200,455
1,Kyle Cullen,M,SBD,MR-O,105,Raw,1991,NY,100.8,172.5,180,187.5,187.5,122.5,-130,-130,122.5,232.5,240,250,250,560
DQ,Zack Weber,M,SBD,MR-O,105,Raw,1992,NY,98,185,192.5,-200,192.5,-160,-160,-160,,210,220,-235,220,
1,Ryan Collette,M,SBD,MR-O,120,Raw,1999,NY,109.5,227.5,242.5,250,250,-140,-140,142.5,142.5,225,237.5,247.5,247.5,640
2,Jeremia Ranck,M,SBD,MR-O,120,Raw,1985,NY,113.6,187.5,197.5,207.5,207.5,150,-155,155,155,207.5,225,237.5,237.5,600
3,Thomas Baath Sjoblom,M,SBD,MR-O,120,Raw,1989,NY,114.7,190,200,210,210,115,122.5,-130,122.5,215,230,250,250,582.5
1,John Maloney,M,SBD,MR-T1,83,Raw,2003,NY,75.2,75,85,92.5,92.5,75,77.5,80,80,97.5,107.5,115,115,287.5
1,Bradley Straw,M,SBD,MR-T3,93,Raw,1999,NY,86.1,-185,190,195,195,-110,115,-122.5,115,205,210,,210,520
1,Ryan Collette,M,SBD,MR-T3,120,Raw,1999,NY,109.5,227.5,242.5,250,250,-140,-140,142.5,142.5,225,237.5,247.5,247.5,640
1,Christina Ranck,F,BD,FR-O,72,Raw,1985,NY,64.5,,,,,47.5,50,52.5,52.5,90,-97.5,105,105,157.5
1,Brandie Bane,F,BD,FR-O,84,Raw,1982,NY,80.8,,,,,47.5,-50,50,50,107.5,112.5,122.5,122.5,172.5
1,Dexter Floyd,M,BD,MR-O,105,Raw,1980,NY,102.8,,,,,125,142.5,-147.5,142.5,257.5,275,-277.5,275,417.5
