Division,WeightClassKg,Place,Name,Team,BodyweightKg,Best3SquatKg,Best3BenchKg,Best3DeadliftKg,TotalKg,Equipment,Event,Sex
Boys,51.71,1,Richard Bernier,Katy Mayde Creek,44.81,106.59,49.9,113.4,269.89,Single-ply,SBD,M
Boys,59.87,1,Dominic Monsivaiz,Dickinson,56.02,142.88,77.11,147.42,367.41,Single-ply,SBD,M
Boys,55.79,2,Marcus Tello,Katy Mayde Creek,55.52,113.4,74.84,142.88,331.12,Single-ply,SBD,M
Boys,55.79,3,Ariel Perez,Brookshire Royal,53.25,45.36,31.75,83.91,161.03,Single-ply,SBD,M
Boys,67.13,1,Jim Tran,Dickinson,60.1,149.69,102.06,181.44,433.18,Single-ply,SBD,M
Boys,59.87,2,Chen Phan,Dickinson,58.47,167.83,86.18,170.1,424.11,Single-ply,SBD,M
Boys,67.13,3,Hunter Berry,Sealy,60.1,156.49,79.38,161.03,396.89,Single-ply,SBD,M
Boys,59.87,4,Frank Cobio,Brookshire Royal,59.42,131.54,86.18,136.08,353.8,Single-ply,SBD,M
Boys,59.87,5,Brandon Jordan,Dickinson,59.78,124.74,86.18,140.61,351.53,Single-ply,SBD,M
Boys,59.87,6,Alex Ellison,Bryan Rudder,58.6,122.47,83.91,142.88,349.27,Single-ply,SBD,M
Boys,59.87,7,Jacob Cantu,Katy Taylor,57.7,111.13,65.77,138.35,315.25,Single-ply,SBD,M
Boys,59.87,8,Nicholas Ortega,Katy Taylor,59.74,124.74,68.04,108.86,301.64,Single-ply,SBD,M
Boys,59.87,9,Randol Manjarrez,Pasadena Rayburn,57.47,83.91,65.77,131.54,281.23,Single-ply,SBD,M
Boys,59.87,DQ,Paul Bass,Katy Mayde Creek,57.61,,,,,Single-ply,SBD,M
Boys,67.13,1,Brandon Martinez,Dickinson,66.09,185.97,111.13,183.7,480.81,Single-ply,SBD,M
Boys,67.13,2,Cecilio Hernandez,Dickinson,60.92,174.63,111.13,185.97,471.74,Single-ply,SBD,M
Boys,67.13,3,Hunter Fronczak,Sealy,65.95,161.03,92.99,181.44,435.45,Single-ply,SBD,M
Boys,74.84,4,Jayden Williams,Katy Mayde Creek,67.31,165.56,88.45,181.44,435.45,Single-ply,SBD,M
Boys,67.13,5,Kj Dawson,Katy Mayde Creek,66.86,165.56,86.18,154.22,405.97,Single-ply,SBD,M
Boys,74.84,6,Thomas Bauer,Katy Taylor,67.36,142.88,95.25,158.76,396.89,Single-ply,SBD,M
Boys,67.13,7,Joseph Stewart,Brookshire Royal,66.32,158.76,90.72,136.08,385.55,Single-ply,SBD,M
Boys,67.13,8,Dylan Billiott,La Marque,62.41,145.15,86.18,151.95,383.29,Single-ply,SBD,M
Boys,67.13,DQ,Carnell White,La Marque,63.87,108.86,,,,Single-ply,SBD,M
Boys,67.13,DQ,Cody Hooper,Sealy,62.28,106.59,56.7,,,Single-ply,SBD,M
Boys,74.84,1,Cournelious Vaughans,Dickinson,74.84,229.06,142.88,204.12,576.06,Single-ply,SBD,M
Boys,74.84,2,Vincent Chachere,La Porte,72.3,161.03,97.52,195.04,453.59,Single-ply,SBD,M
Boys,74.84,3,Jamall Collins,Bryan Rudder,70.49,163.29,99.79,170.1,433.18,Single-ply,SBD,M
Boys,74.84,4,Dequarius White,Bryan Rudder,69.72,165.56,92.99,170.1,428.64,Single-ply,SBD,M
Boys,74.84,5,Hunter Luscombe,Sealy,72.21,147.42,92.99,174.63,415.04,Single-ply,SBD,M
Boys,74.84,6,Giovanni Porreto,Dickinson,74.71,140.61,97.52,176.9,415.04,Single-ply,SBD,M
Boys,74.84,7,Gio St Cyr,Pasadena Rayburn,69.17,158.76,97.52,145.15,401.43,Single-ply,SBD,M
Boys,74.84,8,Curtis Luff,Crosby,69.99,136.08,86.18,149.69,371.95,Single-ply,SBD,M
Boys,82.1,9,Blake Sainz,East Bernard,75.02,127.01,86.18,142.88,356.07,Single-ply,SBD,M
Boys,74.84,10,James Martin,Pasadena Rayburn,72.85,124.74,74.84,136.08,335.66,Single-ply,SBD,M
Boys,74.84,11,Abraham Moreno,Sealy,72.48,124.74,79.38,129.27,333.39,Single-ply,SBD,M
Boys,82.1,12,Gavin Hunt,Pasadena Memorial,74.93,120.2,61.23,149.69,331.12,Single-ply,SBD,M
Boys,74.84,13,BJ Alvarado,Sealy,67.72,74.84,52.16,95.25,222.26,Single-ply,SBD,M
Boys,74.84,DQ,Blake Weber,Sealy,71.76,142.88,,,,Single-ply,SBD,M
Boys,89.81,1,Lance Cole,Crosby,82.28,208.65,140.61,192.78,542.04,Single-ply,SBD,M
Boys,82.1,2,Richard Kieffer,La Porte,78.06,188.24,115.67,206.38,510.29,Single-ply,SBD,M
Boys,82.1,3,Kevin Agostinho,Katy Taylor,75.66,192.78,111.13,188.24,492.15,Single-ply,SBD,M
Boys,82.1,4,David Mejia,Pasadena Rayburn,80.83,192.78,102.06,192.78,487.61,Single-ply,SBD,M
Boys,82.1,5,Marcus Mathews,La Marque,78.24,165.56,111.13,185.97,462.66,Single-ply,SBD,M
Boys,82.1,6,Anival Villatoro,Pasadena Memorial,80.69,181.44,90.72,190.51,462.66,Single-ply,SBD,M
Boys,82.1,7,Mohammad Al-Naimi,Friendswood Clear Brook,75.89,149.69,113.4,195.04,458.13,Single-ply,SBD,M
Boys,82.1,8,Miguel Medina,Pasadena Memorial,78.93,176.9,90.72,188.24,455.86,Single-ply,SBD,M
Boys,82.1,9,Conner Ackley,Brookshire Royal,79.88,174.63,111.13,142.88,428.64,Single-ply,SBD,M
Boys,82.1,10,Jalen Williams,Dickinson,75.11,163.29,68.04,181.44,412.77,Single-ply,SBD,M
Boys,82.1,11,Connor Culter,Dickinson,79.38,142.88,88.45,174.63,405.97,Single-ply,SBD,M
Boys,89.81,12,Christian Busby,Brookshire Royal,82.19,145.15,106.59,145.15,396.89,Single-ply,SBD,M
Boys,82.1,13,Cody Hamilton,Katy Taylor,75.89,158.76,90.72,142.88,392.36,Single-ply,SBD,M
Boys,82.1,14,Dalton Reichardt,Friendswood Clear Brook,75.98,136.08,90.72,158.76,385.55,Single-ply,SBD,M
Boys,82.1,15,Jaden Bishop,La Marque,75.75,138.35,68.04,147.42,353.8,Single-ply,SBD,M
Boys,82.1,16,Thomas Hancock,Friendswood Clear Brook,76.75,102.06,74.84,122.47,299.37,Single-ply,SBD,M
Boys,89.81,1,Travis Anderson,Crosby,88.99,217.72,158.76,226.8,603.28,Single-ply,SBD,M
Boys,89.81,2,Ezra Betancud,Katy Mayde Creek,87.09,226.8,124.74,233.6,585.13,Single-ply,SBD,M
Boys,89.81,3,Reese Thompson,La Porte,87.54,215.46,142.88,226.8,585.13,Single-ply,SBD,M
Boys,89.81,4,Kadrion Latson,Bryan Rudder,84.73,195.04,122.47,204.12,521.63,Single-ply,SBD,M
Boys,89.81,5,Darian Thomas,Sealy,88.04,199.58,124.74,195.04,519.36,Single-ply,SBD,M
Boys,89.81,6,Trevor Anderson,Dickinson,88.77,165.56,99.79,208.65,474,Single-ply,SBD,M
Boys,89.81,7,DeVarion Guyton,Bryan Rudder,89.27,170.1,102.06,197.31,469.47,Single-ply,SBD,M
Boys,99.79,8,Martin Muniz,Pasadena Rayburn,89.9,174.63,99.79,195.04,469.47,Single-ply,SBD,M
Boys,89.81,9,Sean Castillo,La Porte,84.23,192.78,111.13,161.03,464.93,Single-ply,SBD,M
Boys,89.81,10,Nick Tucci,Katy Taylor,84.41,174.63,90.72,170.1,435.45,Single-ply,SBD,M
Boys,89.81,11,Zachary Mangum,Friendswood Clear Brook,88.41,151.95,88.45,163.29,403.7,Single-ply,SBD,M
Boys,89.81,12,Alex Reyes,Brookshire Royal,84.05,147.42,99.79,151.95,399.16,Single-ply,SBD,M
Boys,89.81,13,Jesus Bernal,Brookshire Royal,84.28,122.47,83.91,113.4,319.78,Single-ply,SBD,M
Boys,89.81,14,Justin Gomez,Bryan Rudder,89.63,90.72,63.5,133.81,288.03,Single-ply,SBD,M
Boys,89.81,DQ,Daniel San Miguel,Bryan Rudder,82.55,111.13,,,,Single-ply,SBD,M
Boys,89.81,DQ,Sinai Woods,Bryan Rudder,87.27,149.69,,,,Single-ply,SBD,M
Boys,99.79,1,Germain Zuiga,Pasadena Rayburn,96.07,244.94,172.37,229.06,646.37,Single-ply,SBD,M
Boys,99.79,2,Ty Jalowy,East Bernard,95.39,238.14,154.22,226.8,619.15,Single-ply,SBD,M
Boys,99.79,3,Spencer Choka,Bryan Rudder,96.07,213.19,158.76,222.26,594.21,Single-ply,SBD,M
Boys,99.79,4,Jaylen Brown,Katy Mayde Creek,91.72,174.63,151.95,231.33,557.92,Single-ply,SBD,M
Boys,99.79,5,Tristan Anderson,Dickinson,96.39,213.19,111.13,231.33,555.65,Single-ply,SBD,M
Boys,99.79,6,Stephen Rowe,Friendswood Clear Brook,91.35,179.17,113.4,226.8,519.36,Single-ply,SBD,M
Boys,99.79,7,Carson Gillaspia,Katy Taylor,94.94,204.12,127.01,183.7,514.83,Single-ply,SBD,M
Boys,99.79,8,Cameron Townsend,Friendswood Clear Brook,98.57,183.7,113.4,204.12,501.22,Single-ply,SBD,M
Boys,99.79,9,Josh Peoples,Bryan Rudder,99.11,154.22,106.59,190.51,451.32,Single-ply,SBD,M
Boys,99.79,10,Brett Hull,Pasadena Memorial,98.38,165.56,86.18,181.44,433.18,Single-ply,SBD,M
Boys,99.79,11,Braedon Smith,Bryan Rudder,95.3,170.1,92.99,161.03,424.11,Single-ply,SBD,M
Boys,109.77,12,Connor Sloan,Katy Mayde Creek,99.88,165.56,88.45,158.76,412.77,Single-ply,SBD,M
Boys,99.79,13,Joshua Hall,Pasadena Memorial,96.66,154.22,86.18,165.56,405.97,Single-ply,SBD,M
Boys,99.79,14,Chris Rios,Pasadena Memorial,94.17,140.61,79.38,149.69,369.68,Single-ply,SBD,M
Boys,99.79,15,Dwight Daniels,Friendswood Clear Brook,95.35,127.01,79.38,142.88,349.27,Single-ply,SBD,M
Boys,99.79,DQ,James Mower,Friendswood Clear Brook,95.39,163.29,,,,Single-ply,SBD,M
Boys,124.74,1,Kaylond North,Dickinson,109.86,308.44,185.97,272.16,766.57,Single-ply,SBD,M
Boys,109.77,2,Anietie Etuk,Dickinson,107.09,272.16,156.49,278.96,707.6,Single-ply,SBD,M
Boys,109.77,3,Jared Reedy,Dickinson,108.86,276.69,142.88,238.14,657.71,Single-ply,SBD,M
Boys,109.77,4,Jessie Facundo,Pasadena Memorial,109.18,226.8,129.27,219.99,576.06,Single-ply,SBD,M
Boys,124.74,5,Keyshawn Pettieway,Crosby,109.81,215.46,147.42,210.92,573.79,Single-ply,SBD,M
Boys,109.77,6,Rodney Rodriguez,Katy Taylor,104.42,238.14,131.54,192.78,562.45,Single-ply,SBD,M
Boys,109.77,7,Brandon Clay,Dickinson,109.63,226.8,142.88,188.24,557.92,Single-ply,SBD,M
Boys,109.77,8,Livan Lopez,Dickinson,101.47,204.12,117.93,213.19,535.24,Single-ply,SBD,M
Boys,109.77,9,Remington Felder,Katy Mayde Creek,107.5,215.46,113.4,192.78,521.63,Single-ply,SBD,M
Boys,109.77,10,Kevin Nguyen,Friendswood Clear Brook,101.7,183.7,117.93,215.46,517.1,Single-ply,SBD,M
Boys,109.77,11,Alan Elizondo,La Porte,101.56,185.97,131.54,197.31,514.83,Single-ply,SBD,M
Boys,109.77,12,Tyler Vasut,East Bernard,108.95,217.72,111.13,181.44,510.29,Single-ply,SBD,M
Boys,109.77,13,Darius Fisher,Pasadena Rayburn,103.92,185.97,113.4,197.31,496.68,Single-ply,SBD,M
Boys,109.77,14,Brady Roberts,Bryan Rudder,106.19,185.97,115.67,174.63,476.27,Single-ply,SBD,M
Boys,109.77,15,Ricardo Beliz,Dickinson,104.96,181.44,108.86,174.63,464.93,Single-ply,SBD,M
Boys,109.77,16,Ryan Oldigs,Friendswood Clear Brook,107.73,185.97,88.45,183.7,458.13,Single-ply,SBD,M
Boys,109.77,17,Otito Ogbonnia,Katy Taylor,105.01,165.56,92.99,183.7,442.25,Single-ply,SBD,M
Boys,109.77,18,De'Mondre Wade,Brookshire Royal,106.1,129.27,70.31,136.08,335.66,Single-ply,SBD,M
Boys,109.77,19,Eric Mendoza,Friendswood Clear Brook,100.79,108.86,61.23,122.47,292.57,Single-ply,SBD,M
Boys,124.74,1,Josh Opiela,Crosby,123.42,328.85,188.24,247.21,764.3,Single-ply,SBD,M
Boys,124.74+,2,Charles Owens,Bryan Rudder,124.96,283.5,156.49,254.01,694,Single-ply,SBD,M
Boys,124.74,3,Denaus Ferguson,La Porte,120.56,276.69,156.49,249.48,682.66,Single-ply,SBD,M
Boys,124.74,4,Chase Bridgeman,Crosby,120.07,215.46,142.88,219.99,578.33,Single-ply,SBD,M
Boys,124.74,5,Michael Onyuego,Katy Mayde Creek,111.31,238.14,124.74,199.58,562.45,Single-ply,SBD,M
Boys,124.74,6,Tim Thomas,Pasadena Memorial,121.2,226.8,120.2,215.46,562.45,Single-ply,SBD,M
Boys,124.74,7,Andrew Velasco,Katy Mayde Creek,119.84,238.14,147.42,174.63,560.19,Single-ply,SBD,M
Boys,124.74,8,Alex Arevalo,Bryan Rudder,119.79,224.53,113.4,204.12,542.04,Single-ply,SBD,M
Boys,124.74,9,Devyn Billiott,La Marque,123.15,213.19,106.59,192.78,512.56,Single-ply,SBD,M
Boys,124.74,10,Jacob Keverline,Katy Taylor,112.63,204.12,106.59,197.31,508.02,Single-ply,SBD,M
Boys,124.74,11,Shaquan Warren,Bryan Rudder,118.57,172.37,136.08,190.51,498.95,Single-ply,SBD,M
Boys,124.74,12,Andy Cassity,Friendswood Clear Brook,121.52,190.51,92.99,201.85,485.34,Single-ply,SBD,M
Boys,124.74,13,Brandon Higginbotham,East Bernard,115.94,158.76,124.74,185.97,469.47,Single-ply,SBD,M
Boys,124.74,14,Nikedrion Gooden,Bryan Rudder,113.76,138.35,90.72,183.7,412.77,Single-ply,SBD,M
Boys,124.74+,1,Alonzo Crittendon,Dickinson,138.48,362.87,158.76,288.03,809.66,Single-ply,SBD,M
Boys,124.74+,2,Chance Harmanson,Dickinson,143.79,317.51,199.58,272.16,789.25,Single-ply,SBD,M
Boys,124.74+,3,Matthew Gregory,Crosby,137.35,260.82,151.95,226.8,639.57,Single-ply,SBD,M
Boys,124.74+,4,Keenan Murphy,Crosby,132.77,238.14,145.15,242.67,625.96,Single-ply,SBD,M
Boys,124.74+,5,Chris Rogers,Katy Taylor,134.35,265.35,122.47,238.14,625.96,Single-ply,SBD,M
Boys,124.74+,6,William Tinner,La Marque,136.89,226.8,142.88,226.8,596.47,Single-ply,SBD,M
Boys,124.74+,7,Alex Hernandez,Pasadena Rayburn,128.19,265.35,124.74,192.78,582.87,Single-ply,SBD,M
Boys,124.74+,8,John Vasquez,Dickinson,148.87,251.74,133.81,192.78,578.33,Single-ply,SBD,M
Boys,124.74+,9,Francisco Infante,Brookshire Royal,134.76,213.19,124.74,199.58,537.51,Single-ply,SBD,M
Boys,124.74+,10,Zach Vega,Friendswood Clear Brook,141.88,201.85,108.86,183.7,494.42,Single-ply,SBD,M
Boys,124.74+,11,Marlon Ford,La Marque,155.4,154.22,83.91,192.78,430.91,Single-ply,SBD,M
Boys,124.74+,DQ,Danny Guajardo,Crosby,134.81,181.44,86.18,,,Single-ply,SBD,M
Boys,,NS,Deante Warren,Brookshire Royal,,,,,,Single-ply,SBD,M
