Division,WeightClassKg,Place,Name,Team,BodyweightKg,Best3SquatKg,Best3BenchKg,Best3DeadliftKg,TotalKg,Equipment,Event,Sex
Boys,51.71,1,Corbin Donoho,Corsicana Mildred,51.26,99.79,52.16,117.93,269.89,Single-ply,SBD,M
Boys,51.71,2,Tyler Lowery,Aubrey,49.9,83.91,45.36,99.79,229.06,Single-ply,SBD,M
Boys,51.71,DQ,Justin Lindsey,Kennedale,50.35,,,,,Single-ply,SBD,M
Boys,55.79,1,Angel Garza,Decatur,54.88,115.67,63.5,133.81,312.98,Single-ply,SBD,M
Boys,55.79,2,Cameron Blake,Wichita Falls Hirschi,52.16,95.25,45.36,122.47,263.08,Single-ply,SBD,M
Boys,55.79,3,Ryder Tucker,Milford,55.07,99.79,49.9,106.59,256.28,Single-ply,SBD,M
Boys,55.79,4,Marc Vasquez,Aubrey,53.07,90.72,43.09,106.59,240.4,Single-ply,SBD,M
Boys,59.87,1,Fernando Salas,Farmersville,58.97,158.76,88.45,158.76,405.97,Single-ply,SBD,M
Boys,67.13,2,AJ Garcia,Kennedale,59.96,145.15,86.18,163.29,394.63,Single-ply,SBD,M
Boys,59.87,3,Jesus Gam,Decatur,59.87,149.69,79.38,151.95,381.02,Single-ply,SBD,M
Boys,59.87,4,Caleb Scott,Aubrey,58.51,136.08,77.11,142.88,356.07,Single-ply,SBD,M
Boys,59.87,5,Ryan Holmen,Aubrey,56.7,108.86,68.04,122.47,299.37,Single-ply,SBD,M
Boys,59.87,6,Dawson Thompson,Decatur,56.7,104.33,68.04,120.2,292.57,Single-ply,SBD,M
Boys,59.87,7,Andrew Calvin,Wichita Falls Hirschi,57.15,104.33,61.23,108.86,274.42,Single-ply,SBD,M
Boys,59.87,DQ,Ryan Arnold,Carrollton Ranchview,58.51,,,,,Single-ply,SBD,M
Boys,67.13,1,Tyler Williams,Aubrey,67.13,204.12,108.86,204.12,517.1,Single-ply,SBD,M
Boys,67.13,2,Jaquay Brown,Milford,64.86,199.58,106.59,204.12,510.29,Single-ply,SBD,M
Boys,74.84,3,Stephen Linares,Kennedale,67.31,183.7,97.52,185.97,467.2,Single-ply,SBD,M
Boys,67.13,4,Trey Minefee,Corsicana Mildred,67.13,161.03,104.33,161.03,426.38,Single-ply,SBD,M
Boys,67.13,5,Keith Kayser,Milford,64.32,145.15,72.57,165.56,383.29,Single-ply,SBD,M
Boys,67.13,6,Jon Mitchell,Kennedale,65.32,136.08,97.52,149.69,383.29,Single-ply,SBD,M
Boys,67.13,7,Colton Haven,Corsicana Mildred,64.86,142.88,77.11,145.15,365.14,Single-ply,SBD,M
Boys,67.13,8,Jesse Romero,Decatur,64.95,111.13,81.65,129.27,322.05,Single-ply,SBD,M
Boys,67.13,9,Martez Vrana,Wichita Falls Hirschi,63.96,102.06,65.77,113.4,281.23,Single-ply,SBD,M
Boys,74.84,10,Josh Berman,Kennedale,67.22,81.65,70.31,124.74,276.69,Single-ply,SBD,M
Boys,67.13,11,Carlos Torre,Kennedale,64.95,83.91,56.7,92.99,233.6,Single-ply,SBD,M
Boys,74.84,DQ,Domingo Santos,Kennedale,67.31,149.69,,,,Single-ply,SBD,M
Boys,67.13,DQ,Zach Downing,Wichita Falls Hirschi,63.5,158.76,,,,Single-ply,SBD,M
Boys,74.84,1,Deon Mitchell,Wichita Falls Hirschi,74.39,240.4,140.61,258.55,639.57,Single-ply,SBD,M
Boys,74.84,1,Davian Carter,Carrollton Ranchview,74.84,204.12,122.47,208.65,535.24,Single-ply,SBD,M
Boys,74.84,2,Jaylon Norman,Carrollton Ranchview,72.12,167.83,106.59,208.65,483.08,Single-ply,SBD,M
Boys,74.84,3,Shingi Maraire,Aubrey,71.67,158.76,77.11,174.63,410.5,Single-ply,SBD,M
Boys,74.84,4,Gerrick McKinney,Wichita Falls Hirschi,70.76,136.08,88.45,158.76,383.29,Single-ply,SBD,M
Boys,74.84,5,Hayden Brock,Kennedale,68.95,142.88,77.11,151.95,371.95,Single-ply,SBD,M
Boys,74.84,6,Sebastian Griffin,Kennedale,72.57,108.86,61.23,151.95,322.05,Single-ply,SBD,M
Boys,82.1,2,Kalon Mitchell,Carrollton Ranchview,78.02,172.37,108.86,208.65,489.88,Single-ply,SBD,M
Boys,82.1,3,Enrique Perez,Aubrey,81.65,174.63,117.93,190.51,483.08,Single-ply,SBD,M
Boys,82.1,4,Anthony Sanchez,Kennedale,80.38,142.88,88.45,156.49,387.82,Single-ply,SBD,M
Boys,82.1,5,Jacob Winters,Kennedale,78.47,127.01,65.77,142.88,335.66,Single-ply,SBD,M
Boys,89.81,1,Trey White,Kennedale,89.36,208.65,108.86,185.97,503.49,Single-ply,SBD,M
Boys,89.81,2,Brendan Brumley,Aubrey,89.81,179.17,108.86,192.78,480.81,Single-ply,SBD,M
Boys,89.81,3,Justin Horn,Corsicana Mildred,87.54,172.37,90.72,172.37,435.45,Single-ply,SBD,M
Boys,89.81,4,Henry Romero,Kennedale,89.72,158.76,108.86,163.29,430.91,Single-ply,SBD,M
Boys,89.81,5,Ricardo Pena,Kennedale,88.45,170.1,95.25,154.22,419.57,Single-ply,SBD,M
Boys,89.81,6,Chase Doyle,Kennedale,87.54,129.27,115.67,172.37,417.3,Single-ply,SBD,M
Boys,89.81,7,Brody Floyd,Kennedale,87.54,138.35,95.25,170.1,403.7,Single-ply,SBD,M
Boys,89.81,8,Alex Sanchez,Kennedale,85.28,156.49,90.72,136.08,383.29,Single-ply,SBD,M
Boys,89.81,9,Gregory Strange,Milford,84.28,136.08,63.5,124.74,324.32,Single-ply,SBD,M
Boys,89.81,DQ,Damon Lewis,Decatur,84.82,,,,,Single-ply,SBD,M
Boys,99.79,1,Dakota Williams,Decatur,98.43,260.82,129.27,231.33,621.42,Single-ply,SBD,M
Boys,99.79,2,Keanu Fathal,Corsicana Mildred,94.35,226.8,138.35,210.92,576.06,Single-ply,SBD,M
Boys,99.79,3,Ricky Zamora,Corsicana Mildred,97.07,210.92,115.67,204.12,530.7,Single-ply,SBD,M
Boys,99.79,4,Martín Muñoz,Fort Worth South Hills,91.17,199.58,136.08,188.24,523.9,Single-ply,SBD,M
Boys,99.79,5,Cody Holaway,Decatur,98.88,192.78,95.25,185.97,474,Single-ply,SBD,M
Boys,99.79,6,Jonny Roa,Fort Worth South Hills,92.99,165.56,102.06,170.1,437.72,Single-ply,SBD,M
Boys,99.79,7,Eli Shinn,Farmersville,96.16,136.08,61.23,154.22,351.53,Single-ply,SBD,M
Boys,99.79,DQ,Kevin Williams,Aubrey,91.17,190.51,,,,Single-ply,SBD,M
Boys,99.79,DQ,Jacob Kendrick,Aubrey,94.8,172.37,,,,Single-ply,SBD,M
Boys,99.79,DQ,Colton Hall,Kennedale,93.89,226.8,120.2,,,Single-ply,SBD,M
Boys,109.77,1,Reagan Cloud,Corsicana Mildred,108.41,249.48,147.42,215.46,612.35,Single-ply,SBD,M
Boys,109.77,2,Matthew Naugle,Kennedale,107.5,217.72,140.61,213.19,571.53,Single-ply,SBD,M
Boys,109.77,3,Javier Hernandez,Fort Worth South Hills,107.05,215.46,108.86,183.7,508.02,Single-ply,SBD,M
Boys,109.77,4,Juan Venegas,Milford,105.23,156.49,97.52,172.37,426.38,Single-ply,SBD,M
Boys,109.77,5,Nathan Ellison,Aubrey,101.15,165.56,,,165.56,Single-ply,S,M
Boys,109.77,DQ,Chris Serwanga,Kennedale,102.06,136.08,,,,Single-ply,S,M
Boys,124.74,1,Brent Reed,Kennedale,122.92,272.16,136.08,267.62,675.85,Single-ply,SBD,M
Boys,124.74,2,Deondre Clark,Wichita Falls Hirschi,119.29,226.8,129.27,183.7,539.77,Single-ply,SBD,M
Boys,124.74,3,Johnny Zielinski,Kennedale,121.56,204.12,122.47,197.31,523.9,Single-ply,SBD,M
Boys,124.74,4,David Gray,Aubrey,112.04,206.38,111.13,190.51,508.02,Single-ply,SBD,M
Boys,124.74,5,Jonathan Smith,Aubrey,124.28,181.44,104.33,170.1,455.86,Single-ply,SBD,M
Boys,124.74,6,Brett Bostad,Kennedale,115.21,181.44,20.41,172.37,374.21,Single-ply,SBD,M
Boys,124.74,DQ,Fred Reyna,Aubrey,112.04,192.78,95.25,,,Single-ply,SBD,M
Boys,124.74,DQ,Max Driscoll,Godley,124.74,272.16,188.24,,,Single-ply,SBD,M
Boys,124.74,DQ,Rickey Roberts,Decatur,116.12,244.94,,,,Single-ply,SBD,M
Boys,124.74+,1,CJ Mendoza,Carrollton Ranchview,130.63,208.65,111.13,213.19,532.97,Single-ply,SBD,M
Boys,124.74+,2,Andrew Flannigan,Kennedale,142.88,199.58,154.22,179.17,532.97,Single-ply,SBD,M
Boys,124.74+,DQ,Martin Cunningham,Wichita Falls Hirschi,127.46,192.78,129.27,,,Single-ply,SBD,M
Boys,124.74+,DQ,Jacob Hartsell,Decatur,145.15,238.14,,,,Single-ply,SBD,M
