Division,WeightClassKg,Place,Name,Team,BodyweightKg,Best3SquatKg,Best3BenchKg,Best3DeadliftKg,TotalKg,Equipment,Event,Sex
Boys,51.71,1,Ezekiel Murphy,Roscoe Collegiate,46.9,111.13,54.43,111.13,276.69,Single-ply,SBD,M
Boys,51.71,2,Jj Galvan,Abilene,51.71,104.33,54.43,111.13,269.89,Single-ply,SBD,M
Boys,51.71,3,Joseph Woodyard,Abilene,50.98,81.65,54.43,113.4,249.48,Single-ply,SBD,M
Boys,51.71,4,Roberto Hernandez,Abilene Cooper,49.8,88.45,54.43,102.06,244.94,Single-ply,SBD,M
Boys,55.79,1,Canaan Charleston,Clyde,55.79,154.22,90.72,147.42,392.36,Single-ply,SBD,M
Boys,55.79,2,Kaleb Chacon,Merkel,55.61,129.27,79.38,142.88,351.53,Single-ply,SBD,M
Boys,55.79,3,Andrew DeLeon,Roscoe Collegiate,52.98,124.74,77.11,127.01,328.85,Single-ply,SBD,M
Boys,55.79,4,Emilio Fernandez,Abilene Cooper,54.98,113.4,77.11,127.01,317.51,Single-ply,SBD,M
Boys,55.79,5,Jacob Renfro,Abilene,53.8,104.33,68.04,127.01,299.37,Single-ply,SBD,M
Boys,55.79,6,Don Bridges,Tuscola Jim Ned,52.71,92.99,52.16,108.86,254.01,Single-ply,SBD,M
Boys,59.87,1,Jesus Menjivar,Abilene Cooper,58.97,149.69,92.99,167.83,410.5,Single-ply,SBD,M
Boys,59.87,2,Lleyton Frazier,Tuscola Jim Ned,57.97,136.08,86.18,154.22,376.48,Single-ply,SBD,M
Boys,59.87,3,Adam Hathaway,Merkel,59.87,120.2,72.57,156.49,349.27,Single-ply,SBD,M
Boys,59.87,4,Austin Tobar,Abilene Cooper,59.87,129.27,79.38,115.67,324.32,Single-ply,SBD,M
Boys,59.87,5,Nathan Embila,Abilene,59.06,127.01,72.57,122.47,322.05,Single-ply,SBD,M
Boys,59.87,6,Jayton Pimentel,Clyde,59.06,113.4,72.57,113.4,299.37,Single-ply,SBD,M
Boys,59.87,DQ,Johnny Donnelly,Hawley,59.06,,,,,Single-ply,SBD,M
Boys,67.13,1,Damian Willbourn,Ballinger,66.13,156.49,86.18,179.17,421.84,Single-ply,SBD,M
Boys,67.13,2,Rob Young,Tuscola Jim Ned,65.14,158.76,92.99,167.83,419.57,Single-ply,SBD,M
Boys,67.13,3,Clayton Sparks,Merkel,64.86,154.22,81.65,158.76,394.63,Single-ply,SBD,M
Boys,67.13,4,Gunnar McCoy,Water Valley,65.95,131.54,81.65,147.42,360.61,Single-ply,SBD,M
Boys,67.13,5,Nick Massey,Merkel,65.77,117.93,77.11,142.88,337.93,Single-ply,SBD,M
Boys,67.13,6,Noah Bjorlie,Abilene Cooper,66.5,124.74,72.57,124.74,322.05,Single-ply,SBD,M
Boys,67.13,7,Trevor Wilkerson,Clyde,66.5,138.35,72.57,108.86,319.78,Single-ply,SBD,M
Boys,67.13,8,Heath Flores,New Home,62.05,122.47,68.04,127.01,317.51,Single-ply,SBD,M
Boys,67.13,9,Mark Leyva,Merkel,62.05,102.06,63.5,124.74,290.3,Single-ply,SBD,M
Boys,67.13,10,Hal Morrison,Hawley,67.13,74.84,61.23,102.06,238.14,Single-ply,SBD,M
Boys,67.13,DQ,Ben Sanchez,San Angelo Central,61.87,,,,,Single-ply,SBD,M
Boys,67.13,DQ,Landry Burnes,San Angelo Central,61.78,142.88,61.23,,,Single-ply,SBD,M
Boys,74.84,1,Francisco Garcia,Roscoe Collegiate,74.84,183.7,122.47,192.78,498.95,Single-ply,SBD,M
Boys,74.84,2,Rj Hoffman,Clyde,71.67,204.12,95.25,167.83,467.2,Single-ply,SBD,M
Boys,74.84,3,Aiden Fuentes,San Angelo Central,71.67,181.44,88.45,192.78,462.66,Single-ply,SBD,M
Boys,74.84,4,Jorge Hernandez,Abilene,74.66,151.95,97.52,181.44,430.91,Single-ply,SBD,M
Boys,74.84,5,Joe Flores,Abilene Cooper,67.95,158.76,79.38,174.63,412.77,Single-ply,SBD,M
Boys,74.84,6,Jett Ballard,New Home,72.03,161.03,81.65,161.03,403.7,Single-ply,SBD,M
Boys,74.84,7,Slade Shipman,Merkel,70.85,131.54,88.45,158.76,378.75,Single-ply,SBD,M
Boys,74.84,8,Luke Boggess,Ballinger,71.58,131.54,86.18,145.15,362.87,Single-ply,SBD,M
Boys,74.84,9,Colton Watts,Roscoe Collegiate,72.67,115.67,81.65,147.42,344.73,Single-ply,SBD,M
Boys,74.84,10,Adam Keidl,Clyde,72.57,124.74,70.31,129.27,324.32,Single-ply,SBD,M
Boys,74.84,11,Truett Wilkerson,Clyde,68.04,113.4,68.04,124.74,306.17,Single-ply,SBD,M
Boys,74.84,DQ,Blayz Ingle,Clyde,69.4,,,,,Single-ply,SBD,M
Boys,74.84,DQ,Robin Tacker,Anson,74.66,117.93,,,,Single-ply,SBD,M
Boys,74.84,DQ,Bobby Pena,San Angelo Central,68.95,149.69,,,,Single-ply,SBD,M
Boys,74.84,DQ,Caleb Riojas,New Home,72.94,,,,,Single-ply,SBD,M
Boys,82.1,1,Donovan Gomez,Clyde,81.37,244.94,136.08,206.38,587.4,Single-ply,SBD,M
Boys,82.1,2,Emile Niyonkuru,Abilene Cooper,78.65,197.31,113.4,204.12,514.83,Single-ply,SBD,M
Boys,82.1,3,Elijah Moser,Anson,80.65,179.17,102.06,201.85,483.08,Single-ply,SBD,M
Boys,82.1,4,AJ Gonzales,Abilene,81.83,188.24,113.4,167.83,469.47,Single-ply,SBD,M
Boys,82.1,5,Michael Bartlett,Abilene,77.84,176.9,99.79,190.51,467.2,Single-ply,SBD,M
Boys,82.1,6,Zack Yost,Clyde,77.38,167.83,102.06,167.83,437.72,Single-ply,SBD,M
Boys,82.1,7,Warren Pike,Merkel,77.93,151.95,70.31,170.1,392.36,Single-ply,SBD,M
Boys,82.1,8,Nathan Mojica,New Home,78.11,145.15,70.31,154.22,369.68,Single-ply,SBD,M
Boys,82.1,9,Gabriel Camargo,Anson,76.29,131.54,61.23,140.61,333.39,Single-ply,SBD,M
Boys,82.1,10,Dallas Camargo,Anson,78.47,117.93,63.5,124.74,306.17,Single-ply,SBD,M
Boys,82.1,11,Dawon Cannon,Clyde,80.38,95.25,70.31,117.93,283.5,Single-ply,SBD,M
Boys,82.1,12,Kobe Martinez,Hawley,77.75,102.06,56.7,95.25,254.01,Single-ply,SBD,M
Boys,82.1,DQ,Ricardo Lopez,Ballinger,78.11,,,,,Single-ply,SBD,M
Boys,89.81,1,Devin Romero,Abilene,88.45,249.48,124.74,238.14,612.35,Single-ply,SBD,M
Boys,89.81,2,Morgan Porter,Clyde,88.27,185.97,97.52,192.78,476.27,Single-ply,SBD,M
Boys,89.81,3,Athen Fish,Clyde,83.91,158.76,99.79,181.44,439.98,Single-ply,SBD,M
Boys,89.81,4,Colton Marshall,Hawley,84.64,154.22,108.86,167.83,430.91,Single-ply,SBD,M
Boys,89.81,5,Max Bradley,Water Valley,87.54,161.03,83.91,151.95,396.89,Single-ply,SBD,M
Boys,89.81,6,Kyle St John,Anson,88.99,136.08,77.11,138.35,351.53,Single-ply,SBD,M
Boys,89.81,7,Noah Talamaniez,San Angelo Central,83.91,102.06,61.23,102.06,265.35,Single-ply,SBD,M
Boys,89.81,DQ,Adrian Lomas,Roscoe Collegiate,89.27,204.12,,,,Single-ply,SBD,M
Boys,99.79,1,Harley Ford,Abilene,96.34,229.06,111.13,204.12,544.31,Single-ply,SBD,M
Boys,99.79,2,Arthur Murillo,Tuscola Jim Ned,93.89,213.19,108.86,213.19,535.24,Single-ply,SBD,M
Boys,99.79,3,Austin Lara,Roscoe Collegiate,99.34,204.12,120.2,197.31,521.63,Single-ply,SBD,M
Boys,99.79,4,Griffin Cooke,Abilene,97.52,210.92,111.13,190.51,512.56,Single-ply,SBD,M
Boys,99.79,5,Jacob Turner,Tuscola Jim Ned,91.35,181.44,108.86,219.99,510.29,Single-ply,SBD,M
Boys,99.79,6,Xavier Graves,Abilene,97.34,199.58,111.13,183.7,494.42,Single-ply,SBD,M
Boys,99.79,7,John Wheeler,Tuscola Jim Ned,97.25,195.04,124.74,167.83,487.61,Single-ply,SBD,M
Boys,99.79,8,Kutter McDowell,Clyde,93.71,192.78,113.4,165.56,471.74,Single-ply,SBD,M
Boys,99.79,9,Jorrian Moses,Abilene Cooper,95.71,174.63,108.86,170.1,453.59,Single-ply,SBD,M
Boys,99.79,10,Cayman Smith,New Home,94.08,138.35,49.9,136.08,324.32,Single-ply,SBD,M
Boys,99.79,11,Gistavo Velasquez,Clyde,92.71,122.47,72.57,124.74,319.78,Single-ply,SBD,M
Boys,99.79,DQ,Tanner Schnoer,Hawley,97.34,,,,,Single-ply,SBD,M
Boys,109.77,1,Brandon Padilla,Anson,109.04,288.03,147.42,249.48,684.92,Single-ply,SBD,M
Boys,109.77,2,Zack Thompson,Abilene,108.41,244.94,158.76,208.65,612.35,Single-ply,SBD,M
Boys,109.77,3,Kolter Willeford,Hawley,109.77,249.48,136.08,217.72,603.28,Single-ply,SBD,M
Boys,109.77,4,Austin Schoonmaker,Clyde,109.32,238.14,142.88,199.58,580.6,Single-ply,SBD,M
Boys,109.77,5,Tye Landeros,Tuscola Jim Ned,103.69,235.87,120.2,195.04,551.11,Single-ply,SBD,M
Boys,109.77,6,Jaxon Smith,Abilene,108.32,226.8,115.67,183.7,526.17,Single-ply,SBD,M
Boys,109.77,7,Colton Grimes,Abilene Cooper,108.59,199.58,136.08,188.24,523.9,Single-ply,SBD,M
Boys,109.77,8,Michaelin Toney,Abilene Cooper,109.41,192.78,131.54,195.04,519.36,Single-ply,SBD,M
Boys,109.77,9,Kade Heatherly,Abilene Cooper,103.15,201.85,102.06,195.04,498.95,Single-ply,SBD,M
Boys,109.77,10,Lucio Ramirez,Abilene,109.5,226.8,104.33,167.83,498.95,Single-ply,SBD,M
Boys,109.77,11,Kade Miller,Tuscola Jim Ned,102.42,156.49,92.99,165.56,415.04,Single-ply,SBD,M
Boys,109.77,12,Thaddeus Hazelwood,Hawley,109.5,136.08,113.4,145.15,394.63,Single-ply,SBD,M
Boys,109.77,DQ,Joshua Diaz,San Angelo Central,103.96,170.1,,,,Single-ply,SBD,M
Boys,109.77,DQ,Triston Patterson,Tuscola Jim Ned,101.79,172.37,111.13,,,Single-ply,SBD,M
Boys,124.74,1,Divad Briones,Ballinger,114.03,260.82,158.76,190.51,610.08,Single-ply,SBD,M
Boys,124.74,2,Israel DelaCruz,Anson,110.68,231.33,122.47,201.85,555.65,Single-ply,SBD,M
Boys,124.74,3,David Galvan,Anson,120.47,215.46,117.93,204.12,537.51,Single-ply,SBD,M
Boys,124.74,4,Justin Smith,Abilene Cooper,118.12,201.85,122.47,192.78,517.1,Single-ply,SBD,M
Boys,124.74,5,CJ Ugalde,Merkel,118.02,213.19,129.27,172.37,514.83,Single-ply,SBD,M
Boys,124.74,6,Eddie Hernandez,Anson,117.12,210.92,102.06,195.04,508.02,Single-ply,SBD,M
Boys,124.74,7,Stedham Buchanan,Clyde,110.59,192.78,124.74,165.56,483.08,Single-ply,SBD,M
Boys,124.74,8,Jayden Hostetter,Ballinger,116.75,190.51,115.67,170.1,476.27,Single-ply,SBD,M
Boys,124.74,9,Cole Pendleton,Tuscola Jim Ned,119.29,181.44,97.52,163.29,442.25,Single-ply,SBD,M
Boys,124.74,DQ,Dakota Nichols,Hawley,123.38,204.12,,,,Single-ply,SBD,M
Boys,124.74,DQ,Bo Thompson,Hawley,115.21,215.46,147.42,,,Single-ply,SBD,M
Boys,124.74+,1,David Schuman,Merkel,127.46,235.87,140.61,213.19,589.67,Single-ply,SBD,M
Boys,124.74+,2,Devon Cosby,Abilene Cooper,127.28,229.06,129.27,217.72,576.06,Single-ply,SBD,M
Boys,124.74+,3,Thomas Squyres,Abilene Cooper,127.28,215.46,154.22,190.51,560.19,Single-ply,SBD,M
Boys,124.74+,4,Ricardo Rios,Abilene Cooper,138.53,233.6,127.01,199.58,560.19,Single-ply,SBD,M
Boys,124.74+,5,Gage McVey,Abilene Cooper,129.64,217.72,136.08,183.7,537.51,Single-ply,SBD,M
Boys,124.74+,6,Jaron Castillo,Anson,132.99,226.8,111.13,199.58,537.51,Single-ply,SBD,M
Boys,124.74+,7,Khalil Spivey,Abilene,127.37,215.46,97.52,183.7,496.68,Single-ply,SBD,M
Boys,124.74+,8,Javier Santana,Abilene,131.09,208.65,99.79,156.49,464.93,Single-ply,SBD,M
Boys,124.74+,9,Jonathan Presley,Abilene Cooper,153.59,181.44,83.91,154.22,419.57,Single-ply,SBD,M
Boys,,NS,Xavier Jenkins,Abilene Cooper,,,,,,Single-ply,SBD,M
Boys,,NS,Dieder Kanyabitabo,Abilene Cooper,,,,,,Single-ply,SBD,M
Boys,,NS,Henry Ferrel,Abilene Cooper,,,,,,Single-ply,SBD,M
Boys,,NS,Christian Martin,Abilene Cooper,,,,,,Single-ply,SBD,M
Boys,,NS,Zach Kerley,Abilene Cooper,,,,,,Single-ply,SBD,M
Boys,,NS,Eli Batko,Hawley,,,,,,Single-ply,SBD,M
Boys,,NS,Matthew Lozano,Anson,,,,,,Single-ply,SBD,M
Boys,,NS,Adolph Medina,Ballinger,,,,,,Single-ply,SBD,M
Boys,,NS,Hayden Smith,New Home,,,,,,Single-ply,SBD,M
Boys,,NS,Kainen Herd,Merkel,,,,,,Single-ply,SBD,M
Boys,,NS,Jacob Devere,Hawley,,,,,,Single-ply,SBD,M
Boys,,NS,Michael Torres,Merkel,,,,,,Single-ply,SBD,M
Boys,,NS,Gavin Fields,San Angelo Central,,,,,,Single-ply,SBD,M
Boys,,NS,Jayden Gonzales,Roscoe Collegiate,,,,,,Single-ply,SBD,M
Boys,,NS,Whit Smithson,New Home,,,,,,Single-ply,SBD,M
Boys,,NS,Kaden Buckelew,New Home,,,,,,Single-ply,SBD,M
Boys,,NS,Riley Perry,Tuscola Jim Ned,,,,,,Single-ply,SBD,M
