Division,WeightClassKg,Place,Name,Team,BodyweightKg,Best3SquatKg,Best3BenchKg,Best3DeadliftKg,TotalKg,Equipment,Event,Sex
Girls,44.23,1,Destiny Barrientez,Kenedy,44.13,68.04,45.36,92.99,206.38,Single-ply,SBD,F
Girls,44.23,2,Hailee Koti,Pleasanton,44.23,63.5,20.41,61.23,145.15,Single-ply,SBD,F
Girls,47.85,1,Alexia Mia Dy,San Antonio Cole,45.68,97.52,38.56,108.86,244.94,Single-ply,SBD,F
Girls,51.94,1,Liszette Rosado-Ortiz,San Antonio Brooks Academy,51.94,138.35,97.52,127.01,362.87,Single-ply,SBD,F
Girls,51.94,2,Sophia Romero,Pleasanton,51.21,133.81,61.23,131.54,326.59,Single-ply,SBD,F
Girls,51.94,3,Calli Jones,Pleasanton,51.94,86.18,38.56,90.72,215.46,Single-ply,SBD,F
Girls,51.94,4,Shaylee Steed,Pleasanton,51.35,70.31,45.36,77.11,192.78,Single-ply,SBD,F
Girls,51.94,5,Gabby Martinez,Kenedy,49.94,63.5,31.75,83.91,179.17,Single-ply,SBD,F
Girls,51.94,DQ,Kahlia Rodriguez,San Antonio Memorial,50.53,68.04,,,,Single-ply,SBD,F
Girls,56.02,1,Codi Steenbeke,Pleasanton,55.57,127.01,49.9,124.74,301.64,Single-ply,SBD,F
Girls,56.02,2,Kristianna Kelley,Pleasanton,55.66,108.86,49.9,111.13,269.89,Single-ply,SBD,F
Girls,56.02,3,Jazmin Estrada,San Antonio Brooks Academy,54.98,97.52,47.63,122.47,267.62,Single-ply,SBD,F
Girls,56.02,4,Jahnvi Bhakta,San Antonio Brooks Academy,53.71,97.52,47.63,106.59,251.74,Single-ply,SBD,F
Girls,56.02,5,Destinie Small,San Antonio Cole,52.84,92.99,49.9,92.99,235.87,Single-ply,SBD,F
Girls,56.02,6,Kalyssa Rios,Pleasanton,54.84,88.45,40.82,102.06,231.33,Single-ply,SBD,F
Girls,56.02,7,Demi Douglas,San Antonio Memorial,55.88,65.77,40.82,86.18,192.78,Single-ply,SBD,F
Girls,56.02,8,Breanna Valadez,Marion,53.93,58.97,29.48,79.38,167.83,Single-ply,SBD,F
Girls,56.02,DQ,Jessandra Gamble,San Antonio Memorial,54.43,113.4,,,,Single-ply,SBD,F
Girls,60.1,1,Perez Emily,Somerset,57.61,72.57,49.9,74.84,197.31,Single-ply,SBD,F
Girls,60.1,2,Alex Petrie,Marion,56.93,61.23,43.09,70.31,174.63,Single-ply,SBD,F
Girls,60.1,DQ,Aleaya Barnett,San Antonio Cole,59.87,,,,,Single-ply,SBD,F
Girls,60.1,DQ,Miranda Franklin,Somerset,59.87,,,,,Single-ply,SBD,F
Girls,67.36,1,Nallely Gutierrez,San Antonio Brooks Academy,64.23,156.49,99.79,151.95,408.23,Single-ply,SBD,F
Girls,67.36,2,Lauren Lara,San Antonio Brooks Academy,64.64,117.93,63.5,124.74,306.17,Single-ply,SBD,F
Girls,67.36,3,Samantha Ramos,Poteet,65.27,97.52,49.9,99.79,247.21,Single-ply,SBD,F
Girls,67.36,4,Ericka Walker,Pleasanton,63.41,90.72,47.63,102.06,240.4,Single-ply,SBD,F
Girls,67.36,5,Melanie Delgado,San Antonio Brooks Academy,61.23,83.91,43.09,108.86,235.87,Single-ply,SBD,F
Girls,67.36,6,Ashley Laubach,Marion,61.33,90.72,36.29,104.33,231.33,Single-ply,SBD,F
Girls,67.36,7,Elizabeth Britt,Marion,64.23,81.65,43.09,99.79,224.53,Single-ply,SBD,F
Girls,67.36,8,Alex Villanueva,Kenedy,65.54,63.5,38.56,88.45,190.51,Single-ply,SBD,F
Girls,67.36,9,Blake Destiny,Somerset,66.72,58.97,36.29,61.23,156.49,Single-ply,SBD,F
Girls,67.36,DQ,Rosemary Soto,San Antonio Kennedy,64.18,83.91,49.9,,,Single-ply,SBD,F
Girls,75.07,1,Gabby Albiar,Kenedy,72.67,117.93,72.57,142.88,333.39,Single-ply,SBD,F
Girls,75.07,2,Loren Chavez,San Antonio Brooks Academy,74.62,129.27,74.84,127.01,331.12,Single-ply,SBD,F
Girls,75.07,3,Villarreal Victoria,Somerset,71.35,129.27,61.23,111.13,301.64,Single-ply,SBD,F
Girls,75.07,4,Harley Porter,Pleasanton,73.26,122.47,47.63,115.67,285.76,Single-ply,SBD,F
Girls,75.07,5,Adrianna Landry,San Antonio Brooks Academy,68.95,104.33,61.23,117.93,283.5,Single-ply,SBD,F
Girls,75.07,6,Rose McConnel,San Antonio Cole,70.76,97.52,45.36,95.25,238.14,Single-ply,SBD,F
Girls,75.07,7,Alyssa Gutierrez,Marion,70.9,97.52,40.82,90.72,229.06,Single-ply,SBD,F
Girls,75.07,DQ,Caitlyn Gutierrez,Somerset,74.84,,,,,Single-ply,SBD,F
Girls,82.33,1,Amanda Rivera,Poteet,77.47,142.88,54.43,138.35,335.66,Single-ply,SBD,F
Girls,82.33,2,Natalia Ortiz,San Antonio Brooks Academy,80.1,124.74,70.31,122.47,317.51,Single-ply,SBD,F
Girls,82.33,3,Lugo Illea,Somerset,81.74,122.47,77.11,90.72,290.3,Single-ply,SBD,F
Girls,82.33,4,Kassandra Luna,San Antonio Memorial,77.97,113.4,54.43,117.93,285.76,Single-ply,SBD,F
Girls,82.33,5,Devoran Madysen,Somerset,76.02,102.06,68.04,90.72,260.82,Single-ply,SBD,F
Girls,90.04,1,Adriana Martinez,Kenedy,83.55,117.93,70.31,124.74,312.98,Single-ply,SBD,F
Girls,90.04,2,DeAnna Wood,San Antonio Brooks Academy,89.09,102.06,88.45,108.86,299.37,Single-ply,SBD,F
Girls,90.04,3,Aimee Youngblood,Pleasanton,89.31,127.01,58.97,108.86,294.84,Single-ply,SBD,F
Girls,90.04,4,Azzoz Alexis,Somerset,86.45,90.72,61.23,102.06,254.01,Single-ply,SBD,F
Girls,90.04,5,Mellissa Medellin,San Antonio Cole,89.77,95.25,45.36,95.25,235.87,Single-ply,SBD,F
Girls,90.04,6,Madisen Bauwens,Marion,84.82,79.38,43.09,90.72,213.19,Single-ply,SBD,F
Girls,100.02,1,Amberosia Aleman,Kenedy,95.66,106.59,81.65,147.42,335.66,Single-ply,SBD,F
Girls,100.02,2,Jenna Brady,San Antonio Memorial,95.16,86.18,38.56,108.86,233.6,Single-ply,SBD,F
Girls,117.71,1,Samantha Heimer,San Antonio Brooks Academy,101.42,174.63,124.74,147.42,446.79,Single-ply,SBD,F
Girls,117.71,2,Marissa Hernandez,Kenedy,112.4,108.86,70.31,120.2,299.37,Single-ply,SBD,F
Girls,117.71,3,Marissa Martinez,Poteet,102.83,95.25,54.43,111.13,260.82,Single-ply,SBD,F
Girls,117.71,4,Trisha Rose,San Antonio Cole,100.92,106.59,45.36,83.91,235.87,Single-ply,SBD,F
Girls,117.71+,1,Amber Gonzales,Kenedy,129.05,83.91,61.23,142.88,288.03,Single-ply,SBD,F
Girls,117.71+,2,Sophia Arredondo,San Antonio Brooks Academy,127.01,90.72,52.16,108.86,251.74,Single-ply,SBD,F
