Place,Sex,Name,Event,Division,WeightClassKg,Equipment,BirthYear,State,BodyweightKg,Squat1Kg,Squat2Kg,Squat3Kg,Best3SquatKg,Bench1Kg,Bench2Kg,Bench3Kg,Best3BenchKg,Deadlift1Kg,Deadlift2Kg,Deadlift3Kg,Best3DeadliftKg,TotalKg
1,F,Vialeta Kudrevich,SBD,FR-Jr,47,Raw,1995,CO,47.00,79.4,83.9,-88.5,83.9,54.4,56.7,59,59.0,99.8,-108.9,-108.9,99.8,242.7
1,F,Ngoc Morales,SBD,FR-O,52,Raw,1991,TX,51.00,111.1,122.5,-129.3,122.5,45.4,49.9,-52.2,49.9,133.8,142.9,145.2,145.2,317.5
1,F,Lisa Cheng,SBD,FR-O,63,Raw,1979,TX,61.00,99.8,-106.6,111.1,111.1,63.5,65.8,68,68.0,-124.7,-127,127,127.0,306.2
1,F,Rachele Lehmann,SBD,FR-O,72,Raw,1998,TX,70.40,117.9,129.3,-136.1,129.3,54.4,61.2,63.5,63.5,147.4,156.5,-170.1,156.5,349.3
1,F,Samantha Flannery,SBD,FR-O,84+,Raw,1994,TX,102.00,117.9,120.2,122.5,122.5,49.9,54.4,-56.7,54.4,124.7,131.5,138.4,138.4,315.3
1,F,Kailey Jones,SBD,F-T2,84,Single-ply,2000,TX,84.00,181.4,199.6,-208.7,199.6,88.5,-93,95.3,95.3,170.1,-181.4,-181.4,170.1,464.9
DQ,M,Payton Stewart,SBD,M-Jr,83,Single-ply,1995,TX,80.00,-186,-186,-186,,-140.6,,,,-186,,,,
1,M,Jonathan Gutierrez,SBD,M-Jr,105,Single-ply,1993,TX,101.00,188.2,197.3,206.4,206.4,-152,152,-163.3,152.0,224.5,242.7,-249.5,242.7,601
1,M,Maximiliano Valdes,SBD,MR-Jr,74,Raw,1994,TX,74.00,117.9,127,136.1,136.1,97.5,102.1,106.6,106.6,165.6,174.6,183.7,183.7,426.4
1,M,Taylor Lane,SBD,MR-Jr,105,Raw,1996,TX,99.50,165.6,174.6,-183.7,174.6,106.6,113.4,-115.7,113.4,192.8,201.9,208.7,208.7,496.7
1,M,Jerry Velazquez,SBD,MR-Jr,120,Raw,1995,TX,107.00,161,167.8,170.1,170.1,-97.5,102.1,-104.3,102.1,161,-170.1,170.1,170.1,442.3
1,M,Charr Gahagan,SBD,MR-M1,93,Raw,1976,TX,92.50,210.9,226.8,238.1,238.1,142.9,152,-156.5,152.0,247.2,272.2,292.6,292.6,682.7
1,M,Barron Henderson,SBD,MR-M1,120,Raw,1976,FL,120.00,272.2,299.4,319.8,319.8,154.2,165.6,172.4,172.4,254,272.2,-292.6,272.2,764.3
1,M,Bryan Watson,SBD,MR-O,93,Raw,1984,TX,92.50,154.2,170.1,183.7,183.7,-138.4,138.4,-149.7,138.4,204.1,226.8,238.1,238.1,560.2
1,M,Ian Walker,SBD,MR-O,120,Raw,1988,TX,109.00,183.7,-210.9,-229.1,183.7,-131.5,-136.1,-136.1,,204.1,226.8,-249.5,226.8,410.5
1,M,Chris Jackson,SBD,M-T3,59,Single-ply,1998,TX,56.00,-124.7,124.7,136.1,136.1,83.9,93,-108.9,93.0,124.7,136.1,147.4,147.4,376.5
1,M,Kaleb Pogue,SBD,M-T3,120+,Single-ply,1998,TX,134.50,-317.5,317.5,,317.5,156.5,,,156.5,-226.8,226.8,,226.8,700.8
