Event,Sex,Name,State,BodyweightKg,WeightClassKg,Division,Best3SquatKg,Best3BenchKg,Best3DeadliftKg,TotalKg,Equipment,Place
SBD,M,Tristin Davies,BC,79.5,83,Sub-Juniors,170,92.5,167.5,430,Single-ply,1
SBD,M,Lucas Miles,BC,66,66,Sub-Juniors,102.5,65,137.5,305,Single-ply,1
SBD,M,Adam Kwan,BC,80.4,83,Open,200,130,202.5,532.5,Single-ply,1
SBD,F,Tracy Bryant,BC,58.4,63,Open,112.5,65,120,297.5,Single-ply,1
SBD,M,Darshan Gill,BC,92.2,93,Masters 4,175,125,185,485,Single-ply,1
SBD,M,Don Lovell,BC,65.5,66,Masters 3,140,75,175,390,Single-ply,1
SBD,M,Barry Antoniow,BC,82.8,83,Masters 1,220,220,202.5,642.5,Single-ply,1
SBD,M,John-Wesley Cummings,BC,105.4,120,Juniors,255,220,275,750,Single-ply,1
SBD,M,Mehar Bhogal,BC,81.4,83,Sub-Juniors,130,85,175,390,Raw,1
SBD,M,Kailen Smith,BC,72.6,74,Sub-Juniors,132.5,85,167.5,385,Raw,1
SBD,M,Christopher Beaulieu,BC,91.6,93,Open,195,132.5,237.5,565,Raw,1
SBD,M,Vincent Siu,BC,81.2,83,Open,177.5,115,232.5,525,Raw,2
SBD,M,Michael Danis,BC,82.5,83,Open,172.5,132.5,232.5,537.5,Raw,1
SBD,M,Joe Favia,BC,81.8,83,Open,150,95,212.5,457.5,Raw,4
SBD,M,David Louie,BC,80.6,83,Open,190,115,210,515,Raw,3
SBD,M,Andy Liberman,BC,78.4,83,Open,117.5,97.5,180,395,Raw,5
SBD,M,Tony Vuong,BC,71,74,Open,165,110,180,455,Raw,2
SBD,M,Shaun Walpole,BC,71.7,74,Open,140,107.5,165,412.5,Raw,3
SBD,M,Anthony Tsang,BC,71.8,74,Open,150,100,207.5,457.5,Raw,1
SBD,M,Andy Li,BC,73.3,74,Open,132.5,75,175,382.5,Raw,4
SBD,F,Sunette Mynhardt,BC,70.3,72,Open,85,47.5,97.5,230,Raw,3
SBD,F,Sheila Sutton,BC,68.6,72,Open,97.5,52.5,132.5,282.5,Raw,2
SBD,F,Noorita Biring,BC,68.2,72,Open,60,35,97.5,192.5,Raw,5
SBD,F,Katie McGeachy,BC,70.3,72,Open,112.5,65,137.5,315,Raw,1
SBD,F,Elizabeth Anderson,BC,70.3,72,Open,70,40,102.5,212.5,Raw,4
SBD,M,Kenneth So,BC,65.8,66,Open,117.5,82.5,165,365,Raw,1
SBD,F,Jacquie Sandu,BC,50.7,52,Open,100,60,150,310,Raw,1
SBD,M,Sebastian Lade,BC,108.7,120,Open,220,152.5,225,597.5,Raw,2
SBD,M,Avi Silverberg,BC,118.3,120,Open,250,215,250,715,Raw,1
SBD,M,Douglas Mansell,BC,102.5,105,Open,167.5,132.5,197.5,497.5,Raw,2
SBD,M,Christopher Joustra,BC,99,105,Open,200,130,235,565,Raw,1
SBD,M,Gable Wang,BC,79.3,83,Masters 2,100,110,170,380,Raw,1
SBD,F,Mira Slapinski,BC,46,47,Masters 2,70,42.5,107.5,220,Raw,1
SBD,M,Kevin Weiss,BC,90.1,93,Masters 1,237.5,165,260,662.5,Raw,1
SBD,M,Andrew Smith #8,BC,90.9,93,Masters 1,172.5,120,217.5,510,Raw,2
SBD,F,Kim Dennis,BC,82.3,84,Masters 1,145,67.5,142.5,355,Raw,1
SBD,F,Wendy Yamazaki,BC,51.3,52,Masters 1,67.5,45,97.5,210,Raw,1
SBD,M,Richard DeBanks,BC,133,120+,Masters 1,240,165,250,655,Raw,1
SBD,M,Gordon Sjodin,BC,102.9,105,Masters 1,155,155,175,485,Raw,1
SBD,M,Michael Mighton,BC,82.4,83,Juniors,195,125,215,535,Raw,1
SBD,M,Ryley Russell,BC,72.9,74,Juniors,200,117.5,220,537.5,Raw,1
SBD,M,James Hoang,BC,72.8,74,Juniors,177.5,115,200,492.5,Raw,2
SBD,M,Bryce Thomson,BC,71.8,74,Juniors,177.5,95,185,457.5,Raw,3
SBD,F,Alicia Kingsland,BC,71,72,Juniors,105,50,132.5,287.5,Raw,1
SBD,F,Pamela Anderson,BC,47.4,52,Juniors,87.5,50,130,267.5,Raw,1
SBD,M,Jordan Tarasoff,BC,128,120+,Juniors,260,160,275,695,Raw,1
SBD,M,Cory Constantin,BC,122.5,120+,Juniors,227.5,147.5,227.5,602.5,Raw,2
SBD,M,Yagizcan Gozkara,BC,105.8,120,Juniors,210,147.5,255,612.5,Raw,2
SBD,M,Timothy Garcia,BC,115.6,120,Juniors,205,182.5,260,647.5,Raw,1
SBD,M,Trevor Woodburn,BC,99.8,105,Juniors,170,125,192.5,487.5,Raw,2
SBD,M,Petar Sestovic,BC,102.1,105,Juniors,162.5,125,220,507.5,Raw,1
B,M,Jeremy Cote,BC,81.7,83,Open,,130,,130,Single-ply,1
B,M,Bill You,BC,71.3,74,Open,,125,,125,Single-ply,1
B,M,Shinda Sandhu,BC,71,74,Masters 3,,112.5,,112.5,Single-ply,1
B,M,Don Lovell,BC,64.8,66,Masters 3,,80,,80,Single-ply,1
B,M,Andrew Bryant,BC,82.7,83,Masters 1,,160,,160,Single-ply,1
B,M,Mehar Bhogal,BC,82.8,83,Sub-Juniors,,75,,75,Raw,1
B,M,Blake Phillips,BC,57.2,59,Sub-Juniors,,72.5,,72.5,Raw,1
B,F,Heather Ancelet,BC,70.6,72,Open,,32.5,,32.5,Raw,1
B,M,Chris Bartolomeo,BC,122.6,120+,Open,,120,,120,Raw,1
B,F,Jeanne Brown,BC,77.3,84,Masters 1,,65,,65,Raw,1
B,M,Gordon Sjodin,BC,103.4,105,Masters 1,,150,,150,Raw,1
B,M,Timothy Garcia,BC,115.2,120,Juniors,,180,,180,Raw,1
B,M,Roberto Villalta,BC,95.9,105,Juniors,,192.5,,192.5,Raw,1
B,M,Dilsher Ghag,BC,100.8,105,Juniors,,155,,155,Raw,2
