Division,WeightClassKg,Place,Name,Team,BodyweightKg,Best3SquatKg,Best3BenchKg,Best3DeadliftKg,TotalKg,Equipment,Event,Sex
Boys,55.79,1,Michael Marullo,Georgetown East View,51.94,99.79,56.7,106.59,263.08,Single-ply,SBD,M
Boys,51.71,2,Billy Pearson,Pflugerville Connally,51.62,99.79,54.43,106.59,260.82,Single-ply,SBD,M
Boys,51.71,3,Michael Guerrero,Georgetown East View,48.81,92.99,54.43,99.79,247.21,Single-ply,SBD,M
Boys,51.71,4,DJ Walker,Georgetown East View,45.36,72.57,38.56,77.11,188.24,Single-ply,SBD,M
Boys,55.79,1,Owen Mallard,Georgetown,54.34,111.13,70.31,129.27,310.71,Single-ply,SBD,M
Boys,59.87,1,Alex Lade,Georgetown East View,59.51,129.27,83.91,145.15,358.34,Single-ply,SBD,M
Boys,59.87,2,Dereon Kizzee,Pflugerville Connally,58.6,97.52,83.91,149.69,331.12,Single-ply,SBD,M
Boys,59.87,3,Chris Guerra,Georgetown East View,57.15,102.06,77.11,127.01,306.17,Single-ply,SBD,M
Boys,59.87,4,Brodie Sparkman,Georgetown,59.15,111.13,61.23,124.74,297.1,Single-ply,SBD,M
Boys,59.87,5,Kevin Distad,Georgetown East View,59.6,92.99,61.23,102.06,256.28,Single-ply,SBD,M
Boys,59.87,6,Michael Distad,Georgetown East View,59.78,92.99,61.23,102.06,256.28,Single-ply,SBD,M
Boys,67.13,1,Anthony Ortegon,Georgetown East View,66.5,158.76,104.33,185.97,449.06,Single-ply,SBD,M
Boys,67.13,2,Zach Reid,Dripping Springs,63.96,158.76,106.59,158.76,424.11,Single-ply,SBD,M
Boys,67.13,3,Delon Riley,Pflugerville Hendrickson,62.87,127.01,92.99,145.15,365.14,Single-ply,SBD,M
Boys,74.84,4,Tyler Doramas,Georgetown,67.22,129.27,72.57,133.81,335.66,Single-ply,SBD,M
Boys,74.84,5,Brandon Hawkins,Georgetown,67.18,120.2,61.23,147.42,328.85,Single-ply,SBD,M
Boys,74.84,6,Mcmahon Taylar,Georgetown,67.22,124.74,88.45,113.4,326.59,Single-ply,SBD,M
Boys,67.13,7,Jay Simon,Georgetown,63.41,122.47,72.57,129.27,324.32,Single-ply,SBD,M
Boys,67.13,8,Isiaiah Smith,Georgetown,63.14,113.4,70.31,133.81,317.51,Single-ply,SBD,M
Boys,74.84,9,Ronnie Salter,Georgetown East View,67.36,102.06,65.77,136.08,303.91,Single-ply,SBD,M
Boys,67.13,10,Lee Wenn,Austin Westlake,60.78,102.06,65.77,124.74,292.57,Single-ply,SBD,M
Boys,67.13,11,Colton Vansa,Little River Academy,65.05,99.79,72.57,120.2,292.57,Single-ply,SBD,M
Boys,67.13,12,Jacob Arrieta,Georgetown East View,62.87,102.06,70.31,106.59,278.96,Single-ply,SBD,M
Boys,74.84,1,Bryce Williams,Little River Academy,73.94,204.12,106.59,213.19,523.9,Single-ply,SBD,M
Boys,74.84,2,Hunter Douzat,Little River Academy,71.76,183.7,111.13,183.7,478.54,Single-ply,SBD,M
Boys,74.84,3,Logan Hager,Georgetown,70.58,174.63,102.06,188.24,464.93,Single-ply,SBD,M
Boys,74.84,4,Jordan Lawrence,Pflugerville Connally,68.31,147.42,104.33,188.24,439.98,Single-ply,SBD,M
Boys,74.84,5,Geoffrey Ali,Pflugerville Hendrickson,68.67,149.69,106.59,172.37,428.64,Single-ply,SBD,M
Boys,74.84,6,Preston Reading,Pflugerville Connally,74.39,154.22,81.65,176.9,412.77,Single-ply,SBD,M
Boys,82.1,7,Matt May,Georgetown,74.98,151.95,97.52,158.76,408.23,Single-ply,SBD,M
Boys,74.84,8,Danny Ronglie,Little River Academy,69.49,151.95,83.91,170.1,405.97,Single-ply,SBD,M
Boys,82.1,9,Will Baker,Georgetown,75.02,165.56,86.18,138.35,390.09,Single-ply,SBD,M
Boys,74.84,10,Andrew McVeigh,Little River Academy,74.84,145.15,86.18,147.42,378.75,Single-ply,SBD,M
Boys,74.84,11,Noah Ricks,Dripping Springs,74.03,131.54,83.91,140.61,356.07,Single-ply,SBD,M
Boys,82.1,12,Andrew Olsen,Georgetown,74.93,142.88,70.31,142.88,356.07,Single-ply,SBD,M
Boys,74.84,13,Eric Grasso,Georgetown,72.57,124.74,68.04,149.69,342.46,Single-ply,SBD,M
Boys,82.1,14,Hayden Kinslow,Georgetown,74.89,129.27,61.23,151.95,342.46,Single-ply,SBD,M
Boys,82.1,15,Kody Markert,Georgetown,74.93,129.27,74.84,138.35,342.46,Single-ply,SBD,M
Boys,74.84,16,Caden Basey,Georgetown,73.39,120.2,83.91,136.08,340.19,Single-ply,SBD,M
Boys,74.84,17,Devin Winn,Pflugerville Hendrickson,68.31,120.2,88.45,124.74,333.39,Single-ply,SBD,M
Boys,74.84,18,Drew Newman,Georgetown,73.12,111.13,86.18,127.01,324.32,Single-ply,SBD,M
Boys,74.84,19,Erik Anderson,Georgetown,70.03,124.74,83.91,113.4,322.05,Single-ply,SBD,M
Boys,74.84,20,Chris Matta,Georgetown East View,72.12,97.52,70.31,142.88,310.71,Single-ply,SBD,M
Boys,74.84,21,Luke Whiteley,Little River Academy,68.31,90.72,63.5,115.67,269.89,Single-ply,SBD,M
Boys,82.1,1,Phillip Wilson,Pflugerville Connally,81.92,222.26,129.27,201.85,553.38,Single-ply,SBD,M
Boys,82.1,2,Chukie Ojiyi,Pflugerville Hendrickson,77.84,226.8,115.67,208.65,551.11,Single-ply,SBD,M
Boys,82.1,3,Ty Hill,Georgetown,81.74,190.51,120.2,210.92,521.63,Single-ply,SBD,M
Boys,82.1,4,Zach Smith,Little River Academy,78.47,185.97,117.93,206.38,510.29,Single-ply,SBD,M
Boys,82.1,5,Ryan Buehler,Dripping Springs,81.92,192.78,129.27,181.44,503.49,Single-ply,SBD,M
Boys,82.1,6,Karim Mungnia,Pflugerville Connally,81.92,167.83,95.25,195.04,458.13,Single-ply,SBD,M
Boys,82.1,7,Austin Naiser,Georgetown East View,81.65,163.29,106.59,161.03,430.91,Single-ply,SBD,M
Boys,89.81,8,Aaron Carona,Georgetown East View,82.19,138.35,104.33,165.56,408.23,Single-ply,SBD,M
Boys,82.1,9,Austin Hall,Pflugerville Connally,78.29,142.88,86.18,170.1,399.16,Single-ply,SBD,M
Boys,82.1,10,Andrew Ramstedt,Little River Academy,76.2,151.95,86.18,158.76,396.89,Single-ply,SBD,M
Boys,82.1,11,Iain McVeigh,Little River Academy,78.29,129.27,86.18,147.42,362.87,Single-ply,SBD,M
Boys,82.1,12,Kyle Urbanousky,Georgetown,81.56,138.35,79.38,145.15,362.87,Single-ply,SBD,M
Boys,82.1,13,Drew Barfield,Georgetown,77.2,106.59,81.65,129.27,317.51,Single-ply,SBD,M
Boys,89.81,1,George Neef,Dripping Springs,88.54,215.46,111.13,213.19,539.77,Single-ply,SBD,M
Boys,89.81,2,Chase Heffernan,Georgetown,85.91,188.24,127.01,206.38,521.63,Single-ply,SBD,M
Boys,89.81,3,Will May,Georgetown,83.01,149.69,113.4,156.49,419.57,Single-ply,SBD,M
Boys,89.81,4,Chris Anderson,Pflugerville Connally,89.4,145.15,88.45,170.1,403.7,Single-ply,SBD,M
Boys,89.81,DQ,Adrian Williams,Pflugerville Connally,89.63,192.78,,,,Single-ply,SBD,M
Boys,99.79,1,Omar Smith,Pflugerville Hendrickson,91.81,210.92,102.06,226.8,539.77,Single-ply,SBD,M
Boys,99.79,2,Gorgonio De Los Reyes,Georgetown East View,98.43,204.12,117.93,183.7,505.76,Single-ply,SBD,M
Boys,109.77,3,Damion Cavazos,Georgetown,99.97,199.58,120.2,158.76,478.54,Single-ply,SBD,M
Boys,109.77,4,Nelson Mbanasor,Pflugerville Hendrickson,99.88,170.1,106.59,188.24,464.93,Single-ply,SBD,M
Boys,99.79,5,Jordan Jackson,Pflugerville Connally,92.26,161.03,97.52,181.44,439.98,Single-ply,SBD,M
Boys,99.79,6,Spencer Rabb,Georgetown,96.43,142.88,104.33,174.63,421.84,Single-ply,SBD,M
Boys,99.79,7,Elias Garcia,Austin Westlake,93.17,165.56,83.91,170.1,419.57,Single-ply,SBD,M
Boys,99.79,8,Jovany Araujo,Georgetown East View,97.34,122.47,81.65,174.63,378.75,Single-ply,SBD,M
Boys,99.79,9,Leo Ramirez,Georgetown East View,95.62,142.88,81.65,151.95,376.48,Single-ply,SBD,M
Boys,99.79,10,David Mata,Georgetown,93.26,129.27,86.18,145.15,360.61,Single-ply,SBD,M
Boys,99.79,11,Eric Munoz,Georgetown East View,92.62,111.13,86.18,142.88,340.19,Single-ply,SBD,M
Boys,109.77,1,David Quinton,Pflugerville Hendrickson,100.52,204.12,113.4,226.8,544.31,Single-ply,SBD,M
Boys,109.77,2,Joshua Tran,Pflugerville Connally,104.6,163.29,122.47,199.58,485.34,Single-ply,SBD,M
Boys,109.77,3,Hunter Creasey,Georgetown,104.51,183.7,102.06,197.31,483.08,Single-ply,SBD,M
Boys,109.77,4,Seth Crumley,Dripping Springs,105.32,170.1,120.2,188.24,478.54,Single-ply,SBD,M
Boys,109.77,5,Cole Northcutt,Georgetown,101.88,174.63,83.91,161.03,419.57,Single-ply,SBD,M
Boys,109.77,6,Chad Patjestka,Little River Academy,103.33,147.42,81.65,172.37,401.43,Single-ply,SBD,M
Boys,109.77,7,Jameson White,Georgetown,102.15,124.74,74.84,142.88,342.46,Single-ply,SBD,M
Boys,109.77,8,Alex Wilson,Georgetown,106.68,145.15,61.23,122.47,328.85,Single-ply,SBD,M
Boys,124.74,1,Aaron Johnson,Georgetown,117.39,249.48,158.76,204.12,612.35,Single-ply,SBD,M
Boys,124.74,2,Cody Ullestead,Georgetown,117.93,226.8,136.08,206.38,569.26,Single-ply,SBD,M
Boys,124.74,3,Paul Crawford,Georgetown East View,115.58,204.12,136.08,181.44,521.63,Single-ply,SBD,M
Boys,124.74,4,Dominic Pastucci,Pflugerville Hendrickson,110.4,197.31,124.74,197.31,519.36,Single-ply,SBD,M
Boys,124.74,5,Caleb Madole,Georgetown East View,121.74,190.51,113.4,213.19,517.1,Single-ply,SBD,M
Boys,124.74,6,Alan Velazquez,Georgetown East View,112.76,183.7,117.93,192.78,494.42,Single-ply,SBD,M
Boys,124.74,7,Chase Travis,Georgetown,117.03,181.44,97.52,174.63,453.59,Single-ply,SBD,M
Boys,124.74,8,Miguel Jamie,Dripping Springs,115.21,204.12,102.06,142.88,449.06,Single-ply,SBD,M
Boys,124.74,9,Carson Ikels,Dripping Springs,112.04,161.03,104.33,174.63,439.98,Single-ply,SBD,M
Boys,124.74,10,Joe Heironimus,Austin Westlake,117.57,149.69,99.79,158.76,408.23,Single-ply,SBD,M
Boys,124.74+,1,Grayson Eaton,Little River Academy,159.3,281.23,181.44,263.08,725.75,Single-ply,SBD,M
Boys,124.74+,2,Dom Valdespino,Pflugerville Hendrickson,128.46,215.46,102.06,213.19,530.7,Single-ply,SBD,M
Boys,124.74+,3,Andrew Cobus,Pflugerville Hendrickson,128.55,208.65,111.13,181.44,501.22,Single-ply,SBD,M
