Division,WeightClassKg,Place,Name,Team,BodyweightKg,Best3SquatKg,Best3BenchKg,Best3DeadliftKg,TotalKg,Equipment,Event,Sex
Boys,51.71,1,Arnold Pena,Benavides,51.53,142.88,88.45,170.1,401.43,Single-ply,SBD,M
Boys,51.71,2,Christian Pena,Benavides,50.62,131.54,81.65,140.61,353.8,Single-ply,SBD,M
Boys,51.71,3,Javier Cantu,San Diego,51.71,122.47,72.57,149.69,344.73,Single-ply,SBD,M
Boys,51.71,4,Austin Mendez,San Diego,50.89,113.4,56.7,113.4,283.5,Single-ply,SBD,M
Boys,51.71,5,Bryan Gutierrez,Bishop,50.26,102.06,56.7,102.06,260.82,Single-ply,SBD,M
Boys,51.71,6,Lupe Garcia,Agua Dulce,51.62,92.99,52.16,113.4,258.55,Single-ply,SBD,M
Boys,55.79,1,Adrian Campos,Freer,53.61,176.9,106.59,174.63,458.13,Single-ply,SBD,M
Boys,55.79,2,Brandon Canales,Benavides,54.98,176.9,95.25,183.7,455.86,Single-ply,SBD,M
Boys,55.79,3,Arnold Perez,Ben Bolt-Palito Blanco,53.34,172.37,104.33,163.29,439.98,Single-ply,SBD,M
Boys,55.79,4,Niko Munoz,Falfurrias,53.71,165.56,106.59,167.83,439.98,Single-ply,SBD,M
Boys,55.79,5,Miguel Ramirez,Agua Dulce,55.16,185.97,83.91,165.56,435.45,Single-ply,SBD,M
Boys,55.79,6,Damien Diaz,Hebbronville,55.43,154.22,70.31,181.44,405.97,Single-ply,SBD,M
Boys,55.79,7,Tristan Perez,Benavides,54.52,154.22,72.57,165.56,392.36,Single-ply,SBD,M
Boys,55.79,8,Austin Lopez,Hebbronville,54.7,149.69,79.38,142.88,371.95,Single-ply,SBD,M
Boys,55.79,9,Tony Cantu,Benavides,55.25,129.27,61.23,149.69,340.19,Single-ply,SBD,M
Boys,55.79,10,Robert Montemayor,Taft,53.71,122.47,74.84,133.81,331.12,Single-ply,SBD,M
Boys,59.87,1,Jose Hernandez,Corpus Christi West Oso,57.61,161.03,74.84,163.29,399.16,Single-ply,SBD,M
Boys,59.87,2,Marcus Schuessler,Freer,58.24,136.08,63.5,156.49,356.07,Single-ply,SBD,M
Boys,59.87,3,Austin Gonzalez,Robstown,57.79,151.95,56.7,145.15,353.8,Single-ply,SBD,M
Boys,59.87,4,Kaleb Gutierez,Taft,58.69,117.93,74.84,140.61,333.39,Single-ply,SBD,M
Boys,59.87,DQ,Eric Gamez,Taft,57.88,83.91,,,,Single-ply,SBD,M
Boys,59.87,DQ,Jose Saenz,San Diego,59.87,,,,,Single-ply,SBD,M
Boys,67.13,1,Anthony Perez,San Diego,65.95,263.08,147.42,240.4,650.91,Single-ply,SBD,M
Boys,67.13,2,Brandon Carballo,Hebbronville,63.41,201.85,117.93,206.38,526.17,Single-ply,SBD,M
Boys,67.13,3,Richard Rea,Freer,64.14,163.29,97.52,176.9,437.72,Single-ply,SBD,M
Boys,67.13,4,Donimick Garcia,Ben Bolt-Palito Blanco,64.05,161.03,97.52,170.1,428.64,Single-ply,SBD,M
Boys,67.13,5,Felix Del Rio,Robstown,65.14,161.03,97.52,163.29,421.84,Single-ply,SBD,M
Boys,67.13,6,Edgar DeLeon,Rockport-Fulton,66.13,158.76,92.99,170.1,421.84,Single-ply,SBD,M
Boys,67.13,7,John Robali,Robstown,65.95,161.03,88.45,161.03,410.5,Single-ply,SBD,M
Boys,67.13,8,Zach Graves,Taft,66.32,129.27,97.52,174.63,401.43,Single-ply,SBD,M
Boys,67.13,9,Eric Silva,Robstown,62.87,151.95,92.99,149.69,394.63,Single-ply,SBD,M
Boys,67.13,10,Justin Goben,Taft,65.68,115.67,83.91,161.03,360.61,Single-ply,SBD,M
Boys,67.13,11,Juan Casas,Robstown,64.05,83.91,74.84,113.4,272.16,Single-ply,SBD,M
Boys,67.13,12,Robert Garza,Robstown,67.04,70.31,65.77,86.18,222.26,Single-ply,SBD,M
Boys,67.13,DQ,Cody Prather,Ben Bolt-Palito Blanco,66.86,149.69,,,,Single-ply,SBD,M
Boys,67.13,DQ,Paul Medina,Agua Dulce,60.06,81.65,,,,Single-ply,SBD,M
Boys,67.13,DQ,Jonathen Gonzales,Hebbronville,66.32,,,,,Single-ply,SBD,M
Boys,74.84,1,Ramiro Gonzalez,Falfurrias,73.12,235.87,133.81,249.48,619.15,Single-ply,SBD,M
Boys,74.84,2,Chris Ceballos,Rockport-Fulton,73.84,192.78,142.88,210.92,546.58,Single-ply,SBD,M
Boys,74.84,3,Arturo Reyna,Bishop,71.76,217.72,117.93,208.65,544.31,Single-ply,SBD,M
Boys,74.84,4,Lee Bazan,San Diego,73.03,204.12,104.33,208.65,517.1,Single-ply,SBD,M
Boys,74.84,5,Dennis Guajardo,Benavides,73.78,208.65,108.86,199.58,517.1,Single-ply,SBD,M
Boys,74.84,6,Dale Baez,Hebbronville,74.48,185.97,106.59,190.51,483.08,Single-ply,SBD,M
Boys,74.84,7,Jonavenn Gonzales,Hebbronville,74.66,183.7,108.86,172.37,464.93,Single-ply,SBD,M
Boys,74.84,8,Daimien Campos,Bishop,73.57,174.63,104.33,172.37,451.32,Single-ply,SBD,M
Boys,74.84,9,Joseph Domingez,Taft,72.94,158.76,83.91,185.97,428.64,Single-ply,SBD,M
Boys,74.84,DQ,Jose Nico Perez,Benavides,69.85,183.7,111.13,,,Single-ply,SBD,M
Boys,82.1,1,Zack Pulido,Rockport-Fulton,81.01,222.26,129.27,195.04,546.58,Single-ply,SBD,M
Boys,82.1,2,Max Castillo,San Diego,81.74,233.6,117.93,192.78,544.31,Single-ply,SBD,M
Boys,82.1,3,Jacob Munoz,Falfurrias,75.93,213.19,104.33,215.46,532.97,Single-ply,SBD,M
Boys,82.1,4,Conner Bowers,Bishop,78.47,190.51,133.81,204.12,528.44,Single-ply,SBD,M
Boys,82.1,5,Tristian Perez,Ben Bolt-Palito Blanco,80.74,204.12,113.4,183.7,501.22,Single-ply,SBD,M
Boys,82.1,6,Pete Garcia,San Diego,81.74,195.04,120.2,174.63,489.88,Single-ply,SBD,M
Boys,82.1,7,Luis Trujillo,Rockport-Fulton,80.38,174.63,113.4,195.04,483.08,Single-ply,SBD,M
Boys,82.1,8,Jacob Brake,Rockport-Fulton,78.74,161.03,111.13,201.85,474,Single-ply,SBD,M
Boys,82.1,9,Brit Bowers,Bishop,75.57,161.03,111.13,197.31,469.47,Single-ply,SBD,M
Boys,82.1,10,Rudy Cantu,Robstown,79.29,158.76,115.67,179.17,453.59,Single-ply,SBD,M
Boys,82.1,11,Matt Garza,Corpus Christi West Oso,75.39,174.63,97.52,174.63,446.79,Single-ply,SBD,M
Boys,82.1,12,Christian Rosas,Falfurrias,77.02,113.4,70.31,115.67,299.37,Single-ply,SBD,M
Boys,82.1,DQ,Adrian Castellano,Benavides,76.57,,,,,Single-ply,SBD,M
Boys,89.81,1,Gilbert Mendez,Bishop,89.09,222.26,158.76,226.8,607.81,Single-ply,SBD,M
Boys,89.81,2,Alan Medrano,Bishop,87.27,226.8,156.49,213.19,596.47,Single-ply,SBD,M
Boys,89.81,3,Joseph Araujo,San Diego,86.27,226.8,147.42,219.99,594.21,Single-ply,SBD,M
Boys,89.81,4,Marcus Cerda,Taft,87.63,215.46,133.81,222.26,571.53,Single-ply,SBD,M
Boys,89.81,5,Alex Hernandez,Rockport-Fulton,89.45,192.78,111.13,183.7,487.61,Single-ply,SBD,M
Boys,89.81,6,Jordan Longoria,Bishop,84.64,190.51,95.25,183.7,469.47,Single-ply,SBD,M
Boys,89.81,7,Noah Vera,Taft,89.72,165.56,88.45,197.31,451.32,Single-ply,SBD,M
Boys,89.81,8,Jesse Hernandez,Robstown,83.46,165.56,88.45,167.83,421.84,Single-ply,SBD,M
Boys,89.81,9,Daniel Narvaer,Falfurrias,84.1,92.99,72.57,149.69,315.25,Single-ply,SBD,M
Boys,89.81,10,Cody Rosas,Robstown,87.91,92.99,79.38,142.88,315.25,Single-ply,SBD,M
Boys,99.79,1,Ethan Gonzalez,San Diego,98.97,258.55,158.76,235.87,653.17,Single-ply,SBD,M
Boys,99.79,2,Ray Saenz,Bishop,97.25,242.67,154.22,240.4,637.3,Single-ply,SBD,M
Boys,99.79,3,Austin Kennemer,Agua Dulce,99.79,258.55,145.15,233.6,637.3,Single-ply,SBD,M
Boys,99.79,4,Raul Fernandez,Rockport-Fulton,95.35,238.14,136.08,233.6,607.81,Single-ply,SBD,M
Boys,99.79,5,Luke Michael,Rockport-Fulton,92.99,226.8,145.15,217.72,589.67,Single-ply,SBD,M
Boys,99.79,6,David Colecio,Bishop,97.07,226.8,142.88,219.99,589.67,Single-ply,SBD,M
Boys,99.79,7,Johnathan Gonzales,Taft,92.17,190.51,95.25,213.19,498.95,Single-ply,SBD,M
Boys,99.79,8,Ivan Naranjo,Robstown,94.62,176.9,127.01,190.51,494.42,Single-ply,SBD,M
Boys,99.79,9,Michael Esquivel,Taft,96.07,170.1,99.79,188.24,458.13,Single-ply,SBD,M
Boys,99.79,10,Marcos Gonzalez,Ben Bolt-Palito Blanco,94.62,136.08,70.31,151.95,358.34,Single-ply,SBD,M
Boys,99.79,11,Jesse Perez,Agua Dulce,96.16,124.74,54.43,113.4,292.57,Single-ply,SBD,M
Boys,99.79,12,Roland Guerra,Agua Dulce,97.98,102.06,43.09,106.59,251.74,Single-ply,SBD,M
Boys,109.77,1,Michael Salaiz,San Diego,108.32,285.76,167.83,258.55,712.14,Single-ply,SBD,M
Boys,109.77,2,Joey Garza,Falfurrias,105.23,244.94,117.93,240.4,603.28,Single-ply,SBD,M
Boys,109.77,3,Jaime Gonzales,Taft,109.77,185.97,129.27,201.85,517.1,Single-ply,SBD,M
Boys,109.77,4,Sway Zavala,Rockport-Fulton,100.97,158.76,99.79,181.44,439.98,Single-ply,SBD,M
Boys,109.77,5,Steve Peña,Robstown,105.23,147.42,120.2,154.22,421.84,Single-ply,SBD,M
Boys,109.77,6,Michael Perez,Ben Bolt-Palito Blanco,103.87,142.88,74.84,142.88,360.61,Single-ply,SBD,M
Boys,109.77,DQ,Brandon Rodriguez,Robstown,105.96,,,,,Single-ply,SBD,M
Boys,124.74,1,David Mendez,Taft,121.74,265.35,158.76,231.33,655.44,Single-ply,SBD,M
Boys,124.74,2,Cameron Ngo,Rockport-Fulton,119.29,238.14,127.01,219.99,585.13,Single-ply,SBD,M
Boys,124.74,3,Trey Vaiz,Robstown,113.58,183.7,120.2,199.58,503.49,Single-ply,SBD,M
Boys,124.74,4,Brandon Kilough,Rockport-Fulton,113.85,183.7,111.13,188.24,483.08,Single-ply,SBD,M
Boys,124.74,DQ,Rudy Landeros,Robstown,116.85,188.24,,,,Single-ply,SBD,M
Boys,124.74+,1,Jonathan Rodriguez,Agua Dulce,131.54,256.28,145.15,210.92,612.35,Single-ply,SBD,M
Boys,124.74+,2,Edward Carrera,Taft,134.26,229.06,149.69,229.06,607.81,Single-ply,SBD,M
Boys,124.74+,3,Daniel Garza,Falfurrias,131.09,136.08,83.91,165.56,385.55,Single-ply,SBD,M
Boys,124.74+,4,Teddy Bernsen,Agua Dulce,125.55,113.4,63.5,124.74,301.64,Single-ply,SBD,M
