Division,WeightClassKg,Place,Name,Team,BodyweightKg,Best3SquatKg,Best3BenchKg,Best3DeadliftKg,TotalKg,Equipment,Event,Sex
Girls,44.23,1,Bianca Martinez,Pleasanton,43.09,86.18,34.02,97.52,217.72,Single-ply,SBD,F
Girls,44.23,2,Ally May,Kenedy,43.18,70.31,38.56,90.72,199.58,Single-ply,SBD,F
Girls,44.23,3,Arianna Aguilar,Stockdale,40.64,79.38,36.29,77.11,192.78,Single-ply,SBD,F
Girls,44.23,4,Leah Eureste,San Antonio East Central,44.09,72.57,36.29,83.91,192.78,Single-ply,SBD,F
Girls,44.23,5,Amanda Combatti,Hutto,43.91,56.7,34.02,83.91,174.63,Single-ply,SBD,F
Girls,44.23,6,Amanda Castaneda,Runge,41.55,52.16,27.22,90.72,170.1,Single-ply,SBD,F
Girls,47.85,1,Chloe Arana,Kyle Lehman,46.54,111.13,49.9,115.67,276.69,Single-ply,SBD,F
Girls,47.85,2,Savanah Segura,Karnes City,47.45,99.79,40.82,108.86,249.48,Single-ply,SBD,F
Girls,47.85,3,Alexis Martinez,Somerset,44.45,68.04,31.75,68.04,167.83,Single-ply,SBD,F
Girls,47.85,4,Vivian Araiza,Seguin,45.36,61.23,31.75,72.57,165.56,Single-ply,SBD,F
Girls,51.94,1,Andie Hernandez,Seguin,50.62,120.2,65.77,129.27,315.25,Single-ply,SBD,F
Girls,51.94,2,Betzaidalis Rosado-Mojica,San Antonio Brooks Academy,50.62,108.86,63.5,120.2,292.57,Single-ply,SBD,F
Girls,51.94,3,Danyella Norman,Lockhart,50.53,117.93,54.43,104.33,276.69,Single-ply,SBD,F
Girls,51.94,4,Taylor Barton,San Antonio Brooks Academy,50.44,97.52,56.7,117.93,272.16,Single-ply,SBD,F
Girls,51.94,5,Tifani Guzman,San Antonio Brooks Academy,51.44,90.72,49.9,106.59,247.21,Single-ply,SBD,F
Girls,51.94,6,Chloe Borst,Kyle Lehman,50.89,97.52,36.29,104.33,238.14,Single-ply,SBD,F
Girls,51.94,7,Jasmine Gomez,Natalia,50.26,102.06,40.82,88.45,231.33,Single-ply,SBD,F
Girls,51.94,8,Mariah Torres,Seguin,51.89,79.38,45.36,102.06,226.8,Single-ply,SBD,F
Girls,51.94,9,Hannah Holmes,Hutto,50.26,79.38,38.56,83.91,201.85,Single-ply,SBD,F
Girls,51.94,10,Olivia Adams,Buda Hays,50.98,72.57,34.02,92.99,199.58,Single-ply,SBD,F
Girls,51.94,11,Kristianna Kelley,Pleasanton,50.08,81.65,36.29,79.38,197.31,Single-ply,SBD,F
Girls,51.94,12,Belen Luna,Universal City Randolph,48.99,79.38,31.75,83.91,195.04,Single-ply,SBD,F
Girls,51.94,13,Lauren Flores,Buda Hays,51.71,56.7,34.02,81.65,172.37,Single-ply,SBD,F
Girls,51.94,14,Samantha Miller,Hutto,50.17,56.7,36.29,,92.99,Single-ply,SB,F
Girls,56.02,1,Jodel Patino,San Antonio Brooks Academy,54.34,120.2,68.04,149.69,337.93,Single-ply,SBD,F
Girls,56.02,2,Ileana Gonzales,Lockhart,55.16,111.13,52.16,117.93,281.23,Single-ply,SBD,F
Girls,56.02,3,Seande Goodhue,Karnes City,55.61,113.4,45.36,122.47,281.23,Single-ply,SBD,F
Girls,56.02,4,Ashley Luna,Hutto,54.98,108.86,52.16,115.67,276.69,Single-ply,SBD,F
Girls,56.02,5,Trinity Vera,Natalia,54.52,102.06,52.16,113.4,267.62,Single-ply,SBD,F
Girls,56.02,6,Hailey Tapia,San Antonio East Central,53.89,88.45,45.36,127.01,260.82,Single-ply,SBD,F
Girls,56.02,7,Claudia Norman,Buda Hays,55.25,102.06,45.36,113.4,260.82,Single-ply,SBD,F
Girls,56.02,8,Bryanna Bretta,San Antonio East Central,54.25,92.99,47.63,102.06,242.67,Single-ply,SBD,F
Girls,56.02,9,Codi Steenbeke,Pleasanton,55.34,95.25,40.82,106.59,242.67,Single-ply,SBD,F
Girls,56.02,10,Claudia Salas,Universal City Randolph,55.34,90.72,45.36,92.99,229.06,Single-ply,SBD,F
Girls,56.02,11,Abbie Hernandez,Seguin,55.97,97.52,43.09,88.45,229.06,Single-ply,SBD,F
Girls,56.02,12,Dulce Villa,Bloomington,52.39,86.18,40.82,99.79,226.8,Single-ply,SBD,F
Girls,56.02,13,Courtney Strey,San Antonio East Central,52.34,83.91,40.82,90.72,215.46,Single-ply,SBD,F
Girls,56.02,14,Victoria Kortz,Geronimo Navarro,55.34,77.11,40.82,97.52,215.46,Single-ply,SBD,F
Girls,56.02,15,Megan Belyeu,Universal City Randolph,52.8,81.65,40.82,86.18,208.65,Single-ply,SBD,F
Girls,56.02,DQ,Erica Munoz,Buda Hays,52.16,,,,,Single-ply,SBD,F
Girls,56.02,DQ,Rachel McKitrick,Hutto,53.98,,,,,Single-ply,SBD,F
Girls,56.02,DQ,Justine Galan,Natalia,55.25,,,,,Single-ply,SBD,F
Girls,60.1,1,Mery Vargas,Kyle Lehman,59.42,147.42,70.31,140.61,358.34,Single-ply,SBD,F
Girls,60.1,2,Jasmine Ruiz,San Antonio Brooks Academy,58.42,149.69,79.38,127.01,356.07,Single-ply,SBD,F
Girls,60.1,3,Kristen Moore,Stockdale,59.24,129.27,56.7,142.88,328.85,Single-ply,SBD,F
Girls,60.1,4,Emily Guerrero,Lytle,59.69,145.15,56.7,124.74,326.59,Single-ply,SBD,F
Girls,60.1,5,Kali Palomarez,Kyle Lehman,58.24,136.08,56.7,129.27,322.05,Single-ply,SBD,F
Girls,60.1,6,Julianna Morales,Natalia,59.69,124.74,56.7,136.08,317.51,Single-ply,SBD,F
Girls,60.1,7,Rubylee Perez,Kyle Lehman,59.51,140.61,49.9,122.47,312.98,Single-ply,SBD,F
Girls,60.1,8,Samantha Garcia,Pleasanton,59.51,120.2,43.09,129.27,292.57,Single-ply,SBD,F
Girls,60.1,9,Kendra Lewis,San Antonio East Central,58.97,113.4,43.09,117.93,274.42,Single-ply,SBD,F
Girls,60.1,10,Jayci Craig,Burnet,59.96,117.93,45.36,106.59,269.89,Single-ply,SBD,F
Girls,60.1,11,Kerrigan Brown,San Antonio East Central,56.52,102.06,56.7,104.33,263.08,Single-ply,SBD,F
Girls,60.1,12,Kaitlyn Dasher,Seguin,60.06,104.33,52.16,106.59,263.08,Single-ply,SBD,F
Girls,60.1,13,Laurel Eeds,Lockhart,57.24,95.25,38.56,122.47,256.28,Single-ply,SBD,F
Girls,60.1,14,Savanna Russell,Geronimo Navarro,58.6,102.06,49.9,104.33,256.28,Single-ply,SBD,F
Girls,60.1,15,Erica Walker,Pleasanton,57.52,108.86,43.09,92.99,244.94,Single-ply,SBD,F
Girls,60.1,16,Megan Callaway,Universal City Randolph,59.87,104.33,38.56,86.18,229.06,Single-ply,SBD,F
Girls,60.1,17,Katie Torres,Geronimo Navarro,58.33,70.31,45.36,106.59,222.26,Single-ply,SBD,F
Girls,60.1,18,Kalia Bush-Loo,Lytle,59.06,92.99,36.29,90.72,219.99,Single-ply,SBD,F
Girls,60.1,19,Cynthia Monreal,Natalia,60.06,77.11,45.36,90.72,213.19,Single-ply,SBD,F
Girls,60.1,20,Jasmine Placencia,San Antonio Holy Cross,56.79,83.91,43.09,83.91,210.92,Single-ply,SBD,F
Girls,60.1,21,Estefani Hernandez,Buda Hays,57.15,58.97,45.36,81.65,185.97,Single-ply,SBD,F
Girls,60.1,DQ,Memory Seale,Buda Hays,58.06,,,,,Single-ply,SBD,F
Girls,60.1,DQ,Sammie Portman,San Antonio East Central,58.6,,,,,Single-ply,SBD,F
Girls,60.1,DQ,Maya Williams,Universal City Randolph,58.24,,,,,Single-ply,SBD,F
Girls,60.1,DQ,McKenzie Voelkel,Stockdale,59.87,,,,,Single-ply,SBD,F
Girls,67.36,1,Caley Jackson,Karnes City,64.14,124.74,54.43,161.03,340.19,Single-ply,SBD,F
Girls,67.36,2,Bianca Solis,Poth,67.31,156.49,56.7,122.47,335.66,Single-ply,SBD,F
Girls,67.36,3,Alexis Ysla,Kyle Lehman,65.86,138.35,49.9,140.61,328.85,Single-ply,SBD,F
Girls,67.36,4,Brittney Butler,Geronimo Navarro,64.77,122.47,68.04,129.27,319.78,Single-ply,SBD,F
Girls,67.36,5,Courtney Barnett,Geronimo Navarro,62.96,122.47,58.97,127.01,308.44,Single-ply,SBD,F
Girls,67.36,6,Kayci Molina,Runge,63.23,115.67,54.43,138.35,308.44,Single-ply,SBD,F
Girls,67.36,7,Gloria Horton,Lockhart,65.14,124.74,49.9,129.27,303.91,Single-ply,SBD,F
Girls,67.36,8,Rianna Jackson,Universal City Randolph,62.96,115.67,49.9,127.01,292.57,Single-ply,SBD,F
Girls,67.36,9,Bryttney London,Universal City Randolph,67.22,113.4,49.9,129.27,292.57,Single-ply,SBD,F
Girls,67.36,10,Alexis Worley,Hutto,64.41,108.86,49.9,129.27,288.03,Single-ply,SBD,F
Girls,67.36,11,Brooke Hyatt,Hutto,65.32,104.33,56.7,124.74,285.76,Single-ply,SBD,F
Girls,67.36,12,Audrey Gonzales,Geronimo Navarro,67.22,102.06,54.43,124.74,281.23,Single-ply,SBD,F
Girls,67.36,13,Nallely Gutierrez,San Antonio Brooks Academy,63.87,95.25,58.97,124.74,278.96,Single-ply,SBD,F
Girls,67.36,14,Imani Moss,Universal City Randolph,61.14,104.33,43.09,111.13,258.55,Single-ply,SBD,F
Girls,67.36,15,Kacee Janek,Poth,60.33,95.25,52.16,99.79,247.21,Single-ply,SBD,F
Girls,67.36,16,Madison Marquart,Poth,63.59,92.99,49.9,99.79,242.67,Single-ply,SBD,F
Girls,67.36,17,Sara Urbanski,Lockhart,66.13,92.99,40.82,108.86,242.67,Single-ply,SBD,F
Girls,67.36,18,Khadyajah Jenkins,Universal City Randolph,61.6,83.91,45.36,99.79,229.06,Single-ply,SBD,F
Girls,67.36,19,Katelynn Herring,Buda Hays,63.78,86.18,38.56,95.25,219.99,Single-ply,SBD,F
Girls,67.36,20,Reagan Person,Geronimo Navarro,67.04,83.91,36.29,97.52,217.72,Single-ply,SBD,F
Girls,75.07,1,Paige Kruciak,Lytle,73.94,163.29,88.45,151.95,403.7,Single-ply,SBD,F
Girls,75.07,2,Tina Perez,Kyle Lehman,72.39,172.37,70.31,140.61,383.29,Single-ply,SBD,F
Girls,75.07,3,Alex Miller,Kenedy,74.21,154.22,70.31,138.35,362.87,Single-ply,SBD,F
Girls,75.07,4,Mari Alaniz,Karnes City,74.93,140.61,63.5,142.88,347,Single-ply,SBD,F
Girls,75.07,5,Miranda Garcia,Seguin,68.86,117.93,63.5,156.49,337.93,Single-ply,SBD,F
Girls,75.07,6,Ariella Zuniga,San Antonio East Central,73.12,129.27,56.7,136.08,322.05,Single-ply,SBD,F
Girls,75.07,7,Kyana Gayden,Universal City Randolph,69.4,131.54,52.16,133.81,317.51,Single-ply,SBD,F
Girls,75.07,8,Crystal Mendez,Buda Hays,69.67,131.54,54.43,113.4,299.37,Single-ply,SBD,F
Girls,75.07,9,Laurel Wilke,Seguin,73.57,117.93,56.7,124.74,299.37,Single-ply,SBD,F
Girls,75.07,10,Makenzie Quiros,Geronimo Navarro,73.03,104.33,56.7,120.2,281.23,Single-ply,SBD,F
Girls,75.07,11,Madison Ramm,Lockhart,71.85,102.06,45.36,131.54,278.96,Single-ply,SBD,F
Girls,75.07,12,Annalyssa Salinas,Lockhart,70.76,108.86,56.7,111.13,276.69,Single-ply,SBD,F
Girls,75.07,13,Elizabeth Adair,Hutto,72.48,111.13,36.29,120.2,267.62,Single-ply,SBD,F
Girls,75.07,14,Harley Porter,Pleasanton,73.66,111.13,47.63,102.06,260.82,Single-ply,SBD,F
Girls,75.07,15,Madison Collins,Hutto,73.03,95.25,40.82,92.99,229.06,Single-ply,SBD,F
Girls,75.07,16,Melissa Medellin,San Antonio Cole,74.48,86.18,38.56,88.45,213.19,Single-ply,SBD,F
Girls,75.07,17,Andra Gamez,Somerset,69.76,74.84,38.56,90.72,204.12,Single-ply,SBD,F
Girls,82.33,1,Alexandra Howard,Lockhart,81.1,149.69,63.5,174.63,387.82,Single-ply,SBD,F
Girls,82.33,2,Megan Martinez,San Antonio Brooks Academy,76.93,151.95,70.31,142.88,365.14,Single-ply,SBD,F
Girls,82.33,3,Madison Spears,Buda Hays,80.1,127.01,61.23,136.08,324.32,Single-ply,SBD,F
Girls,82.33,4,Mariah Castillo,Lockhart,78.83,124.74,49.9,129.27,303.91,Single-ply,SBD,F
Girls,82.33,5,Vanessa Perez,Bloomington,75.75,97.52,49.9,104.33,251.74,Single-ply,SBD,F
Girls,82.33,6,Kelsay Underwood,Seguin,75.3,92.99,40.82,95.25,229.06,Single-ply,SBD,F
Girls,82.33,DQ,Hunter Myers,San Antonio Cole,80.56,,,,,Single-ply,SBD,F
Girls,90.04,1,Marisol Palacios,Poth,88.09,204.12,97.52,158.76,460.4,Single-ply,SBD,F
Girls,90.04,2,Jacquelynn Delgado,Pleasanton,85.28,145.15,58.97,120.2,324.32,Single-ply,SBD,F
Girls,90.04,3,N'shambe Burrus,San Antonio East Central,84.1,120.2,52.16,136.08,308.44,Single-ply,SBD,F
Girls,90.04,4,Shantea Flow,Kyle Lehman,89.9,111.13,49.9,140.61,301.64,Single-ply,SBD,F
Girls,90.04,5,Evelyn Ramirez,Kyle Lehman,88.09,122.47,68.04,106.59,297.1,Single-ply,SBD,F
Girls,90.04,6,Raven Ortega,Lockhart,83.19,113.4,40.82,108.86,263.08,Single-ply,SBD,F
Girls,90.04,7,Samantha Paredes,Lockhart,89.45,108.86,52.16,102.06,263.08,Single-ply,SBD,F
Girls,90.04,8,D'Zhona Schuler,Seguin,86,83.91,43.09,117.93,244.94,Single-ply,SBD,F
Girls,90.04,DQ,Valeria Mejia,Runge,83.55,,,,,Single-ply,SBD,F
Girls,90.04,DQ,Samantha Paredes,Lockhart,89.45,,,,,Single-ply,SBD,F
Girls,100.02,1,Alliah Hildreth,Universal City Randolph,92.44,149.69,72.57,149.69,371.95,Single-ply,SBD,F
Girls,100.02,2,Dominique Covarubias,San Antonio Holy Cross,97.89,174.63,56.7,124.74,356.07,Single-ply,SBD,F
Girls,100.02,3,Kathrina Rangel,San Antonio Holy Cross,91.08,149.69,54.43,142.88,347,Single-ply,SBD,F
Girls,100.02,4,Caitlyn Stratton,Pleasanton,98.79,149.69,61.23,131.54,342.46,Single-ply,SBD,F
Girls,100.02,5,Samantha Heimer,San Antonio Brooks Academy,95.98,124.74,72.57,108.86,306.17,Single-ply,SBD,F
Girls,100.02,6,Megan Depine,Bloomington,92.08,117.93,54.43,127.01,299.37,Single-ply,SBD,F
Girls,100.02,7,Areeona Young,Hutto,93.71,113.4,56.7,127.01,297.1,Single-ply,SBD,F
Girls,100.02,8,Diane Muniz,San Antonio Holy Cross,97.34,117.93,47.63,117.93,283.5,Single-ply,SBD,F
Girls,100.02,9,Aimee Youngblood,Pleasanton,90.54,111.13,56.7,106.59,274.42,Single-ply,SBD,F
Girls,100.02,10,Angela Herrera,Seguin,95.16,97.52,43.09,95.25,235.87,Single-ply,SBD,F
Girls,100.02,11,Christen Yancy,Buda Hays,94.8,83.91,45.36,104.33,233.6,Single-ply,SBD,F
Girls,100.02,DQ,Jessica Soto,Lytle,97.98,,,,,Single-ply,SBD,F
Girls,100.02,DQ,Lily Trevino,Somerset,94.89,,,,,Single-ply,SBD,F
Girls,100.02+,1,Kendra Perez,Pleasanton,116.39,181.44,74.84,142.88,399.16,Single-ply,SBD,F
Girls,100.02+,2,Melysa Alvarez,Kyle Lehman,104.78,140.61,65.77,122.47,328.85,Single-ply,SBD,F
Girls,100.02+,3,Marissa Hernandez,Kenedy,115.39,113.4,49.9,129.27,292.57,Single-ply,SBD,F
Girls,100.02+,4,Karla Anguiano,Seguin,111.77,106.59,56.7,113.4,276.69,Single-ply,SBD,F
Girls,100.02+,5,Haley Boydstun,San Antonio Cole,110.31,72.57,45.36,108.86,226.8,Single-ply,SBD,F
