Division,WeightClassKg,Place,Name,Team,BodyweightKg,Best3SquatKg,Best3BenchKg,Best3DeadliftKg,TotalKg,Equipment,Event,Sex
Boys,51.71,1,Edward Castaneda,Waco Midway,51.71,129.27,63.5,,192.78,Single-ply,SB,M
Boys,51.71,2,Sergio Valenzvela,Belton,51.53,129.27,65.77,129.27,324.32,Single-ply,SBD,M
Boys,51.71,3,Clint Lott,Waco Midway,51.07,124.74,63.5,117.93,306.17,Single-ply,SBD,M
Boys,55.79,1,Austin Norden,Waco Midway,52.71,156.49,79.38,,235.87,Single-ply,SB,M
Boys,55.79,2,Jamarquis Degrate,Waco University,52.71,104.33,65.77,127.01,297.1,Single-ply,SBD,M
Boys,55.79,3,Ricky Guerra,Waco Midway,53.61,106.59,58.97,113.4,278.96,Single-ply,SBD,M
Boys,67.13,1,Bryce Pogue,Lorena,60.06,165.56,92.99,147.42,405.97,Single-ply,SBD,M
Boys,59.87,2,Tyrone White,Copperas Cove,59.87,111.13,68.04,149.69,328.85,Single-ply,SBD,M
Boys,59.87,3,Justin Mondrik,Temple,58.97,113.4,63.5,138.35,315.25,Single-ply,SBD,M
Boys,59.87,4,Enrique Gonzalez,Belton,58.15,111.13,70.31,131.54,312.98,Single-ply,SBD,M
Boys,59.87,5,Dustin James,Temple,57.79,108.86,56.7,115.67,281.23,Single-ply,SBD,M
Boys,59.87,6,Stephen Witt,Copperas Cove,57.88,86.18,49.9,108.86,244.94,Single-ply,SBD,M
Boys,67.13,1,Bobby Liles,Waco Midway,66.5,172.37,81.65,170.1,424.11,Single-ply,SBD,M
Boys,67.13,2,Gary Goode,Waco Midway,60.6,161.03,83.91,170.1,415.04,Single-ply,SBD,M
Boys,67.13,3,Robert Martinez,Belton,63.14,147.42,77.11,181.44,405.97,Single-ply,SBD,M
Boys,67.13,4,Antwan Coleman,Waco University,64.32,147.42,92.99,161.03,401.43,Single-ply,SBD,M
Boys,67.13,5,Dylan Elza,Belton,64.77,147.42,88.45,140.61,376.48,Single-ply,SBD,M
Boys,67.13,6,Ja'Darias Wright,Waco University,67.13,142.88,72.57,158.76,374.21,Single-ply,SBD,M
Boys,67.13,7,William Degraff,Waco Midway,65.41,129.27,79.38,156.49,365.14,Single-ply,SBD,M
Boys,67.13,8,Tyson Eno,Belton,61.6,124.74,95.25,142.88,362.87,Single-ply,SBD,M
Boys,67.13,9,Ashton Jackson,Temple,66.86,140.61,54.43,163.29,358.34,Single-ply,SBD,M
Boys,67.13,10,Derrlas Bradley,Temple,63.05,136.08,61.23,142.88,340.19,Single-ply,SBD,M
Boys,67.13,11,Aarron Deprisco,Copperas Cove,67.13,115.67,68.04,129.27,312.98,Single-ply,SBD,M
Boys,67.13,12,Blaine Fox,Copperas Cove,65.68,102.06,65.77,133.81,301.64,Single-ply,SBD,M
Boys,67.13,13,Kade Robinson,Lorena,62.78,120.2,63.5,113.4,297.1,Single-ply,SBD,M
Boys,67.13,14,Chris Tiller,Copperas Cove,65.05,99.79,74.84,117.93,292.57,Single-ply,SBD,M
Boys,67.13,15,Gage Meadows,Lorena,63.78,102.06,79.38,108.86,290.3,Single-ply,SBD,M
Boys,67.13,16,Cameron Frenette,Copperas Cove,64.05,99.79,56.7,124.74,281.23,Single-ply,SBD,M
Boys,74.84,1,Myrlon Edwards,Waco Midway,73.48,226.8,102.06,170.1,498.95,Single-ply,SBD,M
Boys,74.84,2,Stephen St John,Belton,71.76,161.03,97.52,201.85,460.4,Single-ply,SBD,M
Boys,74.84,3,Brentlee Allen,Waco,71.94,161.03,111.13,188.24,460.4,Single-ply,SBD,M
Boys,74.84,4,Collin Cresson,Lorena,72.57,176.9,106.59,176.9,460.4,Single-ply,SBD,M
Boys,82.1,5,Keimon McDowell,Waco,75.02,181.44,86.18,190.51,458.13,Single-ply,SBD,M
Boys,74.84,6,Lester Walker,Waco,68.86,161.03,102.06,161.03,424.11,Single-ply,SBD,M
Boys,74.84,7,Shomari Cooper,Belton,70.03,147.42,83.91,181.44,412.77,Single-ply,SBD,M
Boys,74.84,8,Orlando Thomas,Copperas Cove,72.03,154.22,92.99,165.56,412.77,Single-ply,SBD,M
Boys,74.84,9,Austin Greene,Copperas Cove,73.03,151.95,92.99,163.29,408.23,Single-ply,SBD,M
Boys,74.84,10,Isaac Carrillo,Waco University,73.3,140.61,111.13,145.15,396.89,Single-ply,SBD,M
Boys,74.84,11,JW Epley,Belton,70.58,131.54,86.18,172.37,390.09,Single-ply,SBD,M
Boys,74.84,12,Darren Smith,Belton,68.67,129.27,95.25,147.42,371.95,Single-ply,SBD,M
Boys,74.84,13,Austin Jordan,Waco Midway,69.94,129.27,79.38,147.42,356.07,Single-ply,SBD,M
Boys,74.84,14,Jimmie Joiner,Lorena,67.95,138.35,70.31,138.35,347,Single-ply,SBD,M
Boys,74.84,15,Andre White,Copperas Cove,73.03,122.47,65.77,145.15,333.39,Single-ply,SBD,M
Boys,74.84,16,Brandon Smith,Copperas Cove,70.49,83.91,65.77,136.08,285.76,Single-ply,SBD,M
Boys,74.84,17,Dustin Robinett,Copperas Cove,74.03,90.72,63.5,124.74,278.96,Single-ply,SBD,M
Boys,74.84,DQ,Tj Bauer,Waco,69.58,138.35,,,,Single-ply,SBD,M
Boys,74.84,DQ,Zach Hill,Waco Midway,74.48,,,,,Single-ply,SBD,M
Boys,82.1,1,Matt Wells,Temple,81.1,213.19,122.47,229.06,564.72,Single-ply,SBD,M
Boys,82.1,2,Tommy Sharp,Waco Midway,80.56,192.78,127.01,226.8,546.58,Single-ply,SBD,M
Boys,82.1,3,Justin Richter,Waco Midway,80.74,181.44,136.08,188.24,505.76,Single-ply,SBD,M
Boys,82.1,4,Chandler Snodgrass,Lorena,76.75,199.58,108.86,192.78,501.22,Single-ply,SBD,M
Boys,82.1,5,Trey Reagan,Waco Midway,76.84,199.58,113.4,172.37,485.34,Single-ply,SBD,M
Boys,82.1,6,Derrious Burns,Waco University,78.74,181.44,120.2,174.63,476.27,Single-ply,SBD,M
Boys,82.1,7,Jack Baskin,Lorena,78.11,181.44,104.33,181.44,467.2,Single-ply,SBD,M
Boys,82.1,8,Greg Ausburne,Waco,77.75,156.49,106.59,165.56,428.64,Single-ply,SBD,M
Boys,82.1,9,Miguel Guerra,Waco University,79.38,145.15,79.38,145.15,369.68,Single-ply,SBD,M
Boys,82.1,10,Caleb Pase,Copperas Cove,80.74,131.54,79.38,158.76,369.68,Single-ply,SBD,M
Boys,82.1,11,Curtis Walters,Belton,78.47,131.54,63.5,149.69,344.73,Single-ply,SBD,M
Boys,82.1,12,Zach Jackson,Copperas Cove,80.38,120.2,77.11,124.74,322.05,Single-ply,SBD,M
Boys,82.1,DQ,David Ocasio,Copperas Cove,82.1,142.88,,,,Single-ply,SBD,M
Boys,82.1,DQ,Shawn Sunday,Waco,76.84,176.9,,,,Single-ply,SBD,M
Boys,82.1,DQ,Dustin Cooper,Copperas Cove,76.75,90.72,,,,Single-ply,SBD,M
Boys,89.81,1,Jerikhoal Alvarez,Temple,88.27,215.46,136.08,,351.53,Single-ply,SB,M
Boys,89.81,2,Tristen Eche,Waco,88.54,226.8,120.2,217.72,564.72,Single-ply,SBD,M
Boys,89.81,3,Jabriel Robinson,Waco University,88.18,183.7,113.4,226.8,523.9,Single-ply,SBD,M
Boys,89.81,4,Eric Snell,Waco Midway,85.46,215.46,115.67,185.97,517.1,Single-ply,SBD,M
Boys,89.81,5,Cody Stidham,Waco Midway,89.81,190.51,108.86,208.65,508.02,Single-ply,SBD,M
Boys,89.81,6,Colby Gordon,Lorena,87.82,185.97,122.47,181.44,489.88,Single-ply,SBD,M
Boys,89.81,7,Donavan Williams,Belton,85,158.76,102.06,208.65,469.47,Single-ply,SBD,M
Boys,89.81,8,Jared Barber,Belton,88.72,158.76,108.86,188.24,455.86,Single-ply,SBD,M
Boys,89.81,9,Broderick James,Belton,83.19,170.1,95.25,158.76,424.11,Single-ply,SBD,M
Boys,89.81,10,Reggie Hampton,Copperas Cove,85.91,145.15,90.72,156.49,392.36,Single-ply,SBD,M
Boys,89.81,11,JaMarcus Rice,Waco University,85.09,158.76,86.18,140.61,385.55,Single-ply,SBD,M
Boys,89.81,12,Justin Greene,Copperas Cove,88.18,136.08,88.45,151.95,376.48,Single-ply,SBD,M
Boys,89.81,13,Kyle Sebek,Temple,88.36,145.15,77.11,151.95,374.21,Single-ply,SBD,M
Boys,89.81,14,Darren McPhail,Copperas Cove,88.45,129.27,86.18,145.15,360.61,Single-ply,SBD,M
Boys,89.81,15,Ian Brown,Copperas Cove,86.18,115.67,56.7,97.52,269.89,Single-ply,SBD,M
Boys,89.81,DQ,Dylan Sharp,Lorena,88.63,213.19,,,,Single-ply,SBD,M
Boys,99.79,1,Greg Garrett,Waco Midway,93.17,215.46,129.27,185.97,530.7,Single-ply,SBD,M
Boys,99.79,2,Brad Romine,Waco Midway,97.25,204.12,120.2,179.17,503.49,Single-ply,SBD,M
Boys,99.79,3,Alberto Lopez,Temple,98.25,181.44,106.59,201.85,489.88,Single-ply,SBD,M
Boys,99.79,4,Sean Shannon,Waco Midway,99.06,167.83,133.81,181.44,483.08,Single-ply,SBD,M
Boys,99.79,5,Nathan Hengst,Waco Midway,93.89,197.31,120.2,158.76,476.27,Single-ply,SBD,M
Boys,99.79,6,Quentin Manor,Belton,94.98,185.97,106.59,167.83,460.4,Single-ply,SBD,M
Boys,99.79,7,Brandon Reliford,Waco,94.53,158.76,90.72,190.51,439.98,Single-ply,SBD,M
Boys,99.79,8,Ruben Solis,Copperas Cove,92.99,154.22,99.79,181.44,435.45,Single-ply,SBD,M
Boys,99.79,9,Stephon White,Waco,91.44,165.56,92.99,147.42,405.97,Single-ply,SBD,M
Boys,99.79,10,James Murphey,Belton,94.26,131.54,74.84,147.42,353.8,Single-ply,SBD,M
Boys,99.79,11,Dylan Cooper,Copperas Cove,93.98,104.33,79.38,129.27,312.98,Single-ply,SBD,M
Boys,99.79,DQ,Arron Ybarra,Copperas Cove,93.89,83.91,68.04,,,Single-ply,SBD,M
Boys,109.77,1,Trevell Harden,Waco Midway,106.32,165.56,133.81,183.7,483.08,Single-ply,SBD,M
Boys,109.77,2,Byron Reliford,Waco,108.32,199.58,102.06,181.44,483.08,Single-ply,SBD,M
Boys,109.77,3,Zach McCart,Belton,100.88,158.76,106.59,181.44,446.79,Single-ply,SBD,M
Boys,109.77,4,Noah Tresselt,Belton,103.51,140.61,81.65,145.15,367.41,Single-ply,SBD,M
Boys,109.77,5,Philip Pilkey,Belton,102.87,136.08,83.91,106.59,326.59,Single-ply,SBD,M
Boys,109.77,6,Alexis Felix,Temple,109.13,127.01,77.11,122.47,326.59,Single-ply,SBD,M
Boys,124.74,1,Xavier Mitchell,Waco University,123.74,254.01,165.56,251.74,671.32,Single-ply,SBD,M
Boys,124.74,2,Easton Evans,Waco University,117.57,258.55,156.49,244.94,659.98,Single-ply,SBD,M
Boys,124.74,3,Christian Barry,Waco Midway,113.4,240.4,145.15,208.65,594.21,Single-ply,SBD,M
Boys,124.74,4,David Lewis,Waco Midway,114.31,240.4,124.74,188.24,553.38,Single-ply,SBD,M
Boys,124.74,5,Andrew Billings,Waco,112.76,192.78,124.74,188.24,505.76,Single-ply,SBD,M
Boys,124.74,6,Marshall Webster,Temple,124.19,147.42,92.99,158.76,399.16,Single-ply,SBD,M
Boys,124.74,7,Divad Brazell,Temple,117.48,158.76,61.23,136.08,356.07,Single-ply,SBD,M
Boys,124.74+,1,Landon Boffman,Waco,157.67,254.01,129.27,219.99,603.28,Single-ply,SBD,M
Boys,124.74+,2,Daniel Alvarez,Waco Midway,170.64,226.8,142.88,213.19,582.87,Single-ply,SBD,M
Boys,124.74+,3,Zach Villanueva,Belton,174.81,188.24,113.4,176.9,478.54,Single-ply,SBD,M
