Division,WeightClassKg,Place,Name,Team,BodyweightKg,Best3SquatKg,Best3BenchKg,Best3DeadliftKg,TotalKg,Equipment,Event,Sex
Boys,51.71,1,Gustavo Martinez,Winnie East Chambers,50.98,99.79,49.9,106.59,256.28,Single-ply,SBD,M
Boys,51.71,2,Cory Fuller,Shepherd,,70.31,49.9,65.77,185.97,Single-ply,SBD,M
Boys,51.71,DQ,Eric Durio,Beaumont Ozen,46.99,63.5,40.82,95.25,,Single-ply,SBD,M
Boys,55.79,DQ,Jacob McShan,Conroe The Woodlands,51.94,77.11,,,,Single-ply,SBD,M
Boys,59.87,1,Dalton Webb,Conroe Oak Ridge,55.97,154.22,90.72,154.22,399.16,Single-ply,SBD,M
Boys,55.79,2,Matt Lee,Conroe The Woodlands,54.61,138.35,79.38,149.69,367.41,Single-ply,SBD,M
Boys,59.87,3,Justin Hill,Conroe The Woodlands,55.97,106.59,70.31,124.74,301.64,Single-ply,SBD,M
Boys,55.79,DQ,Dalton Goetzinger,Conroe The Woodlands,54.07,92.99,54.43,113.4,,Single-ply,SBD,M
Boys,55.79,DQ,Caleb Jordon,Willis,53.71,102.06,,,,Single-ply,SBD,M
Boys,59.87,1,Trevor Banaszak,Shepherd,59.69,174.63,95.25,176.9,446.79,Single-ply,SBD,M
Boys,59.87,2,Beau Burleson,Woodville,58.24,167.83,99.79,163.29,430.91,Single-ply,SBD,M
Boys,59.87,3,Austin Alexander,Conroe Caney Creek,58.79,158.76,86.18,140.61,385.55,Single-ply,SBD,M
Boys,59.87,4,Nathan Gilmore,Conroe The Woodlands,59.15,124.74,72.57,136.08,333.39,Single-ply,SBD,M
Boys,67.13,5,James Sparrow,Conroe Caney Creek,59.96,120.2,65.77,136.08,322.05,Single-ply,SBD,M
Boys,59.87,6,Caffery Penn,Conroe The Woodlands,56.88,113.4,74.84,124.74,312.98,Single-ply,SBD,M
Boys,67.13,1,Thad Whigham,Woodville,61.23,161.03,92.99,170.1,424.11,Single-ply,SBD,M
Boys,67.13,2,Johnathon Clifton,New Caney,66.41,154.22,90.72,165.56,410.5,Single-ply,SBD,M
Boys,67.13,3,Domonique Wilson,Willis,62.96,149.69,99.79,158.76,408.23,Single-ply,SBD,M
Boys,67.13,4,Alex Jones,Shepherd,65.59,129.27,99.79,149.69,378.75,Single-ply,SBD,M
Boys,67.13,5,David Reamer,New Caney,64.05,151.95,86.18,129.27,367.41,Single-ply,SBD,M
Boys,67.13,6,Jose Montoya,Willis,63.41,138.35,102.06,124.74,365.14,Single-ply,SBD,M
Boys,67.13,7,Zach Randolph,Willis,66.04,129.27,83.91,147.42,360.61,Single-ply,SBD,M
Boys,67.13,8,David Muñoz,Shepherd,66.22,106.59,95.25,154.22,356.07,Single-ply,SBD,M
Boys,74.84,9,Cain Amador,Conroe Oak Ridge,67.31,136.08,74.84,145.15,356.07,Single-ply,SBD,M
Boys,67.13,10,Alex Newman,New Caney,66.95,129.27,90.72,129.27,349.27,Single-ply,SBD,M
Boys,67.13,11,D Colone,Beaumont Ozen,62.51,102.06,86.18,158.76,347,Single-ply,SBD,M
Boys,67.13,12,Dan London,Conroe The Woodlands,65.59,127.01,77.11,142.88,347,Single-ply,SBD,M
Boys,67.13,13,Scott Lenhart,Conroe The Woodlands,61.14,127.01,61.23,156.49,344.73,Single-ply,SBD,M
Boys,74.84,14,Juan Chavarria,New Caney,67.22,127.01,86.18,124.74,337.93,Single-ply,SBD,M
Boys,67.13,15,Diego Martinez,Winnie East Chambers,61.69,142.88,70.31,117.93,331.12,Single-ply,SBD,M
Boys,67.13,16,Josh Collins,Beaumont Ozen,64.05,129.27,72.57,122.47,324.32,Single-ply,SBD,M
Boys,67.13,17,Hayden von Feldt,Splendora,66.32,127.01,77.11,113.4,317.51,Single-ply,SBD,M
Boys,67.13,18,Oscar Medina,New Caney,61.14,108.86,68.04,127.01,303.91,Single-ply,SBD,M
Boys,67.13,19,Craig Collins,Conroe The Woodlands,61.23,117.93,65.77,117.93,301.64,Single-ply,SBD,M
Boys,67.13,20,Edgar Chavarria,New Caney,61.05,102.06,77.11,117.93,297.1,Single-ply,SBD,M
Boys,67.13,21,Britton Real,Conroe The Woodlands,66.04,106.59,45.36,124.74,276.69,Single-ply,SBD,M
Boys,67.13,22,Michael McDaniel,Conroe The Woodlands,66.04,81.65,61.23,111.13,254.01,Single-ply,SBD,M
Boys,67.13,23,James Alvoro,Woodville,62.32,61.23,40.82,90.72,192.78,Single-ply,SBD,M
Boys,67.13,DQ,Abraham Caballero,Conroe Caney Creek,66.95,120.2,,,,Single-ply,SBD,M
Boys,67.13,DQ,Robert Skellion,Conroe Caney Creek,66.86,145.15,,,,Single-ply,SBD,M
Boys,67.13,DQ,Chase Patterson,Splendora,66.32,115.67,,,,Single-ply,SBD,M
Boys,74.84,1,Justin Eberly,Conroe Caney Creek,71.67,190.51,83.91,208.65,483.08,Single-ply,SBD,M
Boys,74.84,2,Christian Andrews,Beaumont Ozen,74.03,163.29,115.67,185.97,464.93,Single-ply,SBD,M
Boys,74.84,3,Jose Anaya,Winnie East Chambers,74.75,188.24,77.11,192.78,458.13,Single-ply,SBD,M
Boys,74.84,4,Hunter Clift,Splendora,72.76,188.24,99.79,161.03,449.06,Single-ply,SBD,M
Boys,74.84,5,Justin Courvelle,Shepherd,73.12,170.1,97.52,181.44,449.06,Single-ply,SBD,M
Boys,82.1,6,Johnny Little,New Caney,75.02,167.83,106.59,174.63,449.06,Single-ply,SBD,M
Boys,74.84,7,Taylor Reddell,Winnie East Chambers,74.21,170.1,102.06,172.37,444.52,Single-ply,SBD,M
Boys,74.84,8,Chris Salisbury,Conroe Caney Creek,73.03,165.56,88.45,185.97,439.98,Single-ply,SBD,M
Boys,74.84,9,Josh Whittleman,Shepherd,74.21,149.69,95.25,195.04,439.98,Single-ply,SBD,M
Boys,74.84,10,Jonathan Vargas,Conroe Oak Ridge,71.3,163.29,99.79,170.1,433.18,Single-ply,SBD,M
Boys,74.84,11,Justin Releford,Woodville,72.39,181.44,81.65,170.1,433.18,Single-ply,SBD,M
Boys,74.84,12,Aaron Hodges,Huntsville,73.94,158.76,86.18,185.97,430.91,Single-ply,SBD,M
Boys,74.84,13,A Lemelle,Beaumont Ozen,74.3,127.01,90.72,151.95,369.68,Single-ply,SBD,M
Boys,74.84,14,Rodney Schwind,Conroe Caney Creek,72.21,136.08,74.84,147.42,358.34,Single-ply,SBD,M
Boys,74.84,15,Will McCleary,Normangee,68.76,99.79,77.11,158.76,335.66,Single-ply,SBD,M
Boys,74.84,16,Andrew Danheim,Conroe The Woodlands,73.03,129.27,79.38,122.47,331.12,Single-ply,SBD,M
Boys,74.84,17,Scott Holliday,Normangee,69.13,113.4,72.57,131.54,317.51,Single-ply,SBD,M
Boys,74.84,18,Austen Reaves,Conroe The Woodlands,69.4,102.06,61.23,138.35,301.64,Single-ply,SBD,M
Boys,74.84,19,Kevin Gonzales,Splendora,68.4,102.06,70.31,117.93,290.3,Single-ply,SBD,M
Boys,74.84,20,K. Jones,Beaumont Ozen,68.86,90.72,72.57,124.74,288.03,Single-ply,SBD,M
Boys,74.84,21,Austin Terry,Conroe The Woodlands,73.12,106.59,70.31,102.06,278.96,Single-ply,SBD,M
Boys,74.84,22,Jarvis Grant,Beaumont Ozen,72.94,86.18,58.97,90.72,235.87,Single-ply,SBD,M
Boys,74.84,23,Ty Higgenbotham,Splendora,68.58,122.47,,,122.47,Single-ply,S,M
Boys,74.84,DQ,Blaine Acevedo,Winnie East Chambers,73.3,142.88,,,,Single-ply,S,M
Boys,74.84,DQ,Ryan Wilgers,Willis,67.95,,,,,Single-ply,S,M
Boys,74.84,DQ,Carlos Lara,Winnie East Chambers,73.75,,,,,Single-ply,S,M
Boys,74.84,DQ,Ryan Elko,Normangee,73.39,104.33,,,,Single-ply,S,M
Boys,74.84,DQ,Lewis Moreno,Shepherd,72.21,136.08,,,,Single-ply,S,M
Boys,74.84,DQ,Anthony Nelson,Crosby,69.85,154.22,,,,Single-ply,S,M
Boys,82.1,1,Sebastian Riley,Conroe Caney Creek,78.47,199.58,115.67,179.17,494.42,Single-ply,SBD,M
Boys,89.81,2,Eric Hart,Winnie East Chambers,82.28,170.1,111.13,197.31,478.54,Single-ply,SBD,M
Boys,82.1,3,Taylor Rhorer,Woodville,75.75,170.1,95.25,172.37,437.72,Single-ply,SBD,M
Boys,82.1,4,Joe Jack,Crosby,78.29,151.95,88.45,197.31,437.72,Single-ply,SBD,M
Boys,82.1,5,Payton Gholston,Willis,82.01,181.44,77.11,158.76,417.3,Single-ply,SBD,M
Boys,82.1,6,Brandon Raney,Conroe Oak Ridge,77.38,149.69,102.06,156.49,408.23,Single-ply,SBD,M
Boys,82.1,7,Corey Mitchell,Woodville,81.47,131.54,88.45,163.29,383.29,Single-ply,SBD,M
Boys,82.1,8,Adam Lively,Woodville,79.83,147.42,77.11,151.95,376.48,Single-ply,SBD,M
Boys,82.1,9,Cory Rowlee,Crosby,77.29,104.33,92.99,163.29,360.61,Single-ply,SBD,M
Boys,82.1,10,Daniel Wooten,Conroe Caney Creek,80.65,136.08,111.13,108.86,356.07,Single-ply,SBD,M
Boys,82.1,11,Franky Rodriguez,Winnie East Chambers,76.29,138.35,77.11,136.08,351.53,Single-ply,SBD,M
Boys,89.81,12,Eric Whitaker,Conroe The Woodlands,82.19,88.45,61.23,117.93,267.62,Single-ply,SBD,M
Boys,82.1,13,Colin Fuchigami,Conroe The Woodlands,81.28,102.06,61.23,99.79,263.08,Single-ply,SBD,M
Boys,82.1,DQ,Lorenzo Ruiz,Splendora,79.2,113.4,,,,Single-ply,SBD,M
Boys,82.1,DQ,Zac Bustin,New Caney,79.56,120.2,,,,Single-ply,SBD,M
Boys,89.81,1,Clint Ramirez,New Caney,85.46,226.8,163.29,242.67,632.76,Single-ply,SBD,M
Boys,89.81,2,Nathan Brantner,Splendora,89.81,181.44,136.08,195.04,512.56,Single-ply,SBD,M
Boys,89.81,3,Johnathan Culp,Willis,86.09,190.51,106.59,192.78,489.88,Single-ply,SBD,M
Boys,89.81,4,A Breed,Beaumont Ozen,83.64,158.76,113.4,204.12,476.27,Single-ply,SBD,M
Boys,89.81,5,Jacob Little,Splendora,83.82,174.63,104.33,188.24,467.2,Single-ply,SBD,M
Boys,89.81,6,Brandon Holmes,Conroe Caney Creek,86,181.44,102.06,181.44,464.93,Single-ply,SBD,M
Boys,89.81,7,T. Murray,Beaumont Ozen,87.18,158.76,113.4,181.44,453.59,Single-ply,SBD,M
Boys,89.81,8,Dalton Ramon,Huntsville,88,161.03,106.59,165.56,433.18,Single-ply,SBD,M
Boys,89.81,9,Adrian Lacy,Woodville,86.18,170.1,102.06,158.76,430.91,Single-ply,SBD,M
Boys,89.81,10,Keyon Martin,Beaumont Ozen,83.01,158.76,104.33,163.29,426.38,Single-ply,SBD,M
Boys,89.81,11,Mark Love,Conroe The Woodlands,89.81,147.42,79.38,165.56,392.36,Single-ply,SBD,M
Boys,89.81,12,Kenneth Clark,Beaumont Ozen,82.74,124.74,95.25,161.03,381.02,Single-ply,SBD,M
Boys,89.81,13,Jarred Lezale,Winnie East Chambers,87,120.2,74.84,151.95,347,Single-ply,SBD,M
Boys,89.81,14,Zak Adams,Splendora,86.18,122.47,77.11,113.4,312.98,Single-ply,SBD,M
Boys,89.81,DQ,David Harris,Huntsville,85.37,133.81,,,,Single-ply,SBD,M
Boys,89.81,DQ,Marshall Bolden,New Caney,88,215.46,,,,Single-ply,SBD,M
Boys,89.81,DQ,Justin Duhon,Crosby,83.55,174.63,,,,Single-ply,SBD,M
Boys,99.79,1,Jarrod Rabalais,Winnie East Chambers,93.71,226.8,131.54,183.7,542.04,Single-ply,SBD,M
Boys,99.79,2,Caleb Etheridge,New Caney,97.61,195.04,131.54,183.7,510.29,Single-ply,SBD,M
Boys,99.79,3,Kenny Furches,Conroe The Woodlands,97.98,192.78,108.86,174.63,476.27,Single-ply,SBD,M
Boys,99.79,4,Tyler Mt Joy,Conroe The Woodlands,98.34,174.63,95.25,158.76,428.64,Single-ply,SBD,M
Boys,99.79,5,Jesse Blackburn,Crosby,94.53,149.69,104.33,156.49,410.5,Single-ply,SBD,M
Boys,99.79,6,Michael Rocker,Huntsville,92.8,154.22,95.25,158.76,408.23,Single-ply,SBD,M
Boys,99.79,7,Garrett Derouen,Woodville,90.72,136.08,97.52,161.03,394.63,Single-ply,SBD,M
Boys,99.79,8,Adrian White,Crosby,91.72,133.81,92.99,147.42,374.21,Single-ply,SBD,M
Boys,99.79,9,Rudy Lassaint,Beaumont Ozen,95.16,117.93,77.11,147.42,342.46,Single-ply,SBD,M
Boys,99.79,10,Anthony Presutti,Conroe Oak Ridge,98.52,163.29,,,163.29,Single-ply,S,M
Boys,99.79,DQ,Patrick McCloud,Conroe The Woodlands,94.35,145.15,90.72,176.9,,Single-ply,SBD,M
Boys,99.79,DQ,Justin Walker,Crosby,97.16,170.1,,,,Single-ply,S,M
Boys,99.79,DQ,Darren Stewart,Splendora,90.81,238.14,,,,Single-ply,S,M
Boys,99.79,DQ,Jacob Courvelle,Shepherd,99.43,213.19,,,,Single-ply,S,M
Boys,109.77,1,Shawn Mitchell,Woodville,108.77,258.55,149.69,231.33,639.57,Single-ply,SBD,M
Boys,109.77,2,Kevin Crew,Splendora,104.6,244.94,158.76,231.33,635.03,Single-ply,SBD,M
Boys,109.77,3,Bridge Blount,Huntsville,106.05,247.21,136.08,249.48,632.76,Single-ply,SBD,M
Boys,109.77,4,Joaquin Trevino,Splendora,100.79,233.6,181.44,204.12,619.15,Single-ply,SBD,M
Boys,109.77,5,Dylan Kramer,Winnie East Chambers,108.5,249.48,154.22,199.58,603.28,Single-ply,SBD,M
Boys,109.77,6,Pat Colleps,Winnie East Chambers,101.88,217.72,127.01,199.58,544.31,Single-ply,SBD,M
Boys,109.77,7,Paul Brown,Conroe Oak Ridge,102.06,199.58,113.4,217.72,530.7,Single-ply,SBD,M
Boys,109.77,8,Rumaldo Benavidez,New Caney,108.32,213.19,108.86,206.38,528.44,Single-ply,SBD,M
Boys,109.77,9,Kyle McCrary,Winnie East Chambers,102.78,192.78,124.74,181.44,498.95,Single-ply,SBD,M
Boys,124.74,10,Tony Craigo,Normangee,109.86,185.97,108.86,195.04,489.88,Single-ply,SBD,M
Boys,109.77,11,Hayden Hasenbein,Conroe Oak Ridge,105.51,188.24,102.06,185.97,476.27,Single-ply,SBD,M
Boys,109.77,12,Trey Watkins,Normangee,105.51,181.44,99.79,181.44,462.66,Single-ply,SBD,M
Boys,109.77,13,Jacob Perry,Conroe Caney Creek,101.79,181.44,97.52,161.03,439.98,Single-ply,SBD,M
Boys,109.77,14,Cody Hecker,Shepherd,109.13,192.78,97.52,149.69,439.98,Single-ply,SBD,M
Boys,109.77,15,Nathan Bang,Crosby,100.24,133.81,83.91,154.22,371.95,Single-ply,SBD,M
Boys,124.74,16,Tim Silva,Conroe The Woodlands,109.86,117.93,63.5,124.74,306.17,Single-ply,SBD,M
Boys,109.77,DQ,Santiago Captillo,Normangee,101.97,90.72,,,,Single-ply,SBD,M
Boys,124.74,1,Charlie Courvelle,Shepherd,120.02,238.14,154.22,199.58,591.94,Single-ply,SBD,M
Boys,124.74,2,Glen Salisbury,Conroe Caney Creek,112.85,226.8,145.15,201.85,573.79,Single-ply,SBD,M
Boys,124.74,3,JR Venette,Huntsville,124.28,208.65,127.01,190.51,526.17,Single-ply,SBD,M
Boys,124.74,4,Caleb Clark,Crosby,116.12,174.63,106.59,204.12,485.34,Single-ply,SBD,M
Boys,124.74,DQ,Taylor Hawthorne,Shepherd,113.94,142.88,,,,Single-ply,SBD,M
Boys,124.74,DQ,Aaron West,Splendora,122.56,131.54,,,,Single-ply,SBD,M
Boys,124.74,DQ,Emmanuel Herrera,Splendora,117.12,102.06,,,,Single-ply,SBD,M
Boys,124.74,DQ,Levi Lunsford,Splendora,123.83,226.8,,,,Single-ply,SBD,M
Boys,124.74+,1,Kenneth White,Beaumont Ozen,132.54,233.6,145.15,204.12,582.87,Single-ply,SBD,M
Boys,124.74+,2,N. Edwards,Beaumont Ozen,161.93,183.7,106.59,210.92,501.22,Single-ply,SBD,M
Boys,124.74+,3,Ben Townes,Conroe Caney Creek,159.94,199.58,113.4,181.44,494.42,Single-ply,SBD,M
Boys,124.74+,4,Mark Poteat,Conroe The Woodlands,140.89,181.44,90.72,165.56,437.72,Single-ply,SBD,M
