﻿                               ЧЕМПИОНАТ РОССИИ
         01 – 05 марта 2000 г.                  г.Сыктывкар (респ.Коми)

      -44.0 кг
 1.И Наталья\78             43.95    Иркутская        130.0     65.0   142.5   142.5                
 2.Лафина Олеся\79          43.30    Свердловская     145.0     80.0   105.0   330.0
 3.Колесникова Наталья\75   43.70    Ям.Ненецкий      127.5     60.0   127.5   315.0
      -48.0 кг
 1.Теслева Светлана\75      45.90    Иркутская        175.0     97.5   170.0   442.5
 2.Саламон Наталья\70       47.60    Кемеровская      162.5     85.0   160.0   407.5
 3.Фасахова Джамиля\68      47.00    Калужская        145.0     90.0   142.5   377.5
      -52.0 кг
 1.Аюгина Ирина\76          51.65    Ульяновская      175.0     90.0   177.5   442.5
 2.Ямских Елена\74          49.10    Красноярский     157.5    100.0   172.5   430.0
 3.Ельцова Татьяна\78       51.40    Кемеровская      172.5     97.5   160.0   430.0
      -56.0 кг
 1.Нелюбова Валентина\66    54.90    Красноярский     187.5    132.5   180.0   500.0
 2.Татарова Ирина\75        54.45    Кемеровская      197.5    100.0   192.5   490.0
 3.Орехова Ирина\71         55.65    Иркутская        190.0    100.0   192.5   482.5
      -60.0 кг
 1.Абрамова Ирина\74        59.10    Башкортостан     220.0    110.0   210.0   540.0
 2.Фомина Елена\69          59.60    Ульяновская      212.5    122.5   195.0   530.0
 3.Галимова Алевтина\66     59.80    Свердловская     190.0    117.5   185.0   492.5
      -67.5 кг
 1.Кудинова Марина\77       67.40    Алтайский        240.0    140.0   217.5   597.5
 2.Макарова Светлана\75     65.20    Калужская        150.0    100.0   140.0   390.0
 3.Федорцова Евгения\73     65.25    Брянская         150.0     72.5   140.0   362.5
      -75.0 кг
 1.Пузанова Татьяна\74      73.20    Кемеровская      232.5    132.5   215.0   580.0
 2.Терентьева Анна\75       72.60    Владимирская     215.0    145.0   200.0   560.0
 3.Рычкова Олеся\74         74.10    Хабаровский      200.0    125.0   217.5   542.5
      -82.5 кг
 1.Игнатенкова Елена\71     81.40    Брянская         255.0    142.5   230.0   627.5
 2.Румянцева Наталья\71     76.85    Красноярский     200.0    120.0   200.0   520.0
 3.Наскрипняк Ирина\69      82.50    Ям.Ненецкий      155.0    115.0   137.5   407.5
     -90.0 кг
 1.Луговая Ирина\74         89.50    Москва           247.5    155.0   240.0   642.5
 2.Паюсова Наталья\75       86.75    Архангельская    242.5    147.5   237.5   627.5
 3.Хотимченко Алла\68       87.60    Хабаровский      220.0    130.0   260.0   610.0
     +90.0 кг
 1.Павлова Анастасия\68    115.30    Красноярский     260.0    145.0   240.0   645.0                       
 2.Карпова Галина\68       100.10    Кемеровская      240.0    140.0   210.0   590.0
 3.Авилкина Елена\77       102.05    Калужская        232.5    122.5   190.0   545.0

       Победительицы абсолютного зачёта
   1. Марина Кудинова         610.47       сумма   597.5   соб.вес  67.40
   2. Ирина Абрамова          609.17               540.0            59.10
   3. Светлана Теслева        605.25               442.5            45.90

       Результаты командного зачёта
   1. Красноярский край     54
   2. Кемеровская обл.      54
   3. Иркутская обл.        51
  11-13. гор.Москва         12
         респ.Башкортостан  12

    Главный судья соревнований         Н.Кишко    
    Судья Международной категории      г.Сыктывкар

    Главный секретарь соревнований     В.Крысанов     
    Судья Международной категории      г.В.Новгород

               
                             ЧЕМПИОНАТ РОССИИ                         
                  02-05 марта 2000 г.  г.Сыктывкар (респ.Коми)
     -52.0 кг
 1.Журавлёв Сергей\60     50.80    Ульяновская     200.0   112.5   200.0   512.5
 2.Панин Дмитрий\80       51.80    Ивановская      180.0   100.0   190.0   470.0
 3.Артемьев Игорь\71      51.70    Удмуртская      165.0   120.0   175.0   460.0
     -56.0 кг
 1.Павлов Константин\73   56.00    Кемеровская     250.0   170.5   212.5   632.5
 2.Асабин Николай\78      55.60    Башкортостан    222.5   122.5   210.0   555.0
 3.Артемьев Олег\71       55.40    Удмуртская      192.5   132.5   175.0   500.0
     -60.0 кг
 1.Андрюхин Михаил\70     59.80    Москва          255.0   132.5   255.0   642.5
 2.Мухаматьянов Фаниль\72 59.70    Башкортостан    242.5   182.5   200.0   625.0
 3.Звягинцев Андрей\80    59.60    Респ.Коми       235.0   145.0   220.0   600.0
     -67.5 кг
 1.Сидоров Алексей\74     67.00    Ульяновская     272.5   185.0   250.0   707.5
 2.Долгов Евгений\76      67.30    Кемеровская     275.0   160.0   260.0   695.0
 3.Евстратенко Дмитрий\74 67.10    Новосибирская   240.0   155.0   280.0   675.0
     -75.0 кг
 1.Фуражкин Виктор\69     74.50    Респ.Коми       300.0   205.0   300.0   805.0
 2.Баранов Виктор\67      74.75    Владимирская    310.0   180.0   290.0   780.0
 3.Соколов Владимир\76    75.00    Вологодская     290.0   180.0   290.0   760.0
 5.Востриков Руслан\78    74.15    Башкортостан    275.0   172.5   270.0   717.5
    -82.5 кг
 1.Мор Сергей\69          82.10    Башкортостан    320.0   220.0   315.0   855.0
 2.Ночной Сергей\67       82.50    Смоленская      315.0   225.0   300.0   840.0
 3.Гордеев Сергей\76      82.15    С-Петербург     325.0   197.5   307.5   830.0
    -90.0 кг
 1.Тарасенко Андрей\75    89.20    Красноярский    352.5   242.5   325.0   920.0
 2.Исмагилов Галим\75     88.90    Вологодская     315.0   197.5   335.0   847.5
 3.Федоренко Юрий\74      89.70    Башкортостан    315.0   195.0   335.0   845.0
    -100.0 кг
 1.Смищенко Виктор\64     99.20    Алтайский       330.0   235.0   320.0   885.0
 2.Бабиков Андрей\71      100.0    Респ.Коми       340.0   207.5   300.0   847.5
 3.Бессонов Алексей\73    98.70    Кемеровская     300.0   205.0   335.0   840.0
    -110.0 кг
 1.Маляренко Алексей\71  108.00    Респ.Коми       355.0   230.0   335.0   920.0
 2.Бирун Евгений\73      108.50    Хабаровский     362.5   195.0   360.0   917.5
 3.Гагин Игорь\69        110.00    Кемеровская     350.0   230.0   310.0   890.0
   -125.0 кг
 1.Подтынный Максим\72   124.80    Х-М.Башкорт.    410.0   215.0   388.0  1012.5
 2.Шелестов Сергей\72    122.80    Москва          365.0   240.0   300.0   905.0
 3.Сиротин Александр\61  123.00    Ярославская     325.0   205.0   350.0   880.0
   +125.0 кг
 1.Фомин Юрий\69         149.80    Москва          365.0   237.5   345.0   947.5
 2.Куныш Андрей\77       125.50    С-Петербург     325.0   217.5   315.0   857.5
 3.Топильский Андрей\69  137.70    Ханты-Мансийск  325.0   222.5   305.0   852.5
 
      ПОБЕДИТЕЛИ АБСОЛЮТНОГО ПЕРВЕНСТВА
   1. Андрей Тарасенко      589.99     сумма   920.0   соб.вес   89.20
   2. Максим Подтынный      577.13            1012.5            124.80
   3. Виктор Фуражкин       576.30             805.0             74.50

     РЕЗУЛЬТАТЫ КОМАНДНОГО ЗАЧЁТА
   1. Респ.Башкортостан       56
   2. Респ.Коми               55
   3. гор.Санкт-Петербург     39
     Главный судья соревнований,            Н.Кишко
     судья Международной категории          гор.Сыктывкар
     Главный секретарь соревнований,        В.Крысанов
     судья Международной категории          гор.В.Новгород







