Division,WeightClassKg,Place,Name,Team,BodyweightKg,Best3SquatKg,Best3BenchKg,Best3DeadliftKg,TotalKg,Equipment,Event,Sex
Boys,51.71,1,Dj Grogan,Marshall,51.71,124.74,81.65,117.93,324.32,Single-ply,SBD,M
Boys,51.71,2,Zach Gonzales,Linden-Kildare,49.44,86.18,58.97,111.13,256.28,Single-ply,SBD,M
Boys,51.71,DQ,Robert Young,Beckville,45.81,113.4,,,,Single-ply,SBD,M
Boys,55.79,1,Ivan Ramirez,Beckville,54.43,136.08,86.18,142.88,365.14,Single-ply,SBD,M
Boys,59.87,2,John Blackstock,Elysian Fields,56.02,124.74,68.04,154.22,347,Single-ply,SBD,M
Boys,59.87,1,Justin Vanderwater,Price Carlisle,58.51,117.93,54.43,115.67,288.03,Single-ply,SBD,M
Boys,59.87,2,Austin Edwards,Garrison,59.87,102.06,61.23,124.74,288.03,Single-ply,SBD,M
Boys,59.87,DQ,Austin Vaughn,Linden-Kildare,59.87,122.47,,161.03,,Single-ply,SBD,M
Boys,67.13,1,Andric Okra,Marshall,66.68,170.1,106.59,179.17,455.86,Single-ply,SBD,M
Boys,67.13,2,Zack Jackson,Elysian Fields,66.04,124.74,106.59,142.88,374.21,Single-ply,SBD,M
Boys,74.84,1,Colton Watson,Linden-Kildare,74.39,233.6,133.81,215.46,582.87,Single-ply,SBD,M
Boys,74.84,2,Chris Ford,Marshall,70.76,215.46,136.08,213.19,564.72,Single-ply,SBD,M
Boys,74.84,3,Stone Leach,Ore City,73.48,167.83,115.67,188.24,471.74,Single-ply,SBD,M
Boys,74.84,4,Kendrick Long,Waskom,73.3,181.44,97.52,181.44,460.4,Single-ply,SBD,M
Boys,74.84,5,Allen Phillips,Ore City,68.04,158.76,83.91,195.04,437.72,Single-ply,SBD,M
Boys,82.1,6,Chase Hatton,Elysian Fields,75.02,133.81,86.18,181.44,401.43,Single-ply,SBD,M
Boys,74.84,7,Jared Woodall,Beckville,69.4,145.15,86.18,156.49,387.82,Single-ply,SBD,M
Boys,74.84,8,Hunter Hanson,Hughes Springs,71.21,158.76,79.38,129.27,367.41,Single-ply,SBD,M
Boys,74.84,9,Dakota Farias,Price Carlisle,72.57,136.08,86.18,136.08,358.34,Single-ply,SBD,M
Boys,74.84,10,Josh Reeves,Ore City,68.49,92.99,68.04,149.69,310.71,Single-ply,SBD,M
Boys,74.84,DQ,Garrett Ballard,Price Carlisle,73.03,115.67,,120.2,,Single-ply,SBD,M
Boys,74.84,DQ,Bruce Woods,Elysian Fields,72.8,147.42,,142.88,,Single-ply,SBD,M
Boys,82.1,1,Jc Haigwood,Marshall,81.65,215.46,142.88,238.14,596.47,Single-ply,SBD,M
Boys,82.1,2,Quebec Polk,Marshall,81.19,181.44,115.67,215.46,512.56,Single-ply,SBD,M
Boys,82.1,3,Acie Smith,Marshall,80.74,170.1,102.06,197.31,469.47,Single-ply,SBD,M
Boys,82.1,4,Clay Coleman,Elysian Fields,77.2,147.42,117.93,167.83,433.18,Single-ply,SBD,M
Boys,82.1,5,Cody Murphy,Hughes Springs,75.3,158.76,83.91,172.37,415.04,Single-ply,SBD,M
Boys,82.1,6,Tyran Anderson,Ore City,77.11,161.03,86.18,163.29,410.5,Single-ply,SBD,M
Boys,82.1,7,Dillon Etheredge,Beckville,82.1,140.61,92.99,167.83,401.43,Single-ply,SBD,M
Boys,82.1,8,Clay Allphik,Price Carlisle,81.65,136.08,92.99,133.81,362.87,Single-ply,SBD,M
Boys,82.1,9,Nolan Hodges,Beckville,76.2,108.86,79.38,154.22,342.46,Single-ply,SBD,M
Boys,82.1,10,Detten Martin,Hughes Springs,79.38,106.59,88.45,129.27,324.32,Single-ply,SBD,M
Boys,82.1,11,Bryce Stephens,Ore City,78.02,104.33,68.04,120.2,292.57,Single-ply,SBD,M
Boys,82.1,DQ,John Dawson,Linden-Kildare,81.19,111.13,,115.67,,Single-ply,SBD,M
Boys,89.81,1,Demeon Timmons,Marshall,86.64,219.99,136.08,226.8,582.87,Single-ply,SBD,M
Boys,89.81,2,Wayne Munden,Hughes Springs,83.46,183.7,117.93,215.46,517.1,Single-ply,SBD,M
Boys,89.81,3,Clifford Dial,Ore City,83.46,136.08,86.18,149.69,371.95,Single-ply,SBD,M
Boys,89.81,4,Pedro Vargas,Price Carlisle,89.81,131.54,97.52,127.01,356.07,Single-ply,SBD,M
Boys,89.81,5,John Coe,Linden-Kildare,84.37,136.08,86.18,129.27,351.53,Single-ply,SBD,M
Boys,99.79,1,Dekota Newson,Marshall,90.72,215.46,115.67,206.38,537.51,Single-ply,SBD,M
Boys,99.79,2,Cory Dawson,Marshall,95.25,181.44,129.27,197.31,508.02,Single-ply,SBD,M
Boys,99.79,3,Terry Jones,Beckville,96.62,183.7,124.74,195.04,503.49,Single-ply,SBD,M
Boys,99.79,4,Jason Spurlin,Waskom,94.8,142.88,90.72,158.76,392.36,Single-ply,SBD,M
Boys,99.79,5,Luke Mccreery,Linden-Kildare,90.26,136.08,95.25,131.54,362.87,Single-ply,SBD,M
Boys,99.79,6,Tk Campbell,Ore City,95.25,136.08,68.04,129.27,333.39,Single-ply,SBD,M
Boys,109.77,1,Adrian McCoy,Marshall,107.95,226.8,131.54,215.46,573.79,Single-ply,SBD,M
Boys,109.77,2,Ty Lawless,Elysian Fields,106.87,226.8,102.06,226.8,555.65,Single-ply,SBD,M
Boys,109.77,3,Daniel Hicks,Waskom,101.15,192.78,124.74,206.38,523.9,Single-ply,SBD,M
Boys,109.77,4,Quin Gates,Garrison,105.69,210.92,99.79,183.7,494.42,Single-ply,SBD,M
Boys,109.77,5,David Smith,Marshall,102.06,192.78,106.59,181.44,480.81,Single-ply,SBD,M
Boys,124.74,1,Teven Trammell,Marshall,115.67,206.38,136.08,204.12,546.58,Single-ply,SBD,M
Boys,124.74+,2,Tyler Hudson,Elysian Fields,124.83,217.72,136.08,170.1,523.9,Single-ply,SBD,M
Boys,124.74,3,Alex Ingram,Hughes Springs,113.4,190.51,133.81,181.44,505.76,Single-ply,SBD,M
Boys,124.74,4,Ryan Russell,Hughes Springs,117.93,183.7,124.74,174.63,483.08,Single-ply,SBD,M
Boys,124.74,5,Dakota Thompson,Waskom,110.68,158.76,97.52,170.1,426.38,Single-ply,SBD,M
Boys,124.74,DQ,Jeremy Wiggington,Elysian Fields,124.28,192.78,102.06,,,Single-ply,SBD,M
Boys,124.74+,1,Brandon Weglowski,Waskom,132,249.48,192.78,226.8,669.05,Single-ply,SBD,M
Boys,124.74+,2,Michael Harper,Marshall,142.88,238.14,129.27,217.72,585.13,Single-ply,SBD,M
Boys,124.74+,3,Luis Deleon,Elysian Fields,139.16,249.48,117.93,215.46,582.87,Single-ply,SBD,M
Boys,124.74+,4,Brian Wright,Garrison,129.73,172.37,104.33,154.22,430.91,Single-ply,SBD,M
