Division,WeightClassKg,Place,Name,Team,BodyweightKg,Best3SquatKg,Best3BenchKg,Best3DeadliftKg,TotalKg,Equipment,Event,Sex
Boys,55.79,1,Ruben Vargas,Princeton,51.8,133.81,70.31,161.03,365.14,Single-ply,SBD,M
Boys,51.71,2,Patrick Brown,Quinlan Ford,51.26,106.59,52.16,61.23,219.99,Single-ply,SBD,M
Boys,51.71,3,Matt Harding,Paris,41.73,83.91,40.82,92.99,217.72,Single-ply,SBD,M
Boys,51.71,4,Justin Keeton,Anna,46.72,86.18,40.82,88.45,215.46,Single-ply,SBD,M
Boys,51.71,5,Casey Matzke,McKinney Boyd,46.27,68.04,40.82,90.72,199.58,Single-ply,SBD,M
Boys,51.71,DQ,Romario Hernandez,Krum,51.71,81.65,45.36,,,Single-ply,SBD,M
Boys,51.71,DQ,Billy McMahon,Farmersville,39.46,65.77,,,,Single-ply,SBD,M
Boys,51.71,DQ,Weaver Weaver,Frisco Heritage,46.72,65.77,,,,Single-ply,SBD,M
Boys,55.79,1,Jose Rangel,Farmersville,55.79,142.88,88.45,163.29,394.63,Single-ply,SBD,M
Boys,55.79,2,Darius Johnson,Sanger,54.88,136.08,99.79,136.08,371.95,Single-ply,SBD,M
Boys,55.79,3,James Silkey,Quinlan Ford,54.43,129.27,83.91,124.74,337.93,Single-ply,SBD,M
Boys,55.79,4,Clemetra Bailey,Paris,55.34,113.4,72.57,136.08,322.05,Single-ply,SBD,M
Boys,55.79,5,Dalton Watwood,Pottsboro,52.44,120.2,70.31,120.2,310.71,Single-ply,SBD,M
Boys,55.79,6,Jonathan Vasquez,Allen,53.52,113.4,61.23,113.4,288.03,Single-ply,SBD,M
Boys,55.79,DQ,Mark Bresnahan,McKinney North,55.79,,,,,Single-ply,SBD,M
Boys,59.87,1,Kyle Bawcum,Paris,58.06,183.7,111.13,190.51,485.34,Single-ply,SBD,M
Boys,59.87,2,Michael Smith,Princeton,59.87,149.69,88.45,154.22,392.36,Single-ply,SBD,M
Boys,59.87,3,Nigel Robinson,Paris,58.97,142.88,79.38,158.76,381.02,Single-ply,SBD,M
Boys,59.87,4,Cris Dapon,Allen,59.42,142.88,83.91,151.95,378.75,Single-ply,SBD,M
Boys,59.87,5,Juan Castaneda,Princeton,59.87,111.13,79.38,145.15,335.66,Single-ply,SBD,M
Boys,59.87,6,Aaron Bullock,Sanger,58.97,127.01,72.57,124.74,324.32,Single-ply,SBD,M
Boys,59.87,7,Kadaries Corprew,Paris,59.87,124.74,68.04,131.54,324.32,Single-ply,SBD,M
Boys,59.87,8,Harley Davis,Anna,59.87,92.99,74.84,138.35,306.17,Single-ply,SBD,M
Boys,59.87,9,Jose Brito,Quinlan Ford,58.51,106.59,61.23,122.47,290.3,Single-ply,SBD,M
Boys,59.87,10,Dennis Lyons,McKinney Boyd,59.42,102.06,65.77,113.4,281.23,Single-ply,SBD,M
Boys,59.87,11,Christian Barrera,Krum,58.97,92.99,,106.59,199.58,Single-ply,SD,M
Boys,67.13,1,Drake Sides,Sanger,66.22,217.72,113.4,204.12,535.24,Single-ply,SBD,M
Boys,67.13,2,Darian Jones,Paris,65.32,206.38,113.4,174.63,494.42,Single-ply,SBD,M
Boys,67.13,3,Derek Tucker,Lucas Lovejoy,67.13,172.37,124.74,174.63,471.74,Single-ply,SBD,M
Boys,74.84,4,Mason Mackay,Princeton,67.31,188.24,113.4,167.83,469.47,Single-ply,SBD,M
Boys,67.13,5,Sebastein Spencer,Anna,67.13,181.44,102.06,183.7,467.2,Single-ply,SBD,M
Boys,67.13,6,Rusty Burris,Princeton,63.32,170.1,131.54,147.42,449.06,Single-ply,SBD,M
Boys,67.13,7,Austin Bailey,Lucas Lovejoy,63.05,154.22,90.72,183.7,428.64,Single-ply,SBD,M
Boys,67.13,8,Kenny Munyer,McKinney Boyd,65.32,145.15,92.99,151.95,390.09,Single-ply,SBD,M
Boys,67.13,9,Marcio Velasquez,Nevada Community,66.68,129.27,90.72,154.22,374.21,Single-ply,SBD,M
Boys,67.13,10,Marcus Ward,Allen,65.32,142.88,92.99,136.08,371.95,Single-ply,SBD,M
Boys,67.13,11,Zach Stevens,McKinney Boyd,64.41,138.35,77.11,154.22,369.68,Single-ply,SBD,M
Boys,67.13,12,Josh Maynor,Pottsboro,64.86,147.42,79.38,142.88,369.68,Single-ply,SBD,M
Boys,67.13,13,Paul Blasingame,Nevada Community,66.22,136.08,90.72,142.88,369.68,Single-ply,SBD,M
Boys,67.13,14,Tony Solis,Krum,63.5,136.08,72.57,154.22,362.87,Single-ply,SBD,M
Boys,67.13,15,Cory Saunders,McKinney North,63.96,127.01,72.57,142.88,342.46,Single-ply,SBD,M
Boys,67.13,16,Travis Brown,Quinlan Ford,64.86,131.54,70.31,129.27,331.12,Single-ply,SBD,M
Boys,67.13,17,Brian Reynolds,Farmersville,66.22,111.13,83.91,129.27,324.32,Single-ply,SBD,M
Boys,67.13,18,Jacob Oliver,Krum,64.41,131.54,54.43,131.54,317.51,Single-ply,SBD,M
Boys,67.13,19,Jacob Blagburn,Blue Ridge,60.33,83.91,54.43,102.06,240.4,Single-ply,SBD,M
Boys,67.13,20,Jaycee Tredway,Krum,63.05,86.18,49.9,104.33,240.4,Single-ply,SBD,M
Boys,67.13,21,Jack Patton,Krum,63.96,83.91,45.36,104.33,233.6,Single-ply,SBD,M
Boys,67.13,DQ,Jonathan Farrington,McKinney North,67.13,,,,,Single-ply,SBD,M
Boys,74.84,1,Manuel Lemus,Sanger,70.31,204.12,113.4,199.58,517.1,Single-ply,SBD,M
Boys,74.84,2,Adrian Guay,Sanger,70.76,192.78,95.25,181.44,469.47,Single-ply,SBD,M
Boys,74.84,3,Seth Pratt,McKinney Boyd,71.67,151.95,97.52,197.31,446.79,Single-ply,SBD,M
Boys,74.84,4,David Barnes,Farmersville,73.03,176.9,92.99,170.1,439.98,Single-ply,SBD,M
Boys,74.84,5,Tyler Bailey,Lucas Lovejoy,68.49,172.37,92.99,170.1,435.45,Single-ply,SBD,M
Boys,74.84,6,Dustin Williams,Anna,73.94,167.83,99.79,158.76,426.38,Single-ply,SBD,M
Boys,74.84,7,Sloan Walls,North Forney,68.04,147.42,111.13,149.69,408.23,Single-ply,SBD,M
Boys,74.84,8,Mika Taylor,Princeton,69.4,136.08,79.38,142.88,358.34,Single-ply,SBD,M
Boys,74.84,9,Tanner Larson,McKinney Boyd,68.95,124.74,83.91,124.74,333.39,Single-ply,SBD,M
Boys,74.84,10,Josh Reeves,Krum,73.94,127.01,61.23,136.08,324.32,Single-ply,SBD,M
Boys,74.84,11,Jaun Washington,Frisco Heritage,68.95,117.93,72.57,111.13,301.64,Single-ply,SBD,M
Boys,74.84,12,Danny Nunez,Blue Ridge,69.4,102.06,56.7,138.35,297.1,Single-ply,SBD,M
Boys,74.84,DQ,Ross Flores,Krum,68.04,131.54,,,,Single-ply,SBD,M
Boys,74.84,DQ,Anthony Moss,McKinney Boyd,74.84,136.08,,,,Single-ply,SBD,M
Boys,74.84,DQ,Nathan Holland,McKinney Boyd,74.84,113.4,,,,Single-ply,SBD,M
Boys,74.84,DQ,Brian Stocker,McKinney North,74.84,,,,,Single-ply,SBD,M
Boys,74.84,DQ,Bert Wilson,Princeton,74.84,,,,,Single-ply,SBD,M
Boys,74.84,DQ,Justin Jones,Princeton,70.31,163.29,,,,Single-ply,SBD,M
Boys,74.84,DQ,Rowin Ragsbale,North Forney,73.03,156.49,,,,Single-ply,SBD,M
Boys,74.84,DQ,Garrett Martinez,North Forney,71.67,111.13,,,,Single-ply,SBD,M
Boys,74.84,DQ,Jersean Walder,Allen,69.85,158.76,,,,Single-ply,SBD,M
Boys,82.1,1,Shelby Long,Anna,80.74,204.12,86.18,213.19,503.49,Single-ply,SBD,M
Boys,82.1,2,Brandon Love,Pottsboro,80.74,204.12,97.52,188.24,489.88,Single-ply,SBD,M
Boys,82.1,3,Kyle Stone,Quinlan Ford,81.65,174.63,115.67,183.7,474,Single-ply,SBD,M
Boys,82.1,4,Kevin Stone,Quinlan Ford,80.74,174.63,102.06,183.7,460.4,Single-ply,SBD,M
Boys,82.1,5,John Norrell,Anna,79.38,181.44,97.52,176.9,455.86,Single-ply,SBD,M
Boys,82.1,6,Shay McConic,Frisco Heritage,81.19,185.97,104.33,161.03,451.32,Single-ply,SBD,M
Boys,82.1,7,Quay McConic,Frisco Heritage,78.47,183.7,104.33,161.03,449.06,Single-ply,SBD,M
Boys,82.1,8,Alex Lovelady,Pottsboro,80.29,181.44,88.45,165.56,435.45,Single-ply,SBD,M
Boys,82.1,9,Lapone Finley,North Forney,76.66,158.76,83.91,190.51,433.18,Single-ply,SBD,M
Boys,82.1,10,Adam Strickland,Nevada Community,77.11,163.29,102.06,158.76,424.11,Single-ply,SBD,M
Boys,82.1,11,Harrison Flinn,Pottsboro,78.02,149.69,90.72,181.44,421.84,Single-ply,SBD,M
Boys,82.1,12,Miguel Sepulveda,North Forney,79.83,154.22,108.86,158.76,421.84,Single-ply,SBD,M
Boys,82.1,13,Cole Patterson,Quinlan Ford,79.83,136.08,95.25,142.88,374.21,Single-ply,SBD,M
Boys,82.1,14,Colby Robison,Paris,80.74,115.67,70.31,151.95,337.93,Single-ply,SBD,M
Boys,82.1,15,Steven Obiselu,Frisco Heritage,80.74,108.86,68.04,104.33,281.23,Single-ply,SBD,M
Boys,82.1,DQ,Chris Johnson,Princeton,76.66,136.08,,,,Single-ply,SBD,M
Boys,82.1,DQ,Beau Hughes,North Forney,79.83,124.74,,,,Single-ply,SBD,M
Boys,89.81,1,Nehemie Etchu,Allen,89.81,240.4,136.08,247.21,623.69,Single-ply,SBD,M
Boys,89.81,2,Devin Smith,McKinney North,88,188.24,131.54,210.92,530.7,Single-ply,SBD,M
Boys,89.81,3,Ethan Scheffler,Sanger,88,192.78,129.27,199.58,521.63,Single-ply,SBD,M
Boys,89.81,4,Drew Hamilton,Lake Dallas,89.36,204.12,133.81,165.56,503.49,Single-ply,SBD,M
Boys,89.81,5,Cameron Caldwell,Nevada Community,87.54,181.44,117.93,181.44,480.81,Single-ply,SBD,M
Boys,89.81,6,Casey Sergent,Quinlan Ford,89.36,170.1,102.06,201.85,474,Single-ply,SBD,M
Boys,89.81,7,Nick Conklin,Sanger,83.91,181.44,108.86,172.37,462.66,Single-ply,SBD,M
Boys,89.81,8,Colton Ingram,Paris,84.37,161.03,122.47,142.88,426.38,Single-ply,SBD,M
Boys,89.81,9,Billy Doyle,Pottsboro,89.36,158.76,88.45,149.69,396.89,Single-ply,SBD,M
Boys,89.81,10,David Webb,Quinlan Ford,89.54,136.08,90.72,142.88,369.68,Single-ply,SBD,M
Boys,89.81,11,Robert Miller,Anna,89.81,129.27,79.38,151.95,360.61,Single-ply,SBD,M
Boys,89.81,12,Alex Hicks,Frisco Heritage,87.54,124.74,90.72,136.08,351.53,Single-ply,SBD,M
Boys,89.81,13,Chase Hallford,Blue Ridge,89.81,113.4,68.04,117.93,299.37,Single-ply,SBD,M
Boys,89.81,14,Aaron Gilmore,Krum,85.73,108.86,65.77,117.93,292.57,Single-ply,SBD,M
Boys,89.81,15,Loht Adusumilli,Frisco Heritage,89.36,92.99,61.23,97.52,251.74,Single-ply,SBD,M
Boys,89.81,DQ,Geraius Forchu,North Forney,87.54,204.12,,,,Single-ply,SBD,M
Boys,89.81,DQ,Eric Reed,Pottsboro,88,90.72,,,,Single-ply,SBD,M
Boys,99.79,1,Ruben Murillo,Princeton,99.61,272.16,151.95,204.12,628.23,Single-ply,SBD,M
Boys,99.79,2,Tim Smith,Nevada Community,94.8,217.72,117.93,231.33,566.99,Single-ply,SBD,M
Boys,99.79,3,Nate Krumrei,Lucas Lovejoy,91.63,226.8,122.47,215.46,564.72,Single-ply,SBD,M
Boys,99.79,4,Jonny Crittenden,Sanger,94.8,195.04,149.69,195.04,539.77,Single-ply,SBD,M
Boys,99.79,5,Mohammad Hiram,Lucas Lovejoy,96.16,197.31,104.33,204.12,505.76,Single-ply,SBD,M
Boys,99.79,6,Stephen Young,Princeton,93.44,206.38,113.4,176.9,496.68,Single-ply,SBD,M
Boys,99.79,7,Lee Vinton,Lake Dallas,93.44,197.31,113.4,172.37,483.08,Single-ply,SBD,M
Boys,99.79,8,Austin Ray,Lucas Lovejoy,97.52,188.24,97.52,195.04,480.81,Single-ply,SBD,M
Boys,99.79,9,Chrystian Molina,Lucas Lovejoy,98.43,190.51,90.72,199.58,480.81,Single-ply,SBD,M
Boys,99.79,10,Jacob Wilson,Nevada Community,91.63,170.1,102.06,204.12,476.27,Single-ply,SBD,M
Boys,99.79,11,Matt Garrity,Allen,97.52,176.9,117.93,167.83,462.66,Single-ply,SBD,M
Boys,99.79,12,Scott Blair,Anna,92.99,181.44,90.72,183.7,455.86,Single-ply,SBD,M
Boys,99.79,13,Conley Hunter,Pottsboro,99.34,170.1,97.52,154.22,421.84,Single-ply,SBD,M
Boys,99.79,14,Dj Shelby,Frisco Heritage,93.89,161.03,95.25,163.29,419.57,Single-ply,SBD,M
Boys,99.79,15,Steven Martinez,Krum,94.35,133.81,77.11,163.29,374.21,Single-ply,SBD,M
Boys,99.79,16,Ryan Terrell,Paris,94.35,147.42,74.84,124.74,347,Single-ply,SBD,M
Boys,99.79,17,Shane Tilden,Krum,98.43,106.59,86.18,136.08,328.85,Single-ply,SBD,M
Boys,99.79,DQ,Keondre Jermany,Nevada Community,90.72,,,,,Single-ply,SBD,M
Boys,99.79,DQ,Aaron Stewart,Nevada Community,90.72,,,,,Single-ply,SBD,M
Boys,99.79,DQ,Nick Vessels,Allen,90.72,163.29,,,,Single-ply,SBD,M
Boys,109.77,1,Patrick Thompson,Lucas Lovejoy,105.23,272.16,136.08,226.8,635.03,Single-ply,SBD,M
Boys,109.77,2,Tracy Smith,Allen,108.41,238.14,124.74,231.33,594.21,Single-ply,SBD,M
Boys,109.77,3,Nathan Nutt,Princeton,106.59,208.65,156.49,217.72,582.87,Single-ply,SBD,M
Boys,109.77,4,Miguel Rodriguez,Allen,109.77,215.46,140.61,208.65,564.72,Single-ply,SBD,M
Boys,109.77,5,David Grace,Sanger,105.23,204.12,122.47,208.65,535.24,Single-ply,SBD,M
Boys,109.77,6,Abel Palma,McKinney North,106.59,199.58,104.33,215.46,519.36,Single-ply,SBD,M
Boys,109.77,7,Justin Perez,Farmersville,108.41,183.7,129.27,199.58,512.56,Single-ply,SBD,M
Boys,109.77,8,Jd Nolan,Farmersville,100.7,188.24,127.01,192.78,508.02,Single-ply,SBD,M
Boys,109.77,9,Justin Wotring,Allen,106.14,172.37,122.47,192.78,487.61,Single-ply,SBD,M
Boys,109.77,10,Leonard Elledge,Quinlan Ford,107.5,183.7,108.86,192.78,485.34,Single-ply,SBD,M
Boys,109.77,11,Steve Smith,North Forney,106.14,176.9,111.13,174.63,462.66,Single-ply,SBD,M
Boys,109.77,12,Jesse Sanchez,McKinney Boyd,101.6,163.29,106.59,183.7,453.59,Single-ply,SBD,M
Boys,109.77,13,Jason Guinn,Nevada Community,109.77,204.12,108.86,136.08,449.06,Single-ply,SBD,M
Boys,109.77,14,Marquis Gill,Paris,108.86,165.56,88.45,133.81,387.82,Single-ply,SBD,M
Boys,109.77,15,Nathan Silva,Krum,108.86,151.95,70.31,151.95,374.21,Single-ply,SBD,M
Boys,109.77,DQ,Brandon Ramsey,McKinney North,109.77,,,,,Single-ply,SBD,M
Boys,109.77,DQ,Terrence Walker,North Forney,107.5,136.08,,,,Single-ply,SBD,M
Boys,124.74,1,Daniel Cooley,Lake Dallas,122.92,285.76,231.33,263.08,780.18,Single-ply,SBD,M
Boys,124.74,2,Miguel Garcia,Blue Ridge,120.66,226.8,124.74,242.67,594.21,Single-ply,SBD,M
Boys,124.74,3,Marquel Sheppard,McKinney North,123.38,249.48,124.74,219.99,594.21,Single-ply,SBD,M
Boys,124.74,4,Joe Merino,Anna,124.74,249.48,127.01,215.46,591.94,Single-ply,SBD,M
Boys,124.74,5,Tommy Harwell,Nevada Community,123.83,213.19,142.88,215.46,571.53,Single-ply,SBD,M
Boys,124.74,6,Richard Pickett,Princeton,110.68,215.46,117.93,204.12,537.51,Single-ply,SBD,M
Boys,124.74,7,Sean Lolo Enalert,Allen,120.2,181.44,127.01,192.78,501.22,Single-ply,SBD,M
Boys,124.74,8,Jamie Davidson,Farmersville,124.74,195.04,124.74,176.9,496.68,Single-ply,SBD,M
Boys,124.74,9,Taylor Washburn,Pottsboro,117.48,195.04,113.4,165.56,474,Single-ply,SBD,M
Boys,124.74,DQ,Nate O'Connor,Lucas Lovejoy,124.74,,,,,Single-ply,SBD,M
Boys,124.74+,1,Darian Gipson-Jackson,Anna,142.88,244.94,142.88,233.6,621.42,Single-ply,SBD,M
Boys,124.74+,2,Brad Moore,Nevada Community,134.26,204.12,170.1,195.04,569.26,Single-ply,SBD,M
Boys,124.74+,3,Matt Berryman,Lucas Lovejoy,134.72,195.04,122.47,197.31,514.83,Single-ply,SBD,M
Boys,124.74+,4,John Laubacher,Lake Dallas,143.79,170.1,108.86,174.63,453.59,Single-ply,SBD,M
Boys,124.74+,DQ,Jeremy Russell,Lucas Lovejoy,142.88,204.12,,,,Single-ply,SBD,M
Boys,124.74+,DQ,Aj Groce,McKinney Boyd,133.36,240.4,,,,Single-ply,SBD,M
Boys,124.74+,DQ,Gunel Hubson,North Forney,141.52,183.7,,,,Single-ply,SBD,M
