Division,WeightClassKg,Place,Name,Team,BodyweightKg,Best3SquatKg,Best3BenchKg,Best3DeadliftKg,TotalKg,Equipment,Event,Sex
Boys,51.71,1,Ricky Guerra,Poteet,51.26,122.47,86.18,136.08,344.73,Single-ply,SBD,M
Boys,51.71,2,Joel Rodriguez,Castroville Medina Valley,51.26,102.06,77.11,122.47,301.64,Single-ply,SBD,M
Boys,51.71,3,Sid Alcoser,Somerset,51.26,113.4,52.16,127.01,292.57,Single-ply,SBD,M
Boys,51.71,4,Jesus Gomez,Somerset,50.8,90.72,61.23,113.4,265.35,Single-ply,SBD,M
Boys,51.71,5,Jose Nevarez,Uvalde,51.26,68.04,38.56,88.45,195.04,Single-ply,SBD,M
Boys,55.79,1,Josh Lomas,Crystal City,55.79,149.69,92.99,170.1,412.77,Single-ply,SBD,M
Boys,55.79,2,Felix Gutierrez,Crystal City,55.79,131.54,83.91,133.81,349.27,Single-ply,SBD,M
Boys,55.79,3,John Dominguez,Somerset,53.98,113.4,58.97,136.08,308.44,Single-ply,SBD,M
Boys,55.79,4,Oscar de Leon,Somerset,55.79,92.99,63.5,127.01,283.5,Single-ply,SBD,M
Boys,55.79,5,Alberto Lopez,Del Rio,53.52,97.52,58.97,115.67,272.16,Single-ply,SBD,M
Boys,55.79,6,Robert Kight,Poteet,55.34,106.59,61.23,90.72,258.55,Single-ply,SBD,M
Boys,55.79,7,Matthew Martinez,Uvalde,54.88,79.38,52.16,124.74,256.28,Single-ply,SBD,M
Boys,55.79,DQ,Mayo Bermea,Uvalde,54.88,97.52,,,,Single-ply,SBD,M
Boys,59.87,1,Caleb Gale,Somerset,59.87,172.37,102.06,197.31,471.74,Single-ply,SBD,M
Boys,59.87,2,Ronald Sanchez,Poteet,58.97,170.1,83.91,170.1,424.11,Single-ply,SBD,M
Boys,59.87,3,Steven Garza,Crystal City,58.97,149.69,72.57,142.88,365.14,Single-ply,SBD,M
Boys,59.87,4,Luis Flores,Poteet,58.51,142.88,65.77,147.42,356.07,Single-ply,SBD,M
Boys,59.87,5,Logan Adair,Barksdale Nueces Canyon,57.61,136.08,63.5,145.15,344.73,Single-ply,SBD,M
Boys,59.87,6,Daniel Luna,Uvalde,59.42,83.91,83.91,142.88,310.71,Single-ply,SBD,M
Boys,59.87,7,Angel Gonzales,Uvalde,58.51,113.4,65.77,127.01,306.17,Single-ply,SBD,M
Boys,59.87,8,Jose Flores,San Antonio Kennedy,56.7,102.06,72.57,129.27,303.91,Single-ply,SBD,M
Boys,59.87,9,Ezekiel Cortez,Castroville Medina Valley,58.97,106.59,61.23,136.08,303.91,Single-ply,SBD,M
Boys,59.87,10,Mark Salinas,Castroville Medina Valley,59.42,115.67,56.7,120.2,292.57,Single-ply,SBD,M
Boys,59.87,11,Demetri Molina,Somerset,58.51,95.25,61.23,113.4,269.89,Single-ply,SBD,M
Boys,67.13,1,Ozzy Varela,Somerset,65.77,192.78,108.86,190.51,492.15,Single-ply,SBD,M
Boys,67.13,2,Adam Austin,Del Rio,66.68,161.03,92.99,174.63,428.64,Single-ply,SBD,M
Boys,67.13,3,Jacob Rodriguez,Crystal City,64.86,151.95,88.45,170.1,410.5,Single-ply,SBD,M
Boys,67.13,4,Ozzy Gonzalez,Somerset,63.5,136.08,70.31,170.1,376.48,Single-ply,SBD,M
Boys,67.13,5,Trevor Horvath,Castroville Medina Valley,63.5,138.35,92.99,138.35,369.68,Single-ply,SBD,M
Boys,67.13,6,Alfredo Ramon,Uvalde,66.22,124.74,79.38,147.42,351.53,Single-ply,SBD,M
Boys,67.13,7,Kris Guzman,Poteet,66.68,115.67,83.91,147.42,347,Single-ply,SBD,M
Boys,67.13,8,Joshua Ramos,Somerset,67.13,115.67,61.23,147.42,324.32,Single-ply,SBD,M
Boys,67.13,9,Jeremy Del Toro,San Antonio Kennedy,67.13,102.06,74.84,129.27,306.17,Single-ply,SBD,M
Boys,67.13,10,Jacob Rivera,Uvalde,66.68,117.93,61.23,122.47,301.64,Single-ply,SBD,M
Boys,67.13,11,Daniel Mendiola,Somerset,65.77,68.04,45.36,104.33,217.72,Single-ply,SBD,M
Boys,67.13,DQ,Francisco Martinez,Poteet,62.6,86.18,,,,Single-ply,SBD,M
Boys,67.13,DQ,Price Pybialn,Barksdale Nueces Canyon,63.96,,,,,Single-ply,SBD,M
Boys,67.13,DQ,Haanz Torres,Bandera,64.41,102.06,,,,Single-ply,SBD,M
Boys,74.84,1,Arturo Cervantez,Crystal City,73.94,215.46,124.74,219.99,560.19,Single-ply,SBD,M
Boys,74.84,2,Pedro Molina,Somerset,73.94,199.58,117.93,238.14,555.65,Single-ply,SBD,M
Boys,74.84,3,Jason Jungman,Castroville Medina Valley,74.84,188.24,115.67,176.9,480.81,Single-ply,SBD,M
Boys,74.84,4,Isrel Pacheco,Somerset,71.67,136.08,88.45,195.04,419.57,Single-ply,SBD,M
Boys,74.84,5,Randy Masters,Somerset,70.31,147.42,90.72,165.56,403.7,Single-ply,SBD,M
Boys,74.84,6,Daniel Ramirez,San Antonio Kennedy,74.84,147.42,90.72,151.95,390.09,Single-ply,SBD,M
Boys,74.84,7,Ricky Hernandez,Del Rio,67.59,120.2,90.72,149.69,360.61,Single-ply,SBD,M
Boys,74.84,8,Isaac Douglas,San Antonio Kennedy,69.4,129.27,77.11,138.35,344.73,Single-ply,SBD,M
Boys,74.84,9,Noel Gonzales,Uvalde,73.94,111.13,79.38,136.08,326.59,Single-ply,SBD,M
Boys,74.84,10,Alexander Degrenia,Del Rio,72.57,102.06,88.45,133.81,324.32,Single-ply,SBD,M
Boys,82.1,1,Jj Elias,Somerset,78.02,204.12,106.59,215.46,526.17,Single-ply,SBD,M
Boys,82.1,2,Guillermo Guerra,Del Rio,79.38,158.76,102.06,170.1,430.91,Single-ply,SBD,M
Boys,82.1,3,Chris Puente,Crystal City,79.38,158.76,102.06,165.56,426.38,Single-ply,SBD,M
Boys,82.1,4,Brian Staffen,Del Rio,78.02,156.49,88.45,172.37,417.3,Single-ply,SBD,M
Boys,82.1,5,Roland DeLeon,San Antonio Kennedy,79.83,140.61,90.72,147.42,378.75,Single-ply,SBD,M
Boys,82.1,6,Nickolas Villareal,Somerset,80.74,133.81,74.84,170.1,378.75,Single-ply,SBD,M
Boys,82.1,7,Rigo Bueno,Uvalde,81.19,142.88,83.91,145.15,371.95,Single-ply,SBD,M
Boys,82.1,8,John Valdez,Somerset,77.11,145.15,72.57,151.95,369.68,Single-ply,SBD,M
Boys,82.1,9,Emilio Valadez,San Antonio Kennedy,81.65,140.61,74.84,154.22,369.68,Single-ply,SBD,M
Boys,82.1,10,Michael Bustamante,Somerset,79.38,156.49,83.91,127.01,367.41,Single-ply,SBD,M
Boys,82.1,11,Rigo Hernandez,Uvalde,81.65,74.84,58.97,124.74,258.55,Single-ply,SBD,M
Boys,82.1,DQ,Hector Martinez,San Antonio Kennedy,78.47,136.08,,,,Single-ply,SBD,M
Boys,82.1,DQ,Jonathon Castillo,San Antonio Kennedy,79.83,102.06,,,,Single-ply,SBD,M
Boys,89.81,1,Dillan Bushway,Crystal City,83.46,183.7,86.18,183.7,453.59,Single-ply,SBD,M
Boys,89.81,2,Rudy Pena,San Antonio Kennedy,88.45,145.15,79.38,145.15,369.68,Single-ply,SBD,M
Boys,89.81,3,Martin Galvan,San Antonio Kennedy,89.36,140.61,79.38,145.15,365.14,Single-ply,SBD,M
Boys,89.81,4,Julian Valdovinos,Bandera,85.28,108.86,70.31,108.86,288.03,Single-ply,SBD,M
Boys,89.81,5,Paulino Bosquez,San Antonio Kennedy,86.18,61.23,36.29,83.91,181.44,Single-ply,SBD,M
Boys,89.81,DQ,Lucas Taulli,Bandera,88,108.86,83.91,,,Single-ply,SBD,M
Boys,89.81,DQ,Joe Tovar,Somerset,84.82,117.93,,,,Single-ply,SBD,M
Boys,99.79,1,Justin Lomas,Crystal City,91.63,210.92,88.45,195.04,494.42,Single-ply,SBD,M
Boys,99.79,2,Mark Cerda,Somerset,91.17,170.1,102.06,192.78,464.93,Single-ply,SBD,M
Boys,99.79,3,Alex Villareal,Somerset,98.43,158.76,90.72,197.31,446.79,Single-ply,SBD,M
Boys,99.79,4,Jesse Solis,Somerset,93.89,131.54,92.99,181.44,405.97,Single-ply,SBD,M
Boys,99.79,5,Bryce Douda,Bandera,99.79,151.95,99.79,151.95,403.7,Single-ply,SBD,M
Boys,99.79,6,Paul Mesta,Del Rio,95.25,154.22,92.99,142.88,390.09,Single-ply,SBD,M
Boys,99.79,7,Izzy Olivares,Bandera,92.53,140.61,95.25,151.95,387.82,Single-ply,SBD,M
Boys,99.79,8,Ivan Hernandez,Uvalde,98.88,127.01,72.57,147.42,347,Single-ply,SBD,M
Boys,99.79,9,Bryce Sandoval,Poteet,93.89,129.27,88.45,124.74,342.46,Single-ply,SBD,M
Boys,99.79,10,Pete Alvarez,Uvalde,99.34,95.25,56.7,127.01,278.96,Single-ply,SBD,M
Boys,99.79,DQ,Michael Guerrero,Uvalde,98.88,,,,,Single-ply,SBD,M
Boys,99.79,DQ,Henry Garzes,Poteet,98.43,145.15,,,,Single-ply,SBD,M
Boys,99.79,DQ,Fred Carrasco,San Antonio Kennedy,95.25,129.27,,,,Single-ply,SBD,M
Boys,99.79,DQ,Juan Landa,Castroville Medina Valley,94.35,,,,,Single-ply,SBD,M
Boys,109.77,1,Salvador Marines,Somerset,105.23,308.44,122.47,254.01,684.92,Single-ply,SBD,M
Boys,109.77,2,Kevin Garcia,Poteet,107.95,247.21,127.01,204.12,578.33,Single-ply,SBD,M
Boys,109.77,3,Alejandro Maldonado,Uvalde,108.86,204.12,113.4,181.44,498.95,Single-ply,SBD,M
Boys,109.77,4,Aaron Herrera,Del Rio,107.95,181.44,88.45,170.1,439.98,Single-ply,SBD,M
Boys,109.77,5,Benjamin Frieda,Somerset,107.05,147.42,88.45,156.49,392.36,Single-ply,SBD,M
Boys,109.77,6,Duke Aguirre,San Antonio Kennedy,105.69,106.59,92.99,142.88,342.46,Single-ply,SBD,M
Boys,109.77,7,Eric Trevino,Uvalde,102.51,122.47,56.7,142.88,322.05,Single-ply,SBD,M
Boys,109.77,8,Gary La Rue,San Antonio Kennedy,102.97,117.93,63.5,136.08,317.51,Single-ply,SBD,M
Boys,109.77,DQ,Gus Palacios,San Antonio Kennedy,105.23,179.17,,,,Single-ply,SBD,M
Boys,124.74,1,Alfred Godines,Somerset,121.11,272.16,172.37,235.87,680.39,Single-ply,SBD,M
Boys,124.74,2,Daniel Casares,Somerset,115.67,213.19,154.22,217.72,585.13,Single-ply,SBD,M
Boys,124.74,3,Gus Zavala,Del Rio,121.11,206.38,140.61,219.99,566.99,Single-ply,SBD,M
Boys,124.74,4,Joe Aguero,Somerset,119.29,249.48,117.93,179.17,546.58,Single-ply,SBD,M
Boys,124.74,5,Nick O'Bryant,Castroville Medina Valley,121.56,213.19,117.93,181.44,512.56,Single-ply,SBD,M
Boys,124.74,6,Gabriel Garza,Somerset,119.29,195.04,136.08,170.1,501.22,Single-ply,SBD,M
Boys,124.74,7,Justin Willis,Barksdale Nueces Canyon,110.68,174.63,104.33,181.44,460.4,Single-ply,SBD,M
Boys,124.74,8,José Castillo,Somerset,117.93,165.56,111.13,158.76,435.45,Single-ply,SBD,M
Boys,124.74,9,Jacob Nelson,Barksdale Nueces Canyon,110.22,102.06,56.7,111.13,269.89,Single-ply,SBD,M
Boys,124.74,10,Joel Ayala,Uvalde,122.92,79.38,54.43,108.86,242.67,Single-ply,SBD,M
Boys,124.74,DQ,Andrew Padilla,Poteet,116.57,170.1,79.38,,,Single-ply,SBD,M
Boys,124.74,DQ,Zachary Moreno,Somerset,114.31,158.76,113.4,,,Single-ply,SBD,M
Boys,124.74+,1,Nune Perez,Crystal City,142.88,265.35,147.42,249.48,662.24,Single-ply,SBD,M
Boys,124.74+,2,Guy LaRue,San Antonio Kennedy,148.32,222.26,117.93,235.87,576.06,Single-ply,SBD,M
Boys,124.74+,3,Kyle Oden,Uvalde,133.81,188.24,111.13,204.12,503.49,Single-ply,SBD,M
Boys,124.74+,4,Ruben Villareal,Del Rio,125.65,147.42,83.91,185.97,417.3,Single-ply,SBD,M
