Place,Name,Division,BirthYear,BodyweightKg,Bench1Kg,Bench2Kg,Bench3Kg,Best3BenchKg,WeightClassKg,Sex,CyrillicName,Equipment,Event,TotalKg,Age
1,Timur Askerov,Teen,2004,47.8,75,77.5,-80,77.5,48,M,,Raw,B,77.5,
2,A. Artur,Teen,2002,47.1,65,72.5,-77.5,72.5,48,M,,Raw,B,72.5,
3,S. Orynbasarov,Teen,2003,42.6,62.5,70,-75,70,48,M,,Raw,B,70,
4,R. Karimbekov,Teen,2003,47.6,60,65,-77.5,65,48,M,,Raw,B,65,
7,S. Khudaynazarov,Teen,2003,47.4,30,40,-50,40,48,M,,Raw,B,40,
5,N. Kuzmin,Teen,2003,47.85,30,32.5,37.5,37.5,48,M,,Raw,B,37.5,
6,B. Zhaksylykov,Teen,2005,43.95,30,35,-40,35,48,M,,Raw,B,35,
1,Ivan Kuvaldin,Teen,2001,52.2,100,-102.5,-102.5,100,53,M,,Raw,B,100,
2,Sh. Elzhanov,Teen,2001,53,95,100,-102.5,100,53,M,,Raw,B,100,
3,Islambek Kanashov,Teen,2002,51.75,85,-90,-90,85,53,M,,Raw,B,85,
4,Yu. Turdimetov,Teen,2000,52.85,70,80,-85,80,53,M,,Raw,B,80,
5,A. Erkinuly,Teen,2002,52.6,75,-80,-80,75,53,M,,Raw,B,75,
6,Dias Shakerkhan,Teen,2003,51.9,70,-75,-75,70,53,M,,Raw,B,70,
7,M. Osin,Teen,2002,52.95,50,55,60,60,53,M,,Raw,B,60,
8,M. Kakharmanguly,Teen,2005,52,40,45,-50,45,53,M,,Raw,B,45,
9,A. Kuraev,Teen,2003,52,40,-50,-50,40,53,M,,Raw,B,40,
1,Furkat Shamuratov,Juniors,1996,52.8,105,112.5,115,115,53,M,,Raw,B,115,
2,E. Baymagambetov,Juniors,1995,50,87.5,100,105,105,53,M,,Raw,B,105,
3,T. Niyazov,Juniors,1996,52.4,70,80,85,85,53,M,,Raw,B,85,
4,I. Sinyak,Juniors,1997,53,70,80,-85,80,53,M,,Raw,B,80,
5,G. Ignatenko,Juniors,1998,51.6,50,60,65,65,53,M,,Raw,B,65,
1,N. Zhazimov,Teen,2000,58.95,110,120,122.5,122.5,59,M,,Raw,B,122.5,
2,A. Orynbasarov,Teen,2001,56.1,95,100,-105,100,59,M,,Raw,B,100,
3,I. Zaitov,Teen,2002,58.15,80,85,87.5,87.5,59,M,,Raw,B,87.5,
4,M. Sultanov,Teen,2001,55.1,70,80,85,85,59,M,,Raw,B,85,
5,B. Gorenchuk,Teen,2002,57.35,65,77.5,-85,77.5,59,M,,Raw,B,77.5,
6,I. Musaev,Teen,2000,59,70,-77.5,77.5,77.5,59,M,,Raw,B,77.5,
7,I. Limorenko,Teen,2000,58.6,70,72.5,75,75,59,M,,Raw,B,75,
8,Abdurakhman Abdurashidov,Teen,2003,58.2,50,60,70,70,59,M,,Raw,B,70,
1,Farkhad Kanalbekov,Juniors,1996,59,130,135,140,140,59,M,,Raw,B,140,
2,Abdulaziz Sait,Juniors,1995,59,120,125,137.5,137.5,59,M,,Raw,B,137.5,
3,Sergey Shishkin,Juniors,1999,59,105,112.5,117.5,117.5,59,M,,Raw,B,117.5,
4,D. Orunbaev,Juniors,1996,59,105,110,115,115,59,M,,Raw,B,115,
5,N. Beysen,Juniors,1997,58.9,105,110,115,115,59,M,,Raw,B,115,
6,S. Ulabaev,Juniors,1999,58.2,110,-115,-115,110,59,M,,Raw,B,110,
7,D. Manchenko,Juniors,1999,59,100,107.5,-110,107.5,59,M,,Raw,B,107.5,
1,Andrey Shpitser,Open,1986,58.9,145,150,155,155,59,M,,Raw,B,155,
2,S. Aliev,Open,1990,57.75,107.5,115,120,120,59,M,,Raw,B,120,
3,N. Belogortsev,Open,1994,58,105,-110,-110,105,59,M,,Raw,B,105,
4,E. Novodilov,Open,1991,58.65,-85,85,100,100,59,M,,Raw,B,100,
5,O. Baleev,Open,1990,57.75,80,-90,90,90,59,M,,Raw,B,90,
DQ,M. Gorlov,Open,1989,58.7,-120,-120,-120,,59,M,,Raw,B,,
1,Vladislav Morozov,Teen,2001,65.8,130,137.5,142.5,142.5,66,M,,Raw,B,142.5,
2,T. Baekenov,Teen,2000,65.4,130,135,140,140,66,M,,Raw,B,140,
3,D. Kotenev,Teen,2000,65.8,120,130,-137.5,130,66,M,,Raw,B,130,
4,M. Tairov,Teen,2002,65.25,-90,100,-110,100,66,M,,Raw,B,100,
5,M. Zhutko,Teen,2000,66,95,100,-105,100,66,M,,Raw,B,100,
6,R. Smayl,Teen,2001,60.9,72.5,77.5,-85,77.5,66,M,,Raw,B,77.5,
7,A. Akniyaz,Teen,2001,65.75,70,75,-80,75,66,M,,Raw,B,75,
1,Ilya Kirillovskiy,Juniors,1996,65.85,147.5,152.5,157.5,157.5,66,M,,Raw,B,157.5,
2,A. Makhmudov,Juniors,1995,65.05,135,145,155,155,66,M,,Raw,B,155,
3,Dmitriy Chebanov,Juniors,1999,62.55,140,147.5,-155,147.5,66,M,,Raw,B,147.5,
4,A. Sapakbaev,Juniors,1995,65.3,130,137.5,147.5,147.5,66,M,,Raw,B,147.5,
5,K. Dzhimma,Juniors,1998,65.5,120,127.5,-130,127.5,66,M,,Raw,B,127.5,
6,D. Syrgabaev,Juniors,1998,65.9,115,125,-130,125,66,M,,Raw,B,125,
7,T. Khasarov,Juniors,1997,65.4,105,110,-112.5,110,66,M,,Raw,B,110,
8,R. Katykhov,Juniors,1999,64.75,100,105,-110,105,66,M,,Raw,B,105,
1,Eldos Yermakhanov,Open,1990,66,170,175,177.5,177.5,66,M,,Raw,B,177.5,
2,Abdulkarim Karaman,Open,1994,61.75,165,170,175,175,66,M,,Raw,B,175,
3,Elnur Khailyamov,Open,1994,63.75,-155,-155,155,155,66,M,,Raw,B,155,
4,S. Bekseit,Open,1998,64.85,145,150,-157.5,150,66,M,,Raw,B,150,
5,Danis Amirov,Open,1993,65.95,150,-155,-155,150,66,M,,Raw,B,150,
6,Zhaslan Donanov,Open,1992,65.95,120,125,130,130,66,M,,Raw,B,130,
7,D. Kim,Open,2002,66,120,130,-140,130,66,M,,Raw,B,130,
8,A. Gritsaev,Open,1988,64.9,110,115,-130,115,66,M,,Raw,B,115,
9,Elmurad Nuriddinov,Open,1993,62.4,80,87.5,-92.5,87.5,66,M,,Raw,B,87.5,
1,R. Anarbaev,Masters 2,1963,64.35,-47.5,47.5,50,50,66,M,,Raw,B,50,
1,Zh. Abdrakhmanov,Masters 3,1951,65.6,80,-90,-90,80,66,M,,Raw,B,80,
1,Talipbek Alzhanov,Masters 4,1942,66,75,82.5,85,85,66,M,,Raw,B,85,
1,Kozhakhmet Zhaltaev,Teen,2000,73.75,160,165,170,170,74,M,,Raw,B,170,
2,Nikita Kabyldinov,Teen,2000,73.45,160,165,-170,165,74,M,,Raw,B,165,
3,Sib Aliev,Teen,2001,68.25,95,105,110,110,74,M,,Raw,B,110,
4,A. Dzholbasbaev,Teen,2001,69.6,95,100,-107.5,100,74,M,,Raw,B,100,
5,M. Krukhmalev,Teen,2002,74,85,90,-95,90,74,M,,Raw,B,90,
6,Z. Mukhamedaliev,Teen,2001,68.2,70,77.5,82.5,82.5,74,M,,Raw,B,82.5,
7,M. Ibaydula,Teen,2000,71.5,60,70,80,80,74,M,,Raw,B,80,
DQ,A. Skrinnik,Teen,2000,71.95,-130,,,,74,M,,Raw,B,,
1,A. Kim,Juniors,1996,72.4,-160,162.5,170,170,74,M,,Raw,B,170,
2,Kuanyshbay Tulegenov,Juniors,1998,70.65,150,155,160,160,74,M,,Raw,B,160,
3,Sharkhrizat Zhakypbekov,Juniors,1997,74,147.5,155,-162.5,155,74,M,,Raw,B,155,
4,S. Grossu,Juniors,1997,70.8,140,147.5,-155,147.5,74,M,,Raw,B,147.5,
5,R. Mukailov,Juniors,1995,72.6,-145,-145,145,145,74,M,,Raw,B,145,
6,E. Akhmetov,Juniors,1999,74,-130,130,-145,130,74,M,,Raw,B,130,
7,A. Zhandilda,Juniors,1995,73.9,-120,120,130,130,74,M,,Raw,B,130,
8,I. Volgushev,Juniors,1999,73.95,100,107.5,115,115,74,M,,Raw,B,115,
9,Ya. Pluzhnikov,Juniors,1999,73.2,100,107.5,112.5,112.5,74,M,,Raw,B,112.5,
10,T. Zholdybay,Juniors,1999,70.2,100,107.5,-112.5,107.5,74,M,,Raw,B,107.5,
11,R. Myshlyanov,Juniors,1999,72.75,-95,95,105,105,74,M,,Raw,B,105,
1,Almaz Ospanov,Open,1978,73.65,162.5,167.5,172.5,172.5,74,M,,Raw,B,172.5,
2,R. Gazizov,Open,1987,73.2,160,165,167.5,167.5,74,M,,Raw,B,167.5,
3,Konstantin Turko,Open,1985,73.95,162.5,167.5,-170,167.5,74,M,,Raw,B,167.5,
4,Zh. Nuryshev,Open,1985,73.8,155,165,-172.5,165,74,M,,Raw,B,165,
5,S. Ivanov,Open,1993,73.5,145,152.5,-157.5,152.5,74,M,,Raw,B,152.5,
6,S. Menshenin,Open,1992,73.4,140,145,147.5,147.5,74,M,,Raw,B,147.5,
5,A. Satanov,Open,1983,73.45,-145,-145,145,145,74,M,,Raw,B,145,
7,D. Kim,Open,2002,71.2,125,135,145,145,74,M,,Raw,B,145,
9,M. Dyadik,Open,1987,73.4,-145,-145,145,145,74,M,,Raw,B,145,
10,R. Mashgutov,Open,1989,71.4,100,110,120,120,74,M,,Raw,B,120,
11,V. Kovtun,Open,1990,70.4,100,105,115,115,74,M,,Raw,B,115,
12,G. Akopyan,Open,1994,72.5,90,100,105,105,74,M,,Raw,B,105,
13,V. Akhmediyanov,Open,1990,73.4,75,80,95,95,74,M,,Raw,B,95,
1,A. Angipov,Masters 3,1950,69.1,77.5,82.5,85,85,74,M,,Raw,B,85,
1,Ayubkhan Absattarov,Teen,2000,82.1,140,147.5,152.5,152.5,83,M,,Raw,B,152.5,
2,Roman Nentsinskiy,Teen,2000,81.95,145,150,-155,150,83,M,,Raw,B,150,
3,D. Kabyldin,Teen,2002,82.1,140,150,-155,150,83,M,,Raw,B,150,
4,O. Esbolat,Teen,2001,82.35,130,-135,-135,130,83,M,,Raw,B,130,
5,D. Matveev,Teen,2000,77.6,117.5,122.5,-125,122.5,83,M,,Raw,B,122.5,
6,Zh. Satbay,Teen,2000,81.6,95,105,-112.5,105,83,M,,Raw,B,105,
7,U. Bayniyazov,Teen,2000,82.5,90,95,-100,95,83,M,,Raw,B,95,
8,A. Yuldashev,Teen,2001,80.4,75,80,85,85,83,M,,Raw,B,85,
9,A. Abduzhaparov,Teen,2001,82,70,80,-90,80,83,M,,Raw,B,80,
10,A. Kaimov,Teen,2002,81.2,60,-70,70,70,83,M,,Raw,B,70,
1,Zh. Shaukatov,Juniors,1998,82.85,162.5,172.5,177.5,177.5,83,M,,Raw,B,177.5,19
2,S. Levenchuk,Juniors,1998,80.2,160,-165,175,175,83,M,,Raw,B,175,
3,Danil Saponov,Juniors,1997,81.95,145,155,160,160,83,M,,Raw,B,160,
4,D. Podebida,Juniors,1995,80.45,130,-142.5,-142.5,130,83,M,,Raw,B,130,
5,M. Kamariddin,Juniors,1996,81.2,120,-127.5,127.5,127.5,83,M,,Raw,B,127.5,
6,A. Legalov,Juniors,1998,78.9,-110,110,-120,110,83,M,,Raw,B,110,
7,D. Lysenko,Juniors,1997,80.6,90,100,,100,83,M,,Raw,B,100,
8,A. Tulegenov,Juniors,1998,82.5,90,97.5,-105,97.5,83,M,,Raw,B,97.5,
9,Sh. Kairzhanov,Juniors,1997,80.4,90,95,-100,95,83,M,,Raw,B,95,
10,B. Smailov,Juniors,1998,82.4,80,85,90,90,83,M,,Raw,B,90,
11,D. Chirikov,Juniors,1995,81.4,70,80,-90,80,83,M,,Raw,B,80,
1,Vyacheslav Tsoy,Open,1984,83,200,205,206,206,83,M,,Raw,B,206,
2,Alexander Suprunkov,Open,1987,82.25,195,200,205,205,83,M,,Raw,B,205,
3,Kirill Tezichev,Open,1997,82.6,195,-200,-202.5,195,83,M,,Raw,B,195,
4,Valeriy Kuzhakhmetov,Open,1988,83,180,187.5,-192.5,187.5,83,M,,Raw,B,187.5,
5,V. Gadzhibekov,Open,1988,82.1,185,-195,-195,185,83,M,,Raw,B,185,
6,A. Mirzin,Open,1985,82.7,175,182.5,-185,182.5,83,M,,Raw,B,182.5,
7,I. Pak,Open,1990,82.9,167.5,-175,-175,167.5,83,M,,Raw,B,167.5,
8,M. Yakovenko,Open,1993,79.6,155,160,-162.5,160,83,M,,Raw,B,160,
9,S. Satybaldiev,Open,1993,82.4,145,152.5,-160,152.5,83,M,,Raw,B,152.5,
10,A. Zholmukhambetov,Open,1980,80.3,150,-155,-155,150,83,M,,Raw,B,150,
11,N. Kuznetsov,Open,1991,82.15,150,-155,-155,150,83,M,,Raw,B,150,
12,A. Ismailov,Open,1980,82.95,150,-160,-160,150,83,M,,Raw,B,150,
13,U. Ashuraliev,Open,1983,83,140,150,-160,150,83,M,,Raw,B,150,
14,D. Zhumabay,Open,1992,82.8,130,145,-160,145,83,M,,Raw,B,145,
15,K. Suleymenov,Open,1981,83,120,132.5,-150,132.5,83,M,,Raw,B,132.5,
16,Temirbek Yunuskhodzhaev,Open,1998,78.7,90,100,-110,100,83,M,,Raw,B,100,
1,G. Rakhimgaziev,Masters 1,1973,82.9,127.5,135,142.5,142.5,83,M,,Raw,B,142.5,
2,Sh. Sadvakasov,Masters 1,1969,81.75,125,132.5,-142.5,132.5,83,M,,Raw,B,132.5,
3,D. Kozhakhmetov,Masters 1,1975,81.8,105,112.5,-117.5,112.5,83,M,,Raw,B,112.5,
1,Vladimir Shkirman,Masters 2,1964,82.7,105,110,115,115,83,M,,Raw,B,115,
2,S. Fattakhov,Masters 2,1963,80.25,90,100,-112.5,100,83,M,,Raw,B,100,
1,Daribay Ospanov,Masters 3,1949,80.8,90,100,105,105,83,M,,Raw,B,105,
2,K. Umbetalin,Masters 3,1958,79.6,90,100,102.5,102.5,83,M,,Raw,B,102.5,
3,A. Iristaev,Masters 3,1954,82,55,60,-65,60,83,M,,Raw,B,60,
1,B. Nugmanov,Masters 4,1943,82.35,80,82.5,90,90,83,M,,Raw,B,90,
1,R. Valiullin,Teen,2000,92.95,130,137.5,145,145,93,M,,Raw,B,145,
2,R. Lukutin,Teen,2000,88.45,120,130,-137.5,130,93,M,,Raw,B,130,
3,E. Mamedov,Teen,2002,83.9,100,107.5,112.5,112.5,93,M,,Raw,B,112.5,
4,Y. Auelbekov,Teen,2000,84.2,102.5,105,-107.5,105,93,M,,Raw,B,105,
5,R. Namazov,Teen,2000,88.2,100,105,-110,105,93,M,,Raw,B,105,
6,Ya. Dobryndiev,Teen,2001,87.25,80,90,-100,90,93,M,,Raw,B,90,
1,Z. Askarov,Juniors,1996,89.7,160,165,175,175,93,M,,Raw,B,175,
2,A. Tursunov,Juniors,1996,92.25,157.5,162.5,-170,162.5,93,M,,Raw,B,162.5,
3,R. Kuntuganov,Juniors,1997,93,142.5,150,155,155,93,M,,Raw,B,155,
4,D. Sultanmurat,Juniors,1996,89.1,140,145,152.5,152.5,93,M,,Raw,B,152.5,
5,Zh. Erganzuly,Juniors,1998,85.85,135,140,-145,140,93,M,,Raw,B,140,
6,A. Alshabaev,Juniors,1996,83.1,-120,120,125,125,93,M,,Raw,B,125,
7,Islam Irasaliev,Juniors,1999,85.3,-110,125,-140,125,93,M,,Raw,B,125,
8,I. Magomadov,Juniors,1998,86.8,110,115,122.5,122.5,93,M,,Raw,B,122.5,
9,N. Zhankuatov,Juniors,1996,89.1,112.5,120,-130,120,93,M,,Raw,B,120,
10,B. Shayzadaev,Juniors,1998,90.25,80,92.5,97.5,97.5,93,M,,Raw,B,97.5,
1,Baurzhan Musaev,Open,1986,92.8,197.5,205,207.5,207.5,93,M,,Raw,B,207.5,
2,E. Kolbasenko,Open,1994,92.4,195,202.5,-205,202.5,93,M,,Raw,B,202.5,
3,I. Gorevanov,Open,1996,91,-190,190,-195,190,93,M,,Raw,B,190,
4,M. Samtsov,Open,1990,92.4,190,-200,-200,190,93,M,,Raw,B,190,
5,S. Igorin,Open,1987,92.7,190,-195,-197.5,190,93,M,,Raw,B,190,
6,Alexey Lukhmenev,Open,1989,93,190,-195,-195,190,93,M,,Raw,B,190,
7,P. Kuznetsov,Open,1976,90.8,175,180,185,185,93,M,,Raw,B,185,
8,D. Martus,Open,1995,91.9,165,175,180,180,93,M,,Raw,B,180,
9,Sergey Menshenin,Open,1964,92.25,170,177.5,-185,177.5,93,M,,Raw,B,177.5,
10,M. Mukanov,Open,1988,92.1,165,175,-182.5,175,93,M,,Raw,B,175,
11,D. Bumagin,Open,1988,92.5,175,-182.5,-182.5,175,93,M,,Raw,B,175,
12,S. Chinibekov,Open,1986,93,170,175,-180,175,93,M,,Raw,B,175,
13,V. Bukin,Open,1977,90.7,165,-167.5,-167.5,165,93,M,,Raw,B,165,
14,V. Petrenko,Open,1985,92.7,150,-160,160,160,93,M,,Raw,B,160,
15,A. Maksutov,Open,1987,90.6,155,-165,-165,155,93,M,,Raw,B,155,
16,M. Amaev,Open,1993,91.3,145,-155,155,155,93,M,,Raw,B,155,
17,I. Kuzmenko,Open,1993,91,140,150,-169,150,93,M,,Raw,B,150,
18,B. Khalilov,Open,1994,92,140,-150,-160,140,93,M,,Raw,B,140,
19,N. Ershov,Open,1989,91,130,-140,-140,130,93,M,,Raw,B,130,
DQ,V. Nizov,Open,1988,92.3,-175,-175,-175,,93,M,,Raw,B,,
1,A. Tsurkan,Masters 1,1976,86.25,110,117.5,-125,117.5,93,M,,Raw,B,117.5,
1,R. Sagitov,Masters 2,1962,89.75,105,112.5,115,115,93,M,,Raw,B,115,
2,Rustamkhan Turdibaev,Masters 2,1957,83.9,100,105,112.5,112.5,93,M,,Raw,B,112.5,
3,B. Kuraev,Masters 2,1961,89.7,90,95,,95,93,M,,Raw,B,95,
1,V. Zhukov,Masters 3,1956,89.1,110,115,-117.5,115,93,M,,Raw,B,115,
2,A. Babin,Masters 3,1952,83.3,90,100,-110,100,93,M,,Raw,B,100,
1,K. Turlubaev,Masters 4,1948,90.15,110,-115,-115,110,93,M,,Raw,B,110,
1,A. Gryazev,Teen,2000,103.5,157.5,167.5,-171,167.5,105,M,,Raw,B,167.5,
2,T. Nurlanov,Teen,2002,96.3,95,100,105,105,105,M,,Raw,B,105,
3,Zh. Aziev,Teen,2000,94.5,90,95,-100,95,105,M,,Raw,B,95,
1,A. Li #1,Juniors,1999,102.3,140,145,-147.5,145,105,M,,Raw,B,145,
2,S. Korneev,Juniors,1999,101.4,125,135,-140,135,105,M,,Raw,B,135,
3,Zh. Akhmetov,Juniors,1998,104.5,105,127.5,-137.5,127.5,105,M,,Raw,B,127.5,
4,Fedor Aryutkin,Juniors,1995,104.5,-100,105,115,115,105,M,,Raw,B,115,
5,V. Yaschenko,Juniors,1997,95.9,100,-105,-105,100,105,M,,Raw,B,100,
6,Zh. Akhmetov,Juniors,1998,99.9,90,100,-110,100,105,M,,Raw,B,100,
DQ,A. Erik,Juniors,1997,97.6,-75,-85,-90,,105,M,,Raw,B,,
1,Dmitriy Li,Open,1991,104.6,225,230,236.5,236.5,105,M,,Raw,B,236.5,
2,Denis Rybka,Open,1985,104.7,222.5,230,-236.5,230,105,M,,Raw,B,230,
3,Evgeniy Parshin,Open,1995,101,200,-207.5,207.5,207.5,105,M,,Raw,B,207.5,
4,D. Shelomentsev,Open,1982,101.4,180,185,190,190,105,M,,Raw,B,190,
5,Vyacheslav Starkov,Open,1987,101.05,170,180,185,185,105,M,,Raw,B,185,
6,N. Khalmetov,Open,1986,101.1,170,180,-190,180,105,M,,Raw,B,180,
7,A. Yakovlev,Open,1990,103.8,150,160,170,170,105,M,,Raw,B,170,
8,V. Shulyakov,Open,1967,104,140,150,160,160,105,M,,Raw,B,160,
DQ,I. Matenov,Open,1983,104.2,-180,-180,-190,,105,M,,Raw,B,,
1,Yaroslav Chayka,Masters 1,1973,103.25,185,192.5,-200,192.5,105,M,Ярослав Чайка,Raw,B,192.5,
2,T. Omarov,Masters 1,1975,104.6,155,160,167.5,167.5,105,M,,Raw,B,167.5,
1,M. Mirzametov,Masters 2,1965,95.45,105,115,120,120,105,M,,Raw,B,120,
1,Zh. Orynbasarov,Masters 3,1955,101,130,135,140,140,105,M,,Raw,B,140,
2,A. Chursin,Masters 3,1953,104.5,110,120,122.5,122.5,105,M,,Raw,B,122.5,
3,Yu. Aparin,Masters 3,1954,104.8,112.5,117.5,120,120,105,M,,Raw,B,120,
1,V. Sasin,Teen,2000,116.3,140,147.5,152.5,152.5,120,M,,Raw,B,152.5,
2,B. Isakh,Teen,2001,114.95,100,105,110,110,120,M,,Raw,B,110,
3,Maksim Dyakov,Teen,2001,115.65,85,90,-100,90,120,M,,Raw,B,90,
1,V. Yaschenko,Juniors,1997,108.6,150,157.5,162.5,162.5,120,M,,Raw,B,162.5,
2,Islam Karabaev,Juniors,1998,113.75,142.5,152.5,-165,152.5,120,M,,Raw,B,152.5,
3,V. Alekhin,Juniors,1998,108,125,132.5,140,140,120,M,,Raw,B,140,
1,M. Yavorovich,Open,1980,117.8,205,215,220,220,120,M,,Raw,B,220,
2,Roman Pokrovskiy,Open,1986,113.9,205,210,215,215,120,M,,Raw,B,215,
3,D. Tashanov,Open,1984,115.15,202.5,212.5,-217.5,212.5,120,M,,Raw,B,212.5,
4,Sh. Saitov,Open,1984,108.95,202.5,210,-215,210,120,M,,Raw,B,210,
5,Vitaliy Khimyak,Open,1974,117.8,210,-220,-220,210,120,M,,Raw,B,210,
6,Roman Pischaev,Open,1989,110,-200,200,-205,200,120,M,,Raw,B,200,
7,R. Tazhenov,Open,1987,119.1,180,190,-200,190,120,M,,Raw,B,190,
DQ,A. Pshenbaev,Open,1992,117.8,-200,-200,-200,,120,M,,Raw,B,,
1,Igor Kalyamin,Masters 1,1973,106.6,180,-185,-190,180,120,M,,Raw,B,180,
2,Zh. Bitkozov,Masters 1,1973,109.85,140,-150,150,150,120,M,,Raw,B,150,
1,Ulugbek Ermetov,Masters 2,1959,108.8,150,157.5,165,165,120,M,,Raw,B,165,
1,Sultan Khadzhimetov,Teen,2001,120.2,105,115,125,125,120+,M,,Raw,B,125,
2,A. Altaybaev,Teen,2003,122,80,-90,100,100,120+,M,,Raw,B,100,
3,V. Osipenko,Teen,2001,121.6,70,80,-90,80,120+,M,,Raw,B,80,
1,A. Kharchenko,Juniors,1997,120.7,150,157.5,-162.5,157.5,120+,M,,Raw,B,157.5,
2,V. Bevz,Juniors,1996,120.2,125,135,-142.5,135,120+,M,,Raw,B,135,
3,A. Minkin,Juniors,1996,122.6,125,-132.5,-132.5,125,120+,M,,Raw,B,125,
1,Ruslan Tolcheev,Open,1983,130.8,255,260,-265,260,120+,M,,Raw,B,260,
2,A. Chuprikov,Open,1983,135.3,215,222.5,230,230,120+,M,,Raw,B,230,
3,Aidar Koshkarov,Open,1976,141,220,-230,-232.5,220,120+,M,,Raw,B,220,
4,Vitaly Khan,Open,1984,135,210,-220,-220,210,120+,M,,Raw,B,210,
1,A. Khakimov,Masters 1,1972,120.1,160,170,-180,170,120+,M,,Raw,B,170,
1,Igor Lachko,Masters 2,1968,120.55,140,150,155,155,120+,M,,Raw,B,155,
1,Vladimir Babichev,Masters 3,1949,125.4,100,-122.5,-122.5,100,120+,M,,Raw,B,100,
1,A. Tsaplina,Teen,2002,39.7,35,40,45,45,40,F,,Raw,B,45,
2,T. Prusova,Teen,2002,39.56,35,40,42.5,42.5,40,F,,Raw,B,42.5,
3,A. Kabieva,Teen,2003,36.5,30,-35,35,35,40,F,,Raw,B,35,
4,A. Lapina,Teen,2002,39.1,20,-25,30,30,40,F,,Raw,B,30,
1,E. Krasnyuk,Teen,2004,41.8,35,-37.5,37.5,37.5,43,F,,Raw,B,37.5,
2,V. Ivanova,Teen,2005,41.55,27.5,32.5,-35,32.5,43,F,,Raw,B,32.5,
3,G. Avazbagieva,Teen,2002,40.6,25,30,-32.5,30,43,F,,Raw,B,30,
4,M. Baygazieva,Teen,2000,42.7,25,30,-32.5,30,43,F,,Raw,B,30,
1,D. Seyitkazymova,Juniors,1998,43,35,40,45,45,43,F,,Raw,B,45,
2,K. Chirvon,Juniors,1999,42.5,30,35,40,40,43,F,,Raw,B,40,
3,Dobrelya,Juniors,1998,41.6,30,35,-40,35,43,F,,Raw,B,35,
1,M. Zhumabay,Teen,2004,46.8,50,55,-60,55,47,F,,Raw,B,55,
2,Zh. Kadyrova,Teen,1999,47,45,50,55,55,47,F,,Raw,B,55,
3,M. Gritsenko,Teen,2001,46.8,45,-50,50,50,47,F,,Raw,B,50,
1,K. Atymtay,Juniors,1997,46.5,20,30,40,40,47,F,,Raw,B,40,
2,Z. Ospanova,Juniors,1998,46.7,30,-35,35,35,47,F,,Raw,B,35,
3,M. Karman,Juniors,1996,46.1,30,-35,-40,30,47,F,,Raw,B,30,
1,Asiya Orazbekova,Open,1987,46.3,65,70,72.5,72.5,47,F,,Raw,B,72.5,
2,N. Askar,Open,2003,46.3,45,-50,55,55,47,F,,Raw,B,55,
3,V. Starostina,Open,2002,43.2,45,50,-52.5,50,47,F,,Raw,B,50,
4,T. Akhmerova,Open,1989,46.8,40,-45,45,45,47,F,,Raw,B,45,
5,Yu. Kozhevnikova,Open,1992,45.3,30,35,-40,35,47,F,,Raw,B,35,
1,Aliya Kishkimbaeva,Teen,2000,51.95,65,72.5,77.5,77.5,52,F,,Raw,B,77.5,
2,Kristina Popova,Teen,1999,49.3,65,70,75,75,52,F,,Raw,B,75,
3,A. Doskul,Teen,2003,51.35,55,60,65,65,52,F,,Raw,B,65,
4,Almira Arslanova,Teen,2000,51.9,50,-52.5,-52.5,50,52,F,,Raw,B,50,
5,A. Arzieva,Teen,2005,51.3,37.5,40,45,45,52,F,,Raw,B,45,
1,A. Solopova,Juniors,1998,51,-50,50,-55,50,52,F,,Raw,B,50,
2,T. Orumbaeva,Juniors,1999,51.6,40,45,-50,45,52,F,,Raw,B,45,
3,L. Trukha,Juniors,1998,50.4,30,-35,-35,30,52,F,,Raw,B,30,
1,Aliya Tolegenova,Open,1996,51.4,70,75,80,80,52,F,,Raw,B,80,
2,Vlada Stazayeva,Open,1998,50.2,50,55,-60,55,52,F,,Raw,B,55,
3,Zarina Batyrzhanova,Open,1995,51.2,45,-50,50,50,52,F,,Raw,B,50,
4,O. Otradnykh,Open,1989,50.4,45,-50,-50,45,52,F,,Raw,B,45,
5,D. Egorova,Open,1995,49.6,35,40,-45,40,52,F,,Raw,B,40,
6,K. Voronina,Open,1991,51.7,25,-30,35,35,52,F,,Raw,B,35,
1,B. Koshanova,Masters 2,1960,50.7,40,-50,-50,40,52,F,,Raw,B,40,
1,O. Ledyukova,Teen,2001,56,-65,65,67.5,67.5,57,F,,Raw,B,67.5,
2,A. Gladkova,Teen,2001,57,-60,60,-67.5,60,57,F,,Raw,B,60,
3,R. Bille,Teen,2002,56.1,-55,55,-57.5,55,57,F,,Raw,B,55,
4,V. Khlobysheva,Teen,2002,56.4,45,-55,-55,45,57,F,,Raw,B,45,
1,A. Nikoforova,Juniors,1996,56.15,40,47.5,-50,47.5,57,F,,Raw,B,47.5,
2,R. Abdrakhmanova,Juniors,1995,56.1,40,-45,45,45,57,F,,Raw,B,45,
3,T. Malaya,Juniors,1997,55.4,35,40,-45,40,57,F,,Raw,B,40,
1,Mariya Timoshina,Open,1984,57,95,-97.5,97.5,97.5,57,F,,Raw,B,97.5,
2,Saniya Omarkhanova,Open,1999,55.5,67.5,72.5,75,75,57,F,,Raw,B,75,
3,O. Kurysheva,Open,1967,56.95,60,65,70,70,57,F,,Raw,B,70,
4,Liana Tazeeva,Open,1991,53.7,60,65,67.5,67.5,57,F,,Raw,B,67.5,
5,Anastasiya Kolesnikova,Open,1985,53.5,50,52.5,,52.5,57,F,,Raw,B,52.5,
1,A. Zhumanova,Masters 1,1970,56,45,47.5,50,50,57,F,,Raw,B,50,
1,Taisiya Dyachenko,Teen,2000,63,90,97.5,102.5,102.5,63,F,,Raw,B,102.5,
2,D. Dastanova,Teen,2000,59.5,50,57.5,-60,57.5,63,F,,Raw,B,57.5,
3,A. Soboleva,Teen,2002,62.2,45,-52.5,-52.5,45,63,F,,Raw,B,45,
4,M. Vasilyeva,Teen,2004,59.65,-30,30,35,35,63,F,,Raw,B,35,
1,V. Kochina,Juniors,1998,62.2,60,-65,65,65,63,F,,Raw,B,65,
2,Z. Shinbolotova,Juniors,1997,60.7,50,55,57.5,57.5,63,F,,Raw,B,57.5,
3,Zh. Orazali,Juniors,1999,62.9,47.5,52.5,57.5,57.5,63,F,,Raw,B,57.5,
4,Z. Safarova,Juniors,1996,59.1,40,47.5,-52.5,47.5,63,F,,Raw,B,47.5,
5,S. Aubakir,Juniors,1997,61.5,35,-37.5,-37.5,35,63,F,,Raw,B,35,
1,Anastasiya Zhurbina,Open,1999,61.9,95,102.5,110,110,63,F,,Raw,B,110,
2,Dinara Abduraimova,Open,1993,62.5,60,65,-67.5,65,63,F,,Raw,B,65,
3,Aleksandra Baymbetova,Open,1992,63,50,60,-65,60,63,F,,Raw,B,60,
4,M Pomytkina,Open,1990,61.5,40,45,55,55,63,F,,Raw,B,55,
5,M. Khamitova,Open,1984,60.5,35,40,-50,40,63,F,,Raw,B,40,
1,Asel Nurkenova,Teen,2000,68.35,75,80,85,85,72,F,,Raw,B,85,
2,T. Barashok,Teen,2001,69.3,60,-65,-65,60,72,F,,Raw,B,60,
3,Anna Ivannikova,Teen,2000,70.45,47.5,52.5,-55,52.5,72,F,,Raw,B,52.5,
4,Zh. Moldalin,Teen,2001,71.9,45,47.5,-55,47.5,72,F,,Raw,B,47.5,
1,S. Rybalko,Juniors,1996,64.5,60,65,70,70,72,F,,Raw,B,70,
2,K. Erezhepova,Juniors,1998,65.1,37.5,-42.5,-42.5,37.5,72,F,,Raw,B,37.5,
3,K. Makazhanova,Juniors,1997,70.6,25,-30,35,35,72,F,,Raw,B,35,
1,Xeniya Khan,Open,1987,71.85,125,130,135,135,72,F,,Raw,B,135,
2,Yekaterina Kryukova,Open,1985,71.6,110,117.5,120,120,72,F,,Raw,B,120,
3,E. Drushka,Open,1983,68.9,75,80,82.5,82.5,72,F,,Raw,B,82.5,
4,U. Talasova,Open,1989,70.4,60,65,-75,65,72,F,,Raw,B,65,
5,N. Makarova,Open,1992,71.6,50,55,60,60,72,F,,Raw,B,60,
1,I. Abdyrova,Teen,2001,82.1,60,-65,65,65,84,F,,Raw,B,65,
2,Anna Pshenichnova,Teen,2001,84,60,-65,-65,60,84,F,,Raw,B,60,
3,E. Skvortsova,Teen,2001,74.9,50,52.5,-55,52.5,84,F,,Raw,B,52.5,
4,E. Shlyund,Teen,2000,75.15,47.5,50,-52.5,50,84,F,,Raw,B,50,
1,Alevtina Nikolaeva,Juniors,1998,82.8,65,75,80,80,84,F,,Raw,B,80,
2,Natalya Beresneva,Juniors,1997,73,50,57.5,-65,57.5,84,F,,Raw,B,57.5,
3,D. Akhmetova,Juniors,1996,80.4,40,45,-55,45,84,F,,Raw,B,45,
1,Regina Meier,Open,1999,84,-110,110,117.5,117.5,84,F,,Raw,B,117.5,
2,Zh. Kableeva,Open,1992,73.1,105,110,115,115,84,F,,Raw,B,115,
3,Zoya Kuznetsova,Open,1989,83.9,85,90,-92.5,90,84,F,,Raw,B,90,
4,N. Kislitsina,Open,1976,83.8,-80,80,85,85,84,F,,Raw,B,85,
5,L. Milovanova,Open,1985,74,70,75,-80,75,84,F,,Raw,B,75,
1,R. Zagirova,Teen,2004,86.7,65,70,75,75,84+,F,,Raw,B,75,
2,D. Lopatnikova,Teen,2004,88.45,45,50,-55,50,84+,F,,Raw,B,50,
3,K. Abdykhalykova,Teen,2001,97.45,45,50,-52.5,50,84+,F,,Raw,B,50,
4,T. Kovaleva,Teen,2003,84.7,30,-40,45,45,84+,F,,Raw,B,45,
5,R. Khaliulina,Teen,2002,100.4,30,-35,-40,30,84+,F,,Raw,B,30,
1,A. Myshkova,Juniors,1995,133.8,52.5,57.5,62.5,62.5,84+,F,,Raw,B,62.5,
2,L. Galesa,Juniors,1996,86.4,45,50,-55,50,84+,F,,Raw,B,50,
3,K. Tereshina,Juniors,1995,89.7,40,45,-47.5,45,84+,F,,Raw,B,45,
1,Xeniya Okatenko,Open,1994,110,125,132.5,140,140,84+,F,,Raw,B,140,
2,Aziza Abduraimova,Open,1989,93.1,115,-120,120,120,84+,F,,Raw,B,120,
3,Diana Malykhina,Open,2003,103.45,75,80,90,90,84+,F,,Raw,B,90,
4,Marina Altaybayeva,Open,1973,91,50,60,70,70,84+,F,,Raw,B,70,
1,A. Shtrosherer,Masters 1,1970,106.6,72.5,77.5,82.5,82.5,84+,F,,Raw,B,82.5,
1,Y. Kamal,Teen,2003,47.7,80,85,90,90,48,M,,Single-ply,B,90,
2,Timur Askerov,Teen,2004,48,-85,85,87.5,87.5,48,M,,Single-ply,B,87.5,
3,M. Sadykov,Teen,2002,47.35,70,-80,-85,70,48,M,,Single-ply,B,70,
4,A. Ospanov,Teen,2004,34.6,-45,-45,45,45,48,M,,Single-ply,B,45,
5,R. Nimanbaev,Teen,2002,47,-30,40,-45,40,48,M,,Single-ply,B,40,
1,Sh. Elzhanov,Teen,2001,53,115,120,125,125,53,M,,Single-ply,B,125,
2,A. Teleuov,Teen,2001,52.7,-105,105,115,115,53,M,,Single-ply,B,115,
3,Islambek Kanashov,Teen,2002,51.7,95,100,105,105,53,M,,Single-ply,B,105,
DQ,A. Marchenko,Teen,2003,51.9,-90,-90,-90,,53,M,,Single-ply,B,,
1,Shyngys Kuatbaev,Juniors,1998,52.85,115,122.5,130,130,53,M,,Single-ply,B,130,
2,E. Baymagambetov,Juniors,1995,50.6,110,-115,115,115,53,M,,Single-ply,B,115,
3,R. Kipko,Juniors,1996,52.1,80,90,95,95,53,M,,Single-ply,B,95,
4,A. Khudzhamberdiev,Juniors,1998,51.2,60,70,80,80,53,M,,Single-ply,B,80,
5,D. Alaev,Juniors,1997,50.8,60,65,-80,65,53,M,,Single-ply,B,65,
1,K. Kuraev,Teen,2003,56.7,75,107.5,112.5,112.5,59,M,,Single-ply,B,112.5,
2,Sh. Yuldashev,Teen,2000,57,80,90,100,100,59,M,,Single-ply,B,100,
3,Zh. Yulchibaev,Teen,2001,58.7,70,80,97.5,97.5,59,M,,Single-ply,B,97.5,
4,D. Antaybek,Teen,2003,58,75,85,95,95,59,M,,Single-ply,B,95,
5,R. Mamedov,Teen,2003,58.4,70,80,90,90,59,M,,Single-ply,B,90,
6,M. Sultanov,Teen,2001,56.6,60,-65,-65,60,59,M,,Single-ply,B,60,
7,N. Kairzhan,Teen,2002,58.6,50,-55,-55,50,59,M,,Single-ply,B,50,
1,Farkhad Kanalbekov,Juniors,1996,58.45,160,170,-175,170,59,M,,Single-ply,B,170,
2,Abdulaziz Sait,Juniors,1995,58.9,160,-172.5,-175,160,59,M,,Single-ply,B,160,
3,Sergey Shishkin,Juniors,1999,59,140,-150,-150,140,59,M,,Single-ply,B,140,
4,Zh. Kalzhanov,Juniors,1998,58.6,125,-135,135,135,59,M,,Single-ply,B,135,
5,R. Dzhalmurziev,Juniors,1998,58.15,-125,125,-135,125,59,M,,Single-ply,B,125,
6,Zh. Satybaldy,Juniors,1999,58.7,110,-120,120,120,59,M,,Single-ply,B,120,
7,K. Kipko,Juniors,1995,57.3,80,90,95,95,59,M,,Single-ply,B,95,
1,E. Kokanov,Open,1994,58.7,120,125,-135,125,59,M,,Single-ply,B,125,
2,M. Rasulov,Open,2003,58.75,105,110,-127.5,110,59,M,,Single-ply,B,110,
3,D. Brulevich,Open,2003,54.2,90,95,100,100,59,M,,Single-ply,B,100,
4,Yu. Abakumov,Open,1984,57.6,75,80,90,90,59,M,,Single-ply,B,90,
5,K. Bogov,Open,1990,56.8,75,80,-90,80,59,M,,Single-ply,B,80,
6,R. Kulumbaev,Open,1998,58.9,55,65,70,70,59,M,,Single-ply,B,70,
7,A. Bzhenov,Open,1999,56.1,55,60,-70,60,59,M,,Single-ply,B,60,
1,Vladislav Morozov,Teen,2001,63.85,-150,155,157.5,157.5,66,M,,Single-ply,B,157.5,
2,T. Baekenov,Teen,2000,65.8,150,-155,157.5,157.5,66,M,,Single-ply,B,157.5,
3,S. Abdykhalykov,Teen,2000,65.35,115,125,135,135,66,M,,Single-ply,B,135,
4,Sh. Atazhanov,Teen,2002,65.8,90,100,110,110,66,M,,Single-ply,B,110,
5,S. Zhumagulov,Teen,2000,63.8,70,80,85,85,66,M,,Single-ply,B,85,
6,B. Kuzmin,Teen,2001,60.8,65,75,80,80,66,M,,Single-ply,B,80,
1,A. Makhmudov,Juniors,1995,65.6,200,210,,210,66,M,,Single-ply,B,210,
2,Ilya Kirillovskiy,Juniors,1996,65.8,170,175,182.5,182.5,66,M,,Single-ply,B,182.5,
3,Dmitriy Chebanov,Juniors,1999,61.95,160,170,-180,170,66,M,,Single-ply,B,170,
4,D. Syrgabaev,Juniors,1998,65.7,150,-155,-155,150,66,M,,Single-ply,B,150,
5,Sh. Irisdavletov,Juniors,1998,66,140,-147.5,-155,140,66,M,,Single-ply,B,140,
6,S. Temirkhan,Juniors,1999,65.8,130,137.5,-145,137.5,66,M,,Single-ply,B,137.5,
7,B. Safronov,Juniors,1995,61.5,80,90,95,95,66,M,,Single-ply,B,95,
1,Eldos Yermakhanov,Open,1990,65.85,215,222.5,230,230,66,M,,Single-ply,B,230,
2,Abdulkarim Karaman,Open,1994,61.75,205,212.5,217.5,217.5,66,M,,Single-ply,B,217.5,
3,E. Khaylyamov,Open,1984,62.15,190,200,-215,200,66,M,,Single-ply,B,200,
4,I. Payzakhmatov,Open,2002,63.25,65,75,90,90,66,M,,Single-ply,B,90,
5,K. Ushakov,Open,1989,62.8,60,65,75,75,66,M,,Single-ply,B,75,
6,Yu. Chernov,Open,1996,65.9,50,60,-70,60,66,M,,Single-ply,B,60,
7,M. Fedotkin,Open,1986,62.7,45,50,55,55,66,M,,Single-ply,B,55,
8,R. Zhakin,Open,1994,60.8,45,50,-55,50,66,M,,Single-ply,B,50,
1,Kozhakhmet Zhaltaev,Teen,2000,74,195,205,211,211,74,M,,Single-ply,B,211,
2,Sh. Yuldashev,Teen,2000,66.75,115,125,-130,125,74,M,,Single-ply,B,125,
3,A. Alimov,Teen,2002,69.8,70,80,85,85,74,M,,Single-ply,B,85,
4,K. Lopatnikov,Teen,2001,73.1,60,70,80,80,74,M,,Single-ply,B,80,
5,Sh. Ergeshov,Teen,2000,72,60,70,-80,70,74,M,,Single-ply,B,70,
6,V. Gerasimenko,Teen,2001,73.5,45,50,60,60,74,M,,Single-ply,B,60,
1,Kuanyshbay Tulegenov,Juniors,1998,70.9,200,210,215,215,74,M,,Single-ply,B,215,
2,Bakytbek Turetaev,Juniors,1996,73.35,-190,190,-200,190,74,M,,Single-ply,B,190,
3,S. Grossu,Juniors,1997,71.15,-165,165,175,175,74,M,,Single-ply,B,175,
4,Yu. Vyazov,Juniors,1997,72.8,150,160,170,170,74,M,,Single-ply,B,170,
5,B. Akimzhanov,Juniors,1996,70.9,100,110,-115,110,74,M,,Single-ply,B,110,
6,D. Sipanov,Juniors,1997,72.4,85,95,100,100,74,M,,Single-ply,B,100,
1,Andrei Dorokhov,Open,1992,73.5,190,197.5,-202.5,197.5,74,M,,Single-ply,B,197.5,
2,D. Amirova,Open,1983,66.85,185,190,-197.5,190,74,M,,Single-ply,B,190,
3,Almaz Ospanov,Open,1978,71.55,-180,190,-200,190,74,M,,Single-ply,B,190,
4,Yevgeniy Kim,Open,1984,73.65,170,-175,-175,170,74,M,,Single-ply,B,170,
5,Z. Mukhamedaliev,Open,2001,68.9,80,95,105,105,74,M,,Single-ply,B,105,
6,Vadim Filimonenko,Open,1974,73,80,90,100,100,74,M,,Single-ply,B,100,
7,A. Fedotov,Open,1988,72,80,87.5,97.5,97.5,74,M,,Single-ply,B,97.5,
8,E. Baykenov,Open,1990,73.5,70,75,82.5,82.5,74,M,,Single-ply,B,82.5,
9,V. Kaduchenko,Open,1984,69.8,65,70,75,75,74,M,,Single-ply,B,75,
1,Zh. Shaukatov,Juniors,1998,80,180,190,200.5,200.5,83,M,,Single-ply,B,200.5,
2,Ayubkhan Absattarov,Teen,2000,82.9,180,190,-200,190,83,M,,Single-ply,B,190,
3,N. Shakirov,Teen,2000,79.15,140,150,152.5,152.5,83,M,,Single-ply,B,152.5,
4,Y. Auelbekov,Teen,2000,82.8,140,145,-155,145,83,M,,Single-ply,B,145,
5,Timur Temirshikov,Teen,2001,80.15,115,125,130,130,83,M,,Single-ply,B,130,
1,Gafurzhan Abdurakhmanov,Juniors,1998,81.6,-170,170,177.5,177.5,83,M,,Single-ply,B,177.5,
2,Ya. Yazovskiy,Juniors,1998,81.45,160,170,175,175,83,M,,Single-ply,B,175,
3,Islam Irasaliev,Juniors,1999,83,130,140,-172.5,140,83,M,,Single-ply,B,140,
4,Abylay Kulbaev,Juniors,1998,82,120,135,-145,135,83,M,,Single-ply,B,135,
5,Kh. Tashkhodzhaev,Juniors,1999,83,100,110,120,120,83,M,,Single-ply,B,120,
1,Askar Shokhanov,Open,1983,83,290,300,,300,83,M,,Single-ply,B,300,
2,Talgat Tlenbaev,Open,1990,83,215,222.5,240,240,83,M,,Single-ply,B,240,
3,D. Alekseev,Open,1988,76.4,180,200,210,210,83,M,Д Алексеев,Single-ply,B,210,
4,S. Satybladiev,Open,1983,82.25,185,-195,195,195,83,M,,Single-ply,B,195,
5,N. Kuznetsov,Open,1991,82.6,185,195,-202.5,195,83,M,,Single-ply,B,195,
6,Daniyarbek Khabibullaev,Open,1999,82.15,125,135,140,140,83,M,,Single-ply,B,140,
DQ,A. Kamashev,Open,1987,82,-180,-182.5,-182.5,,83,M,,Single-ply,B,,
1,Serikkazi Azilkhanov,Masters 2,1963,82.55,130,140,150,150,83,M,,Single-ply,B,150,
2,S. Fattakhov,Masters 2,1963,80.25,115,-125,-130,115,83,M,,Single-ply,B,115,
1,R. Valiullin,Teen,2000,92.95,170,180,-190,180,93,M,,Single-ply,B,180,
2,M. Israilov,Teen,2000,83.85,140,150,-155,150,93,M,,Single-ply,B,150,
3,O. Esbolat,Teen,2001,84.3,-150,150,-155,150,93,M,,Single-ply,B,150,
DQ,R. Lukutin,Teen,2000,89.9,-140,-140,-152.5,,93,M,,Single-ply,B,,
1,R. Kuntuganov,Juniors,1997,92.6,-200,200,-210,200,93,M,,Single-ply,B,200,
2,Temur Irismetov,Juniors,1998,92.7,-190,195,-200,195,93,M,,Single-ply,B,195,
3,Ruzmatkhan Kadyrov,Juniors,1998,85.45,165,-175,-175,165,93,M,,Single-ply,B,165,
4,N. Kovalev,Open,1993,92.2,140,150,155,155,93,M,,Single-ply,B,155,
5,P. Khadimatov,Juniors,1999,92.7,130,137.5,142.5,142.5,93,M,,Single-ply,B,142.5,
6,O. Baktiev,Juniors,1995,91.7,120,130,140,140,93,M,,Single-ply,B,140,
7,D. Abduraimov,Juniors,1995,92,110,120,130,130,93,M,,Single-ply,B,130,
8,R. Sayfutdinov,Juniors,1998,93,130,-145,-145,130,93,M,,Single-ply,B,130,
DQ,A. Tursunov,Juniors,1996,92.15,-190,-190,-200,,93,M,,Single-ply,B,,
1,Rustam Sadykov,Open,1985,92.2,245,252.5,-260,252.5,93,M,,Single-ply,B,252.5,
2,N. Salamatov,Open,1986,89.8,-210,210,215,215,93,M,,Single-ply,B,215,
3,Mukhan Medeubaev,Open,1987,90.35,-195,195,-212.5,195,93,M,,Single-ply,B,195,
4,R. Safin,Open,1983,92.6,190,-200,-210,190,93,M,,Single-ply,B,190,
5,Gennadiy Melnik,Open,1967,92,160,170,180,180,93,M,,Single-ply,B,180,
6,E. Likhachev,Open,1993,93,155,165,170,170,93,M,,Single-ply,B,170,
7,Viktor Timorskiy,Open,1996,89,140,155,-165,155,93,M,,Single-ply,B,155,
DQ,Vyacheslav Tsoy,Open,1984,86.6,-250,-250,-255,,93,M,,Single-ply,B,,
1,A. Tuganbaev,Masters 1,1974,90,-180,180,,180,93,M,,Single-ply,B,180,
1,Vladimir Shkirman,Masters 2,1964,83.1,-120,120,130,130,93,M,,Single-ply,B,130,
1,T. Nurlanov,Teen,2002,94.6,140,145,-150,145,105,M,,Single-ply,B,145,
2,Azizbek Amanov,Teen,2001,93.5,120,130,-140,130,105,M,,Single-ply,B,130,
3,Zh. Aziev,Teen,2000,95.8,85,-100,100,100,105,M,,Single-ply,B,100,
1,M. Ondagan,Juniors,1995,105,240,-250,-250,240,105,M,,Single-ply,B,240,
2,S. Sulemanov,Juniors,1995,95.15,200,210,-220,210,105,M,,Single-ply,B,210,
3,I. Magomadov,Juniors,1998,98.55,150,160,170,170,105,M,,Single-ply,B,170,
1,Sergei Vaigant,Open,1989,104.95,320,-330,-330,320,105,M,,Single-ply,B,320,
2,S. Salavatov,Open,1980,103.2,220,230,-250,230,105,M,,Single-ply,B,230,
3,G. Kairbaev,Open,1987,94.4,180,200,-230,200,105,M,,Single-ply,B,200,
4,E. Sultankul,Open,1982,102.65,150,160,170,170,105,M,,Single-ply,B,170,
5,D. Zhakipov,Open,1995,104.2,105,110,115,115,105,M,,Single-ply,B,115,
6,K. Bukarbekov,Open,1994,100.6,80,90,95,95,105,M,,Single-ply,B,95,
7,M. Yakimov,Open,1987,102.6,75,80,95,95,105,M,,Single-ply,B,95,
1,Sultan Khadzhimetov,Teen,2001,110.1,130,140,-155,140,120,M,,Single-ply,B,140,
2,A. Altaybaev,Teen,2003,106,50,60,62.5,62.5,120,M,,Single-ply,B,62.5,
3,R. Abishev,Teen,2001,115.3,50,55,-60,55,120,M,,Single-ply,B,55,
1,Islam Karabaev,Juniors,1998,114.2,180,-192.5,-192.5,180,120,M,,Single-ply,B,180,
2,Zh. Akhmetov,Juniors,1998,112.65,110,120,130,130,120,M,,Single-ply,B,130,
DQ,Takhirzhan Abdurakhmanov,Juniors,1998,105.5,-190,-190,-190,,120,M,,Single-ply,B,,
1,A. Suyunshaliev,Open,1989,109.35,325,332.5,-341,332.5,120,M,,Single-ply,B,332.5,
2,Sh. Saitov,Open,1984,109.6,255,265,-270,265,120,M,,Single-ply,B,265,
3,Roman Pischaev,Open,1989,109.5,220,232.5,242.5,242.5,120,M,,Single-ply,B,242.5,
4,R. Mukhamadiev,Open,1987,113.8,-232.5,232.5,240,240,120,M,,Single-ply,B,240,
5,Zh. Pernebekov,Open,1970,109.8,160,170,215,215,120,M,,Single-ply,B,215,
6,D. Ermolenko,Open,1987,105.3,160,165,-170,165,120,M,,Single-ply,B,165,
7,Zh. Akhmetov,Open,1998,105.35,120,-130,-150,120,120,M,,Single-ply,B,120,
1,Ulugbek Ermetov,Masters 2,1959,108.7,-200,200,-215,200,120,M,,Single-ply,B,200,
1,A. Minkin,Juniors,1996,124.2,140,150,,150,120+,M,,Single-ply,B,150,
2,K. Drobysh,Teen,2001,121.6,110,115,120,120,120+,M,,Single-ply,B,120,
3,S. Kosanov,Teen,1999,124.7,95,100,-105,100,120+,M,,Single-ply,B,100,
1,V. Kim,Juniors,1997,121,170,180,190,190,120+,M,,Single-ply,B,190,
2,Zhomart Ospanov,Juniors,1996,123.7,160,170,185,185,120+,M,,Single-ply,B,185,
3,D. Urinbaev,Juniors,1995,130,120,125,130,130,120+,M,,Single-ply,B,130,
1,Aidar Koshkarov,Open,1976,130.7,-272.2,-275,282.5,282.5,120+,M,,Single-ply,B,282.5,
2,Andrei Altaybaev,Open,1972,125.3,-270,-280,280,280,120+,M,,Single-ply,B,280,
3,Evgeniy Goldobov,Open,1987,123,210,-220,-220,210,120+,M,,Single-ply,B,210,
4,E. Evdokimov,Open,1980,132,210,-220,-220,210,120+,M,,Single-ply,B,210,
5,S. Kashunin,Open,1986,125.3,150,160,170,170,120+,M,,Single-ply,B,170,
6,S. Kurmanbaev,Open,1984,123.5,140,150,160,160,120+,M,,Single-ply,B,160,
1,A. Safonova,Teen,2004,40,35,40,45,45,40,F,,Single-ply,B,45,
2,V. Mezina,Teen,2002,39.2,35,40,42.5,42.5,40,F,,Single-ply,B,42.5,
3,A. Kovrizhnykh,Teen,2002,38.4,20,30,40,40,40,F,,Single-ply,B,40,
4,T. Kasaeva,Teen,2001,39.7,35,40,-45,40,40,F,,Single-ply,B,40,
5,O. Geyer,Teen,2003,39.8,25,-30,-30,25,40,F,,Single-ply,B,25,
1,E. Krasnyuk,Teen,2004,42.1,50,-55,55,55,43,F,,Single-ply,B,55,
2,Ya. Romanova,Teen,2002,43,50,52.5,-55,52.5,43,F,,Single-ply,B,52.5,
3,N. Vorobyeva,Teen,2001,43,50,-55,-55,50,43,F,,Single-ply,B,50,
4,K. Abilmanova,Teen,2000,42.4,40,45,47.5,47.5,43,F,,Single-ply,B,47.5,
1,N. Sharipova,Juniors,1998,43,40,45,50,50,43,F,,Single-ply,B,50,
2,T. Letuta,Juniors,1997,42.1,30,35,40,40,43,F,,Single-ply,B,40,
3,V. Protsik,Juniors,1998,42.7,25,35,-40,35,43,F,,Single-ply,B,35,
1,N. Askar,Teen,2003,46.53,-27.5,27.5,30,30,47,F,,Single-ply,B,30,
2,M. Zhumabay,Teen,2004,46.98,-25,-25,25,25,47,F,,Single-ply,B,25,
3,G. Kusmanova,Teen,2002,46.1,20,-25,-25,20,47,F,,Single-ply,B,20,
1,A. Suvorova,Juniors,1997,46.7,40,45,55,55,47,F,,Single-ply,B,55,
2,L. Boyko,Juniors,1998,45.3,30,35,-40,35,47,F,,Single-ply,B,35,
3,O. Baryshkina,Juniors,1997,46.7,30,-35,-35,30,47,F,,Single-ply,B,30,
1,Asiya Orazbekova,Open,1987,46.1,75,82.5,87.5,87.5,47,F,,Single-ply,B,87.5,
2,A. Kutuzova,Open,2004,45.2,50,60,67.5,67.5,47,F,,Single-ply,B,67.5,
3,A. Butenko,Open,2003,46.55,55,60,65,65,47,F,,Single-ply,B,65,
4,F. Zakalyuzhnaya,Open,1995,45.8,50,55,62.5,62.5,47,F,,Single-ply,B,62.5,
5,N. Bobrysh,Open,1997,46.7,40,45,50,50,47,F,,Single-ply,B,50,
6,O. Toropova,Open,1984,46.1,40,45,-50,45,47,F,,Single-ply,B,45,
7,G. Aubakirova,Open,1991,45.1,30,35,-45,35,47,F,,Single-ply,B,35,
1,Kristina Popova,Teen,1999,50.4,80,87.5,95,95,52,F,,Single-ply,B,95,
2,Almira Arslanova,Teen,2000,51.95,50,60,65,65,52,F,,Single-ply,B,65,
3,G. Temerbaeva,Teen,2002,50.6,50,-55,55,55,52,F,,Single-ply,B,55,
4,B. Shukurbaeva,Teen,2002,51.4,40,45,-50,45,52,F,,Single-ply,B,45,
5,T. Matveeva,Teen,2001,50.9,40,-45,-50,40,52,F,,Single-ply,B,40,
6,G. Voroshiloa,Teen,2002,51,30,35,40,40,52,F,,Single-ply,B,40,
1,A. Solopova,Juniors,1998,51.25,50,-55,-55,50,52,F,,Single-ply,B,50,
2,Z. Akhmuldinova,Juniors,1997,51.6,30,35,45,45,52,F,,Single-ply,B,45,
3,O. Tarasova,Juniors,1996,50.2,30,40,-45,40,52,F,,Single-ply,B,40,
1,Anastasiya Kolesnikova,Open,1985,52,60,65,-70,65,52,F,,Single-ply,B,65,
2,Vlada Stazayeva,Open,1998,50,55,60,-65,60,52,F,,Single-ply,B,60,
3,L. Mukhina,Open,1981,51.6,55,-60,-60,55,52,F,,Single-ply,B,55,
4,L. Radionova,Open,1996,51.4,40,45,-55,45,52,F,,Single-ply,B,45,
5,K. Dyusekova,Open,1995,50.7,30,35,-45,35,52,F,,Single-ply,B,35,
6,E. Dvornikova,Open,1985,52,30,-35,35,35,52,F,,Single-ply,B,35,
1,B. Koshanova,Masters 2,1960,51.05,45,-55,-55,45,52,F,,Single-ply,B,45,
1,Aliya Kishkimbaeva,Teen,2000,55.7,85,90,95,95,57,F,,Single-ply,B,95,
2,A. Zhumabaeva,Teen,2000,56.45,80,85,-92.5,85,57,F,,Single-ply,B,85,
3,O. Ledyukova,Teen,2001,56,-80,80,-82.5,80,57,F,,Single-ply,B,80,
4,Diana Nuriddinova,Teen,2001,54.1,45,-50,-52.5,45,57,F,,Single-ply,B,45,
1,L. Gaitova,Juniors,1997,51.2,50,55,60,60,52,F,,Single-ply,B,60,
2,D. Zanozdrya,Juniors,1999,54.5,45,50,55,55,57,F,,Single-ply,B,55,
3,Sh. Kabulova,Juniors,1996,54.6,30,40,45,45,57,F,,Single-ply,B,45,
1,Aliya Tolegenova,Open,1996,53.2,100,110,120,120,57,F,,Single-ply,B,120,
2,Olga Cheremisina,Open,1988,54.7,82.5,90,-97.5,90,57,F,,Single-ply,B,90,
3,M. Isaeva,Open,1985,54.2,55,62.5,-80,62.5,57,F,,Single-ply,B,62.5,
4,Veronika Broner,Open,1989,52.5,50,55,-62.5,55,57,F,,Single-ply,B,55,
5,A. Ovcharova,Open,1992,56.4,-50,52.5,-55,52.5,57,F,,Single-ply,B,52.5,
6,I. Sheremet,Open,1986,53.1,-45,50,-60,50,57,F,,Single-ply,B,50,
7,Z. Drobotova,Open,1984,54.2,30,35,-45,35,57,F,,Single-ply,B,35,
1,Tamiris Sovetova,Teen,2002,61.15,105,110,115,115,63,F,,Single-ply,B,115,
2,R. Bille,Teen,2002,57.05,60,65,67.5,67.5,63,F,,Single-ply,B,67.5,
3,E. Rashidova,Teen,2001,59.4,45,50,55,55,63,F,,Single-ply,B,55,
4,O. Mironova,Teen,2000,62.1,40,45,50,50,63,F,,Single-ply,B,50,
1,V. Kochina,Juniors,1998,62.15,80,85,-87.5,85,63,F,,Single-ply,B,85,
2,Z. Shinbolotova,Juniors,1997,61,-75,75,80,80,63,F,,Single-ply,B,80,
3,Zh. Orazali,Juniors,1999,62.1,60,65,-77.5,65,63,F,,Single-ply,B,65,
4,Z. Safarova,Juniors,1996,58.8,50,-57.5,-57.5,50,63,F,,Single-ply,B,50,
1,Anastasiya Zhurbina,Open,1999,61.85,135,140,145,145,63,F,,Single-ply,B,145,
2,O. Kurysheva,Open,1967,57.7,70,80,-85,80,63,F,,Single-ply,B,80,
3,D. Nurridinova,Open,2001,57.1,60,-65,65,65,63,F,,Single-ply,B,65,
4,M. Matusevich,Open,1988,61.85,-62.5,-62.5,62.5,62.5,63,F,,Single-ply,B,62.5,
5,D. Toykhanova,Open,1987,62.15,45,50,-55,50,63,F,,Single-ply,B,50,
6,N. Markova,Open,1987,62.7,35,40,45,45,63,F,,Single-ply,B,45,
1,Asel Nurkenova,Teen,2000,67.95,90,100,107.5,107.5,72,F,,Single-ply,B,107.5,
2,T. Barashok,Teen,2001,68.05,65,70,-75,70,72,F,,Single-ply,B,70,
3,Anna Ivannikova,Teen,2000,70,55,-60,60,60,72,F,,Single-ply,B,60,
1,Tomiris Kornienko,Juniors,1998,69.8,95,-102.5,-110,95,72,F,,Single-ply,B,95,
2,K. Erezhepova,Juniors,1998,65.6,-40,40,-50,40,72,F,,Single-ply,B,40,
3,V. Ostrozhko,Juniors,1997,70.4,30,35,-40,35,72,F,,Single-ply,B,35,
1,Zhadyra Kabieva,Open,1992,71.1,145,152.5,-160,152.5,72,F,,Single-ply,B,152.5,
2,E. Drushka,Open,1983,67.7,105,-110,-110,105,72,F,,Single-ply,B,105,
3,E. Andreeva,Open,1999,69.3,60,70,75,75,72,F,,Single-ply,B,75,
4,E. Bobb,Open,1985,70.5,45,55,60,60,72,F,,Single-ply,B,60,
5,V. Pyatkovskaya,Open,1994,69.8,35,45,50,50,72,F,,Single-ply,B,50,
1,E. Skvortsova,Teen,2001,75.85,65,-67.5,70,70,84,F,,Single-ply,B,70,
2,E. Shlyund,Teen,2000,75.1,50,55,-57.5,55,84,F,,Single-ply,B,55,
3,L. Postovaya,Teen,1999,84,50,-55,-57.5,50,84,F,,Single-ply,B,50,
1,Anastasiya Nesterova,Juniors,1998,78.45,75,82.5,90,90,84,F,,Single-ply,B,90,
2,B. Orazbekova,Juniors,1998,83.4,80,-85,-90,80,84,F,,Single-ply,B,80,
3,E. Milova,Juniors,1997,80.6,65,70,-80,70,84,F,,Single-ply,B,70,
1,Zoya Kuznetsova,Open,1989,83.3,-110,110,-120,110,84,F,,Single-ply,B,110,
2,A. Myzina,Open,2001,75.3,80,90,92.5,92.5,84,F,,Single-ply,B,92.5,
3,L. Milovanova,Open,1985,84.5,80,90,-100,90,84+,F,,Single-ply,B,90,
4,N. Sharipova,Open,1998,77.1,62.5,70,-80,70,84,F,,Single-ply,B,70,
5,E. Klimenko,Open,1986,80.6,40,50,-55,50,84,F,,Single-ply,B,50,
6,E. Kislitsa,Open,1994,81.6,40,45,-50,45,84,F,,Single-ply,B,45,
1,N. Kislitsina,Masters 1,1976,83.65,100,110,-120,110,84,F,,Single-ply,B,110,
1,R. Zagirova,Teen,2004,85.3,65,70,75,75,84+,F,,Single-ply,B,75,
2,Tatyana Skidan,Teen,2000,89.7,60,-65,70,70,84+,F,,Single-ply,B,70,
3,L. Lachugina,Teen,1999,84.6,50,55,-60,55,84+,F,,Single-ply,B,55,
4,K. Temirzhanova,Teen,2000,89.4,50,-55,-55,50,84+,F,,Single-ply,B,50,
5,P. Toimbetova,Teen,1999,84.7,30,40,-47.5,40,84+,F,,Single-ply,B,40,
6,K. Artemenko,Teen,2000,90.7,20,25,30,30,84+,F,,Single-ply,B,30,
1,D. Emelkina,Juniors,1999,84.2,80,90,92.5,92.5,84+,F,,Single-ply,B,92.5,
2,Zarina Batyrzhanova,Juniors,1995,84.1,80,-90,90,90,84+,F,,Single-ply,B,90,
3,V. Chegodaeva,Juniors,1997,85.6,60,70,75,75,84+,F,,Single-ply,B,75,
4,Z. Martynchenko,Juniors,1995,89.4,50,60,65,65,84+,F,,Single-ply,B,65,
5,M. Khokhlova,Juniors,1997,94.5,40,45,55,55,84+,F,,Single-ply,B,55,
6,V. Kozina,Juniors,1999,100.7,40,45,50,50,84+,F,,Single-ply,B,50,
1,Xeniya Okatenko,Open,1994,109.4,-185,190,-200,190,84+,F,,Single-ply,B,190,
2,Regina Meier,Open,1999,85.2,130,140,150,150,84+,F,,Single-ply,B,150,
3,V. Vall,Open,1996,100.7,60,65,70,70,84+,F,,Single-ply,B,70,
4,M. Taylakova,Open,1991,87.6,50,55,60,60,84+,F,,Single-ply,B,60,
5,V. Dzhamanbaeva,Open,1982,84.9,40,50,55,55,84+,F,,Single-ply,B,55,
6,T. Adamova,Open,1987,107.3,40,45,50,50,84+,F,,Single-ply,B,50,
