Division,WeightClassKg,Place,Name,Team,BodyweightKg,Best3SquatKg,Best3BenchKg,Best3DeadliftKg,TotalKg,Equipment,Event,Sex
Boys,51.71,1,DeAndre Limbrick,Jasper,51.71,124.74,70.31,124.74,319.78,Single-ply,SBD,M
Boys,51.71,2,Trevor Greer,Woodville,51.26,124.74,58.97,113.4,297.1,Single-ply,SBD,M
Boys,51.71,3,Keithon Glenn,Jasper,50.8,97.52,61.23,124.74,283.5,Single-ply,SBD,M
Boys,51.71,4,Lucas Collins,Jasper,51.26,83.91,56.7,124.74,265.35,Single-ply,SBD,M
Boys,51.71,5,Dominic Limbrick,Jasper,50.8,83.91,38.56,129.27,251.74,Single-ply,SBD,M
Boys,55.79,1,Payton Samuel,Jasper,55.79,124.74,61.23,142.88,328.85,Single-ply,SBD,M
Boys,55.79,2,Tyler Greer,Woodville,54.43,111.13,58.97,113.4,283.5,Single-ply,SBD,M
Boys,55.79,3,Reggie Shaw,Jasper,54.88,74.84,54.43,124.74,254.01,Single-ply,SBD,M
Boys,55.79,DQ,Jordan Foxworth,Woodville,55.34,,,,,Single-ply,SBD,M
Boys,59.87,1,Issac Causey,Newton,59.42,133.81,70.31,147.42,351.53,Single-ply,SBD,M
Boys,59.87,2,Jordan Lott,Jasper,58.97,113.4,74.84,142.88,331.12,Single-ply,SBD,M
Boys,59.87,3,Garrett Szemborski,Newton,56.25,113.4,63.5,129.27,306.17,Single-ply,SBD,M
Boys,59.87,4,Lane Noble,Newton,57.61,90.72,61.23,124.74,276.69,Single-ply,SBD,M
Boys,59.87,5,Reece Shaw,Woodville,56.7,97.52,,127.01,224.53,Single-ply,SD,M
Boys,67.13,1,Luke Collins,Jasper,62.14,158.76,97.52,174.63,430.91,Single-ply,SBD,M
Boys,67.13,2,Christian Kellum,Newton,63.96,136.08,88.45,165.56,390.09,Single-ply,SBD,M
Boys,67.13,3,Cason Chandler,Jasper,66.22,120.2,86.18,147.42,353.8,Single-ply,SBD,M
Boys,67.13,4,Logan Tullos,Woodville,66.22,104.33,56.7,124.74,285.76,Single-ply,SBD,M
Boys,67.13,5,Jacob Fowler,Newton,62.14,124.74,,158.76,283.5,Single-ply,SD,M
Boys,67.13,6,Mark Tucker,Woodville,62.14,106.59,,151.95,258.55,Single-ply,SD,M
Boys,67.13,7,Bryce Garner,Kirbyville,63.96,74.84,47.63,113.4,235.87,Single-ply,SBD,M
Boys,74.84,1,Jerkarion Simmons,Jasper,71.67,226.8,113.4,249.48,589.67,Single-ply,SBD,M
Boys,74.84,2,Jarius Williams,Woodville,74.39,204.12,90.72,219.99,514.83,Single-ply,SBD,M
Boys,74.84,3,Kristian Paulette,Newton,71.67,183.7,111.13,183.7,478.54,Single-ply,SBD,M
Boys,74.84,4,Kris Drayton,Jasper,73.48,142.88,79.38,183.7,405.97,Single-ply,SBD,M
Boys,74.84,5,Chandler Spivey,Newton,74.39,117.93,68.04,156.49,342.46,Single-ply,SBD,M
Boys,74.84,6,Ladarius Kirkwood,Woodville,74.84,149.69,,183.7,333.39,Single-ply,SD,M
Boys,74.84,7,Brandon Pope,Kirbyville,70.31,106.59,70.31,142.88,319.78,Single-ply,SBD,M
Boys,74.84,8,Chancy Northern,Woodville,73.94,111.13,83.91,124.74,319.78,Single-ply,SBD,M
Boys,74.84,9,Justin St Aubin,Newton,68.49,90.72,70.31,133.81,294.84,Single-ply,SBD,M
Boys,74.84,10,Jacob Litton,Kirbyville,70.31,102.06,56.7,115.67,274.42,Single-ply,SBD,M
Boys,74.84,11,JD Williams,Woodville,70.31,74.84,49.9,120.2,244.94,Single-ply,SBD,M
Boys,74.84,12,M Gosey,Jasper,72.12,90.72,,142.88,233.6,Single-ply,SD,M
Boys,82.1,1,Juvenile Lee,Jasper,81.19,158.76,124.74,192.78,476.27,Single-ply,SBD,M
Boys,82.1,2,Jadarian McGraw,Newton,81.19,161.03,115.67,183.7,460.4,Single-ply,SBD,M
Boys,82.1,3,Chance Harding,Buna,79.83,174.63,92.99,183.7,451.32,Single-ply,SBD,M
Boys,82.1,4,Jarvis Wilson,Jasper,78.47,174.63,92.99,174.63,442.25,Single-ply,SBD,M
Boys,82.1,5,Jamarion Samuel,Newton,80.29,129.27,72.57,156.49,358.34,Single-ply,SBD,M
Boys,82.1,6,Holden Lott,Woodville,80.29,133.81,79.38,136.08,349.27,Single-ply,SBD,M
Boys,82.1,7,Trenton Cooper,Jasper,81.19,111.13,77.11,147.42,335.66,Single-ply,SBD,M
Boys,82.1,8,Chance Button,Woodville,81.65,,63.5,142.88,206.38,Single-ply,BD,M
Boys,89.81,1,DeCorrian Holmes,Jasper,88.9,226.8,124.74,242.67,594.21,Single-ply,SBD,M
Boys,89.81,2,Darwin Barlow,Newton,85.73,192.78,124.74,219.99,537.51,Single-ply,SBD,M
Boys,89.81,3,Deviun Kenebrew,Newton,86.64,163.29,115.67,229.06,508.02,Single-ply,SBD,M
Boys,89.81,4,Brashuan Hubbard,Jasper,86.18,163.29,97.52,183.7,444.52,Single-ply,SBD,M
Boys,89.81,5,Makoyee Franks,Newton,87.09,149.69,90.72,174.63,415.04,Single-ply,SBD,M
Boys,89.81,6,Lawrence Smith,Jasper,88.45,136.08,92.99,167.83,396.89,Single-ply,SBD,M
Boys,89.81,7,Ty Clakley,Newton,88,138.35,81.65,142.88,362.87,Single-ply,SBD,M
Boys,89.81,8,Michael Clark,Newton,85.28,113.4,79.38,147.42,340.19,Single-ply,SBD,M
Boys,89.81,9,Mason Lauderdale,Kirbyville,83.91,63.5,47.63,102.06,213.19,Single-ply,SBD,M
Boys,99.79,1,Jared Ponch,Woodville,99.34,183.7,97.52,181.44,462.66,Single-ply,SBD,M
Boys,99.79,2,Tra'varian Harris,Jasper,97.07,122.47,83.91,154.22,360.61,Single-ply,SBD,M
Boys,109.77,1,Antwaine Hunter,Newton,101.6,226.8,136.08,204.12,566.99,Single-ply,SBD,M
Boys,109.77,2,William Steel,Newton,100.7,188.24,108.86,215.46,512.56,Single-ply,SBD,M
Boys,109.77,3,Patrick Davis,Newton,104.78,204.12,117.93,188.24,510.29,Single-ply,SBD,M
Boys,109.77,4,Glenn Bingham,Buna,104.78,181.44,122.47,172.37,476.27,Single-ply,SBD,M
Boys,109.77,5,Avante Burnham,Newton,100.7,163.29,108.86,183.7,455.86,Single-ply,SBD,M
Boys,109.77,6,Wade Walsh,Woodville,106.14,151.95,104.33,147.42,403.7,Single-ply,SBD,M
Boys,109.77,7,Demond Sargent,Woodville,108.41,142.88,68.04,151.95,362.87,Single-ply,SBD,M
Boys,109.77,8,E Adams,Jasper,105.23,,117.93,165.56,283.5,Single-ply,BD,M
Boys,124.74,1,Evander Williams,Newton,110.68,249.48,129.27,249.48,628.23,Single-ply,SBD,M
Boys,124.74,2,Trajan Williams,Jasper,113.4,192.78,113.4,233.6,539.77,Single-ply,SBD,M
Boys,124.74,3,McKane Maxwell,Woodville,112.94,183.7,92.99,174.63,451.32,Single-ply,SBD,M
Boys,124.74,4,Jonah Hammaker,Newton,117.93,161.03,111.13,158.76,430.91,Single-ply,SBD,M
Boys,124.74,5,Cade Grey,Woodville,123.38,165.56,99.79,165.56,430.91,Single-ply,SBD,M
Boys,124.74,6,Caiden Walker,Newton,112.94,158.76,81.65,172.37,412.77,Single-ply,SBD,M
Boys,124.74,7,Dylan Reeves,Kirbyville,113.58,142.88,74.84,149.69,367.41,Single-ply,SBD,M
Boys,124.74,8,Ja'keylon Johnson,Jasper,118.39,124.74,86.18,138.35,349.27,Single-ply,SBD,M
Boys,124.74+,1,Yavin Shankle,Newton,136.53,204.12,122.47,213.19,539.77,Single-ply,SBD,M
Boys,124.74+,2,Ryan Jones,Jasper,146.96,204.12,113.4,217.72,535.24,Single-ply,SBD,M
Boys,124.74+,3,Seth Fabela,Woodville,133.36,192.78,124.74,188.24,505.76,Single-ply,SBD,M
Boys,124.74+,4,Robert Turpin,Woodville,131.54,204.12,113.4,165.56,483.08,Single-ply,SBD,M
Boys,124.74+,5,Julian Dean,Woodville,133.36,181.44,111.13,174.63,467.2,Single-ply,SBD,M
Boys,124.74+,6,Kaleb Barnett,Jasper,127.91,165.56,97.52,183.7,446.79,Single-ply,SBD,M
