Name,Sex,Event,Equipment,BodyweightKg,WeightClassKg,Division,Squat1Kg,Squat2Kg,Squat3Kg,Best3SquatKg,Bench1Kg,Bench2Kg,Bench3Kg,Best3BenchKg,Deadlift1Kg,Deadlift2Kg,Deadlift3Kg,Best3DeadliftKg,TotalKg,Place
Shelly Hoeffer,F,B,Raw,98.3,90+,M 45-49,,,,,65,72.5,-77.5,72.5,,,,,72.5,1
Vanessa Hearn,F,B,Raw,95,90+,Open,,,,,70,80,-87.5,80,,,,,80,1
TJ Cox,M,B,Raw,86.3,90,T 16-17,,,,,100,105,110,110,,,,,110,1
Justin Kinney,M,B,Raw,64.4,67.5,T 18-19,,,,,102.5,-110,-110,102.5,,,,,102.5,1
Thomas Davis,M,B,Raw,129.6,140,T 18-19,,,,,107.5,117.5,127.5,127.5,,,,,127.5,1
Jared Goldeman,M,B,Raw,85.6,90,Juniors,,,,,147.5,162.5,170,170,,,,,170,1
Cole Saunders,M,B,Raw,101.2,110,Juniors,,,,,170,175,-182.5,175,,,,,175,1
Jeron Roberson,M,B,Raw,59,60,Open,,,,,117.5,-122.5,-122.5,117.5,,,,,117.5,1
William Wilson,M,B,Raw,76.3,82.5,Open,,,,,115,120,125,125,,,,,125,1
Nick Goett,M,B,Raw,89.3,90,Open,,,,,152.5,157.5,162.5,162.5,,,,,162.5,1
Danny Walker,M,B,Raw,109.9,110,Open,,,,,205,-215,-215,205,,,,,205,1
David Krueger,M,B,Raw,108.4,110,Open,,,,,177.5,187.5,,187.5,,,,,187.5,2
Ron Carich,M,B,Raw,107.9,110,Open,,,,,130,137.5,142.5,142.5,,,,,142.5,3
Ricky Fryman,M,B,Raw,81.3,82.5,Sub.,,,,,105,122.5,-130,122.5,,,,,122.5,1
Tom Kurowski,M,B,Raw,89.9,90,M 40-44,,,,,152.5,157.5,160,160,,,,,160,1
Joe Daniels,M,B,Raw,105.7,110,M 40-44,,,,,142.5,-157.5,-157.5,142.5,,,,,142.5,1
Joe Blessman,M,B,Raw,95.7,100,M 45-49,,,,,167.5,175,-177.5,175,,,,,175,1
Terry Cox,M,B,Raw,127.5,140,M 45-49,,,,,187.5,190,-192.5,190,,,,,190,1
John MacBean,M,B,Raw,109.5,110,M 50-54,,,,,185,187.5,-190,187.5,,,,,187.5,1
Nick Frazetta,M,B,Raw,118.6,125,M 50-54,,,,,160,165,172.5,172.5,,,,,172.5,1
Gary Messenger,M,B,Raw,131.2,140,M 50-54,,,,,147.5,160,170,170,,,,,170,1
Victor Patterson,M,B,Raw,179,140+,M 50-54,,,,,197.5,215,-227.5,215,,,,,215,1
Ron Carich,M,B,Raw,107.9,110,M 55-59,,,,,130,137.5,142.5,142.5,,,,,142.5,1
Bill Berry,M,B,Raw,93.5,100,M 70-74,,,,,97.5,102.5,105,105,,,,,105,1
Stephen Webb,M,B,Multi-ply,89.7,90,M 40-44,,,,,-222.5,-222.5,-222.5,,,,,,,DQ
Mark Chelino,M,B,Multi-ply,107,110,M 50-54,,,,,215,225,-242.5,225,,,,,225,1
Tim Moon,M,B,Multi-ply,131.5,140,M 50-54,,,,,335,-360,360,360,,,,,360,1
Victor Patterson,M,B,Multi-ply,179,140+,M 50-54,,,,,215,-250,-250,215,,,,,215,1
Cozie Cozine,M,B,Multi-ply,127.5,140,M 55-59,,,,,-190,-190,-195,,,,,,,DQ
Kori Tresenriter,F,SBD,Wraps,54.7,56,Subm,75,82.5,-92.5,82.5,47.5,52.5,-55,52.5,92.5,105,112.5,112.5,247.5,1
Becky Pyszka,F,SBD,Wraps,54.6,56,Open,72.5,80,-85,80,45,-52.5,-52.5,45,115,122.5,130,130,255,1
Allison Hartzell,F,SBD,Wraps,59.7,60,Juniors,-87.5,-95,-100,,-52.5,-52.5,-52.5,,,,,,,DQ
Jean-Ann Burgland,F,SBD,Wraps,61.6,67.5,M 50-54,120,127.5,137.5,137.5,72.5,80,82.5,82.5,127.5,145,-152.5,145,365,1
Jean-Ann Burgland,F,SBD,Wraps,61.6,67.5,Open,120,127.5,137.5,137.5,72.5,80,82.5,82.5,127.5,145,-152.5,145,365,1
Kathleen Humpherys,F,SBD,Wraps,63.3,67.5,Open,70,85,87.5,87.5,52.5,57.5,60,60,85,-92.5,95,95,242.5,2
Randi Lumb,F,SBD,Wraps,80.7,82.5,Juniors,120,-130,-137.5,120,70,-77.5,-80,70,150,165,175,175,365,1
Randi Lumb,F,SBD,Wraps,80.7,82.5,Open,120,-130,-137.5,120,70,-77.5,-80,70,150,165,175,175,365,1
Vanessa Hearn,F,SBD,Wraps,95,90+,Open,130,-135,140,140,70,80,-87.5,80,152.5,167.5,177.5,177.5,397.5,1
Caleb Carpenter,M,SBD,Wraps,73.7,75,T 16-17,145,152.5,-160,152.5,95,-100,-100,95,165,172.5,-185,172.5,420,1
Jacob Scattone,M,SBD,Wraps,79.5,82.5,T 16-17,165,175,182.5,182.5,117.5,-127.5,-127.5,117.5,225,242.5,255,255,555,1
Jacob Yarger,M,SBD,Wraps,86.9,90,T 16-17,-175,175,182.5,182.5,110,120,127.5,127.5,210,227.5,-235,227.5,537.5,1
Jacob Semlow,M,SBD,Wraps,94.2,100,T 16-17,215,222.5,227.5,227.5,132.5,140,-145,140,255,267.5,-272.5,267.5,635,1
Justin Kinney,M,SBD,Wraps,64.4,67.5,T 18-19,125,137.5,-147.5,137.5,102.5,-110,-110,102.5,172.5,185,195,195,435,1
Thomas Davis,M,SBD,Wraps,129.6,140,T 18-19,190,-210,-210,190,107.5,117.5,127.5,127.5,160,172.5,185,185,502.5,1
Jake Stiel,M,SBD,Wraps,78.1,82.5,Juniors,135,150,157.5,157.5,105,112.5,-117.5,112.5,195,210,227.5,227.5,497.5,1
Brad Jenisch,M,SBD,Wraps,88.1,90,Juniors,220,-230,235,235,-140,150,-160,150,215,227.5,242.5,242.5,627.5,1
Ryan Long,M,SBD,Wraps,88.5,90,Juniors,217.5,225,-252.5,225,-102.5,115,125,125,225,240,257.5,257.5,607.5,2
Adam Wasson,M,SBD,Wraps,95.2,100,Juniors,192.5,205,-215,205,140,-147.5,-150,140,-212.5,225,245,245,590,1
Andrew Tucker,M,SBD,Wraps,108,110,Juniors,210,220,230,230,115,127.5,-137.5,127.5,222.5,232.5,-237.5,232.5,590,1
Tyler Calabrese,M,SBD,Wraps,119.7,125,Juniors,250,267.5,280,280,147.5,167.5,-182.5,167.5,245,265,280,280,727.5,1
Ethan Houge,M,SBD,Wraps,124.5,125,Juniors,195,-227.5,,195,155,160,165,165,227.5,-250,,227.5,587.5,2
Andrew Lahood,M,SBD,Wraps,67.2,67.5,Open,157.5,167.5,-177.5,167.5,95,100,-107.5,100,180,190,-200,190,457.5,1
Chris Pencenka,M,SBD,Wraps,82.4,82.5,Open,252.5,-272.5,-272.5,252.5,152.5,-165,165,165,252.5,260,-267.5,260,677.5,1
Aaron Nance,M,SBD,Wraps,89.1,90,Open,195,210,227.5,227.5,150,162.5,170,170,240,255,272.5,272.5,670,1
Matthew Richmond,M,SBD,Wraps,90,90,Open,170,177.5,180,180,152.5,155,-157.5,155,227.5,235,242.5,242.5,577.5,2
Chris Turpin,M,SBD,Wraps,88.1,90,Open,192.5,205,212.5,212.5,125,132.5,-137.5,132.5,205,217.5,227.5,227.5,572.5,3
Sedrick Hay,M,SBD,Wraps,90,90,Open,187.5,192.5,-202.5,192.5,120,125,-140,125,230,235,-245,235,552.5,4
Cort Severns,M,SBD,Wraps,91.2,100,Open,215,227.5,240,240,127.5,135,-147.5,135,237.5,252.5,275,275,650,2
Zach Phillips,M,SBD,Wraps,99.2,100,Open,210,225,235,235,130,140,-145,140,242.5,257.5,272.5,272.5,647.5,3
Tyler Willi,M,SBD,Wraps,98.9,100,Open,210,222.5,232.5,232.5,145,157.5,165,165,220,235,245,245,642.5,4
Dustin McKee,M,SBD,Wraps,96.5,100,Open,-212.5,212.5,220,220,142.5,152.5,-157.5,152.5,225,232.5,245,245,617.5,5
Michael Schaefer,M,SBD,Wraps,99.4,100,Open,185,202.5,-207.5,202.5,125,137.5,142.5,142.5,212.5,235,245,245,590,6
TJ Kerber,M,SBD,Wraps,107.1,110,Guest Lifter,250,-262.5,,250,170,175,-182.5,175,272.5,-282.5,,272.5,697.5,G
Jonathan Minnis,M,SBD,Wraps,104.7,110,Open,205,212.5,227.5,227.5,152.5,160,-167.5,160,250,265,272.5,272.5,660,1
Curt Eaker,M,SBD,Wraps,108.4,110,Open,212.5,227.5,235,235,125,132.5,-140,132.5,217.5,232.5,250,250,617.5,2
Jon McKinstry,M,SBD,Wraps,118.2,125,Open,235,247.5,272.5,272.5,192.5,207.5,-222.5,207.5,292.5,310,322.5,322.5,802.5,1
Zachary Gass,M,SBD,Wraps,122.5,125,Open,250,-272.5,-272.5,250,137.5,-142.5,142.5,142.5,250,-262.5,-262.5,250,642.5,2
Joshua Jeffries,M,SBD,Wraps,122.8,125,Open,185,215,230,230,122.5,132.5,142.5,142.5,185,205,227.5,227.5,600,3
David Zagardo,M,SBD,Wraps,114.1,125,Open,167.5,177.5,190,190,125,-135,-135,125,217.5,245,255,255,570,4
Willard Rosenberg,M,SBD,Wraps,98.4,100,Sub.,182.5,-187.5,-187.5,182.5,137.5,-142.5,-142.5,137.5,160,-165,-165,160,480,1
Jacob Tresenriter,M,SBD,Wraps,108.7,110,Subm.,237.5,250,-260,250,152.5,160,167.5,167.5,227.5,237.5,-250,237.5,655,1
Craig Tokarski,M,SBD,Wraps,130.7,140,M 50-54,282.5,-292.5,-292.5,282.5,182.5,192.5,202.5,202.5,287.5,297.5,310,310,795,1
Bill Berry,M,SBD,Wraps,93.5,100,M 70-74,125,135,-147.5,135,97.5,102.5,105,105,-147.5,147.5,160,160,400,1
Dustin Riley,M,SBD,Multi-ply,85.1,90,T 16-17,-142.5,-155,165,165,105,-110,-110,105,147.5,165,182.5,182.5,452.5,1
James DiNasso,M,SBD,Multi-ply,70.4,75,M 45-49,-140,,,,,,,,,,,,,DQ
Mark Calvert,M,SBD,Multi-ply,81.4,82.5,M 45-49,175,185,192.5,192.5,95,105,-120,105,185,195,205,205,502.5,1
Jake Mansfield,M,SBD,Multi-ply,99.4,100,Open,300,317.5,-327.5,317.5,192.5,202.5,-207.5,202.5,250,265,272.5,272.5,792.5,1
Jason Black,M,SBD,Multi-ply,97.6,100,M 45-49,-267.5,-295,-320,,-205,-210,-210,,,,,,,DQ
Tom Oberle,M,SBD,Multi-ply,133.2,140,M 50-54,240,-272.5,272.5,272.5,105,112.5,145,145,-232.5,232.5,-240,232.5,650,1
